3.9288317,-0.22491089,2.6890807,-3.7489029,0.18497368,-2.5104262,2.074207,1300,1.750448,-0.043053256,2.7130565,0
2.2790942,-0.1440143,1.57869,-2.8496235,0.13952264,-1.9296305,1.583576,1300,1.7449432,-0.0078529872,2.7189063,0
1.0794362,-0.08424923,0.76108255,-1.9490336,0.10077079,-1.3392922,1.0961337,1300,1.7219914,0.052985326,2.7086983,0
0.32967643,-0.04176437,0.24074606,-1.0508306,0.070719891,-0.74131703,0.61794426,1300,1.6219772,0.19845856,2.6378148,0
4.2058238,-0.43459538,3.25268,-3.8179236,0.36445838,-2.8656715,2.1922044,1300,1.7153858,-0.12241492,2.7898633,0
2.5140184,-0.27332897,1.9745916,-2.9482641,0.28183653,-2.2455655,1.6993449,1300,1.716326,-0.095497825,2.8050608,0
1.2585153,-0.15121265,1.0083519,-2.0730021,0.20830582,-1.6181974,1.2080815,1300,1.6898913,-0.068056496,2.8344655,0
0.44159706,-0.063016857,0.35762698,-1.1943759,0.14656823,-0.98367508,0.72065522,1300,1.5276014,-0.085491485,2.9502151,0
8.9288765,0.51259488,7.5405097,-5.4678012,-0.33581329,-4.4422371,3.2548679,1300,1.6626722,0.12238268,2.810628,0
6.4012333,0.35673609,5.480018,-4.6412958,-0.28766884,-3.7989126,2.7604014,1300,1.6850744,0.13594938,2.8117907,0
4.2890684,0.22486133,3.7424525,-3.8060453,-0.2399043,-3.1505431,2.2664083,1300,1.707314,0.16075135,2.8109081,0
2.596493,0.11674136,2.3303518,-2.9631253,-0.19266966,-2.49701,1.7730894,1300,1.7292786,0.21185325,2.8076742,0
1.3270251,0.032086834,1.2463652,-2.1138564,-0.14604783,-1.8380709,1.2811909,1300,1.7489803,0.33868808,2.8047881,0
1890.1569,20.177002,1139.4617,-33.48336,-5.1672435,-19.747339,60.943858,1300,-0.85578595,0.306553,1.0773661,0
4.3954115,-0.29546208,2.9318531,-3.979589,0.24124443,-2.600716,2.1850395,1300,1.76143,-0.070321311,2.6984815,0
2.6316762,-0.18919571,1.7740399,-3.0749235,0.18475309,-2.0290679,1.6940072,1300,1.7582961,-0.040673104,2.703934,0
1.3207325,-0.10952849,0.90443047,-2.1688443,0.13520497,-1.4477865,1.2056418,1300,1.7439808,0.0035332847,2.692098,0
0.46252688,-0.052435171,0.32781338,-1.2646456,0.094805141,-0.85752429,0.72417395,1300,1.6935259,0.07625333,2.6080397,0
4.9515482,-0.024264364,3.9126802,-4.1345358,-0.011024515,-3.1480946,2.3869866,1300,1.7142054,0.044026089,2.7771594,0
3.0998698,-0.030405107,2.4944173,-3.2712099,-0.013196952,-2.5239525,1.8943741,1300,1.7244248,0.078700974,2.7808572,0
1.6812279,-0.037013982,1.3898359,-2.4026656,-0.012736355,-1.8933066,1.4032687,1300,1.726101,0.14908567,2.784045,0
3.3667062,-0.24696497,2.8776966,-3.3732127,0.20755207,-2.7713511,1.9982531,1300,1.6934305,-0.044371595,2.8454524,0
1.8924683,-0.15616382,1.6548394,-2.5225468,0.15675381,-2.1191029,1.504859,1300,1.6910263,-0.0029085112,2.8702413,0
0.8453138,-0.08886134,0.75965435,-1.6651099,0.11389059,-1.4606332,1.0127879,1300,1.6317301,0.069978808,2.9472104,0
11.69629,1.2554682,9.0156547,-6.3383943,-0.69898911,-4.721724,3.6642926,1300,1.692494,0.20200978,2.7475783,0
8.7378925,0.92918559,6.8072186,-5.4935712,-0.60613949,-4.1112803,3.1698021,1300,1.7145091,0.21002487,2.7450958,0
6.2043108,0.64923912,4.9051203,-4.6393937,-0.51381949,-3.4964265,2.6760251,1300,1.7364166,0.22406311,2.7384998,0
4.099788,0.41508551,3.3115426,-3.7776398,-0.42314984,-2.8771381,2.1830501,1300,1.7601541,0.25274655,2.7245625,0
2.4276191,0.22561902,2.0288376,-2.9103171,-0.33524245,-2.252818,1.6913566,1300,1.7911156,0.3196239,2.6945567,0
1704.8149,-74.805092,1279.4667,-26.926453,0.34319854,-15.957944,62.381842,1300,-0.90196788,0.093329992,0.67253018,0
3.7007482,-0.24455341,3.4652553,-3.4773694,0.18809489,-3.1188992,2.1377076,1300,1.6477565,-0.030865084,2.908195,0
2.1667911,-0.16176459,2.075611,-2.6567478,0.14396463,-2.4386267,1.6422329,1300,1.6504877,0.0092304036,2.9440614,0
1.0457814,-0.099459129,1.0277468,-1.8256591,0.10647491,-1.7517662,1.1467533,1300,1.5966273,0.082394985,3.0431656,0
3.9292278,0.10753517,2.6770889,-3.7639206,-0.14417583,-2.474917,2.0730384,1300,1.7767685,0.12805552,2.6597828,0
2.2730992,0.042733583,1.5825758,-2.8603983,-0.11502091,-1.9016143,1.5832814,1300,1.7858233,0.18830547,2.6383266,0
1.068772,-0.0074335841,0.77709582,-1.9572592,-0.085552141,-1.3188835,1.0979455,1300,1.8110759,0.34867965,2.5591119,0
3.7686748,-0.16791723,3.0976042,-3.5819769,0.12245403,-2.8412713,2.0985111,1300,1.6929267,-0.0046281374,2.8173751,0
2.1913736,-0.11451791,1.8361679,-2.7261343,0.091898922,-2.203272,1.6057826,1300,1.6916854,0.037551796,2.837765,0
1.0435659,-0.075068566,0.89558591,-1.8642813,0.066928379,-1.5579221,1.1148699,1300,1.6511958,0.12224748,2.8883625,0
5.7803244,0.26499249,4.0072053,-4.5566119,-0.24238419,-3.0413249,2.5217826,1300,1.7739433,0.13444786,2.6653409,0
3.7261194,0.15473388,2.6297642,-3.6596337,-0.19881373,-2.467243,2.0302484,1300,1.7863437,0.166467,2.6549873,0
2.1210872,0.066009945,1.5413399,-2.7603364,-0.15623114,-1.8850808,1.5407213,1300,1.8051533,0.23876049,2.6201781,0
6.1589659,0.17649765,4.7882645,-4.6197002,-0.16150414,-3.4565379,2.655748,1300,1.7185944,0.093105275,2.7547364,0
4.0647163,0.1022306,3.2136194,-3.7562631,-0.13554161,-2.8410519,2.1628625,1300,1.7334052,0.11954916,2.7544352,0
2.4036584,0.041012236,1.9483108,-2.8872138,-0.10924572,-2.2191084,1.6711795,1300,1.7467015,0.17337307,2.7478245,0
1.1781248,-0.0068829655,0.99566173,-2.0145302,-0.082168613,-1.5904459,1.1820996,1300,1.7581394,0.3075971,2.728581,0
4.4985986,0.038038786,3.6196812,-3.9357405,-0.068901175,-3.0396461,2.2827874,1300,1.7167608,0.076934392,2.7805567,0
2.7458839,0.0061464001,2.2570221,-3.0741845,-0.0584135,-2.4100087,1.7903367,1300,1.7283838,0.11900299,2.7815698,0
1.425261,-0.020040719,1.2107478,-2.2076639,-0.045958998,-1.7740698,1.2996356,1300,1.7317804,0.21264235,2.7812829,0
3.8950589,-0.030980292,3.2968014,-3.632837,-0.010782025,-2.9473238,2.1455253,1300,1.6959697,0.060481711,2.8197164,0
2.2908254,-0.036715771,1.9844496,-2.7829912,-0.011741113,-2.3010295,1.6525656,1300,1.7031838,0.10908437,2.8317193,0
1.1131188,-0.042187968,0.99688503,-1.9269823,-0.0095619426,-1.6482109,1.1612329,1300,1.6848739,0.22065317,2.8637976,0
4.0521372,-0.34217981,4.2374102,-3.5610086,0.25524118,-3.5485982,2.2985429,1300,1.5951586,-0.055581241,2.9851557,0
2.4665403,-0.22869552,2.6415979,-2.7790809,0.19959485,-2.8335923,1.8003588,1300,1.6086577,-0.020114259,3.0277185,0
1.2755636,-0.14144377,1.4049594,-1.9824061,0.15065747,-2.1118418,1.3007001,1300,1.5726736,0.038314841,3.1338238,0
3.9040777,0.017306985,2.8942244,-3.7097974,-0.056128432,-2.6497166,2.0949562,1300,1.7460157,0.08350826,2.7245267,0
2.2700912,-0.0085258609,1.7196261,-2.8256229,-0.046929727,-2.0474086,1.604164,1300,1.7527803,0.13689865,2.7177578,0
1.0788019,-0.029257798,0.84816557,-1.9394405,-0.035580966,-1.4372295,1.1166764,1300,1.7563416,0.2682322,2.68914,0
1712.3156,114.06321,1150.4871,-25.151218,-4.9678173,-22.921556,60.299234,1300,-1.157178,0.14132106,1.2440258,0
3.725099,0.030800208,2.4445384,-3.6780961,-0.071513178,-2.341433,2.006864,1300,1.7815407,0.09665235,2.6470819,0
2.1137898,-0.0016438343,1.4141078,-2.7670917,-0.058075776,-1.7785704,1.5176224,1300,1.7866022,0.15735277,2.6258938,0
0.95777857,-0.027001616,0.66777819,-1.8574856,-0.043020862,-1.2051879,1.033374,1300,1.8085091,0.31823992,2.5350116,0
3.7416842,-0.19884276,3.3064761,-3.5330869,0.1476794,-2.9962816,2.1218788,1300,1.6740125,-0.013409515,2.8640413,0
2.18426,-0.13412265,1.9735269,-2.6952217,0.11201292,-2.334483,1.6277668,1300,1.6769204,0.028461498,2.8896565,0
1.0478545,-0.08581197,0.97309106,-1.849183,0.082330397,-1.6662312,1.134491,1300,1.6350308,0.10975274,2.960506,0
1609.2637,17.927052,1327.3993,-25.367186,-6.2980623,-15.689953,62.216236,1300,-0.86352353,0.37712669,0.57321074,0
1596.4743,14.825487,1319.4167,-25.788447,-6.1088293,-16.237579,61.710587,1300,-0.84374982,0.37260809,0.59569315,0
4.655686,-0.51348503,4.6915463,-3.8341806,0.3808725,-3.6965192,2.4438001,1300,1.5983781,-0.10753144,2.9590271,0
2.9345152,-0.34290869,3.0187988,-3.0482532,0.30236335,-2.9933965,1.9462211,1300,1.6165706,-0.078254779,2.9923167,0
1.609866,-0.20989936,1.6992887,-2.2480183,0.2310414,-2.2835527,1.4477402,1300,1.6026083,-0.037479627,3.0668003,0
0.68900226,-0.11019431,0.73648118,-1.4330439,0.16955086,-1.5664029,0.94723559,1300,1.4440789,0.020894162,3.3117343,0
4.4594336,0.0194343,2.9336656,-4.0200585,-0.051607287,-2.5733182,2.196357,1300,1.7747431,0.06981497,2.659671,0
2.6764979,-0.0045753495,1.787253,-3.1114192,-0.044211621,-2.0107311,1.7060376,1300,1.7775949,0.11309108,2.6520454,0
1.348053,-0.024467356,0.92469744,-2.2025816,-0.034988027,-1.437838,1.2189738,1300,1.7842683,0.21360974,2.606296,0
3.3784792,-0.10618687,2.6036572,-3.4308392,0.068026119,-2.5514841,1.9619698,1300,1.728598,0.026825597,2.7655239,0
1.8819988,-0.077098288,1.4820817,-2.5544453,0.049031616,-1.9336351,1.4709456,1300,1.7275224,0.080463982,2.7703197,0
0.82451392,-0.056283078,0.67125956,-1.6752655,0.035167287,-1.3085785,0.98325683,1300,1.6981711,0.20623273,2.7795554,0
3.3274634,-0.32611877,2.6166687,-3.3948986,0.2962947,-2.5819448,1.9548414,1300,1.7221868,-0.094238641,2.7967403,0
1.8477723,-0.19636461,1.4821253,-2.5229894,0.22409498,-1.9551702,1.4626213,1300,1.7174522,-0.062113361,2.8121039,0
0.80524184,-0.10034225,0.66266479,-1.6465906,0.16178023,-1.3215737,0.97262685,1300,1.6645,-0.028915004,2.8541351,0
8.2146055,-0.40188827,4.8121576,-5.5111976,0.25927424,-3.1831353,2.9359602,1300,1.7906313,-0.073498359,2.6091723,0
5.6898447,-0.28461144,3.3487145,-4.5871212,0.21012964,-2.6691142,2.4434422,1300,1.7912329,-0.057967537,2.6261217,0
3.6280481,-0.19129138,2.1448409,-3.6597348,0.16373851,-2.1445204,1.9521581,1300,1.7867689,-0.034329123,2.6392674,0
2.0302329,-0.12008423,1.2063267,-2.7316389,0.12198956,-1.6074108,1.4629704,1300,1.7772562,0.0031009542,2.6351456,0
0.89600441,-0.068176266,0.53971882,-1.8059691,0.086862495,-1.0569471,0.97834563,1300,1.7671247,0.072225554,2.560114,0
4.9349943,0.0090052776,4.2444597,-4.0759471,-0.042482648,-3.3562937,2.4238907,1300,1.6865054,0.060910048,2.8261025,0
3.1067606,-0.011112145,2.728839,-3.2357346,-0.037730933,-2.7052343,1.9301479,1300,1.7021262,0.096089326,2.8333838,0
1.7005007,-0.028376548,1.540252,-2.3882335,-0.030925008,-2.0481396,1.4373116,1300,1.707536,0.16847899,2.8484826,0
4.6630602,-0.064405367,3.679147,-4.0109608,0.022771033,-3.0525761,2.3160294,1300,1.7113468,0.032714196,2.7787022,0
2.8732959,-0.055332141,2.3083804,-3.1471325,0.013936557,-2.4293571,1.8235346,1300,1.7189072,0.069268687,2.7857476,0
1.5168082,-0.049927277,1.2510116,-2.2781416,0.0082886176,-1.7989701,1.3327184,1300,1.7136252,0.14378278,2.795339,0
7.8790485,0.36853764,6.5393136,-5.1634576,-0.26592387,-4.1173454,3.0442091,1300,1.6833857,0.11080851,2.7982289,0
5.506487,0.24553722,4.6400681,-4.3254519,-0.22611373,-3.4788829,2.5501978,1300,1.7043276,0.12813323,2.797819,0
3.5549212,0.14238696,3.0612501,-3.4796605,-0.18651952,-2.8355895,2.0567702,1300,1.7251531,0.16078974,2.7947583,0
2.0279358,0.058989504,1.8053681,-2.627353,-0.14708857,-2.1870672,1.5643396,1300,1.7459739,0.23147209,2.7878641,0
7.6138024,0.474186,6.8087146,-5.0078861,-0.33544575,-4.2899715,3.0412931,1300,1.6475531,0.13359038,2.8475797,0
5.3129012,0.31922335,4.8294437,-4.1941864,-0.2844288,-3.6263195,2.5464487,1300,1.6722771,0.15140848,2.8496051,0
3.4211898,0.18970696,3.1832295,-3.3712349,-0.23370611,-2.9577489,2.051917,1300,1.6964897,0.18524302,2.8515481,0
1.9431095,0.085423294,1.8725499,-2.5398009,-0.18353347,-2.2841448,1.557872,1300,1.7174048,0.26005599,2.8574199,0
5.1481527,0.15694635,3.8136032,-4.2614679,-0.16492441,-3.0348147,2.4060433,1300,1.7488532,0.11151806,2.7147475,0
3.2375955,0.081888854,2.445662,-3.3800565,-0.13531724,-2.4358282,1.9142827,1300,1.7617684,0.14867292,2.707416,0
1.7686567,0.021649252,1.3790293,-2.495364,-0.10558766,-1.8294898,1.4245611,1300,1.77752,0.23247008,2.6817868,0
1667.1196,59.53035,1162.329,-25.040285,-1.1339235,-15.359826,61.253934,1300,-1.0307591,-0.021149267,0.76631323,0
5.4871511,0.11977926,4.4992723,-4.3229026,-0.1264454,-3.404606,2.5328933,1300,1.6950846,0.08766441,2.7907826,0
3.5377317,0.061704804,2.9548795,-3.4735929,-0.10577683,-2.771825,2.0395854,1300,1.7097412,0.11844845,2.7961168,0
2.0146936,0.014129935,1.7286549,-2.6176152,-0.084355995,-2.1319436,1.5474256,1300,1.718126,0.18264947,2.8014263,0
5.5177813,0.070376287,4.71875,-4.3120173,-0.086945592,-3.5325363,2.5603213,1300,1.6862696,0.071420194,2.8218348,0
3.5712854,0.030009532,3.1147138,-3.4727027,-0.074355106,-2.8827582,2.0665027,1300,1.704203,0.10176085,2.8257717,0
2.0463324,-0.0037431367,1.8369223,-2.6260221,-0.060377135,-2.227507,1.5734633,1300,1.7165463,0.1625599,2.8329556,0
0.94629693,-0.030009807,0.88816985,-1.7732846,-0.04429317,-1.5666273,1.0822029,1300,1.7063664,0.31745844,2.8623186,0
7.0032656,0.34857068,5.0593142,-4.9749191,-0.27500248,-3.4680797,2.7966058,1300,1.7429932,0.12592629,2.7010842,0
4.7356181,0.222404,3.4718213,-4.094719,-0.22979931,-2.8807932,2.3040227,1300,1.756345,0.14757922,2.6992727,0
2.9093763,0.11862244,2.1797569,-3.2096461,-0.18546831,-2.2862352,1.8127286,1300,1.7701272,0.19266071,2.6867505,0
1.5264003,0.036792034,1.1869354,-2.3220758,-0.14197659,-1.6837838,1.3240396,1300,1.7909498,0.30299704,2.6464667,0
1879.9233,-149.72398,1235.9282,-25.45293,2.5306325,-22.634422,63.523647,1300,-1.1925119,0.063273316,1.2095637,0
6.7108062,-0.45744872,4.1764275,-4.95015,0.32409596,-3.0342381,2.6742625,1300,1.7740119,-0.10098025,2.6565586,0
4.4639983,-0.31188422,2.7943267,-4.0364196,0.25876622,-2.492728,2.1820277,1300,1.7739747,-0.081330602,2.6702229,0
2.6748961,-0.19785157,1.6853817,-3.119702,0.19832745,-1.9413322,1.6912834,1300,1.7674988,-0.054048425,2.6781598,0
1.3443713,-0.11233871,0.85492322,-2.202568,0.14505362,-1.3786408,1.2033658,1300,1.7511018,-0.016696488,2.6623344,0
0.47181299,-0.051192734,0.30859403,-1.2885551,0.10122077,-0.80526113,0.72277564,1300,1.712211,0.027788394,2.5341825,0
3.1813526,-0.37918267,2.460112,-3.324671,0.36096735,-2.493006,1.9065308,1300,1.7239276,-0.13141786,2.7915908,0
1.7376744,-0.22118638,1.368654,-2.4491697,0.27263654,-1.8716453,1.4143741,1300,1.7146718,-0.10763652,2.8101816,0
0.73293339,-0.10457382,0.5897557,-1.5692836,0.19589966,-1.2427457,0.92462,1300,1.6450195,-0.11356364,2.8592306,0
7.3325485,0.2204169,4.1590991,-5.2365286,-0.18052652,-2.9109536,2.7616676,1300,1.8160828,0.08807296,2.566268,0
4.9480397,0.13737693,2.8287064,-4.3010699,-0.1517442,-2.4089416,2.269976,1300,1.8174741,0.10742938,2.5730807,0
3.0316914,0.068574222,1.7521605,-3.3643659,-0.12353483,-1.89516,1.7798477,1300,1.8189222,0.14774887,2.5625161,0
1.5833497,0.013807424,0.93590865,-2.4295922,-0.095521607,-1.3675533,1.2929111,1300,1.833485,0.24596467,2.4936382,0
1818.1698,119.43525,1151.6826,-34.959126,-7.7926264,-16.796482,60.152539,1300,-0.69023541,0.32014056,0.8291776,0
1800.6074,115.56691,1143.1953,-35.289193,-7.6800182,-17.151669,59.663162,1300,-0.6690985,0.3200993,0.84500022,0
1782.8819,111.75595,1134.532,-35.611405,-7.5631639,-17.500496,59.172646,1300,-0.64785692,0.3197559,0.86087932,0
1764.9974,108.00441,1125.6958,-35.925613,-7.4423979,-17.843731,58.680866,1300,-0.62652386,0.31912206,0.87686455,0
1746.9577,104.31416,1116.6891,-36.231585,-7.3180695,-18.181948,58.187758,1300,-0.60511498,0.31821089,0.89299751,0
1728.7672,100.68689,1107.5146,-36.529024,-7.1905375,-18.515539,57.693311,1300,-0.58364776,0.31703668,0.90931147,0
4.5207523,-0.19264092,3.5416753,-3.956097,0.13579242,-2.9925677,2.2767981,1300,1.7177372,-0.015595119,2.7801902,0
2.7592954,-0.13304163,2.2007687,-3.0888024,0.10325599,-2.3700058,1.7842992,1300,1.724276,0.019251493,2.7874861,0
1.432795,-0.088544147,1.1728278,-2.2165541,0.075664237,-1.7406496,1.2934729,1300,1.7162684,0.083550684,2.7988563,0
0.54321772,-0.056244671,0.46123475,-1.3415568,0.054733249,-1.104838,0.80681137,1300,1.6441134,0.24707233,2.8481796,0
4.8916793,-0.040477131,3.9425778,-4.09259,0.0015516693,-3.1788457,2.3823376,1300,1.7002191,0.0401859,2.7913824,0
3.0592088,-0.040872574,2.5102433,-3.236204,-0.0027943725,-2.5493467,1.8894197,1300,1.7095511,0.074611027,2.8000934,0
1.6565019,-0.042817382,1.3944522,-2.373793,-0.0044680399,-1.9126756,1.3979131,1300,1.7063145,0.14425016,2.8134598,0
3.3451479,0.0090233465,2.513559,-3.4287755,-0.05249754,-2.4797651,1.9436462,1300,1.7434717,0.093708028,2.7331848,0
1.8513879,-0.014980901,1.4253981,-2.5458099,-0.043179422,-1.8716451,1.4534172,1300,1.7478368,0.16138648,2.7244012,0
4.420741,0.085623095,3.1602637,-3.9654061,-0.11481763,-2.7341465,2.2161153,1300,1.7565565,0.10263505,2.6961141,0
2.6606356,0.033515218,1.9398397,-3.0745194,-0.093538467,-2.1461663,1.725252,1300,1.7649855,0.14930933,2.6875732,0
1.3465303,-0.0077811154,1.0155938,-2.1818434,-0.071465156,-1.5494379,1.2373637,1300,1.7763757,0.26151679,2.6508956,0
3.9497649,-0.25329426,2.7412332,-3.7546748,0.21088416,-2.5451171,2.0841307,1300,1.7502398,-0.054856587,2.7201735,0
2.2965606,-0.16086772,1.6146924,-2.8576747,0.15979056,-1.9596397,1.5932662,1300,1.7462232,-0.020937316,2.7253127,0
1.0923747,-0.092291676,0.78313363,-1.9590307,0.1158248,-1.3651577,1.1053996,1300,1.7250061,0.034060913,2.7164991,0
0.33723166,-0.043472699,0.25084723,-1.062256,0.081094221,-0.76321791,0.62602037,1300,1.6243511,0.14740862,2.6581697,0
5.0761685,0.059147973,4.1149909,-4.1760633,-0.082334714,-3.2465761,2.4286461,1300,1.7143365,0.075438354,2.7832103,0
3.2023299,0.021037603,2.6494189,-3.3182843,-0.069915732,-2.6148172,1.9357927,1300,1.7292649,0.11078498,2.7829614,0
1.758825,-0.010505375,1.501171,-2.4549841,-0.055951423,-1.9772046,1.4442814,1300,1.7401201,0.18517744,2.7800022,0
3.649106,0.023664956,2.5511807,-3.6218146,-0.066679637,-2.435968,2.0049857,1300,1.7791462,0.097706543,2.6740582,0
2.0634065,-0.0066580935,1.4787024,-2.7208276,-0.054371948,-1.8526223,1.5153613,1300,1.7905643,0.16091885,2.648579,0
0.92818548,-0.030378616,0.69996815,-1.8204398,-0.040127356,-1.2611097,1.0305186,1300,1.8219704,0.32739167,2.5623094,0
3.7177357,-0.30108246,3.1874508,-3.5397514,0.2490577,-2.9194429,2.1018198,1300,1.6871572,-0.065057917,2.8488675,0
2.159215,-0.19151408,1.8907448,-2.6930349,0.19031182,-2.266391,1.6080107,1300,1.6886831,-0.029009276,2.8723606,0
1.0259812,-0.10941105,0.9221389,-1.8388026,0.13955869,-1.6069986,1.1151849,1300,1.6456024,0.027283923,2.9371493,0
4.8487222,-0.097490211,3.8605865,-4.0852819,0.05105309,-3.1367584,2.365504,1300,1.7089594,0.01820644,2.7865807,0
3.0211237,-0.075783854,2.4487069,-3.2241016,0.036235114,-2.5097291,1.8727453,1300,1.7178903,0.052254755,2.7933393,0
1.6255633,-0.060653972,1.3519864,-2.3573912,0.02495388,-1.8760728,1.3814348,1300,1.7150567,0.11844459,2.8035214,0
0.66434016,-0.05000836,0.57373699,-1.4871511,0.018505703,-1.2360157,0.89365593,1300,1.6653266,0.29287892,2.843943,0
6.7378096,0.597623,4.2998883,-4.9693441,-0.46962994,-3.0583748,2.690512,1300,1.8032497,0.20285557,2.6048967,0
4.4815555,0.38356793,2.9060373,-4.0551156,-0.38700354,-2.5158125,2.198801,1300,1.81525,0.22801033,2.5922433,0
2.6830323,0.21010734,1.7855391,-3.1389058,-0.30738342,-1.9646552,1.7088736,1300,1.8346993,0.28780889,2.5521107,0
4.6791114,-0.089692402,3.5457263,-4.0453503,0.044901625,-2.9609145,2.3021123,1300,1.7315505,0.023525781,2.7524506,0
2.8751984,-0.070714202,2.2176902,-3.1695198,0.031458983,-2.3501482,1.8101198,1300,1.7389267,0.059974085,2.7543117,0
1.510259,-0.057646199,1.1967797,-2.2897818,0.021471398,-1.73234,1.3200701,1300,1.7383002,0.13342373,2.7505317,0
2.9213442,-0.22233123,2.0892442,-3.21545,0.20962515,-2.2443497,1.8016072,1300,1.7388215,-0.054427871,2.7429235,0
1.5367523,-0.13142345,1.1161949,-2.3225473,0.15528182,-1.646423,1.3117534,1300,1.7236758,-0.015241007,2.7503999,0
0.59893882,-0.065502412,0.44427997,-1.4288646,0.11003461,-1.0400279,0.8266004,1300,1.6549392,0.042729718,2.7534297,0
8.4083059,0.59713121,8.2638482,-5.1522297,-0.38864186,-4.8445688,3.2703946,1300,1.5847312,0.14036411,2.9114715,0
6.0254597,0.41685264,6.0147119,-4.3774059,-0.33249041,-4.1510509,2.7742295,1300,1.6141362,0.15442426,2.9181471,0
4.0327802,0.26459212,4.1137428,-3.5915263,-0.27662573,-3.4519628,2.2779567,1300,1.6435811,0.17980293,2.9268983,0
2.4358404,0.14011866,2.5636527,-2.7944327,-0.22139691,-2.7475481,1.7814105,1300,1.669202,0.2322045,2.9442717,0
1.2402611,0.043032428,1.3671174,-1.9860857,-0.16712322,-2.0376936,1.2843373,1300,1.6742113,0.36396947,2.995512,0
3.7317996,-0.47921845,3.0275263,-3.572781,0.42328385,-2.8036376,2.0845726,1300,1.7029537,-0.15053769,2.8215064,0
2.1599552,-0.29234887,1.7842542,-2.7133487,0.32569556,-2.1683399,1.5909917,1300,1.7018952,-0.12587534,2.8442073,0
1.0196504,-0.15165703,0.86041203,-1.8468784,0.23907607,-1.5258426,1.0986441,1300,1.6556044,-0.11656476,2.9003226,0
4.1202857,0.2211352,2.43091,-3.9160562,-0.25009477,-2.2448778,2.0805493,1300,1.8177523,0.17430852,2.5684435,0
2.3952014,0.10929479,1.439297,-2.9844738,-0.19758511,-1.7194645,1.5913771,1300,1.8268587,0.23769612,2.5339451,0
4.5330663,-0.31493585,3.5863234,-3.9532938,0.24403151,-3.0248564,2.2844915,1300,1.7104494,-0.065212294,2.7952535,0
2.7721045,-0.20698847,2.230374,-3.0895125,0.18863947,-2.3979275,1.7915632,1300,1.7159245,-0.034242271,2.8065072,0
1.444532,-0.12517062,1.1895203,-2.2199934,0.13986718,-1.7643978,1.3000561,1300,1.702381,0.014012367,2.8278975,0
0.55275715,-0.065629061,0.46710882,-1.3467161,0.099867234,-1.1242809,0.81181939,1300,1.6032426,0.10542092,2.9090016,0
3.1247621,-0.17563098,2.2583741,-3.3223773,0.15009738,-2.3373706,1.8662521,1300,1.7379216,-0.019148508,2.7412539,0
1.6860286,-0.11061401,1.2392577,-2.432146,0.11098199,-1.7376967,1.3762101,1300,1.7278157,0.027849635,2.7467352,0
0.69281324,-0.063410361,0.52211661,-1.5408046,0.079150799,-1.1296569,0.89051639,1300,1.6791107,0.12423634,2.7458215,0
9.291671,0.40266382,7.6153305,-5.6042747,-0.26181728,-4.4319807,3.2991684,1300,1.6728134,0.095469072,2.7975621,0
6.6979462,0.28064365,5.5579,-4.7692072,-0.22625145,-3.7970324,2.8049725,1300,1.693254,0.10862589,2.7982885,0
4.5238817,0.17642556,3.819059,-3.9258051,-0.19060633,-3.1575942,2.3112728,1300,1.7130601,0.13171507,2.797199,0
2.7733597,0.090058482,2.4011302,-3.0752412,-0.1548344,-2.5133015,1.8183005,1300,1.7320983,0.17717863,2.79342,0
1.4496187,0.021633329,1.3066677,-2.2189385,-0.11881098,-1.8636755,1.3268013,1300,1.7488339,0.28445455,2.7870197,0
4.0595416,-0.035775153,4.038936,-3.6113717,-0.011060236,-3.4107084,2.2706037,1300,1.6375704,0.061118406,2.9300531,0
2.4540969,-0.041537101,2.5080308,-2.8086124,-0.011590732,-2.712007,1.7742899,1300,1.6545157,0.10529634,2.9559332,0
1.2528449,-0.046861148,1.3279086,-1.9945893,-0.0091534735,-2.0075284,1.2774363,1300,1.6391117,0.20096216,3.0256316,0
1659.2028,-121.71468,1376.938,-25.596745,3.1394997,-23.462318,61.512819,1300,-0.96650958,-0.011150033,0.96428107,0
4.1464126,-0.21811931,3.6804714,-3.7108014,0.15901372,-3.1659059,2.2365529,1300,1.6631065,-0.02276103,2.869466,0
2.4987576,-0.14817015,2.263088,-2.8783331,0.12154862,-2.5025727,1.7421118,1300,1.6688779,0.01384397,2.8940188,0
1.2695878,-0.095602055,1.1790142,-2.0370048,0.0897788,-1.8326769,1.248295,1300,1.6387749,0.080430854,2.9547855,0
0.46306177,-0.057124893,0.43148981,-1.1880195,0.065454244,-1.1565112,0.75663446,1300,1.4274613,0.25266497,3.2137781,0
3.212244,-0.10973939,2.1232513,-3.4086309,0.079274278,-2.2001107,1.8651784,1300,1.7699191,0.019257198,2.678339,0
1.735328,-0.075857247,1.1656653,-2.4990177,0.057013349,-1.6286162,1.3762854,1300,1.7662054,0.074585463,2.6629728,0
0.71295723,-0.05178485,0.49631142,-1.5910511,0.040290891,-1.0474093,0.89297405,1300,1.7623792,0.20917189,2.5793189,0
4.4670847,-0.41465526,3.9559898,-3.8526803,0.32301333,-3.2812782,2.3212706,1300,1.6647089,-0.094885985,2.8711886,0
2.7481182,-0.27108185,2.4809219,-3.0216084,0.25229076,-2.61803,1.8263755,1300,1.6745345,-0.064940786,2.893265,0
1.4470969,-0.16107409,1.3390062,-2.1810145,0.18915532,-1.9486201,1.3318271,1300,1.6554379,-0.023252369,2.945098,0
0.56856935,-0.080220368,0.53341237,-1.3318185,0.13604741,-1.2726906,0.83797938,1300,1.4991676,0.036032706,3.1393248,0
7.3528836,0.34206785,5.4286419,-5.0846177,-0.26161049,-3.6219918,2.8752102,1300,1.737071,0.11568317,2.7208609,0
5.0290269,0.22158079,3.7669285,-4.2097987,-0.22040304,-3.0240543,2.3824135,1300,1.751929,0.13581648,2.7172671,0
3.1439921,0.12159089,2.4055338,-3.32965,-0.17962708,-2.420546,1.8906877,1300,1.7672422,0.1759391,2.705387,0
1.6999192,0.041884515,1.3474997,-2.4463284,-0.13925318,-1.8104968,1.4010739,1300,1.7882923,0.26953985,2.6722051,0
9.1092641,0.66807956,8.5118762,-5.4142742,-0.41765182,-4.8541667,3.3632852,1300,1.6074886,0.14235289,2.8802147,0
6.5992775,0.47391712,6.2542199,-4.6240022,-0.35900479,-4.1756595,2.8677414,1300,1.6349953,0.15499003,2.8833815,0
4.4870208,0.30903307,4.3370333,-3.8233885,-0.30060387,-3.4923375,2.3722964,1300,1.6629473,0.17738534,2.8866596,0
2.7775991,0.17320096,2.7626765,-3.0127201,-0.24286271,-2.8043338,1.8769094,1300,1.6898021,0.22258485,2.893113,0
1.4759366,0.065991994,1.5335263,-2.1924348,-0.18616809,-2.1114628,1.3816308,1300,1.7082694,0.33155696,2.9148312,0
9.4177939,0.83274587,10.432155,-5.2804123,-0.48590704,-5.6026275,3.5762087,1300,1.4878616,0.15281129,2.9943795,0
6.9570881,0.60590581,7.8131412,-4.5605697,-0.42133837,-4.8724174,3.07857,1300,1.5212306,0.16386479,3.0064724,0
4.8593119,0.4114716,5.560794,-3.8284487,-0.35639358,-4.1359923,2.5802749,1300,1.5557542,0.18167272,3.0223423,0
3.1309805,0.24945817,3.6781766,-3.0825589,-0.29176631,-3.3935161,2.081016,1300,1.5871914,0.21519569,3.0487645,0
1.779336,0.11953558,2.1683127,-2.3214727,-0.22813562,-2.6449309,1.5800332,1300,1.6006376,0.29025936,3.1066508,0
4.3879619,0.076625864,4.1412306,-3.7855415,-0.10553585,-3.4010389,2.3326165,1300,1.6528083,0.096477465,2.8875334,0
2.6986218,0.028470684,2.6106502,-2.9702277,-0.08690908,-2.7203026,1.8374509,1300,1.6701664,0.13859872,2.9044347,0
1.4193847,-0.010046451,1.4219607,-2.1452132,-0.066889073,-2.0334865,1.3424978,1300,1.6664635,0.23274281,2.9469957,0
4.4559702,-0.16066038,3.6752201,-3.8978045,0.10599984,-3.0936773,2.2830013,1300,1.6996908,-0.00077296895,2.811571,0
2.7202239,-0.11433822,2.2879465,-3.0440686,0.079889012,-2.4544208,1.7898665,1300,1.7082421,0.035605516,2.822099,0
1.4129686,-0.079997587,1.2218817,-2.1840717,0.058328639,-1.8088089,1.2980361,1300,1.6987404,0.10513088,2.8448081,0
3.6479382,-0.34948341,2.7339745,-3.5707333,0.3099553,-2.6047726,2.0298209,1300,1.7242401,-0.10186818,2.7736607,0
2.0822202,-0.21330845,1.5840015,-2.6913288,0.23603356,-1.9938514,1.5379532,1300,1.7178494,-0.072795664,2.7896284,0
0.957289,-0.11185227,0.74149366,-1.8079543,0.17150419,-1.3749071,1.0485322,1300,1.6727541,-0.043838615,2.8204279,0
3.5789513,-0.10438256,3.0424014,-3.482054,0.060500618,-2.8385677,2.0578139,1300,1.6974383,0.030297874,2.8288601,0
2.0504407,-0.078486445,1.7851407,-2.6308935,0.043728826,-2.1894852,1.564862,1300,1.700959,0.08052962,2.8446937,0
0.94909783,-0.0598502,0.85397271,-1.7736369,0.031682233,-1.5342159,1.0735906,1300,1.6675846,0.19351623,2.8927331,0
4.4186484,-0.30078535,3.5766471,-3.8842191,0.23265101,-3.0414379,2.2662478,1300,1.6936774,-0.05924346,2.8118111,0
2.6902373,-0.19791129,2.2139286,-3.0282455,0.17970514,-2.4082654,1.7730291,1300,1.6971596,-0.027681994,2.8295608,0
1.391536,-0.11997881,1.1696291,-2.1656229,0.13323553,-1.7677644,1.2811571,1300,1.6747031,0.022597239,2.8656985,0
0.52542978,-0.063211627,0.44734731,-1.2982489,0.095372942,-1.1203819,0.79250876,1300,1.5331341,0.122493,3.0033204,0
4.3785051,0.059023323,3.3159471,-3.9176203,-0.09033053,-2.8533385,2.227127,1300,1.7397089,0.090839054,2.7355486,0
2.6389507,0.017745473,2.0410686,-3.0399164,-0.074609295,-2.2450129,1.7356308,1300,1.7497548,0.1366027,2.7306265,0
1.3391254,-0.015343985,1.0721981,-2.159079,-0.057461353,-1.6292952,1.2466247,1300,1.7576343,0.24361459,2.7102951,0
3.7604405,-0.29834361,3.0970653,-3.5804586,0.24780156,-2.8456528,2.0968762,1300,1.6985804,-0.065586151,2.8241077,0
2.1840893,-0.1893481,1.834043,-2.7238058,0.18925592,-2.2053805,1.6037476,1300,1.6985385,-0.030321192,2.844095,0
1.0377216,-0.10774682,0.89282799,-1.8607786,0.13859311,-1.5584003,1.1120837,1300,1.6584353,0.02423516,2.8957769,0
1608.5529,18.965693,1396.7004,-29.685949,-7.1644573,-20.734983,60.714697,1300,-0.66240959,0.44113842,0.71470734,0
6.8965911,-0.8937955,7.2904536,-4.5936065,0.55917856,-4.6478017,3.0179552,1300,1.5451872,-0.15234105,2.9795576,0
4.7866407,-0.63842765,5.1458382,-3.8439339,0.46277344,-3.9297969,2.5198862,1300,1.5788242,-0.13133899,2.9977123,0
3.0551827,-0.43026309,3.3615934,-3.079413,0.37083711,-3.206277,2.0209872,1300,1.6067816,-0.10191235,3.0297548,0
1.7099726,-0.26632374,1.9405694,-2.2987486,0.28635042,-2.4768028,1.5204823,1300,1.6095178,-0.062123173,3.1014638,0
0.75939018,-0.14215036,0.88601921,-1.500677,0.21222003,-1.7400236,1.0162699,1300,1.494988,-0.009478188,3.3234053,0
4.9345413,-0.50754688,4.8252922,-3.972914,0.37068782,-3.7171821,2.4972678,1300,1.6160861,-0.10543766,2.9335763,0
3.1464642,-0.34144628,3.1399285,-3.1773629,0.29460546,-3.0232889,2.0004367,1300,1.6357027,-0.077136458,2.9594212,0
1.7593649,-0.21177109,1.8030553,-2.3689573,0.22540553,-2.3231913,1.5030432,1300,1.6317683,-0.037425963,3.015936,0
0.77972747,-0.11443532,0.81787993,-1.5474888,0.1656409,-1.6163346,1.0041928,1300,1.5247312,0.021093092,3.1939575,0
5.9569271,0.18867419,6.3164475,-4.2952402,-0.16851908,-4.325965,2.8002121,1300,1.5774105,0.096351675,2.9681982,0
3.9998749,0.11100614,4.3330613,-3.5310059,-0.14206027,-3.6066842,2.3028369,1300,1.6077654,0.12116212,2.9842431,0
2.4280858,0.046737403,2.710712,-2.7540414,-0.11487467,-2.8818129,1.8046701,1300,1.6310409,0.16851306,3.0155663,0
1.2481483,-0.0036941452,1.4522405,-1.963458,-0.086663313,-2.1510785,1.3049494,1300,1.6207497,0.27866099,3.0987525,0
4.1419682,-0.46133111,4.0562503,-3.6431163,0.36299229,-3.414495,2.2877319,1300,1.6214259,-0.10580043,2.9419595,0
2.5201647,-0.29976179,2.5223146,-2.841996,0.28438812,-2.7201935,1.7907278,1300,1.6328209,-0.074367931,2.9787247,0
1.3022177,-0.17553803,1.3371895,-2.0276722,0.2140438,-2.0192054,1.2929384,1300,1.5991692,-0.032155239,3.069455,0
4.6442802,-0.090914754,3.5516329,-4.0211208,0.046376024,-2.9722946,2.297912,1300,1.7224162,0.022577164,2.7602638,0
2.8515442,-0.071271825,2.2184656,-3.1489724,0.032648362,-2.3591939,1.805794,1300,1.7284588,0.058820126,2.7658832,0
1.4960522,-0.057673264,1.1937207,-2.2724631,0.022410555,-1.7385773,1.3155839,1300,1.7230282,0.1317962,2.7698493,0
8.0173627,0.52053088,6.743798,-5.1902412,-0.36125543,-4.1929843,3.0814164,1300,1.6712785,0.14002217,2.8035044,0
5.6296182,0.3537138,4.807279,-4.3592848,-0.30611048,-3.5521846,2.5871025,1300,1.6933795,0.15620176,2.8046791,0
3.6595247,0.21429179,3.1925657,-3.5198236,-0.25172093,-2.9057712,2.0933721,1300,1.7151298,0.18758392,2.8031509,0
2.1110264,0.10182,1.9024756,-2.6731253,-0.19834551,-2.2536642,1.6005543,1300,1.7362072,0.2572167,2.79837,0
4.9247749,0.16146507,3.1527709,-4.2382901,-0.17260224,-2.6374804,2.2997257,1300,1.7847299,0.11703374,2.6326949,0
3.0339185,0.083245537,1.9711641,-3.3248554,-0.14034788,-2.0872604,1.8092048,1300,1.7896331,0.15770364,2.6235029,0
1.5999637,0.021070523,1.0673893,-2.4111832,-0.10836138,-1.5260434,1.3216456,1300,1.8017125,0.25558264,2.5741804,0
4.191935,-0.15988893,2.7417463,-3.8945054,0.11897293,-2.4960753,2.1275441,1300,1.7654739,-0.011741456,2.6805714,0
2.4718051,-0.1081321,1.6344592,-2.9857289,0.088732592,-1.931433,1.6371912,1300,1.7616828,0.025258857,2.6821965,0
1.2062729,-0.070291465,0.81210976,-2.0765887,0.063580978,-1.3562852,1.1500913,1300,1.7505189,0.09771839,2.6552942,0
5.6871734,-0.73411323,5.3062905,-4.2955601,0.5198558,-3.8481567,2.6540911,1300,1.6297366,-0.15818678,2.9018743,0
3.7400053,-0.49951692,3.5517403,-3.4911696,0.41938763,-3.1691443,2.1577524,1300,1.6521605,-0.13373092,2.919811,0
2.1980746,-0.31354233,2.138119,-2.6746069,0.32587976,-2.4843979,1.6612226,1300,1.6610819,-0.1029769,2.9554385,0
1.0674511,-0.17191724,1.0684042,-1.8459737,0.24248167,-1.7933793,1.1639487,1300,1.6163316,-0.071924367,3.0533658,0
3.5198057,0.13641137,2.1548264,-3.6102585,-0.18678109,-2.1336718,1.9321204,1300,1.8169891,0.16743935,2.5759244,0
1.9464256,0.053378004,1.2221646,-2.6835887,-0.14553686,-1.5949716,1.4439985,1300,1.8329002,0.24955354,2.5234102,0
1660.7032,53.463432,1306.0175,-25.315207,-2.2844131,-22.844032,60.986188,1300,-1.0186573,0.063584285,1.0134409,0
4.2495598,-0.013129708,3.5207853,-3.8049215,-0.025735855,-3.0264288,2.2317575,1300,1.7004074,0.061943186,2.8050183,0
2.5601699,-0.025591502,2.1670756,-2.9515662,-0.023771171,-2.3873374,1.738919,1300,1.7094553,0.10545983,2.8135617,0
1.2990023,-0.036455137,1.1345881,-2.0922952,-0.01918368,-1.7415592,1.2476842,1300,1.701069,0.20200957,2.8323268,0
4.8469942,-0.25679464,3.9290672,-4.0748933,0.18547094,-3.1861717,2.3729175,1300,1.7041421,-0.03901108,2.8061588,0
3.0234855,-0.17480258,2.4945092,-3.2180348,0.14320386,-2.5511738,1.8796783,1300,1.7136261,-0.0078946381,2.8148279,0
1.6300251,-0.11267747,1.3788894,-2.3549215,0.10630779,-1.9103255,1.3875855,1300,1.7089853,0.044676697,2.8319468,0
0.6693464,-0.067264024,0.58522909,-1.4872392,0.076647547,-1.2633828,0.8980499,1300,1.6446277,0.15902277,2.8953499,0
11.03969,0.62970098,12.429247,-5.6737857,-0.3442242,-6.1350289,3.8921894,1300,1.4585421,0.10435823,3.0042104,0
8.3790382,0.46793047,9.5452738,-4.9672323,-0.3027966,-5.3999565,3.3949635,1300,1.4905771,0.11316815,3.0153097,0
6.0742998,0.32696429,7.0302511,-4.2498381,-0.26101833,-4.6592276,2.8969627,1300,1.525273,0.12664513,3.029099,0
4.1313599,0.20695594,4.8870171,-3.5197397,-0.21898301,-3.9127859,2.3980187,1300,1.5604655,0.14933775,3.0496395,0
2.5570344,0.10800542,3.1184597,-2.775088,-0.17680548,-3.1604856,1.8976645,1300,1.5890946,0.19272764,3.0880414,0
1.3590593,0.030156001,1.7276049,-2.0140324,-0.13459489,-2.4018365,1.3947101,1300,1.5841988,0.29299951,3.1816382,0
4.344565,-0.064267501,3.8063323,-3.8136119,0.01872685,-3.1991209,2.2825798,1300,1.6798115,0.041193063,2.8448009,0
2.6468234,-0.05687064,2.3709878,-2.9760431,0.011288958,-2.5412715,1.7886744,1300,1.6915116,0.081408492,2.8585308,0
1.3698306,-0.052422712,1.2661119,-2.1307887,0.0071201121,-1.8772445,1.2956585,1300,1.6822913,0.16538406,2.892245,0
4.7308664,-0.21403101,3.6059839,-4.0596424,0.15369038,-2.9972807,2.3176397,1300,1.7220581,-0.026177213,2.7670464,0
2.9189908,-0.14638847,2.2604844,-3.1869718,0.1175379,-2.3836145,1.8252836,1300,1.7272365,0.006054277,2.7746337,0
1.5446878,-0.095639932,1.2235881,-2.3096521,0.086403383,-1.7627984,1.3346462,1300,1.7190704,0.063194871,2.7837038,0
0.60974764,-0.058828527,0.49888087,-1.4299769,0.062069876,-1.1350529,0.84809919,1300,1.6580136,0.19798556,2.8138501,0
3.2395934,-0.14639269,2.4628512,-3.3647859,0.1123811,-2.4737481,1.9166065,1300,1.7309182,0.0045720204,2.7620124,0
1.7770189,-0.097791624,1.3792286,-2.4849283,0.082877282,-1.8595114,1.4258283,1300,1.726628,0.056111861,2.7680992,0
0.75507789,-0.062461305,0.6046197,-1.6026841,0.059572522,-1.2378252,0.93866674,1300,1.6877603,0.17148299,2.7795403,0
4.0650236,0.13110318,2.7620676,-3.8331675,-0.16448194,-2.5089957,2.107394,1300,1.7837514,0.13507749,2.6526804,0
2.3746728,0.057165579,1.650169,-2.9280572,-0.13130409,-1.9371535,1.6175339,1300,1.7951619,0.19360905,2.6281978,0
1.1368936,-0.00020651849,0.82648195,-2.0234177,-0.098151799,-1.356193,1.1319205,1300,1.8263734,0.34781762,2.5441654,0
9.3917761,1.0741349,7.8096708,-5.6239075,-0.66192925,-4.4933124,3.3305882,1300,1.6743287,0.21398038,2.7942422,0
6.7867999,0.76718488,5.7224037,-4.7944182,-0.56594467,-3.8550438,2.8360093,1300,1.6992846,0.22591069,2.7903947,0
4.5989209,0.50800845,3.9553563,-3.9557419,-0.47103109,-3.2124647,2.3420165,1300,1.725443,0.24878567,2.7819627,0
2.8323651,0.29576205,2.5106862,-3.1093825,-0.3784199,-2.5654781,1.8487898,1300,1.7554552,0.29955998,2.7653511,0
1.4905521,0.12899814,1.390697,-2.2570763,-0.28927509,-1.9137001,1.3572129,1300,1.7969443,0.43237302,2.7321965,0
10.310678,1.0278106,8.4807134,-5.8939643,-0.60848654,-4.6663657,3.4830214,1300,1.6693112,0.19046572,2.7865715,0
7.5705516,0.74482526,6.305362,-5.0649481,-0.52353019,-4.0341872,2.9883622,1300,1.6931429,0.20033347,2.7854847,0
5.2473171,0.50412563,4.4473861,-4.2266039,-0.43948616,-3.3969318,2.4942996,1300,1.7175458,0.21860968,2.7804845,0
3.345295,0.30502992,2.9092682,-3.3803401,-0.35726002,-2.7547322,2.0009478,1300,1.7442879,0.25707006,2.7690855,0
1.8680494,0.1464069,1.693542,-2.5277784,-0.27772778,-2.1073163,1.5088706,1300,1.7780482,0.35041203,2.7453053,0
3.6450537,0.03772124,2.4986846,-3.6229694,-0.079601193,-2.3984522,1.998175,1300,1.7749841,0.10266253,2.6684091,0
2.0593219,0.001685949,1.4433561,-2.719814,-0.06434149,-1.8213692,1.5087098,1300,1.7826637,0.16614269,2.6463073,0
0.92512381,-0.026341069,0.67888457,-1.8173939,-0.047433627,-1.235183,1.0241571,1300,1.8061286,0.33593777,2.5627765,0
1775.7711,19.011625,1359.0649,-31.064377,-2.8823466,-15.024058,63.278572,1300,-0.69721907,0.1537128,0.53523859,0
1760.1564,17.580227,1351.4155,-31.393312,-2.8417788,-15.571281,62.78064,1300,-0.67929255,0.15429848,0.55684955,0
5.1243316,-0.21511746,5.2634357,-4.0123457,0.13109471,-3.9273927,2.574464,1300,1.5951696,-0.0089455242,2.9592497,0
3.3125944,-0.15683396,3.4768877,-3.2325732,0.1025353,-3.2178256,2.0772192,1300,1.6184811,0.02063821,2.9836242,0
1.8939783,-0.11192202,2.0466419,-2.4397477,0.077858142,-2.502175,1.5791772,1300,1.622947,0.072068684,3.0357695,0
0.87517815,-0.078055816,0.97580994,-1.6332053,0.05858821,-1.7800346,1.0793902,1300,1.5452925,0.18485951,3.1931737,0
3.3189992,-0.14298536,2.8424371,-3.3521019,0.10113491,-2.7506734,1.9843458,1300,1.6997342,0.014009858,2.8355544,0
1.8555819,-0.099146146,1.6298412,-2.5004753,0.075018992,-2.0987608,1.4913578,1300,1.7008407,0.066252894,2.8543665,0
0.81956115,-0.066982353,0.74469689,-1.6427708,0.054688384,-1.4408756,1.0000833,1300,1.653988,0.18309187,2.9175853,0
5.7846496,-0.70862806,6.1223629,-4.2213007,0.47602494,-4.2651003,2.7616339,1300,1.56332,-0.13199266,2.9830751,0
3.8632046,-0.49297255,4.1691381,-3.4621337,0.3872938,-3.5468502,2.263341,1300,1.5938293,-0.10706758,3.0072226,0
2.3251146,-0.3203512,2.5765353,-2.6876869,0.3043465,-2.8225729,1.7640112,1300,1.6112397,-0.072427521,3.054316,0
1.1783104,-0.18715853,1.3476819,-1.8968085,0.23002591,-2.0916828,1.2624074,1300,1.573923,-0.024217271,3.1757269,0
3.2970272,-0.024591439,2.7223462,-3.3608775,-0.020763232,-2.6553671,1.9637541,1300,1.7160317,0.080554349,2.7951036,0
1.8316541,-0.03449481,1.5538319,-2.499765,-0.018421399,-2.0176126,1.4719348,1300,1.7206932,0.14558774,2.8018187,0
0.79799665,-0.042468641,0.70584447,-1.6343678,-0.012877383,-1.3733898,0.98304365,1300,1.6956565,0.31607608,2.8278901,0
3.5163054,-0.14601395,3.370535,-3.3836783,0.096261434,-3.0918275,2.0938947,1300,1.6518656,0.015928869,2.9158238,0
2.0285175,-0.10411127,1.9962465,-2.5657911,0.072087982,-2.4043804,1.5982505,1300,1.6567471,0.064128049,2.9505794,0
0.95227641,-0.073014119,0.96718211,-1.7375468,0.053275034,-1.710879,1.1024173,1300,1.6031511,0.16716487,3.0548011,0
3.9500663,-0.25431049,2.9402724,-3.7210212,0.20759503,-2.6913913,2.108906,1300,1.7287835,-0.050664744,2.7601559,0
2.3095638,-0.16321758,1.7461536,-2.840257,0.15772611,-2.0838404,1.6172656,1300,1.7267573,-0.015688705,2.770353,0
1.1104068,-0.095394006,0.8577806,-1.9560036,0.1148569,-1.4683949,1.1280709,1300,1.7002179,0.042511045,2.7843415,0
0.35366542,-0.046818435,0.27892969,-1.0712233,0.081056622,-0.8462617,0.64562549,1300,1.5460504,0.17172789,2.8500583,0
1844.9531,-2.992913,1198.4604,-33.657436,7.8557391,-18.135986,61.214736,1300,-0.75479325,-0.50853122,0.88812618,0
12.863592,1.7212206,9.8517949,-6.6459782,-0.90591129,-4.9229155,3.8419005,1300,1.6904377,0.24351708,2.7427597,0
9.750628,1.2970609,7.542065,-5.8041089,-0.79063687,-4.3152255,3.3469337,1300,1.7139942,0.25017675,2.7395455,0
7.0612284,0.93056259,5.5373188,-4.951985,-0.67549265,-3.703104,2.8527639,1300,1.7374725,0.26107647,2.73187,0
4.8000767,0.62129259,3.839647,-4.0914361,-0.56197286,-3.0869216,2.3593934,1300,1.7627505,0.28309306,2.7169263,0
2.9708669,0.36804529,2.4511528,-3.2245725,-0.45165376,-2.466282,1.8671118,1300,1.7949388,0.33414944,2.6869071,0
1.5761764,0.16883675,1.3742413,-2.3537755,-0.34604452,-1.8405298,1.3772453,1300,1.8503996,0.47096693,2.6205196,0
3.6203028,-0.037084131,3.358569,-3.4525722,-0.0082433837,-3.053694,2.1092209,1300,1.6649686,0.065647457,2.8835155,0
2.1002446,-0.041552027,2.0003967,-2.6261757,-0.0091763712,-2.3779909,1.6145576,1300,1.67216,0.11837338,2.9091097,0
0.99564323,-0.045693854,0.98163958,-1.7908734,-0.0067769615,-1.6960484,1.120447,1300,1.6348998,0.2425806,2.9853024,0
9.6991981,0.91749459,9.3469332,-5.5411997,-0.5426464,-5.125115,3.4989805,1300,1.5812485,0.170701,2.9002229,0
7.1218151,0.66472676,6.9560875,-4.7665704,-0.46839888,-4.4373927,3.0029414,1300,1.6106218,0.18163664,2.9044169,0
4.9345044,0.44906128,4.910421,-3.9809068,-0.39435596,-3.7444812,2.506925,1300,1.640867,0.20050615,2.9086235,0
3.1427762,0.27020597,3.2124275,-3.1842602,-0.32128266,-3.0467277,2.0108172,1300,1.6706799,0.23814868,2.9157387,0
1.7520805,0.12748351,1.8645189,-2.3768152,-0.24994289,-2.3441063,1.5144727,1300,1.6942612,0.32665535,2.9357382,0
7.2667221,0.28042871,6.3747638,-4.906538,-0.21364856,-4.1323998,2.9581875,1300,1.6521214,0.096616382,2.8389153,0
5.018109,0.18154126,4.4725001,-4.0864146,-0.18187275,-3.475743,2.4635414,1300,1.6739977,0.11582674,2.8438656,0
3.181841,0.098600106,2.8999801,-3.2572767,-0.14983546,-2.8134352,1.9693103,1300,1.6933981,0.15179517,2.8499531,0
1.7622204,0.031784701,1.6600306,-2.4199824,-0.1173319,-2.1454467,1.4757455,1300,1.7043566,0.23045927,2.8637665,0
4.0351485,0.010624809,3.5249672,-3.6827432,-0.04909491,-3.0727286,2.1979024,1300,1.6904843,0.07615226,2.8359722,0
2.4038976,-0.012245679,2.1525367,-2.841055,-0.042047387,-2.4160676,1.7043792,1300,1.7024819,0.12397391,2.8462592,0
1.1952745,-0.030992868,1.1098961,-1.9924354,-0.032471251,-1.7535607,1.2120434,1300,1.6936297,0.23374539,2.8760016,0
4.2337826,-0.22669229,4.135741,-3.6855269,0.15757025,-3.4427672,2.310186,1300,1.6215815,-0.01797139,2.9334741,0
2.591113,-0.15704611,2.5874227,-2.8832271,0.12171681,-2.7494236,1.8137771,1300,1.6327642,0.017997525,2.9664121,0
1.3526055,-0.10407772,1.3874533,-2.0688752,0.0911416,-2.049382,1.3169147,1300,1.6044241,0.083241921,3.0466534,0
2.9368483,-0.21038537,2.1143291,-3.2252175,0.19494432,-2.25962,1.8079146,1300,1.7446796,-0.045114267,2.7401775,0
1.5473767,-0.12590787,1.1341425,-2.3323234,0.14419642,-1.6597994,1.3180229,1300,1.7338185,-0.0027455448,2.7420649,0
0.60464472,-0.064698108,0.45590335,-1.4387788,0.1022148,-1.0520121,0.83278228,1300,1.6796619,0.068775998,2.7307798,0
5.0305078,-0.12336936,5.0612903,-3.9909973,0.061578427,-3.8308206,2.5374955,1300,1.6036171,0.017890717,2.9444372,0
3.2312864,-0.09654109,3.3212781,-3.203931,0.046147686,-3.128205,2.0406982,1300,1.6245382,0.048638495,2.9684496,0
1.8286946,-0.076673016,1.9341568,-2.4044126,0.03394368,-2.4192726,1.5433288,1300,1.6252102,0.10516684,3.0200612,0
0.82905069,-0.061834038,0.90310837,-1.5920913,0.026226707,-1.7038286,1.0447487,1300,1.5382843,0.2394897,3.1809929,0
