1354.3744,-33.45142,46.697295,1300,0.76083756,0
1320.4562,-34.374339,45.664899,1300,0.83364939,0
1285.6473,-35.232702,44.630106,1300,0.90702163,0
1250.0125,-36.026358,43.592836,1300,0.98100243,0
1213.6164,-36.754907,42.553077,1300,1.0556309,0
1176.5247,-37.417675,41.510896,1300,1.1309337,0
1138.8034,-38.013855,40.466394,1300,1.206932,0
1100.5195,-38.54267,39.419648,1300,1.2836512,0
1061.7408,-39.003462,38.370694,1300,1.3611275,0
1022.5356,-39.395648,37.319529,1300,1.4394074,0
982.97272,-39.718615,36.266147,1300,1.5185418,0
943.1218,-39.971621,35.210566,1300,1.5985789,0
903.05322,-40.153771,34.152836,1300,1.679562,0
862.83832,-40.264088,33.093018,1300,1.7615343,0
822.54942,-40.301627,32.031148,1300,1.8445479,0
782.25973,-40.265554,30.967216,1300,1.9286734,0
742.04322,-40.155132,29.901166,1300,2.0140029,0
701.97463,-39.969587,28.832926,1300,2.1006416,0
662.12955,-39.707917,27.762462,1300,2.1886928,0
622.58475,-39.368745,26.68982,1300,2.2782401,0
583.41861,-38.950297,25.61513,1300,2.3693402,0
544.71139,-38.450569,24.538568,1300,2.4620342,0
506.54536,-37.867621,23.460278,1300,2.5563784,0
469.00457,-37.199857,22.380292,1300,2.6524861,0
432.17445,-36.446106,21.298498,1300,2.7505565,0
396.14148,-35.605385,20.214684,1300,2.8508704,0
360.99324,-34.676396,19.128655,1300,2.9537425,0
326.81897,-33.656987,18.04036,1300,3.0594444,0
293.71063,-32.543914,16.949965,1300,3.1681434,0
261.76386,-31.333166,15.857784,1300,3.2799166,0
231.07834,-30.020836,14.764081,1300,3.3948852,0
201.75719,-28.604073,13.668814,1300,3.51345,0
173.90572,-27.08129,12.571524,1300,3.6365,0
147.63061,-25.450967,11.471516,1300,3.7653911,0
123.04104,-23.70929,10.368332,1300,3.9015506,0
100.25202,-21.848105,9.2622359,1300,4.0458197,0
79.388895,-19.855373,8.1542438,1300,4.1980939,0
60.589311,-17.719474,7.0452929,1300,4.3583052,0
43.999813,-15.434962,5.9347701,1300,4.5296821,0
29.769088,-13.001846,4.819688,1300,4.7234518,0
18.048378,-10.411812,3.6957657,1300,4.9626,0
9.0089455,-7.6316037,2.558032,1300,5.2949229,0
2.8653832,-4.6125097,1.385996,1300,5.984023,0
558.81152,-26.948309,28.248095,1300,1.2361191,0
531.61018,-27.438461,27.199575,1300,1.345711,0
503.96716,-27.831422,26.147895,1300,1.4569152,0
475.98038,-28.125745,25.093107,1300,1.5698565,0
447.74924,-28.319849,24.035262,1300,1.6846708,0
419.37483,-28.412013,22.974411,1300,1.8015072,0
390.95999,-28.400383,21.910602,1300,1.920533,0
362.60949,-28.282987,20.843865,1300,2.0419404,0
334.43015,-28.057708,19.774219,1300,2.1659525,0
306.53099,-27.722234,18.701674,1300,2.2928251,0
279.02346,-27.273972,17.626247,1300,2.4228454,0
252.02181,-26.709973,16.547977,1300,2.5563316,0
225.6434,-26.026917,15.466913,1300,2.6936415,0
200.00908,-25.221152,14.383099,1300,2.8351995,0
175.24351,-24.288762,13.296533,1300,2.9815433,0
151.47539,-23.225493,12.207156,1300,3.1333716,0
128.838,-22.02644,11.114895,1300,3.2915549,0
107.47003,-20.685488,10.019761,1300,3.4570842,0
87.517129,-19.194908,8.9219148,1300,3.631013,0
69.133365,-17.54567,7.821567,1300,3.8146302,0
52.481993,-15.728695,6.7185791,1300,4.0102949,0
37.734951,-13.735623,5.6119468,1300,4.2232823,0
25.07319,-11.555803,4.4996883,1300,4.4644139,0
14.692816,-9.167996,3.379271,1300,4.7541655,0
6.8191642,-6.5354916,2.2454084,1300,5.1493509,0
1.7165856,-3.6194061,1.0640457,1300,6.1312485,0
1116.1315,-29.824909,42.572204,1300,0.72929032,0
1085.8269,-30.772639,41.540636,1300,0.80971362,0
1054.61,-31.64943,40.506267,1300,0.89083863,0
1022.552,-32.45461,39.469159,1300,0.97270106,0
989.72499,-33.187384,38.429401,1300,1.0553328,0
956.20175,-33.846959,37.387069,1300,1.1387694,0
922.05584,-34.432615,36.342201,1300,1.2230564,0
887.36151,-34.94368,35.294807,1300,1.3082488,0
852.1937,-35.379448,34.244889,1300,1.3944071,0
816.62811,-35.73909,33.19247,1300,1.4815912,0
780.74135,-36.021625,32.1376,1300,1.5698578,0
744.61106,-36.225961,31.080346,1300,1.6592626,0
708.31601,-36.35096,30.020769,1300,1.7498663,0
671.93609,-36.395505,28.958908,1300,1.8417421,0
635.55231,-36.358501,27.89477,1300,1.9349784,0
599.24679,-36.238816,26.82835,1300,2.0296771,0
563.1028,-36.035202,25.759647,1300,2.1259481,0
527.20497,-35.746239,24.688679,1300,2.2239052,0
491.63944,-35.370337,23.61548,1300,2.323667,0
456.49399,-34.905804,22.54008,1300,2.4253665,0
421.85811,-34.350901,21.462486,1300,2.5291635,0
387.82306,-33.70384,20.382674,1300,2.6352524,0
354.48195,-32.962661,19.300616,1300,2.7438563,0
321.93004,-32.125045,18.216323,1300,2.8552071,0
290.26511,-31.188186,17.129871,1300,2.9695257,0
259.58799,-30.148858,16.04139,1300,3.0870292,0
230.00283,-29.003742,14.950971,1300,3.2079928,0
201.61696,-27.749829,13.858555,1300,3.3328674,0
174.54049,-26.384517,12.763865,1300,3.4623977,0
148.88618,-24.90497,11.666493,1300,3.5976327,0
124.77027,-23.306754,10.566174,1300,3.7397242,0
102.31486,-21.582477,9.463096,1300,3.8895442,0
81.650991,-19.721843,8.3579454,1300,4.0474497,0
62.920441,-17.714293,7.2513782,1300,4.2139183,0
46.273951,-15.553049,6.1429499,1300,4.3918524,0
31.866736,-13.235252,5.0303472,1300,4.590308,0
19.858536,-10.752277,3.9099932,1300,4.8280413,0
10.426974,-8.0751685,2.7777883,1300,5.1422448,0
3.788681,-5.1583713,1.6199421,1300,5.696733,0
0.21098335,-1.920609,0.28205066,1300,12.947039,0
850.57837,-37.974407,33.434231,1300,1.5997341,0
812.50787,-38.154196,32.37625,1300,1.6850706,0
774.29533,-38.258296,31.316064,1300,1.7715112,0
736.01699,-38.28563,30.25372,1300,1.8591157,0
697.75013,-38.235188,29.189229,1300,1.9479604,0
659.573,-38.105979,28.122574,1300,2.0381379,0
621.56492,-37.896925,27.053736,1300,2.1297494,0
583.80633,-37.60675,25.982728,1300,2.2228955,0
546.37909,-37.233951,24.909597,1300,2.3176722,0
509.36666,-36.776868,23.834406,1300,2.4141774,0
472.85416,-36.233821,22.757198,1300,2.5125289,0
436.92835,-35.60322,21.677958,1300,2.6128848,0
401.67756,-34.883536,20.596613,1300,2.7154536,0
367.19167,-34.0731,19.513074,1300,2.820481,0
333.56246,-33.169788,18.427313,1300,2.9282134,0
300.88415,-32.17079,17.339415,1300,3.0388578,0
269.25409,-31.072677,16.249573,1300,3.1525757,0
238.7732,-29.871859,15.157974,1300,3.2695509,0
209.54582,-28.565232,14.06463,1300,3.390141,0
181.67896,-27.150506,12.969256,1300,3.5150481,0
155.2817,-25.625626,11.871332,1300,3.645374,0
130.46572,-23.987158,10.770412,1300,3.7824149,0
107.34763,-22.22842,9.6665355,1300,3.9271915,0
86.052632,-20.339025,8.5604092,1300,4.0800271,0
66.71727,-18.307396,7.4529488,1300,4.2409381,0
49.488199,-16.125678,6.3441199,1300,4.4118069,0
34.51689,-13.791754,5.2318615,1300,4.6003625,0
21.957047,-11.300868,4.1124391,1300,4.8240897,0
11.975452,-8.6290945,2.9817122,1300,5.1161586,0
4.7747926,-5.7309933,1.8295685,1300,5.5930036,0
0.60594951,-2.5486291,0.56805217,1300,8.3013676,0
749.85602,-29.258205,33.332681,1300,1.0836723,0
720.27592,-29.888064,32.289089,1300,1.1794251,0
690.10832,-30.433049,31.242617,1300,1.276321,0
659.43859,-30.892157,30.193302,1300,1.3744376,0
628.35313,-31.264348,29.141172,1300,1.4738622,0
596.93939,-31.548503,28.086249,1300,1.57469,0
565.28602,-31.743389,27.028563,1300,1.6770229,0
533.48297,-31.847634,25.968154,1300,1.7809679,0
501.62163,-31.859721,24.905074,1300,1.886638,0
469.79496,-31.777999,23.83938,1300,1.9941545,0
438.09765,-31.600705,22.771124,1300,2.1036525,0
406.62618,-31.325994,21.700344,1300,2.2152882,0
375.47893,-30.951946,20.627055,1300,2.3292474,0
344.75625,-30.476524,19.551251,1300,2.4457491,0
314.56059,-29.897489,18.472925,1300,2.5650438,0
284.99683,-29.212286,17.392086,1300,2.6874074,0
256.17256,-28.417989,16.308772,1300,2.8131399,0
228.19848,-27.511351,15.223025,1300,2.9425851,0
201.18864,-26.488938,14.134844,1300,3.0761797,0
175.26058,-25.347208,13.04414,1300,3.2145203,0
150.53548,-24.082309,11.950753,1300,3.3584036,0
127.13881,-22.689443,10.854557,1300,3.5087757,0
105.20163,-21.162055,9.7556302,1300,3.6665746,0
84.862635,-19.491535,8.6543258,1300,3.8326063,0
66.269729,-17.668333,7.5510162,1300,4.0078688,0
49.579891,-15.684266,6.4454427,1300,4.1949226,0
34.957105,-13.53323,5.3360644,1300,4.4005094,0
22.57238,-11.205721,4.2201943,1300,4.6386695,0
12.612643,-8.6775754,3.0946443,1300,4.9362702,0
5.2982532,-5.9078259,1.9512818,1300,5.3834737,0
0.89188111,-2.8502438,0.72640933,1300,7.1756322,0
1222.3921,-35.508171,43.14635,1300,0.9740865,0
1186.5112,-36.242582,42.106744,1300,1.0496077,0
1149.9293,-36.910345,41.064709,1300,1.125813,0
1112.7132,-37.510642,40.020344,1300,1.2027243,0
1074.9308,-38.042719,38.973721,1300,1.2803697,0
1036.6508,-38.505945,37.924861,1300,1.3587895,0
997.94219,-38.899754,36.873753,1300,1.4380341,0
958.87474,-39.223532,35.820384,1300,1.5181574,0
919.51884,-39.476518,34.764775,1300,1.5992098,0
879.94572,-39.657794,33.706974,1300,1.6812369,0
840.22761,-39.766354,32.647045,1300,1.7642836,0
800.43771,-39.801216,31.585028,1300,1.848404,0
760.65017,-39.761489,30.520921,1300,1.9336691,0
720.93999,-39.64635,29.454684,1300,2.0201691,0
681.38302,-39.454921,28.386267,1300,2.1080054,0
642.05607,-39.186099,27.315658,1300,2.1972765,0
603.03723,-38.83845,26.242911,1300,2.2880649,0
564.40617,-38.410222,25.168145,1300,2.3804343,0
526.24441,-37.899526,24.091498,1300,2.4744444,0
488.63534,-37.304582,23.013057,1300,2.5701818,0
451.66397,-36.623916,21.932802,1300,2.6677934,0
415.41662,-35.856336,20.8506,1300,2.7675033,0
379.98081,-35.000622,19.76627,1300,2.8695949,0
345.44547,-34.055052,18.679695,1300,2.9743564,0
311.90168,-33.017002,17.590919,1300,3.0820145,0
279.44363,-31.88292,16.500169,1300,3.1927023,0
248.16934,-30.648851,15.407736,1300,3.3065172,0
218.1806,-29.311327,14.313757,1300,3.423692,0
189.58213,-27.868034,13.218013,1300,3.544821,0
162.48046,-26.317477,12.119933,1300,3.6709876,0
136.98386,-24.657299,11.018896,1300,3.803603,0
113.20439,-22.88195,9.914724,1300,3.943897,0
91.261841,-20.981498,8.8080216,1300,4.0923251,0
71.287479,-18.943581,7.6998784,1300,4.248634,0
53.423999,-16.758709,6.590729,1300,4.4136858,0
37.820188,-14.424298,5.4789898,1300,4.5934585,0
24.625821,-11.938841,4.3609794,1300,4.8034484,0
13.99866,-9.2847597,3.2324214,1300,5.0729162,0
6.1271177,-6.4192372,2.086008,1300,5.4827118,0
1.2469644,-3.2924771,0.87157447,1300,6.8833855,0
1113.592,-34.213734,41.078133,1300,0.99393377,0
1079.0147,-34.929455,40.037737,1300,1.0729722,0
1043.7566,-35.575106,38.994917,1300,1.1527478,0
1007.8882,-36.149969,37.949723,1300,1.2332962,0
971.48058,-36.653444,36.902161,1300,1.3146658,0
934.60542,-37.084964,35.852209,1300,1.3969143,0
897.33498,-37.44388,34.799857,1300,1.4801016,0
859.74226,-37.729367,33.745127,1300,1.5642828,0
821.90117,-37.940426,32.68808,1300,1.6495072,0
783.88671,-38.075954,31.628793,1300,1.7358223,0
745.77494,-38.134846,30.567326,1300,1.8232834,0
707.64304,-38.116058,29.503706,1300,1.9119606,0
669.56918,-38.018593,28.437922,1300,2.001941,0
631.63255,-37.841411,27.369957,1300,2.0933242,0
593.91346,-37.583311,26.299808,1300,2.1862129,0
556.49351,-37.242874,25.227508,1300,2.2807062,0
519.45584,-36.81849,24.153115,1300,2.3769027,0
482.88522,-36.308476,23.076678,1300,2.4749136,0
446.86812,-35.711199,21.998204,1300,2.5748834,0
411.49258,-35.025104,20.917639,1300,2.6770039,0
376.84821,-34.248564,19.834899,1300,2.7815097,0
343.0264,-33.379603,18.749935,1300,2.888649,0
310.12082,-32.415625,17.662796,1300,2.9986432,0
278.22807,-31.353375,16.573645,1300,3.1116676,0
247.4482,-30.189272,15.482679,1300,3.2278933,0
217.88476,-28.92002,14.389977,1300,3.3476129,0
189.64424,-27.543084,13.295344,1300,3.4714131,0
162.83534,-26.056417,12.198318,1300,3.6002785,0
137.56909,-24.45715,11.098398,1300,3.7354756,0
113.96059,-22.739691,9.995449,1300,3.8781545,0
92.132414,-20.894671,8.8899892,1300,4.0288646,0
72.217899,-18.91047,7.7829534,1300,4.1876043,0
54.36133,-16.77767,6.6747191,1300,4.3553744,0
38.713568,-14.492692,5.5638782,1300,4.5377106,0
25.427601,-12.053041,4.4470682,1300,4.748814,0
14.664611,-9.4419252,3.3202785,1300,5.0155752,0
6.6148255,-6.6185016,2.1770287,1300,5.4084527,0
1.5142313,-3.5353403,0.97594222,1300,6.5731243,0
729.42401,-27.90727,33.176562,1300,1.0104941,0
701.1629,-28.600763,32.135189,1300,1.1081733,0
672.25147,-29.207726,31.090796,1300,1.207012,0
642.77679,-29.727094,30.043442,1300,1.3070862,0
612.82699,-30.157794,28.993164,1300,1.4084838,0
582.49129,-30.49869,27.93999,1300,1.5113024,0
551.86011,-30.74854,26.883952,1300,1.6156471,0
521.02517,-30.905959,25.825091,1300,1.7216286,0
490.07967,-30.969411,24.763463,1300,1.8293637,0
459.11839,-30.937221,23.699126,1300,1.9389778,0
428.23786,-30.807601,22.632137,1300,2.0506107,0
397.53645,-30.578681,21.562532,1300,2.1644248,0
367.11442,-30.248509,20.490327,1300,2.2806128,0
337.07405,-29.815006,19.415518,1300,2.399401,0
307.51979,-29.27588,18.338098,1300,2.521048,0
278.55854,-28.628516,17.258081,1300,2.6458396,0
250.30001,-27.869929,16.175503,1300,2.7740885,0
222.85705,-26.996799,15.090403,1300,2.9061546,0
196.34597,-26.00559,14.002786,1300,3.0424908,0
170.88667,-24.892598,12.912575,1300,3.1837046,0
146.60293,-23.653736,11.819639,1300,3.330592,0
123.62304,-22.28394,10.723887,1300,3.4840901,0
102.08115,-20.776451,9.6254213,1300,3.6451414,0
82.119145,-19.122636,8.5245686,1300,3.8146215,0
63.888058,-17.313114,7.4216072,1300,3.9937425,0
47.547809,-15.339808,6.316139,1300,4.1854826,0
33.265511,-13.196022,5.206538,1300,4.3971652,0
21.216498,-10.870408,4.0901784,1300,4.6435168,0
11.594322,-8.3363267,2.9638677,1300,4.9534484,0
4.6276271,-5.5525573,1.8177527,1300,5.4374006,0
0.58758678,-2.4667736,0.56577196,1300,8.0481732,0
1447.2009,-31.764969,49.217066,1300,0.61895676,0
1414.906,-32.814605,48.189306,1300,0.69004963,0
1381.5929,-33.801081,47.159143,1300,0.76163567,0
1347.3252,-34.7237,46.126704,1300,0.83372466,0
1312.1669,-35.582275,45.091935,1300,0.90635577,0
1276.1821,-36.376719,44.054741,1300,0.97957828,0
1239.4351,-37.106724,43.015084,1300,1.0534345,0
1201.9905,-37.771686,41.97301,1300,1.1279539,0
1163.9138,-38.370826,40.928613,1300,1.2031579,0
1125.2711,-38.90336,39.881978,1300,1.2790699,0
1086.1296,-39.368606,38.83315,1300,1.3557229,0
1046.5567,-39.765969,37.782135,1300,1.43316,0
1006.6206,-40.094837,36.728931,1300,1.5114292,0
966.39019,-40.354485,35.673556,1300,1.5905769,0
925.93511,-40.544034,34.616062,1300,1.670644,0
885.32593,-40.662519,33.556513,1300,1.7516703,0
844.63419,-40.709005,32.494951,1300,1.8337044,0
803.93231,-40.682688,31.431364,1300,1.9168139,0
763.29342,-40.5829,30.365685,1300,2.0010904,0
722.79134,-40.408981,29.297819,1300,2.0866432,0
682.50058,-40.160072,28.227702,1300,2.1735825,0
642.49673,-39.834912,27.155352,1300,2.2619991,0
602.85688,-39.43177,26.080894,1300,2.3519508,0
563.66001,-38.948571,25.00453,1300,2.4434668,0
524.98726,-38.383199,23.92646,1300,2.5365767,0
486.92175,-37.733855,22.846785,1300,2.6313548,0
449.54812,-36.999263,21.765443,1300,2.7279627,0
412.95207,-36.178552,20.682226,1300,2.8266619,0
377.22017,-35.270791,19.596877,1300,2.9277795,0
342.44018,-34.274358,18.509242,1300,3.0316314,0
308.70207,-33.186488,17.419387,1300,3.138439,0
276.09912,-32.003334,16.327597,1300,3.248298,0
244.72874,-30.720695,15.234218,1300,3.361263,0
214.69224,-29.335097,14.13939,1300,3.4775605,0
186.09373,-27.844502,13.042831,1300,3.5978477,0
159.03879,-26.247751,11.94388,1300,3.7233254,0
133.63453,-24.542501,10.841872,1300,3.8555004,0
109.99211,-22.722674,9.7366991,1300,3.9955742,0
88.231147,-20.777504,8.6291127,1300,4.1438213,0
68.483406,-18.694257,7.5202842,1300,4.2998345,0
50.891906,-16.464222,6.4104811,1300,4.4648029,0
35.604567,-14.086145,5.2977115,1300,4.6459681,0
22.769654,-11.558027,4.1779586,1300,4.8610043,0
12.54558,-8.8585567,3.0467731,1300,5.1431875,0
5.1253955,-5.9418299,1.8947837,1300,5.5999222,0
0.75148861,-2.751624,0.64559501,1300,7.8524492,0
1116.9386,-30.961386,42.213707,1300,0.79503338,0
1085.5263,-31.851538,41.17986,1300,0.87509297,0
1053.2592,-32.671056,40.143285,1300,0.9558677,0
1020.2081,-33.419162,39.104073,1300,1.0373876,0
986.44505,-34.095054,38.06231,1300,1.1196845,0
952.04248,-34.697998,37.018046,1300,1.2027987,0
917.07371,-35.227345,35.971293,1300,1.2867822,0
881.61266,-35.682445,34.922044,1300,1.3716941,0
845.73394,-36.062552,33.870306,1300,1.4575951,0
809.51298,-36.36676,32.816117,1300,1.5445418,0
773.0262,-36.594012,31.759544,1300,1.6325875,0
736.35112,-36.743179,30.700656,1300,1.7217868,0
699.56638,-36.813132,29.639508,1300,1.8122038,0
662.75175,-36.802784,28.576119,1300,1.9039177,0
625.98807,-36.711059,27.510485,1300,1.9970233,0
589.35728,-36.536802,26.442596,1300,2.0916264,0
552.94255,-36.278705,25.372458,1300,2.1878373,0
516.82846,-35.93527,24.300101,1300,2.2857687,0
481.10115,-35.504859,23.225561,1300,2.3855407,0
445.84845,-34.985772,22.14886,1300,2.4872944,0
411.15989,-34.376293,21.069984,1300,2.5912039,0
377.12674,-33.67463,19.988895,1300,2.6974793,0
343.84219,-32.87874,18.905568,1300,2.8063526,0
311.40166,-31.986126,17.820037,1300,2.9180513,0
279.90335,-30.993767,16.732415,1300,3.0327831,0
249.44867,-29.8983,15.642846,1300,3.1507621,0
220.14239,-28.696463,14.55139,1300,3.2722998,0
192.09231,-27.385467,13.457905,1300,3.3979421,0
165.40883,-25.962864,12.362023,1300,3.5285688,0
140.20499,-24.425557,11.263324,1300,3.6653303,0
116.59789,-22.768214,10.161658,1300,3.8093462,0
94.711639,-20.982185,9.0574236,1300,3.961292,0
74.680329,-19.056476,7.9514302,1300,4.1213653,0
56.648792,-16.981387,6.8441013,1300,4.2904879,0
40.76924,-14.752127,5.7343399,1300,4.4733331,0
27.197048,-12.365751,4.6191683,1300,4.6822484,0
16.094911,-9.8078294,3.4948107,1300,4.9409413,0
7.6512799,-7.0409348,2.3559283,1300,5.3053521,0
2.0984246,-4.0191819,1.1733998,1300,6.1786357,0
528.09772,-37.923042,24.145048,1300,2.4694143,0
490.46289,-37.332599,23.066702,1300,2.5650711,0
453.46122,-36.656495,21.986545,1300,2.6625935,0
417.179,-35.893526,20.904449,1300,2.7622017,0
381.70367,-35.042483,19.820234,1300,2.8641768,0
347.12409,-34.10168,18.733775,1300,2.9688085,0
313.53123,-33.06854,17.64511,1300,3.0763274,0
281.01911,-31.939552,16.554456,1300,3.1868712,0
249.68556,-30.710763,15.462106,1300,3.3005361,0
219.63221,-29.37866,14.36821,1300,3.4175431,0
190.96366,-27.940869,13.272568,1300,3.5384641,0
163.78638,-26.395881,12.174624,1300,3.6643586,0
138.20853,-24.741435,11.073746,1300,3.7966307,0
114.34192,-22.972186,9.9697264,1300,3.9365341,0
92.305845,-21.078405,8.8631286,1300,4.084571,0
72.230986,-19.04775,7.7550388,1300,4.2405,0
54.259561,-16.870448,6.6459594,1300,4.4050494,0
38.540228,-14.543597,5.5344256,1300,4.5838299,0
25.222703,-12.06598,4.4168312,1300,4.7917823,0
14.463922,-9.421229,3.2889077,1300,5.0572386,0
6.4502074,-6.5674994,2.1438069,1300,5.4550961,0
1.4148798,-3.4557003,0.93694324,1300,6.7046869,0
1322.97,-29.10001,47.492068,1300,0.55361383,0
1293.312,-30.205061,46.466801,1300,0.6282162,0
1262.582,-31.244041,45.438884,1300,0.70335724,0
1230.8462,-32.216503,44.40835,1300,0.77906658,0
1198.1714,-33.122129,43.375179,1300,0.85538443,0
1164.6245,-33.960507,42.339368,1300,0.9323503,0
1130.2731,-34.731019,41.300973,1300,1.0099955,0
1095.1854,-35.43288,40.26009,1300,1.0883444,0
1059.4306,-36.06528,39.216814,1300,1.167422,0
1023.0784,-36.627504,38.1712,1300,1.2472628,0
986.1993,-37.118955,37.123253,1300,1.327914,0
948.86438,-37.539076,36.07295,1300,1.4094323,0
911.14526,-37.887231,35.020279,1300,1.4918766,0
873.11429,-38.162615,33.965259,1300,1.5753014,0
834.84473,-38.364242,32.907951,1300,1.6597549,0
796.41088,-38.491028,31.848428,1300,1.7452839,0
757.88811,-38.541888,30.786748,1300,1.8319429,0
719.35288,-38.515807,29.722932,1300,1.9198015,0
680.8826,-38.411816,28.656968,1300,2.0089467,0
642.55568,-38.2289,27.588832,1300,2.0994771,0
604.45163,-37.965875,26.518523,1300,2.1914932,0
566.65125,-37.621315,25.44608,1300,2.2850895,0
529.23686,-37.193589,24.371572,1300,2.3803566,0
492.2925,-36.680992,23.295063,1300,2.4773959,0
455.90386,-36.081893,22.216569,1300,2.5763422,0
420.1582,-35.394788,21.136036,1300,2.6773818,0
385.14427,-34.618167,20.053361,1300,2.7807506,0
350.95245,-33.750214,18.968467,1300,2.8867056,0
317.67525,-32.788483,17.881375,1300,2.9954792,0
285.40796,-31.729792,16.792238,1300,3.1072479,0
254.24936,-30.570502,15.701278,1300,3.22216,0
224.30183,-29.307155,14.60863,1300,3.3404528,0
195.67082,-27.937076,13.514162,1300,3.4626343,0
168.46408,-26.458309,12.417437,1300,3.5896223,0
142.79139,-24.868453,11.3179,1300,3.7226802,0
118.76596,-23.162691,10.215289,1300,3.8630523,0
96.507704,-21.332349,9.1099884,1300,4.0114336,0
76.146896,-19.365816,8.002938,1300,4.1678221,0
57.825256,-17.252681,6.8947713,1300,4.3327152,0
41.692259,-14.988289,5.7845116,1300,4.5103599,0
27.899707,-12.571227,4.6690668,1300,4.7130446,0
16.604758,-9.9892044,3.5443974,1300,4.9647621,0
7.9886854,-7.2055731,2.4052199,1300,5.3197584,0
2.2770771,-4.1730154,1.2247393,1300,6.1426821,0
622.52118,-31.378092,28.928777,1300,1.4974797,0
591.00411,-31.641387,27.873204,1300,1.5985259,0
559.26838,-31.815215,26.81488,1300,1.7010979,0
527.40412,-31.898176,25.753847,1300,1.8053037,0
495.50298,-31.888724,24.690158,1300,1.9112578,0
463.65819,-31.785186,23.623871,1300,2.0190836,0
431.96472,-31.585779,22.555035,1300,2.1289197,0
400.51937,-31.288644,21.483684,1300,2.2409275,0
369.42082,-30.891844,20.409828,1300,2.3552994,0
338.76976,-30.393311,19.333459,1300,2.4722609,0
308.66905,-29.79075,18.25457,1300,2.5920679,0
279.22399,-29.081533,17.173179,1300,2.7150005,0
250.54271,-28.262663,16.089326,1300,2.8413646,0
222.7365,-27.330843,15.003049,1300,2.9715176,0
195.92002,-26.282622,13.914331,1300,3.105923,0
170.21144,-25.114432,12.823064,1300,3.2452175,0
145.73266,-23.822299,11.729081,1300,3.390237,0
122.61004,-22.401139,10.632283,1300,3.5419422,0
100.97593,-20.843964,9.5328062,1300,3.7012469,0
80.970672,-19.141823,8.4310442,1300,3.8689409,0
62.744041,-17.28524,7.3273069,1300,4.0461792,0
46.454529,-15.266541,6.2211146,1300,4.2361218,0
32.267247,-13.079666,5.110644,1300,4.4467434,0
20.355189,-10.713119,3.9930715,1300,4.6939993,0
10.91042,-8.138761,2.8649642,1300,5.0097252,0
4.1615869,-5.3143901,1.7146984,1300,5.5267752,0
0.38202929,-2.1773034,0.42929828,1300,9.4716912,0
710.5943,-25.359095,33.452169,1300,0.84428612,0
684.80855,-26.197862,32.41608,1300,0.94449538,0
658.22826,-26.948009,31.376684,1300,1.0458548,0
630.9426,-27.60842,30.334073,1300,1.1484366,0
603.04187,-28.177937,29.288325,1300,1.252321,0
574.61756,-28.655385,28.239496,1300,1.3576,0
545.76235,-29.039539,27.187628,1300,1.4643775,0
516.57018,-29.329072,26.132761,1300,1.5727665,0
487.1364,-29.522518,25.074944,1300,1.6828881,0
457.55788,-29.618261,24.014232,1300,1.7948712,0
427.93319,-29.61455,22.950684,1300,1.9088574,0
398.36272,-29.509526,21.884344,1300,2.0250074,0
368.94873,-29.301232,20.81524,1300,2.1435089,0
339.79554,-28.987592,19.743382,1300,2.2645819,0
311.0096,-28.56634,18.668768,1300,2.3884803,0
282.69976,-28.034925,17.591409,1300,2.5154883,0
254.97762,-27.390436,16.511337,1300,2.6459188,0
227.95787,-26.629589,15.428597,1300,2.7801235,0
201.75862,-25.748801,14.343223,1300,2.9185245,0
176.50172,-24.744265,13.255191,1300,3.0616664,0
152.31292,-23.611856,12.164417,1300,3.2102643,0
129.32245,-22.346745,11.070812,1300,3.3652017,0
107.66593,-20.942771,9.9743993,1300,3.5274503,0
87.486057,-19.392023,8.8753907,1300,3.6979865,0
68.934126,-17.685344,7.774053,1300,3.8779843,0
52.170586,-15.813898,6.6702419,1300,4.0697721,0
37.364065,-13.770064,5.5628269,1300,4.278889,0
24.691397,-11.543939,4.4496156,1300,4.5168809,0
14.344205,-9.1141282,3.327875,1300,4.8055919,0
6.544019,-6.442902,2.1918594,1300,5.207083,0
1.5523262,-3.490165,1.0034358,1300,6.2845745,0
638.36218,-24.923927,31.417025,1300,0.91479663,0
613.04316,-25.698848,30.378411,1300,1.0200608,0
586.99571,-26.380564,29.336431,1300,1.1266305,0
560.31367,-26.967836,28.291169,1300,1.2345946,0
533.09211,-27.459381,27.242697,1300,1.3440532,0
505.42742,-27.853855,26.191069,1300,1.4551191,0
477.4174,-28.149816,25.136333,1300,1.5679167,0
449.16132,-28.345689,24.078542,1300,1.6825813,0
420.76012,-28.439756,23.017748,1300,1.799261,0
392.31653,-28.430171,21.953997,1300,1.9181223,0
363.93516,-28.314964,20.887323,1300,2.0393561,0
335.72269,-28.092028,19.817742,1300,2.1631838,0
307.78796,-27.75906,18.745265,1300,2.28986,0
280.24229,-27.313483,17.669909,1300,2.4196706,0
253.1997,-26.752364,16.59171,1300,2.5529325,0
226.77737,-26.072397,15.510719,1300,2.690001,0
201.09594,-25.269946,14.426979,1300,2.8312969,0
176.27982,-24.341106,13.340491,1300,2.9773524,0
152.45748,-23.281646,12.251197,1300,3.1288592,0
129.7619,-22.086697,11.159023,1300,3.2866814,0
108.33148,-20.750208,10.063974,1300,3.4518063,0
88.311453,-19.26451,8.9662072,1300,3.6252826,0
69.855458,-17.620606,7.8659372,1300,3.8083762,0
53.126301,-15.809398,6.7630509,1300,4.0033723,0
38.295493,-13.822533,5.6565839,1300,4.2153825,0
25.543453,-11.649609,4.5445825,1300,4.454957,0
15.065309,-9.270004,3.4245324,1300,4.7420257,0
7.0847997,-6.6474786,2.2914344,1300,5.1301695,0
1.8645936,-3.7431918,1.1140846,1300,6.0479077,0
1143.2124,-28.606222,43.616661,1300,0.63985639,0
1114.087,-29.632894,42.588238,1300,0.71974553,0
1083.9703,-30.588962,41.557001,1300,0.80029041,0
1052.9329,-31.473976,40.522953,1300,0.88153566,0
1021.0463,-32.287283,39.48615,1300,0.96351814,0
988.38263,-33.028094,38.446681,1300,1.0462702,0
955.0147,-33.695613,37.404622,1300,1.1298274,0
921.0162,-34.289107,36.360017,1300,1.2142342,0
886.46151,-34.807896,35.312878,1300,1.2995452,0
851.42567,-35.251273,34.263209,1300,1.3858205,0
815.9845,-35.618414,33.211031,1300,1.4731205,0
780.21471,-35.908348,32.156392,1300,1.5615023,0
744.19404,-36.119987,31.099358,1300,1.6510222,0
708.00134,-36.252197,30.039991,1300,1.7417413,0
671.71663,-36.303857,28.978329,1300,1.8337322,0
635.42098,-36.273867,27.914383,1300,1.927083,0
599.19662,-36.161092,26.848148,1300,2.0218951,0
563.12695,-35.964287,25.779622,1300,2.1182786,0
527.29667,-35.682035,24.708825,1300,2.2163473,0
491.79203,-35.31275,23.635788,1300,2.3162203,0
456.7009,-34.854738,22.560543,1300,2.4180302,0
422.11286,-34.306259,21.483098,1300,2.5219363,0
388.11928,-33.665516,20.403431,1300,2.6281314,0
354.81339,-32.930549,19.321517,1300,2.7368376,0
322.29052,-32.099048,18.237363,1300,2.848287,0
290.64856,-31.16822,17.151044,1300,2.9627022,0
259.98843,-30.134857,16.062686,1300,3.0803023,0
230.41431,-28.995645,14.97238,1300,3.2013635,0
202.03362,-27.74756,13.880069,1300,3.3263331,0
174.95654,-26.387974,12.785484,1300,3.4559476,0
149.29596,-24.914037,11.688225,1300,3.5912459,0
125.16822,-23.321341,10.588025,1300,3.7333755,0
102.69548,-21.60256,9.4850597,1300,3.8832165,0
82.008757,-19.747468,8.3800054,1300,4.0411422,0
63.249789,-17.745503,7.2735186,1300,4.2076279,0
46.569318,-15.589778,6.1651834,1300,4.3855063,0
32.122677,-13.277355,5.05273,1300,4.5836629,0
20.069686,-10.799799,3.9326073,1300,4.8205828,0
10.587697,-8.1286186,2.8007594,1300,5.1327275,0
3.8927086,-5.2183986,1.6439151,1300,5.67689,0
0.25064045,-1.9922475,0.31888323,1300,11.8233,0
1306.4688,-27.921446,47.539314,1300,0.50281319,0
1277.967,-29.071055,46.515865,1300,0.5780871,0
1248.349,-30.153995,45.489697,1300,0.65389612,0
1217.6815,-31.169782,44.460862,1300,0.73026788,0
1186.032,-32.118086,43.429345,1300,0.80724163,0
1153.4681,-32.998532,42.395138,1300,0.88485867,0
1120.0579,-33.810559,41.358277,1300,0.96315371,0
1085.8701,-34.553419,40.318853,1300,1.0421536,0
1050.9745,-35.226293,39.276965,1300,1.1218836,0
1015.4413,-35.828428,38.232681,1300,1.2023761,0
979.34154,-36.359187,37.186021,1300,1.2836754,0
942.74698,-36.818001,36.13697,1300,1.3658373,0
905.72984,-37.204256,35.085509,1300,1.4489218,0
868.36303,-37.517186,34.03165,1300,1.5329865,0
830.72035,-37.75584,32.975443,1300,1.6180824,0
792.8766,-37.919134,31.916963,1300,1.7042572,0
754.9077,-38.005948,30.856281,1300,1.7915629,0
716.89068,-38.015212,29.793433,1300,1.8800644,0
678.9036,-37.945911,28.728423,1300,1.9698437,0
641.02552,-37.797025,27.661233,1300,2.0609974,0
603.33659,-37.567412,26.591852,1300,2.1536285,0
565.91819,-37.255724,25.5203,1300,2.2478389,0
528.85316,-36.860409,24.446627,1300,2.343728,0
492.22595,-36.379796,23.370887,1300,2.4414033,0
456.1227,-35.812227,22.2931,1300,2.5409987,0
420.63115,-35.156115,21.213232,1300,2.6426915,0
385.84066,-34.409857,20.131207,1300,2.7467043,0
351.84226,-33.571585,19.046963,1300,2.8532834,0
318.72912,-32.638886,17.960518,1300,2.9626605,0
286.59715,-31.608682,16.872006,1300,3.0750246,0
255.5456,-30.477448,15.781622,1300,3.1905431,0
225.67725,-29.241763,14.689489,1300,3.3094636,0
197.098,-27.898861,13.595496,1300,3.4322786,0
169.91615,-26.446617,12.499245,1300,3.5598599,0
144.24221,-24.882526,11.400219,1300,3.6934172,0
120.1901,-23.201888,10.29815,1300,3.8341761,0
97.880233,-21.396362,9.1933693,1300,3.9828835,0
77.443007,-19.454647,8.0867565,1300,4.139629,0
59.020145,-17.366243,6.9789607,1300,4.3048874,0
42.761468,-15.125929,5.8691482,1300,4.482532,0
28.819646,-12.732012,4.7544149,1300,4.6840147,0
17.352368,-10.173261,3.6308227,1300,4.9319783,0
8.5398231,-7.4148712,2.4934558,1300,5.2756111,0
2.6053905,-4.4098649,1.3195622,1300,6.011976,0
548.93048,-33.744667,25.93685,1300,1.9302092,0
515.23739,-33.626688,24.870249,1300,2.0323154,0
481.70747,-33.418076,23.801213,1300,2.1362441,0
448.43218,-33.117103,22.729784,1300,2.2421287,0
415.50481,-32.721956,21.65599,1300,2.350123,0
383.02045,-32.230745,20.579839,1300,2.4604097,0
351.07617,-31.641459,19.501322,1300,2.5732034,0
319.77114,-30.951851,18.420438,1300,2.6887444,0
289.20694,-30.159329,17.337212,1300,2.8072896,0
259.48795,-29.260925,16.251704,1300,2.9291127,0
230.72164,-28.253416,15.163965,1300,3.0545346,0
203.01876,-27.133543,14.073972,1300,3.1839928,0
176.49326,-25.898109,12.981573,1300,3.3181257,0
151.2624,-24.543654,11.886519,1300,3.4578076,0
127.44734,-23.065591,10.788626,1300,3.6040544,0
105.17486,-21.45718,9.6879971,1300,3.7577876,0
84.579702,-19.70927,8.5851,1300,3.9196518,0
65.806418,-17.81188,7.4804391,1300,4.0904008,0
49.008681,-15.757192,6.3737526,1300,4.2725459,0
34.346315,-13.540387,5.2632717,1300,4.4733814,0
21.984858,-11.153007,4.1459667,1300,4.7083178,0
12.105525,-8.5701838,3.0183341,1300,5.0068966,0
4.9243558,-5.7492904,1.871116,1300,5.4734519,0
0.7016884,-2.638895,0.62689887,1300,7.7470315,0
680.68909,-23.663092,33.122426,1300,0.75697158,0
656.56116,-24.577793,32.089115,1300,0.8599917,0
631.56403,-25.401357,31.052324,1300,0.96418137,0
605.78934,-26.132716,30.012132,1300,1.0696224,0
579.32989,-26.770674,28.968628,1300,1.1763984,0
552.2797,-27.313982,27.92189,1300,1.2846021,0
524.73406,-27.761344,26.87198,1300,1.3943383,0
496.78961,-28.111393,25.818946,1300,1.5057242,0
468.54438,-28.362638,24.762839,1300,1.6188877,0
440.09798,-28.513453,23.703711,1300,1.7339674,0
411.55171,-28.562069,22.641613,1300,1.8511167,0
383.00871,-28.506596,21.576589,1300,1.9705091,0
354.57406,-28.345022,20.508664,1300,2.0923454,0
326.35493,-28.075184,19.437851,1300,2.2168584,0
298.46075,-27.694696,18.36416,1300,2.3443137,0
271.0035,-27.200866,17.287613,1300,2.4750076,0
244.09801,-26.590634,16.208253,1300,2.6092685,0
217.86237,-25.860572,15.12613,1300,2.7474699,0
192.41826,-25.006953,14.041276,1300,2.8900657,0
167.89119,-24.025783,12.953669,1300,3.0376404,0
144.41088,-22.912669,11.863234,1300,3.1909489,0
122.11179,-21.662398,10.769912,1300,3.3509077,0
101.13423,-20.268366,9.6737612,1300,3.5185253,0
81.625961,-18.722339,8.5749884,1300,3.6948778,0
63.74356,-17.015108,7.4737551,1300,3.8814411,0
47.652704,-15.137886,6.3696983,1300,4.0812393,0
33.527502,-13.082291,5.2614686,1300,4.3010121,0
21.55202,-10.835491,4.1468463,1300,4.5540401,0
11.929182,-8.3712251,3.023007,1300,4.8664888,0
4.895751,-5.6500588,1.8811485,1300,5.3351769,0
0.7285964,-2.625553,0.64868848,1300,7.4231035,0
638.08014,-30.731533,29.596911,1300,1.4048173,0
607.16883,-31.076455,28.543895,1300,1.5055958,0
575.95712,-31.332149,27.488068,1300,1.6078365,0
544.53487,-31.497307,26.429464,1300,1.7116451,0
512.99332,-31.570476,25.368132,1300,1.8171326,0
481.42526,-31.550057,24.304128,1300,1.924417,0
449.92514,-31.434327,23.23751,1300,2.0336271,0
418.58915,-31.221471,22.168325,1300,2.1449098,0
387.51536,-30.909596,21.096597,1300,2.2584377,0
356.80379,-30.496719,20.022331,1300,2.3744161,0
326.55648,-29.980697,18.945518,1300,2.4930838,0
296.87775,-29.35912,17.866156,1300,2.6147082,0
267.87452,-28.629225,16.784271,1300,2.7395806,0
239.65663,-27.787885,15.699906,1300,2.8680246,0
212.33722,-26.83171,14.613088,1300,3.0004304,0
186.03286,-25.757172,13.523775,1300,3.1373146,0
160.86376,-24.560553,12.431842,1300,3.279379,0
136.95409,-23.237522,11.337136,1300,3.4275093,0
114.43296,-21.782371,10.239632,1300,3.5826677,0
93.436168,-20.187395,9.1395597,1300,3.7457314,0
74.108131,-18.44328,8.0373216,1300,3.9175551,0
56.602632,-16.540972,6.9330177,1300,4.0997971,0
41.081513,-14.473541,5.8257259,1300,4.2969825,0
27.713132,-12.233924,4.7132144,1300,4.5194748,0
16.676654,-9.8055884,3.5925597,1300,4.7869767,0
8.1767549,-7.1536576,2.4593375,1300,5.1456942,0
2.4583025,-4.2364456,1.2901794,1300,5.8953649,0
1127.903,-26.833691,43.863451,1300,0.55165584,0
1100.5113,-27.937897,42.838084,1300,0.63249419,0
1072.0512,-28.970432,41.80987,1300,0.71396345,0
1042.5945,-29.930939,40.778788,1300,0.7961117,0
1012.2136,-30.818951,39.744842,1300,0.8789859,0
980.98113,-31.633805,38.708086,1300,0.96262605,0
948.97074,-32.374709,37.668603,1300,1.0470683,0
916.25676,-33.040853,36.626466,1300,1.1323521,0
882.91433,-33.631474,35.58172,1300,1.2185249,0
849.01936,-34.14583,34.534387,1300,1.305643,0
814.64848,-34.583135,33.484484,1300,1.3937671,0
779.8792,-34.942499,32.432043,1300,1.4829589,0
744.78994,-35.222905,31.377116,1300,1.573279,0
709.46021,-35.423257,30.319758,1300,1.6647907,0
673.97062,-35.542423,29.260016,1300,1.7575648,0
638.40294,-35.579272,28.197915,1300,1.8516848,0
602.84004,-35.53265,27.133463,1300,1.9472474,0
567.36601,-35.401323,26.066663,1300,2.0443601,0
532.06623,-35.183912,24.997529,1300,2.1431368,0
497.02754,-34.878874,23.926092,1300,2.2436969,0
462.3384,-34.484528,22.852385,1300,2.34617,0
428.08899,-33.999115,21.776429,1300,2.4507066,0
394.37129,-33.420813,20.698222,1300,2.557487,0
361.27913,-32.747681,19.617745,1300,2.666723,0
328.90843,-31.977505,18.534996,1300,2.778646,0
297.3575,-31.107667,17.450021,1300,2.8934899,0
266.7275,-30.135121,16.362916,1300,3.0114892,0
237.12276,-29.056598,15.273771,1300,3.1329163,0
208.65087,-27.868944,14.182576,1300,3.2581715,0
181.42239,-26.569308,13.089136,1300,3.3878952,0
155.55072,-25.154787,11.993112,1300,3.5230177,0
131.15262,-23.621363,10.894212,1300,3.6646436,0
108.34996,-21.962571,9.7924785,1300,3.8137457,0
87.272599,-20.169031,8.6884402,1300,3.9708732,0
68.060621,-18.230136,7.5827829,1300,4.1364425,0
50.863818,-16.137712,6.4754559,1300,4.3124162,0
35.837942,-13.887814,5.3647496,1300,4.505578,0
23.142775,-11.47442,4.2474395,1300,4.7311278,0
12.951028,-8.875338,3.1198366,1300,5.0177627,0
5.4686592,-6.0479018,1.9738313,1300,5.4562294,0
0.94665158,-2.9434229,0.74726242,1300,7.2060284,0
587.05396,-31.501816,27.789714,1300,1.5953021,0
555.45642,-31.67833,26.731464,1300,1.6982612,0
523.72785,-31.76363,25.670494,1300,1.8028646,0
491.96024,-31.756157,24.606857,1300,1.9092275,0
460.24718,-31.654226,23.540612,1300,2.0174746,0
428.68403,-31.456046,22.471809,1300,2.1277462,0
397.36795,-31.159749,21.400479,1300,2.2402065,0
366.39805,-30.763388,20.326631,1300,2.3550504,0
335.8754,-30.264879,19.250256,1300,2.4725068,0
305.90328,-29.661902,18.17135,1300,2.5928345,0
276.58747,-28.951801,17.089931,1300,2.7163163,0
248.03658,-28.131549,16.006039,1300,2.8432625,0
220.36239,-27.197826,14.919711,1300,2.9740373,0
193.6801,-26.147157,13.830926,1300,3.1091154,0
168.10845,-24.975938,12.739574,1300,3.2491461,0
143.76996,-23.680112,11.645491,1300,3.3949751,0
120.7917,-22.254461,10.548593,1300,3.5475633,0
99.306893,-20.691847,9.4490384,1300,3.7078181,0
79.456906,-18.983236,8.347222,1300,3.8765417,0
61.392502,-17.11923,7.2434127,1300,4.0549865,0
45.273047,-15.092312,6.13704,1300,4.2465793,0
31.264479,-12.896256,5.0261923,1300,4.4597662,0
19.541174,-10.518568,3.9080284,1300,4.7112019,0
10.297932,-7.9295993,2.7789931,1300,5.0349602,0
3.7670969,-5.0870798,1.6257012,1300,5.5864663,0
0.22765827,-1.9153932,0.30196999,1300,12.014129,0
1393.2701,-28.970673,49.045787,1300,0.50951813,0
1363.722,-30.115176,48.022227,1300,0.58236383,0
1333.0613,-31.19553,46.995912,1300,0.65573042,0
1301.3527,-32.210851,45.967035,1300,0.72962171,0
1268.6615,-33.160637,44.935649,1300,0.80406229,0
1235.0535,-34.044624,43.901721,1300,0.87909272,0
1200.5944,-34.862491,42.865219,1300,0.95475534,0
1165.3508,-35.613697,41.826176,1300,1.0310839,0
1129.3896,-36.297491,40.784679,1300,1.1081028,0
1092.7787,-36.913055,39.74083,1300,1.1858348,0
1055.5866,-37.459646,38.694693,1300,1.2643101,0
1017.8827,-37.936648,37.646285,1300,1.3435715,0
979.73682,-38.343506,36.595587,1300,1.4236718,0
941.2194,-38.679608,35.542586,1300,1.5046675,0
902.40156,-38.944191,34.487295,1300,1.5866116,0
863.35529,-39.136319,33.429768,1300,1.6695509,0
824.15355,-39.254955,32.370071,1300,1.7535314,0
784.87035,-39.299067,31.308255,1300,1.838606,0
745.5807,-39.267702,30.244331,1300,1.924844,0
706.36053,-39.159967,29.178274,1300,2.0123323,0
667.28666,-38.97492,28.110049,1300,2.1011696,0
628.43696,-38.711431,27.039649,1300,2.1914542,0
589.89055,-38.368078,25.967121,1300,2.2832732,0
551.72812,-37.943179,24.892561,1300,2.3767013,0
514.03211,-37.434937,23.816072,1300,2.4718157,0
476.88674,-36.841654,22.73771,1300,2.5687229,0
440.37779,-36.161867,21.657437,1300,2.6675867,0
404.59242,-35.394273,20.575129,1300,2.7686366,0
369.61913,-34.537426,19.490645,1300,2.872146,0
335.54813,-33.589316,18.403922,1300,2.9783802,0
302.47203,-32.547077,17.315056,1300,3.0875417,0
270.48672,-31.407087,16.224284,1300,3.1997602,0
239.69188,-30.16555,15.131847,1300,3.3151736,0
210.19071,-28.819308,14.037786,1300,3.4341074,0
182.08905,-27.366263,12.941789,1300,3.5572769,0
155.49451,-25.804722,11.843265,1300,3.6858495,0
130.51696,-24.131545,10.741697,1300,3.8212055,0
107.27101,-22.340043,9.6371098,1300,3.9643994,0
85.880094,-20.419471,8.5302686,1300,4.1156784,0
66.479375,-18.35784,7.4221839,1300,4.2748945,0
49.214375,-16.147328,6.3128512,1300,4.4438462,0
34.235075,-13.786457,5.2001064,1300,4.6305208,0
21.692988,-11.271062,4.0800397,1300,4.8531223,0
11.75254,-8.5768703,2.9483522,1300,5.1462228,0
4.6147783,-5.6575891,1.7943385,1300,5.6341901,0
0.53013969,-2.4517434,0.52147642,1300,8.73123,0
602.33063,-33.281677,27.752267,1300,1.7266291,0
569.01068,-33.343707,26.690718,1300,1.8266701,0
535.67291,-33.317081,25.626624,1300,1.9283384,0
502.40673,-33.200277,24.560025,1300,2.0317485,0
469.30312,-32.991638,23.490969,1300,2.1370241,0
436.4548,-32.689401,22.419498,1300,2.2443039,0
403.95629,-32.291724,21.345636,1300,2.3537499,0
371.90397,-31.79668,20.269386,1300,2.465555,0
340.39624,-31.2022,19.190739,1300,2.5799433,0
309.53366,-30.505951,18.109696,1300,2.6971642,0
279.41932,-29.705244,17.026289,1300,2.8174842,0
250.15919,-28.797028,15.940574,1300,2.9411933,0
221.86238,-27.778038,14.852587,1300,3.0686438,0
194.64132,-26.644984,13.762277,1300,3.2003222,0
168.61173,-25.394555,12.669471,1300,3.3369246,0
143.89278,-24.022976,11.57394,1300,3.4793641,0
120.60806,-22.525084,10.475572,1300,3.6286427,0
98.887393,-20.89345,9.3745739,1300,3.7856176,0
78.869152,-19.118559,8.2714516,1300,3.9509277,0
60.701511,-17.190823,7.166553,1300,4.1256607,0
44.541056,-15.10333,6.059231,1300,4.3133755,0
30.550011,-12.850975,4.9473193,1300,4.5232723,0
18.89818,-10.421595,3.8276917,1300,4.7735134,0
9.7763138,-7.7842089,2.696456,1300,5.1018046,0
3.4142017,-4.8953332,1.5380701,1300,5.6936983,0
0.080426065,-1.9068182,1.5245581,1300,6.4173245,0
706.02728,-36.266895,29.979445,1300,1.7475964,0
669.73046,-36.313367,28.917637,1300,1.8396487,0
633.42792,-36.278136,27.853545,1300,1.9330662,0
597.20193,-36.160067,26.787165,1300,2.0279511,0
561.13595,-35.957903,25.718495,1300,2.1244136,0
525.31477,-35.670218,24.647556,1300,2.2225679,0
489.8247,-35.295419,23.574381,1300,2.3225333,0
454.75369,-34.831807,22.499,1300,2.4244438,0
420.19142,-34.277639,21.421417,1300,2.5284603,0
386.22935,-33.631116,20.341613,1300,2.6347778,0
352.96079,-32.890262,19.259559,1300,2.7436196,0
320.4812,-32.052742,18.175269,1300,2.8552176,0
288.88863,-31.115735,17.088821,1300,2.9697935,0
258.28414,-30.076016,16.000342,1300,3.0875673,0
228.77212,-28.930274,14.909917,1300,3.2088211,0
200.46012,-27.675515,13.817479,1300,3.3340159,0
173.45848,-26.309123,12.722747,1300,3.463907,0
147.88022,-24.828202,11.625318,1300,3.5995476,0
123.84193,-23.228211,10.524943,1300,3.7420813,0
101.46617,-21.501635,9.4218304,1300,3.8923618,0
80.884527,-19.638134,8.3166749,1300,4.0507383,0
62.239324,-17.627245,7.2101041,1300,4.2177408,0
45.681676,-15.462375,6.1016084,1300,4.3964405,0
31.367066,-13.140635,4.9888134,1300,4.5961858,0
19.455793,-10.652811,3.8681354,1300,4.8361282,0
10.126853,-7.9690432,2.735418,1300,5.1547091,0
3.5988209,-5.0437208,1.575867,1300,5.7293466,0
0.13330348,-1.9689824,0.1834927,1300,20.789297,0
1292.3956,-27.294371,47.448234,1300,0.47863608,0
1264.5103,-28.465168,46.425634,1300,0.55441504,0
1235.4878,-29.568817,45.400289,1300,0.63072837,0
1205.3954,-30.604825,44.372251,1300,0.70760345,0
1174.3009,-31.572864,43.341509,1300,0.78507984,0
1142.2725,-32.472578,42.308047,1300,0.86320007,0
1109.3788,-33.303429,41.271897,1300,0.94200064,0
1075.689,-34.064686,40.233142,1300,1.02151,0
1041.273,-34.755533,39.191882,1300,1.1017543,0
1006.2018,-35.375203,38.148191,1300,1.1827658,0
970.5467,-35.923041,37.102092,1300,1.2645885,0
934.37994,-36.398463,36.053575,1300,1.3472776,0
897.77424,-36.800847,35.002624,1300,1.4308935,0
860.80297,-37.12943,33.949249,1300,1.5154947,0
823.54041,-37.383265,32.893498,1300,1.6011337,0
786.06184,-37.561269,31.835447,1300,1.6878592,0
748.44366,-37.66231,30.775166,1300,1.7757237,0
710.76337,-37.685297,29.712698,1300,1.8647915,0
673.09956,-37.629196,28.648051,1300,1.9551443,0
635.53182,-37.492968,27.58121,1300,2.0468782,0
598.14085,-37.275469,26.512164,1300,2.1400978,0
561.00856,-36.975365,25.440928,1300,2.2349079,0
524.2183,-36.59112,24.367544,1300,2.3314126,0
487.85506,-36.121078,23.292058,1300,2.4297244,0
452.00545,-35.56357,22.214491,1300,2.5299809,0
416.75776,-34.916971,21.134811,1300,2.6323598,0
382.20191,-34.179612,20.052955,1300,2.7370807,0
348.42959,-33.349551,18.968875,1300,2.8443849,0
315.53468,-32.424325,17.882599,1300,2.9545004,0
283.61385,-31.400847,16.79426,1300,3.0676194,0
252.76707,-30.275637,15.704037,1300,3.1839233,0
223.09778,-29.045342,14.612028,1300,3.3036844,0
194.71251,-27.707228,13.518102,1300,3.4274235,0
167.72018,-26.259092,12.421859,1300,3.5560302,0
142.23207,-24.698217,11.32281,1300,3.6907052,0
118.36315,-23.019604,10.22074,1300,3.8326343,0
96.23514,-21.214683,9.116025,1300,3.9825169,0
75.979883,-19.272182,8.0095353,1300,4.1404552,0
57.74033,-17.181958,6.901826,1300,4.3071056,0
41.667132,-14.939147,5.7919146,1300,4.4867669,0
27.913737,-12.541666,4.6768099,1300,4.691488,0
16.639601,-9.9767204,3.5526097,1300,4.9447042,0
8.0284478,-7.2078992,2.4141472,1300,5.299529,0
2.3078057,-4.1885657,1.2351733,1300,6.1102966,0
779.20428,-24.41968,35.738391,1300,0.69472529,0
754.29174,-25.391384,34.70753,1300,0.79130844,0
728.45011,-26.277718,33.673322,1300,0.88888959,0
701.76519,-27.077824,32.635822,1300,0.98753841,0
674.3237,-27.790668,31.595117,1300,1.0873204,0
646.21346,-28.415142,30.551297,1300,1.188305,0
617.52339,-28.95013,29.504429,1300,1.2905716,0
588.34355,-29.3945,28.454557,1300,1.3942118,0
558.76515,-29.74706,27.401716,1300,1.4993278,0
528.88062,-30.006507,26.345943,1300,1.60603,0
498.78381,-30.17139,25.287285,1300,1.714435,0
468.57006,-30.240109,24.225799,1300,1.8246667,0
438.33639,-30.21093,23.161545,1300,1.9368601,0
408.18161,-30.082013,22.094572,1300,2.0511685,0
378.20642,-29.851435,21.02491,1300,2.1677712,0
348.51347,-29.517167,19.952564,1300,2.2868797,0
319.20755,-29.07701,18.877533,1300,2.4087398,0
290.39575,-28.528502,17.79982,1300,2.5336277,0
262.18779,-27.868824,16.719449,1300,2.6618469,0
234.69641,-27.094787,15.636464,1300,2.7937356,0
208.03769,-26.202897,14.550899,1300,2.9296959,0
182.33133,-25.189455,13.462734,1300,3.0702467,0
157.70082,-24.050503,12.371879,1300,3.2160762,0
134.27389,-22.781465,11.278223,1300,3.3680486,0
112.18341,-21.376493,10.181759,1300,3.5271239,0
91.568982,-19.827944,9.0826855,1300,3.6942429,0
72.578669,-18.126712,7.9813191,1300,3.8704304,0
55.36974,-16.263806,6.8776634,1300,4.0576023,0
40.107718,-14.231764,5.770777,1300,4.2605018,0
26.965578,-12.022199,4.6585501,1300,4.4894936,0
16.128638,-9.6169959,3.5382473,1300,4.7641681,0
7.8089023,-6.9807728,2.4053275,1300,5.1325717,0
2.2580684,-4.0730801,1.2342222,1300,5.9283835,0
620.67108,-23.569832,31.306756,1300,0.83388011,0
596.67081,-24.415131,30.270726,1300,0.94126394,0
571.87265,-25.165418,29.231153,1300,1.0499674,0
546.37222,-25.819437,28.188133,1300,1.1600823,0
520.26647,-26.375848,27.141757,1300,1.2717079,0
493.65369,-26.833251,26.092098,1300,1.3849562,0
466.63363,-27.190174,25.039217,1300,1.4999527,0
439.30753,-27.445033,23.983168,1300,1.6168368,0
411.77833,-27.596113,22.924003,1300,1.7357629,0
384.15069,-27.64156,21.861766,1300,1.8569038,0
356.53126,-27.579387,20.796493,1300,1.980457,0
329.02869,-27.407444,19.728204,1300,2.1066493,0
301.75393,-27.123375,18.65692,1300,2.2357397,0
274.82038,-26.724538,17.582663,1300,2.3680193,0
248.3443,-26.20794,16.505478,1300,2.5038112,0
222.44508,-25.570216,15.425419,1300,2.6434806,0
197.24568,-24.807664,14.342532,1300,2.7874601,0
172.8729,-23.916293,13.256819,1300,2.9362951,0
149.4577,-22.891756,12.168235,1300,3.090689,0
127.13567,-21.729043,11.076714,1300,3.2515193,0
106.04795,-20.421976,9.9822654,1300,3.4197972,0
86.342653,-18.962808,8.8850323,1300,3.5966294,0
68.176314,-17.342506,7.7851875,1300,3.7834028,0
51.714719,-15.551844,6.6825648,1300,3.9825993,0
37.132637,-13.581982,5.576181,1300,4.1995736,0
24.614516,-11.421438,4.4641428,1300,4.4451135,0
14.360833,-9.0481545,3.3440087,1300,4.7397072,0
6.6017922,-6.4253912,2.2103093,1300,5.1421657,0
1.6061433,-3.5147754,1.0268396,1300,6.1739579,0
586.2962,-30.789574,27.974625,1300,1.5293958,0
555.38203,-31.023727,26.918112,1300,1.6331905,0
524.27955,-31.165941,25.858804,1300,1.738616,0
493.08146,-31.214681,24.796756,1300,1.8457879,0
461.88206,-31.168277,23.732026,1300,1.9548304,0
430.77737,-31.024947,22.664671,1300,2.065882,0
399.86526,-30.782827,21.594726,1300,2.1791035,0
369.24546,-30.439973,20.522207,1300,2.2946856,0
339.01975,-29.99432,19.447109,1300,2.412853,0
309.29202,-29.443588,18.369425,1300,2.5338624,0
280.16864,-28.785179,17.289168,1300,2.6579969,0
251.75873,-28.016124,16.206373,1300,2.7855662,0
224.17456,-27.133121,15.121081,1300,2.9169263,0
197.53183,-26.132664,14.033293,1300,3.0525266,0
171.9498,-25.011091,12.94293,1300,3.1929723,0
147.55156,-23.764374,11.849852,1300,3.3390605,0
124.46463,-22.387512,10.753961,1300,3.4917301,0
102.82236,-20.873788,9.655354,1300,3.6519204,0
82.76579,-19.214565,8.5543673,1300,3.8204861,0
64.445146,-17.400424,7.4513034,1300,3.9985832,0
48.019574,-15.42328,6.3457952,1300,4.1890904,0
33.655336,-13.276618,5.2362306,1300,4.3992049,0
21.526595,-10.949554,4.1199619,1300,4.6435121,0
11.825183,-8.4160102,2.9937983,1300,4.9504416,0
4.7776845,-5.6347553,1.848319,1300,5.4253131,0
0.65313118,-2.5552668,0.6033896,1300,7.7978535,0
925.21167,-25.516981,39.312103,1300,0.62631991,0
899.17063,-26.552166,38.283808,1300,0.71526812,0
872.13368,-27.508702,37.252379,1300,0.80502855,0
844.17978,-28.385976,36.217836,1300,0.89565927,0
815.38855,-29.18319,35.180243,1300,0.98721259,0
785.84053,-29.899413,34.139691,1300,1.0797381,0
755.61718,-30.533673,33.096262,1300,1.1732889,0
724.80096,-31.085008,32.050018,1300,1.2679266,0
693.47527,-31.552459,31.000999,1300,1.3637225,0
661.72448,-31.935035,29.949231,1300,1.460757,0
629.63398,-32.231675,28.894737,1300,1.5591176,0
597.2903,-32.441225,27.837543,1300,1.6588991,0
564.78113,-32.562417,26.77768,1300,1.7602022,0
532.19553,-32.593853,25.715188,1300,1.8631341,0
499.62401,-32.533997,24.650115,1300,1.9678085,0
467.15868,-32.381183,23.582514,1300,2.0743484,0
434.89338,-32.13364,22.512432,1300,2.1828918,0
402.92375,-31.789519,21.439899,1300,2.2935997,0
371.34734,-31.346889,20.364921,1300,2.4066638,0
340.26366,-30.803689,19.287488,1300,2.5223084,0
309.77442,-30.157617,18.207599,1300,2.6407863,0
279.98377,-29.406027,17.125274,1300,2.7623713,0
250.99872,-28.545909,16.040559,1300,2.8873619,0
222.92941,-27.573986,14.953492,1300,3.0161119,0
195.88933,-26.48688,13.864042,1300,3.1490919,0
169.99539,-25.281142,12.772075,1300,3.2869608,0
145.36807,-23.952904,11.677394,1300,3.4305857,0
122.1323,-22.497082,10.57989,1300,3.5809462,0
100.41902,-20.906536,9.4797254,1300,3.7389349,0
80.367428,-19.172081,8.3773423,1300,3.905273,0
62.126293,-17.284162,7.2730796,1300,4.0810599,0
45.853021,-15.23539,6.1664078,1300,4.2695607,0
31.711211,-13.020185,5.0553713,1300,4.4791757,0
19.872053,-10.627031,3.9370102,1300,4.7266742,0
10.526287,-8.0268866,2.8077234,1300,5.0458646,0
3.9021453,-5.1769293,1.654683,1300,5.5854521,0
0.2744101,-2.0056133,0.34313253,1300,11.018167,0
