epoch,loss,lr,val_loss,val_x_loss,val_x_mean_squared_error,val_y_loss,val_y_mean_squared_error,val_z_loss,val_z_mean_squared_error,x_loss,x_mean_squared_error,y_loss,y_mean_squared_error,z_loss,z_mean_squared_error
0,0.39025674506966,0.001,0.049049574333032975,0.017716922362959044,0.017716922362959044,0.008969338536097885,0.008969338536097885,0.022351439302216475,0.022351439302216475,0.2902557845516102,0.2902557845516102,0.016773751121798658,0.016773751121798658,0.08321652109900589,0.08321652109900589
1,0.03197070953711766,0.001,0.031205798322899325,0.011854098587271817,0.011854098587271817,0.011020803136942337,0.011020803136942337,0.008317760824253673,0.008317760824253673,0.014407612939678831,0.014407612939678831,0.0074953620847815925,0.0074953620847815925,0.010055202915970837,0.010055202915970837
2,0.02337752020197668,0.001,0.01977001155118273,0.008327413626585112,0.008327413626585112,0.006215693893009853,0.006215693893009853,0.005212453321500067,0.005212453321500067,0.01052727481112577,0.01052727481112577,0.006200406571101615,0.006200406571101615,0.0066360121073360465,0.0066360121073360465
3,0.019251515089371844,0.001,0.03566681548971871,0.011624844555871604,0.011624844555871604,0.013815891678501484,0.013815891678501484,0.010210788500673994,0.010210788500673994,0.008584516302295153,0.008584516302295153,0.005497443139500644,0.005497443139500644,0.00515469388094528,0.00515469388094528
4,0.016736922686758953,0.001,0.016113272997839156,0.0062275480166209315,0.0062275480166209315,0.004025367906511925,0.004025367906511925,0.005844258878943322,0.005844258878943322,0.007147817745543762,0.007147817745543762,0.004891181427760279,0.004891181427760279,0.0046821951100002,0.0046821951100002
5,0.015129403414187559,0.001,0.010602554233285351,0.004516615677563793,0.004516615677563793,0.003503761565573796,0.003503761565573796,0.0025654652176195754,0.0025654652176195754,0.006316330369810152,0.006316330369810152,0.004516069217885453,0.004516069217885453,0.004280550205325356,0.004280550205325356
6,0.014412272701049734,0.001,0.013173755386888178,0.006015766797033029,0.006015766797033029,0.0038514912533844266,0.0038514912533844266,0.003289067799996456,0.003289067799996456,0.006108189468828223,0.006108189468828223,0.004261223293595825,0.004261223293595825,0.004025808029545056,0.004025808029545056
7,0.013467340948207247,0.001,0.01517687073080904,0.004754443590800507,0.004754443590800507,0.0076654458076298015,0.0076654458076298015,0.0027388342205330774,0.0027388342205330774,0.005508664665112829,0.005508664665112829,0.004203605745604785,0.004203605745604785,0.0037372840888273526,0.0037372840888273526
8,0.012953286225785112,0.001,0.010151566542459257,0.004216906948315735,0.004216906948315735,0.0036680324419373364,0.0036680324419373364,0.002247876434278559,0.002247876434278559,0.005228754730919411,0.005228754730919411,0.004062749333068325,0.004062749333068325,0.0036433339482490543,0.0036433339482490543
9,0.012274197858622181,0.001,0.00819489068366581,0.0034036881736414434,0.0034036881736414434,0.002657276396801823,0.002657276396801823,0.002114625494525986,0.002114625494525986,0.00487291482027191,0.00487291482027191,0.0038807666814273836,0.0038807666814273836,0.0035014876222279837,0.0035014876222279837
10,0.012020600325994658,0.001,0.010982380340523352,0.003956367955643053,0.003956367955643053,0.004260811931708426,0.004260811931708426,0.0027452562908702356,0.0027452562908702356,0.004855758353857725,0.004855758353857725,0.003746996904505339,0.003746996904505339,0.003398282138479782,0.003398282138479782
11,0.011771474677290172,0.001,0.010452337776073992,0.003891894323865002,0.003891894323865002,0.002635838308510557,0.002635838308510557,0.0039041508658458277,0.0039041508658458277,0.0047277886554044695,0.0047277886554044695,0.0037247159638100474,0.0037247159638100474,0.003298782481125072,0.003298782481125072
12,0.011595778296004278,0.001,0.00909593624065972,0.0033756019867772803,0.0033756019867772803,0.0036169313917290076,0.0036169313917290076,0.002082464054177095,0.002082464054177095,0.004686542643834778,0.004686542643834778,0.0035571908017557104,0.0035571908017557104,0.003331368272584892,0.003331368272584892
13,0.011235672047840642,0.001,0.008046041289814796,0.0034168196794743923,0.0034168196794743923,0.002357785236178125,0.002357785236178125,0.002250049406210249,0.002250049406210249,0.004577119690570536,0.004577119690570536,0.0035099554338769755,0.0035099554338769755,0.0031273796963276206,0.0031273796963276206
14,0.010933407447255534,0.001,0.012003808017147498,0.0040596734712496935,0.0040596734712496935,0.002683614780982331,0.002683614780982331,0.005238481166155974,0.005238481166155974,0.004467623858893295,0.004467623858893295,0.003463451175592608,0.003463451175592608,0.00298060189608739,0.00298060189608739
15,0.01066539764964917,0.001,0.009293935662064927,0.0035203008427243895,0.0035203008427243895,0.004008021085132666,0.004008021085132666,0.0017430727728528362,0.0017430727728528362,0.004253437208970951,0.004253437208970951,0.003403016083410811,0.003403016083410811,0.002986680446169012,0.002986680446169012
16,0.010411219855993388,0.001,0.009949023589203354,0.0034867876996150984,0.0034867876996150984,0.004451849842201041,0.004451849842201041,0.00198732347616468,0.00198732347616468,0.004190517151774628,0.004190517151774628,0.0033622498155068308,0.0033622498155068308,0.002835651685076469,0.002835651685076469
17,0.010703610295439373,0.001,0.007422817915953187,0.003009970388019509,0.003009970388019509,0.0025384605848897753,0.0025384605848897753,0.0018510144641291685,0.0018510144641291685,0.004342846589883923,0.004342846589883923,0.003364899345521038,0.003364899345521038,0.00297260326103644,0.00297260326103644
18,0.010377366268350329,0.001,0.008478751550710789,0.003869054122173944,0.003869054122173944,0.0025873280841312747,0.0025873280841312747,0.0019986019039119718,0.0019986019039119718,0.0042640959541443944,0.0042640959541443944,0.003177996568571695,0.003177996568571695,0.002911670083552182,0.002911670083552182
19,0.010197529982676236,0.001,0.006945801499565853,0.0028605913132980234,0.0028605913132980234,0.0023739126682454353,0.0023739126682454353,0.001687271042928015,0.001687271042928015,0.004159732629667078,0.004159732629667078,0.0031499897739587163,0.0031499897739587163,0.0028638793273638653,0.0028638793273638653
20,0.009628876324804747,0.001,0.01072378337668625,0.004359334676343436,0.004359334676343436,0.0036721958071585297,0.0036721958071585297,0.0026678120027439707,0.0026678120027439707,0.00387923992694101,0.00387923992694101,0.003177009729519435,0.003177009729519435,0.002548373165875624,0.002548373165875624
21,0.009843111527271707,0.001,0.007431823971347337,0.0033883521960392086,0.0033883521960392086,0.002456061894587368,0.002456061894587368,0.0015628275907655664,0.0015628275907655664,0.004002786455671722,0.004002786455671722,0.0030799108759467257,0.0030799108759467257,0.0027358960443982943,0.0027358960443982943
22,0.009651021136350232,0.001,0.010295683422803202,0.004154561302436105,0.004154561302436105,0.003664172983176454,0.003664172983176454,0.0024520511792876457,0.0024520511792876457,0.003930656073878418,0.003930656073878418,0.0030934491805024575,0.0030934491805024575,0.002602131209015212,0.002602131209015212
23,0.009450983245049028,0.001,0.007633470686059288,0.0027960920925037534,0.0027960920925037534,0.003144349765262029,0.003144349765262029,0.0016677200515112277,0.0016677200515112277,0.003804596534733212,0.003804596534733212,0.0031328518503298086,0.0031328518503298086,0.0024884188858361567,0.0024884188858361567
24,0.009456191048623582,0.001,0.012776642214657382,0.004249889115581088,0.004249889115581088,0.0033983984048054387,0.0033983984048054387,0.005102752364924184,0.005102752364924184,0.003821316401148274,0.003821316401148274,0.003037497130262254,0.003037497130262254,0.002571917428979109,0.002571917428979109
25,0.009083218629667133,0.00090000004,0.006602649394499596,0.003048501556470907,0.003048501556470907,0.0020559120405193336,0.0020559120405193336,0.0014723980477007136,0.0014723980477007136,0.0037119263132856595,0.0037119263132856595,0.0029125080925374025,0.0029125080925374025,0.002433047817858037,0.002433047817858037
26,0.009066737619283734,0.00090000004,0.008538248387058751,0.003750314212414775,0.003750314212414775,0.002705792823004041,0.002705792823004041,0.0020561433494834212,0.0020561433494834212,0.003710428391248037,0.003710428391248037,0.0029130713878713584,0.0029130713878713584,0.002417328061355455,0.002417328061355455
27,0.009036883262689222,0.00090000004,0.006024492709097446,0.0024265097419586584,0.0024265097419586584,0.001966219483724197,0.001966219483724197,0.0016055948048729492,0.0016055948048729492,0.0037502365639040906,0.0037502365639040906,0.0028616933922660844,0.0028616933922660844,0.002398824359759829,0.002398824359759829
28,0.008630297015775744,0.00090000004,0.008263739985366813,0.0040644072593967445,0.0040644072593967445,0.0023841464442292287,0.0023841464442292287,0.001788755103585903,0.001788755103585903,0.00351175601362781,0.00351175601362781,0.002859436799166657,0.002859436799166657,0.002232802455475634,0.002232802455475634
29,0.00865212491225421,0.00090000004,0.009417244762743538,0.0038114177986541655,0.0038114177986541655,0.003213101181465776,0.003213101181465776,0.002366095017620224,0.002366095017620224,0.0035069656262185353,0.0035069656262185353,0.0028359512691121685,0.0028359512691121685,0.0022826841485808595,0.0022826841485808595
30,0.008431871255638889,0.00090000004,0.010973432089158205,0.005568918190553144,0.005568918190553144,0.003335758985216402,0.003335758985216402,0.002041820311162939,0.002041820311162939,0.003411990465243397,0.003411990465243397,0.0027343861843387566,0.0027343861843387566,0.0022587446790794732,0.0022587446790794732
31,0.008886328349416803,0.00090000004,0.007445183486081127,0.003474013605417671,0.003474013605417671,0.002268108814214031,0.002268108814214031,0.0016759841991393469,0.0016759841991393469,0.003561751141128378,0.003561751141128378,0.002936789471793662,0.002936789471793662,0.002360804121056499,0.002360804121056499
32,0.00845879034444191,0.00090000004,0.00800267799637086,0.0031020898547194824,0.0031020898547194824,0.0026399457139620183,0.0026399457139620183,0.0022334131447583443,0.0022334131447583443,0.0034171819049357713,0.0034171819049357713,0.002824008964568443,0.002824008964568443,0.0021904615620418483,0.0021904615620418483
33,0.008190963643731161,0.00081000006,0.008350179242973627,0.003184326415513699,0.003184326415513699,0.00305153567723231,0.00305153567723231,0.0020868506446509757,0.0020868506446509757,0.0033407292959187116,0.0033407292959187116,0.002709192851529468,0.002709192851529468,0.0021136856814485587,0.0021136856814485587
34,0.00794266457968929,0.00081000006,0.008587741544658337,0.003817302836488379,0.003817302836488379,0.0020107985546316378,0.0020107985546316378,0.0027320267641814957,0.0027320267641814957,0.003238504180968412,0.003238504180968412,0.0026159794756653544,0.0026159794756653544,0.002060655888692528,0.002060655888692528
35,0.007891827771849665,0.00081000006,0.007639222264114253,0.0038859694018279537,0.0038859694018279537,0.0019497183121875853,0.0019497183121875853,0.0017757969592879792,0.0017757969592879792,0.003210069557499701,0.003210069557499701,0.002581427405338301,0.002581427405338301,0.002072643127600548,0.002072643127600548
36,0.008308241558865215,0.00081000006,0.006615521667112819,0.0032655425693703384,0.0032655425693703384,0.002026842679354464,0.002026842679354464,0.0012952748447389504,0.0012952748447389504,0.003397070180577411,0.003397070180577411,0.0026939814777963275,0.0026939814777963275,0.002189390723128624,0.002189390723128624
37,0.008052117539368126,0.00081000006,0.0061215737067094,0.0025798466850032163,0.0025798466850032163,0.0020373188443057614,0.0020373188443057614,0.001476376778190867,0.001476376778190867,0.003261145345613059,0.003261145345613059,0.0026963707487439037,0.0026963707487439037,0.002066638058431051,0.002066638058431051
38,0.007399091700792612,0.0007290001,0.009061244146479764,0.0027134560404918355,0.0027134560404918355,0.003829511638289993,0.003829511638289993,0.002490033355999349,0.002490033355999349,0.003039555846100039,0.003039555846100039,0.0024735107885018063,0.0024735107885018063,0.0018578774853037743,0.0018578774853037743
39,0.00735418617870111,0.0007290001,0.006494009096059017,0.002479603459462725,0.002479603459462725,0.00194917430866192,0.00194917430866192,0.002036785377548758,0.002036785377548758,0.002993892000639779,0.002993892000639779,0.0024733087544787143,0.0024733087544787143,0.0018586622633301184,0.0018586622633301184
40,0.007679882582564046,0.0007290001,0.007314399256753525,0.0027737752889917602,0.0027737752889917602,0.0029162084519393154,0.0029162084519393154,0.0015958415531205062,0.0015958415531205062,0.0031141941888764933,0.0031141941888764933,0.0026236735249724284,0.0026236735249724284,0.0019135261378424718,0.0019135261378424718
41,0.0076267791758157545,0.0007290001,0.006865286296907725,0.002528381717877552,0.002528381717877552,0.0020100487998616864,0.0020100487998616864,0.0022981797809663983,0.0022981797809663983,0.0030825139511147332,0.0030825139511147332,0.002609687292673698,0.002609687292673698,0.0019059401932420598,0.0019059401932420598
42,0.007550054124511026,0.0007290001,0.005462155203632493,0.002241136267991844,0.002241136267991844,0.0019093329407923827,0.0019093329407923827,0.0012829620626190425,0.0012829620626190425,0.0030881529826377214,0.0030881529826377214,0.00249947513423884,0.00249947513423884,0.0019337426154020865,0.0019337426154020865
43,0.007654425145361284,0.0007290001,0.008601849022445266,0.003117159957083621,0.003117159957083621,0.0037334023028520414,0.0037334023028520414,0.0017225016314904393,0.0017225016314904393,0.0031237173707479565,0.0031237173707479565,0.0025430618039903883,0.0025430618039903883,0.001958879168401064,0.001958879168401064
44,0.007666606202359542,0.0007290001,0.005555520451906755,0.0021674357629596214,0.0021674357629596214,0.002066806943586699,0.002066806943586699,0.001292244008055736,0.001292244008055736,0.003119751366363331,0.003119751366363331,0.0025930048962074207,0.0025930048962074207,0.0019249412044152854,0.0019249412044152854
45,0.007246899629586969,0.0007290001,0.008531212267937823,0.0041337142943840485,0.0041337142943840485,0.002114364779215743,0.002114364779215743,0.0022540032124605033,0.0022540032124605033,0.0029537050254968503,0.0029537050254968503,0.0025146124732919693,0.0025146124732919693,0.0017495118296199882,0.0017495118296199882
46,0.007577271326325004,0.0007290001,0.006136214842228846,0.0026139013783236797,0.0026139013783236797,0.002113514633287569,0.002113514633287569,0.0013795830667799305,0.0013795830667799305,0.0030888388317310074,0.0030888388317310074,0.002520238157992573,0.002520238157992573,0.0019390390775174304,0.0019390390775174304
47,0.007449483214443745,0.0007290001,0.008498952132065684,0.0032923692119169057,0.0032923692119169057,0.002181231182653652,0.002181231182653652,0.002996029108158616,0.002996029108158616,0.003033464341278854,0.003033464341278854,0.00249327691587371,0.00249327691587371,0.0018934654728368604,0.0018934654728368604
48,0.007034450445570003,0.00065610005,0.005758044164933919,0.0024823842315943615,0.0024823842315943615,0.0020019170610625966,0.0020019170610625966,0.0012442703625742749,0.0012442703625742749,0.0028687958243163608,0.0028687958243163608,0.002415663617441998,0.002415663617441998,0.0017205957513774638,0.0017205957513774638
49,0.007111159147704462,0.00065610005,0.005244926201791686,0.0022297406843796793,0.0022297406843796793,0.0018504706910516995,0.0018504706910516995,0.001135138274965277,0.001135138274965277,0.0029044979123800324,0.0029044979123800324,0.0024138522331419647,0.0024138522331419647,0.0017633098837026228,0.0017633098837026228
50,0.00715837819722913,0.00065610005,0.005245598300541626,0.0022233591283383853,0.0022233591283383853,0.0017824368932687557,0.0017824368932687557,0.0012101087223291634,0.0012101087223291634,0.002915047671770831,0.002915047671770831,0.0024364058129665777,0.0024364058129665777,0.0017772994711561583,0.0017772994711561583
51,0.007221338244467912,0.00065610005,0.005352725288383851,0.0023109268034691333,0.0023109268034691333,0.0017906625981880216,0.0017906625981880216,0.0012213866000771421,0.0012213866000771421,0.002927997830817453,0.002927997830817453,0.0024642125031322086,0.0024642125031322086,0.001799405045557831,0.001799405045557831
52,0.007157847000774857,0.00065610005,0.006174983743947432,0.0024579212821531854,0.0024579212821531854,0.0019223346109987327,0.0019223346109987327,0.0017648838900285616,0.0017648838900285616,0.0028796025813091685,0.0028796025813091685,0.0025322073156513448,0.0025322073156513448,0.0017162104175698853,0.0017162104175698853
53,0.00712688281905493,0.00065610005,0.0055870416186913,0.0020894164100364017,0.0020894164100364017,0.0018760702246790266,0.0018760702246790266,0.0015916281784420147,0.0015916281784420147,0.0028723288068227978,0.0028723288068227978,0.0024492167317015376,0.0024492167317015376,0.0017754628211327386,0.0017754628211327386
54,0.007015774780752239,0.00065610005,0.005252874484322949,0.002291094888762006,0.002291094888762006,0.0017538359584541344,0.0017538359584541344,0.0011778783366932324,0.0011778783366932324,0.0028679658819168704,0.0028679658819168704,0.002379503183076194,0.002379503183076194,0.0017382932743800336,0.0017382932743800336
55,0.00662506245225131,0.00059049006,0.005418565719235949,0.0022726434270268453,0.0022726434270268453,0.0019626535777145055,0.0019626535777145055,0.0011529919856452533,0.0011529919856452533,0.0026773261219343782,0.0026773261219343782,0.0023272760031742435,0.0023272760031742435,0.0015902996971288797,0.0015902996971288797
56,0.006802717096347454,0.00059049006,0.005565645219248591,0.002420266333918255,0.002420266333918255,0.0018207128212679126,0.0018207128212679126,0.0012943028044356355,0.0012943028044356355,0.0027566965136487077,0.0027566965136487077,0.0023571952322179244,0.0023571952322179244,0.0016585200173597795,0.0016585200173597795
57,0.0068670000647572515,0.00059049006,0.005684222190355512,0.0022998648550104066,0.0022998648550104066,0.001965434612800352,0.001965434612800352,0.001388512727050575,0.001388512727050575,0.0028143324999390087,0.0028143324999390087,0.0023003272208768576,0.0023003272208768576,0.0017219238054414516,0.0017219238054414516
58,0.00667202244516715,0.00059049006,0.0060433327047031225,0.002444468102167417,0.002444468102167417,0.0021171394016626815,0.0021171394016626815,0.0014512573778591577,0.0014512573778591577,0.0027031935627788483,0.0027031935627788483,0.0023147440517469323,0.0023147440517469323,0.0016236434153529043,0.0016236434153529043
59,0.006832720167457437,0.00059049006,0.005972065961332161,0.002745057847149461,0.002745057847149461,0.0021191139690339275,0.0021191139690339275,0.0010773596202895658,0.0010773596202895658,0.0028089338339459236,0.0028089338339459236,0.002273122899046991,0.002273122899046991,0.0017201412965456402,0.0017201412965456402
60,0.006413625812864869,0.00053144107,0.008346937071753083,0.003664272242917143,0.003664272242917143,0.002109581964346448,0.002109581964346448,0.00254242584804785,0.00254242584804785,0.002588997212584699,0.002588997212584699,0.002277317499063359,0.002277317499063359,0.0015167059786589908,0.0015167059786589908
61,0.006398192757278311,0.00053144107,0.0063714327883314,0.0024060196767297587,0.0024060196767297587,0.0019595216222803697,0.0019595216222803697,0.0019751267277830446,0.0019751267277830446,0.002593303774754411,0.002593303774754411,0.002259347767452078,0.002259347767452078,0.0015148254992684892,0.0015148254992684892
62,0.006491011537137694,0.00053144107,0.005294996826203543,0.0020491401469417275,0.0020491401469417275,0.00204136675856349,0.00204136675856349,0.0011736399270614699,0.0011736399270614699,0.0026496145423921106,0.0026496145423921106,0.002240228671428256,0.002240228671428256,0.001570319748898217,0.001570319748898217
63,0.006531797981984004,0.00053144107,0.005486767467029819,0.0022399185581950714,0.0022399185581950714,0.001947073833655326,0.001947073833655326,0.0012688406039233823,0.0012688406039233823,0.0026561386659355425,0.0026561386659355425,0.002241589593423241,0.002241589593423241,0.001603161129413352,0.001603161129413352
64,0.006373591880177642,0.00053144107,0.005072446356065766,0.0021432933500985657,0.0021432933500985657,0.001736752712234557,0.001736752712234557,0.0011613153545646,0.0011613153545646,0.0025832592900829803,0.0025832592900829803,0.002271441449998771,0.002271441449998771,0.0014878635217965728,0.0014878635217965728
65,0.006594032322458013,0.00053144107,0.005610602590242112,0.002537139805586188,0.002537139805586188,0.0018878043571107152,0.0018878043571107152,0.0011544951504474249,0.0011544951504474249,0.0027121606833462705,0.0027121606833462705,0.0022075530815103225,0.0022075530815103225,0.0016431984292095544,0.0016431984292095544
66,0.006540145033775853,0.00053144107,0.005286469338077625,0.0023307397524128127,0.0023307397524128127,0.0017329423199258318,0.0017329423199258318,0.0011915736019855164,0.0011915736019855164,0.0026616153273597578,0.0026616153273597578,0.0022592824791090424,0.0022592824791090424,0.0015880644008525204,0.0015880644008525204
67,0.00659904635254777,0.00053144107,0.005814325204452261,0.0024601001789927033,0.0024601001789927033,0.002085834147536191,0.002085834147536191,0.0012370843004300266,0.0012370843004300266,0.0026872488500673335,0.0026872488500673335,0.0023098734757877187,0.0023098734757877187,0.0015706497845113369,0.0015706497845113369
68,0.006416211416733842,0.00053144107,0.00666653436402044,0.002977257768268503,0.002977257768268503,0.0020541294244669638,0.0020541294244669638,0.00160373461600249,0.00160373461600249,0.0025870528376700365,0.0025870528376700365,0.0022869094762448345,0.0022869094762448345,0.001510868079659825,0.001510868079659825
69,0.0064972227923059565,0.00053144107,0.004831208406496003,0.0020415306840756726,0.0020415306840756726,0.0017294208560685153,0.0017294208560685153,0.0010287058128976704,0.0010287058128976704,0.002645297550758488,0.002645297550758488,0.0022287256376888626,0.0022287256376888626,0.0015917423810596395,0.0015917423810596395
70,0.006486402641254065,0.00053144107,0.005105176051570611,0.0020389706390321993,0.0020389706390321993,0.0019123554468654768,0.0019123554468654768,0.0011222277004862642,0.0011222277004862642,0.0026082698722521853,0.0026082698722521853,0.0023246975523369836,0.0023246975523369836,0.0015218521022717188,0.0015218521022717188
71,0.0065041025458679675,0.00053144107,0.005468816270166694,0.002524100969276945,0.002524100969276945,0.0017569980223275884,0.0017569980223275884,0.0011559476220788906,0.0011559476220788906,0.002695760138088926,0.002695760138088926,0.0021583513065621535,0.0021583513065621535,0.0016183032952770892,0.0016183032952770892
72,0.006370790598267269,0.00053144107,0.005165891371569784,0.002269180996581199,0.002269180996581199,0.0017146999812686669,0.0017146999812686669,0.0011501633980208954,0.0011501633980208954,0.002569936992135349,0.002569936992135349,0.0022680155407699795,0.0022680155407699795,0.0015010148282505018,0.0015010148282505018
73,0.006485553088668316,0.00053144107,0.008482432829648074,0.0029346171388218746,0.0029346171388218746,0.001926531156310706,0.001926531156310706,0.003589335487796733,0.003589335487796733,0.0026382358726840583,0.0026382358726840583,0.002271840828748176,0.002271840828748176,0.0015435579255164795,0.0015435579255164795
74,0.006307854246670622,0.00053144107,0.0064281286156904075,0.0020453419025944957,0.0020453419025944957,0.0031031428991041034,0.0031031428991041034,0.001247643101353356,0.001247643101353356,0.002566487637981458,0.002566487637981458,0.0022185823906018336,0.0022185823906018336,0.001490793841531224,0.001490793841531224
75,0.006178993766313205,0.00047829695,0.004902750129716609,0.0019304732119904682,0.0019304732119904682,0.0017185600377206814,0.0017185600377206814,0.0012215594901876844,0.0012215594901876844,0.002531149029835202,0.002531149029835202,0.002122849133510401,0.002122849133510401,0.001492925334249401,0.001492925334249401
76,0.006400611567615999,0.00047829695,0.004925856861861671,0.0020948558468516657,0.0020948558468516657,0.0017543999919102324,0.0017543999919102324,0.001044396001259161,0.001044396001259161,0.00257979788013598,0.00257979788013598,0.0022474854039511425,0.0022474854039511425,0.0015411382341441596,0.0015411382341441596
77,0.006326076969091727,0.00047829695,0.004822171015781742,0.0019071837568875407,0.0019071837568875407,0.0016831495079220906,0.0016831495079220906,0.0011995899526558947,0.0011995899526558947,0.002545469146030817,0.002545469146030817,0.002235971869431049,0.002235971869431049,0.0015124254919349378,0.0015124254919349378
78,0.006201772859786398,0.00047829695,0.004614170058042451,0.0019532215978701802,0.0019532215978701802,0.0016065460192144216,0.0016065460192144216,0.0010220568512786087,0.0010220568512786087,0.002536300686032372,0.002536300686032372,0.00216495908153515,0.00216495908153515,0.0014682295525553436,0.0014682295525553436
79,0.006103411270317622,0.00047829695,0.005129445457930194,0.002451747870546027,0.002451747870546027,0.0016749585074985927,0.0016749585074985927,0.000970312974085778,0.000970312974085778,0.0025080573800330464,0.0025080573800330464,0.002117043419902438,0.002117043419902438,0.0014459082874294787,0.0014459082874294787
80,0.006242678432234351,0.00047829695,0.005178162519459814,0.00200314391274795,0.00200314391274795,0.0017453282884535633,0.0017453282884535633,0.001397242066770853,0.001397242066770853,0.0025277626120006453,0.0025277626120006453,0.00220385932438447,0.00220385932438447,0.0014785969323163858,0.0014785969323163858
81,0.006529107856052657,0.00047829695,0.004864974084546592,0.002023114638566412,0.002023114638566412,0.0017511476759897993,0.0017511476759897993,0.0010582164421507375,0.0010582164421507375,0.00268496329316004,0.00268496329316004,0.002197115857918696,0.002197115857918696,0.0016145527876324694,0.0016145527876324694
82,0.006121334662836968,0.00047829695,0.005583681584796821,0.0024365122336296517,0.0024365122336296517,0.001642975851974073,0.001642975851974073,0.0014715620925295659,0.0014715620925295659,0.0025149986570819037,0.0025149986570819037,0.0021092633258284308,0.0021092633258284308,0.0014644859045477296,0.0014644859045477296
83,0.006267787886354315,0.00047829695,0.006639460798059763,0.0031817036570929405,0.0031817036570929405,0.0018623064080211498,0.0018623064080211498,0.0015627950773527768,0.0015627950773527768,0.0025398679175280183,0.0025398679175280183,0.0021928839645896994,0.0021928839645896994,0.0015023712421224713,0.0015023712421224713
84,0.0060194670874092705,0.00043046725,0.005273153649792796,0.002109230827314874,0.002109230827314874,0.0018222740339906554,0.0018222740339906554,0.0013088987025154284,0.0013088987025154284,0.0024878880784194074,0.0024878880784194074,0.0020848059192642085,0.0020848059192642085,0.0014140611365569006,0.0014140611365569006
85,0.0058695000051214655,0.00043046725,0.005665539647648519,0.0020406233834793404,0.0020406233834793404,0.002556531178563722,0.002556531178563722,0.0010355077261852716,0.0010355077261852716,0.0023950443684103823,0.0023950443684103823,0.0020591921666703824,0.0020591921666703824,0.001382442351885773,0.001382442351885773
86,0.00602103473880533,0.00043046725,0.0046767807778861584,0.001982166800437633,0.001982166800437633,0.0017037206751300607,0.0017037206751300607,0.0009579365670789086,0.0009579365670789086,0.002429944397710044,0.002429944397710044,0.002180164387883397,0.002180164387883397,0.0013779902314029055,0.0013779902314029055
87,0.005984398653879389,0.00043046725,0.004594607979107432,0.0018898930574498007,0.0018898930574498007,0.0016358605324498828,0.0016358605324498828,0.0010358632727105151,0.0010358632727105151,0.0024096785833682814,0.0024096785833682814,0.0021599170442731883,0.0021599170442731883,0.0013818264616801302,0.0013818264616801302
88,0.006013213995585263,0.00043046725,0.005162797004936157,0.0021226216907019044,0.0021226216907019044,0.0015754181790036841,0.0015754181790036841,0.0014316971157638273,0.0014316971157638273,0.002482819806259143,0.002482819806259143,0.0020373877252142904,0.0020373877252142904,0.0014599930037549175,0.0014599930037549175
89,0.0058107094894703035,0.00038742053,0.004854207867850559,0.0018297837303008645,0.0018297837303008645,0.001841497422665944,0.001841497422665944,0.0011497823143390051,0.0011497823143390051,0.002379780171800111,0.002379780171800111,0.0020417872124147756,0.0020417872124147756,0.00135602437823462,0.00135602437823462
90,0.005902624595923715,0.00038742053,0.005374982542090231,0.002065324668107834,0.002065324668107834,0.0017944670426647527,0.0017944670426647527,0.001481977028074331,0.001481977028074331,0.0024244271230444395,0.0024244271230444395,0.0020457652736252012,0.0020457652736252012,0.0013992530408518066,0.0013992530408518066
91,0.005868894859630083,0.00038742053,0.004841277950348471,0.0019405187345291656,0.0019405187345291656,0.0017594778506243142,0.0017594778506243142,0.0011080155866322995,0.0011080155866322995,0.002379999327181703,0.002379999327181703,0.0020991013019426856,0.0020991013019426856,0.001356537882506898,0.001356537882506898
92,0.005817276593636389,0.00038742053,0.00531730284651362,0.001792762596983802,0.001792762596983802,0.0024913938477245765,0.0024913938477245765,0.0009998473456674123,0.0009998473456674123,0.0023971608311573827,0.0023971608311573827,0.002024578119518609,0.002024578119518609,0.0013622440236085967,0.0013622440236085967
93,0.005823733681021879,0.00038742053,0.005900689688414572,0.002026514336204659,0.002026514336204659,0.0025479447103862185,0.0025479447103862185,0.0012928151771653446,0.0012928151771653446,0.002358434124324419,0.002358434124324419,0.0020590311143697045,0.0020590311143697045,0.001372897529835269,0.001372897529835269
94,0.005635311164643861,0.00034867847,0.004345284765884155,0.00186016114387311,0.00186016114387311,0.0015314767112065335,0.0015314767112065335,0.0009201156555614508,0.0009201156555614508,0.0022939086875048646,0.0022939086875048646,0.0019863603224933818,0.0019863603224933818,0.0013215588952498096,0.0013215588952498096
95,0.005679197485761959,0.00034867847,0.0049253254958353185,0.002104048174569532,0.002104048174569532,0.001575412655743415,0.001575412655743415,0.0012122939158087363,0.0012122939158087363,0.0023414309996644877,0.0023414309996644877,0.0019953426721427757,0.0019953426721427757,0.0013088788948504,0.0013088788948504
96,0.005849839061663548,0.00034867847,0.005701700111114975,0.002418240530098677,0.002418240530098677,0.0016424546459344704,0.0016424546459344704,0.0016074095173056965,0.0016074095173056965,0.0023902399685091736,0.0023902399685091736,0.0020266810549060947,0.0020266810549060947,0.0013993307092759104,0.0013993307092759104
97,0.005439812891052895,0.00034867847,0.004859285191536775,0.002064286224371434,0.002064286224371434,0.0016801154939972236,0.0016801154939972236,0.0010811811766151325,0.0010811811766151325,0.002229005301111364,0.002229005301111364,0.0019603977526572833,0.0019603977526572833,0.0012167489045310103,0.0012167489045310103
98,0.005612696007553772,0.00034867847,0.004760363626823782,0.0019049856531857972,0.0019049856531857972,0.001712111102569784,0.001712111102569784,0.0011094956120457705,0.0011094956120457705,0.0023185222899754112,0.0023185222899754112,0.0019591781113560357,0.0019591781113560357,0.001301262192165624,0.001301262192165624
99,0.005538079030673067,0.00034867847,0.005160819883201576,0.0020020632284028735,0.0020020632284028735,0.0016328000889243963,0.0016328000889243963,0.0014921608681627177,0.0014921608681627177,0.0022156219632224034,0.0022156219632224034,0.0020433462058284213,0.0020433462058284213,0.001245348157953985,0.001245348157953985
100,0.005380717403504285,0.00031381063,0.004314357421652144,0.0017930704766865534,0.0017930704766865534,0.0015632911640673978,0.0015632911640673978,0.0009240726972273338,0.0009240726972273338,0.002214113655431749,0.002214113655431749,0.0019199847467662485,0.0019199847467662485,0.0012127503610830234,0.0012127503610830234
101,0.005522300690035385,0.00031381063,0.004662260128721565,0.002055377207842153,0.002055377207842153,0.001555107157924574,0.001555107157924574,0.0010177582967484378,0.0010177582967484378,0.0022650155937402913,0.0022650155937402913,0.0019645103084412877,0.0019645103084412877,0.0012588222500530364,0.0012588222500530364
102,0.00531405101659512,0.00031381063,0.004484549815933493,0.0017850553632658194,0.0017850553632658194,0.0017147580653454804,0.0017147580653454804,0.0009506516373148035,0.0009506516373148035,0.002192576926946753,0.002192576926946753,0.0019032832279650897,0.0019032832279650897,0.001184150281579815,0.001184150281579815
103,0.005348578929594556,0.00031381063,0.004216842085137957,0.001727737020802225,0.001727737020802225,0.0015523739458493265,0.0015523739458493265,0.0009025956903746872,0.0009025956903746872,0.0022066061313792493,0.0022066061313792493,0.0018985238723242355,0.0018985238723242355,0.0012093307956844352,0.0012093307956844352
104,0.005505233432112174,0.00031381063,0.00474500293202184,0.001982830404892904,0.001982830404892904,0.0015759071239923098,0.0015759071239923098,0.0011520666771273203,0.0011520666771273203,0.0022441317326889238,0.0022441317326889238,0.0019553812545133535,0.0019553812545133535,0.0012715540039384293,0.0012715540039384293
105,0.005479393673492472,0.00031381063,0.0041352089831365665,0.0016956900357528333,0.0016956900357528333,0.0015593399732727997,0.0015593399732727997,0.0008459756814705475,0.0008459756814705475,0.0022142084274341736,0.0022142084274341736,0.0019956438177886485,0.0019956438177886485,0.0012353709312218025,0.0012353709312218025
106,0.005335071734960143,0.00031381063,0.004582239000112217,0.0019094556605661196,0.0019094556605661196,0.001762035241933735,0.001762035241933735,0.0008765139805857776,0.0008765139805857776,0.00216614378433656,0.00216614378433656,0.0019298334920639035,0.0019298334920639035,0.001204867553844512,0.001204867553844512
107,0.005275496288883189,0.00031381063,0.0062610026249451944,0.0028940501681234813,0.0028940501681234813,0.0015359518411320273,0.0015359518411320273,0.0017966860547616312,0.0017966860547616312,0.0021613062504818826,0.0021613062504818826,0.001910748090399003,0.001910748090399003,0.0011691647982191612,0.0011691647982191612
108,0.0053790838720346,0.00031381063,0.0046840829533479345,0.0017655708035468852,0.0017655708035468852,0.001981360380620024,0.001981360380620024,0.0009027820259710614,0.0009027820259710614,0.00221382440378368,0.00221382440378368,0.0019279824715917786,0.0019279824715917786,0.0012029239089584975,0.0012029239089584975
109,0.005170280461838487,0.00028242957,0.004462303337454874,0.0018751010963511388,0.0018751010963511388,0.0015413015844877665,0.0015413015844877665,0.001011443971901367,0.001011443971901367,0.002118435013927278,0.002118435013927278,0.0018671298588143605,0.0018671298588143605,0.001150302154654021,0.001150302154654021
110,0.005144340811205902,0.00028242957,0.004198648437737293,0.0017795210383844801,0.0017795210383844801,0.001526834056483384,0.001526834056483384,0.0008577637814131063,0.0008577637814131063,0.002120589126310696,0.002120589126310696,0.001850650958755415,0.001850650958755415,0.0011386172460324721,0.0011386172460324721
111,0.005165260723299727,0.00028242957,0.0044275789696747525,0.0017957610780867735,0.0017957610780867735,0.0014840814381092758,0.0014840814381092758,0.001113143028290474,0.001113143028290474,0.002137267202492687,0.002137267202492687,0.0018616431073330904,0.0018616431073330904,0.0011317866748702585,0.0011317866748702585
112,0.00509002176815672,0.00028242957,0.00457015176273209,0.0018982219195211607,0.0018982219195211607,0.0016463172860006398,0.0016463172860006398,0.0009909520006533014,0.0009909520006533014,0.0020932439701071746,0.0020932439701071746,0.0018423745051557175,0.0018423745051557175,0.0011197765602474492,0.0011197765602474492
113,0.0052334931011936954,0.00028242957,0.004555957527920958,0.0017824347187618541,0.0017824347187618541,0.00158780660686021,0.00158780660686021,0.0011510122209251936,0.0011510122209251936,0.0021474565155428452,0.0021474565155428452,0.0018830075234045748,0.0018830075234045748,0.0011683411321890284,0.0011683411321890284
114,0.005158395136556361,0.0002541866,0.004775842066071473,0.0020925530851753945,0.0020925530851753945,0.0015825483730718022,0.0015825483730718022,0.001065995810882295,0.001065995810882295,0.002115968047730605,0.002115968047730605,0.0018558368191251438,0.0018558368191251438,0.0011518618276136496,0.0011518618276136496
115,0.00508404720227767,0.0002541866,0.0041150164168001924,0.0017659737386688612,0.0017659737386688612,0.001499601790244385,0.001499601790244385,0.0008146418848999705,0.0008146418848999705,0.002063047680390512,0.002063047680390512,0.0018672415659770382,0.0018672415659770382,0.0011189804347749566,0.0011189804347749566
116,0.005021996159777535,0.0002541866,0.0045950504952060964,0.0020816565963228664,0.0020816565963228664,0.0015925811041983472,0.0015925811041983472,0.0008859777212314333,0.0008859777212314333,0.002061794722997709,0.002061794722997709,0.0018513339825980352,0.0018513339825980352,0.0010740553822924678,0.0010740553822924678
117,0.005134051601588158,0.0002541866,0.004330408369257234,0.00182700069243419,0.00182700069243419,0.0015743106335257193,0.0015743106335257193,0.0008942131809468412,0.0008942131809468412,0.0020837733502162025,0.0020837733502162025,0.0018830230641479013,0.0018830230641479013,0.0011323964134627178,0.0011323964134627178
118,0.005060757446154446,0.0002541866,0.004090707520364395,0.0016808456842254875,0.0016808456842254875,0.0015588412452691982,0.0015588412452691982,0.0008160858788235628,0.0008160858788235628,0.0020782314815413396,0.0020782314815413396,0.0018232201725096803,0.0018232201725096803,0.0011243926899696488,0.0011243926899696488
119,0.005058084366526428,0.0002541866,0.004778470433440988,0.001703044923592168,0.001703044923592168,0.0021597219617620236,0.0021597219617620236,0.000880705191227486,0.000880705191227486,0.0020880977173526175,0.0020880977173526175,0.001806007839181658,0.001806007839181658,0.0011290059640517217,0.0011290059640517217
120,0.00511380926023266,0.0002541866,0.004280706948762593,0.0018055721137705295,0.0018055721137705295,0.0015032737673598248,0.0015032737673598248,0.0009368411537763941,0.0009368411537763941,0.002092961376707864,0.002092961376707864,0.001814984740183762,0.001814984740183762,0.0011708489545960226,0.0011708489545960226
121,0.004995736386896787,0.00022876794,0.004864990855604394,0.0020214008161359505,0.0020214008161359505,0.0015487253645480347,0.0015487253645480347,0.0012597609430525854,0.0012597609430525854,0.0020580057357096515,0.0020580057357096515,0.0017842959668981086,0.0017842959668981086,0.0011183727097322832,0.0011183727097322832
122,0.004884556084585205,0.00022876794,0.00486043653588488,0.0019371310439174807,0.0019371310439174807,0.0017086454497047905,0.0017086454497047905,0.0011795006369229608,0.0011795006369229608,0.002000050098532272,0.002000050098532272,0.0018068370352668634,0.0018068370352668634,0.0010425504625671234,0.0010425504625671234
123,0.0048959366116964305,0.00022876794,0.004157048742640027,0.0016944169579397163,0.0016944169579397163,0.0015111670862599739,0.0015111670862599739,0.000916245359041219,0.000916245359041219,0.001997240372530128,0.001997240372530128,0.0017972979610926766,0.0017972979610926766,0.0010661978343751088,0.0010661978343751088
124,0.004943403698943722,0.00022876794,0.003866869819628644,0.0016052404025379747,0.0016052404025379747,0.0014369121074337165,0.0014369121074337165,0.0007894550674374921,0.0007894550674374921,0.002016030290518188,0.002016030290518188,0.0017735288529130663,0.0017735288529130663,0.0011186101981760653,0.0011186101981760653
125,0.0049085637876452185,0.00022876794,0.004305697899344706,0.0018662692500124602,0.0018662692500124602,0.001505239893603564,0.001505239893603564,0.0008988745619301051,0.0008988745619301051,0.001988690467424847,0.001988690467424847,0.0018399863711644883,0.0018399863711644883,0.0010445945376431085,0.0010445945376431085
126,0.004888712091449737,0.00022876794,0.004452208900371071,0.002005998297243282,0.002005998297243282,0.0015538841096572576,0.0015538841096572576,0.0008569466396145169,0.0008569466396145169,0.001994955632645147,0.001994955632645147,0.0017915848120776208,0.0017915848120776208,0.0010668289521850052,0.0010668289521850052
127,0.004951720160765501,0.00022876794,0.003932029702653638,0.0016121404726110156,0.0016121404726110156,0.0014805920345495889,0.0014805920345495889,0.0008038776242192826,0.0008038776242192826,0.0019957117480702167,0.0019957117480702167,0.0018409467223800707,0.0018409467223800707,0.0010796598685638035,0.0010796598685638035
128,0.005042999582294584,0.00022876794,0.005546471427009764,0.0021388173688691886,0.0021388173688691886,0.0019149441840230982,0.0019149441840230982,0.001457255666763702,0.001457255666763702,0.002065177776741021,0.002065177776741021,0.0018183303615079021,0.0018183303615079021,0.0011240515981413807,0.0011240515981413807
129,0.0049649934430276805,0.00022876794,0.0041861316340666595,0.0016828775486850253,0.0016828775486850253,0.0014658646509983723,0.0014658646509983723,0.0010018903942812906,0.0010018903942812906,0.0020263960624216553,0.0020263960624216553,0.0017872458025722327,0.0017872458025722327,0.0011158823644036797,0.0011158823644036797
130,0.0047188659918877655,0.00020589115,0.004157830342518712,0.0017464710185700664,0.0017464710185700664,0.0014740221494893948,0.0014740221494893948,0.0009017839051017958,0.0009017839051017958,0.0019200781655719713,0.0019200781655719713,0.0017628088165979822,0.0017628088165979822,0.0010004513797466092,0.0010004513797466092
131,0.004719454494925249,0.00020589115,0.004176108366603021,0.0018167566224861968,0.0018167566224861968,0.001473920157050915,0.001473920157050915,0.0008498184000627619,0.0008498184000627619,0.001949063919534568,0.001949063919534568,0.0017111948948137208,0.0017111948948137208,0.001023610614014651,0.001023610614014651
132,0.004832713412742477,0.00020589115,0.004391472293075758,0.0018709581449192004,0.0018709581449192004,0.0016129286425462172,0.0016129286425462172,0.0008719576258642124,0.0008719576258642124,0.0019608300201325547,0.0019608300201325547,0.0017742241600988418,0.0017742241600988418,0.0010620352130953966,0.0010620352130953966
133,0.004791500453325615,0.00020589115,0.004222621296936966,0.0017873264120438768,0.0017873264120438768,0.0015514831754049425,0.0015514831754049425,0.0008481238167494341,0.0008481238167494341,0.001965270792950531,0.001965270792950531,0.0017423555224148123,0.0017423555224148123,0.0010482109510682985,0.0010482109510682985
134,0.0048461094398447625,0.00020589115,0.004479520994148206,0.0017910318933241883,0.0017910318933241883,0.0017208515710846542,0.0017208515710846542,0.0009319245002084719,0.0009319245002084719,0.001987400765350726,0.001987400765350726,0.00177054195007841,0.00177054195007841,0.0010524631185018483,0.0010524631185018483
135,0.00464534791587588,0.00018530204,0.004107028451318592,0.001592562513887786,0.001592562513887786,0.0015228062194712485,0.0015228062194712485,0.0009558765475970602,0.0009558765475970602,0.0018866441852271234,0.0018866441852271234,0.0017502700418786405,0.0017502700418786405,0.0009726770093667286,0.0009726770093667286
136,0.004584024915594808,0.00018530204,0.004191674400393981,0.0018969038190255066,0.0018969038190255066,0.001455489565285504,0.001455489565285504,0.0008034241309207255,0.0008034241309207255,0.0018579378125658395,0.0018579378125658395,0.0017242849845131448,0.0017242849845131448,0.0009659921119883298,0.0009659921119883298
137,0.004629222074756623,0.00018530204,0.003850891683339839,0.001563547772157751,0.001563547772157751,0.0014909999530028175,0.0014909999530028175,0.0007604184558677118,0.0007604184558677118,0.0019016865562212824,0.0019016865562212824,0.0017065430848869642,0.0017065430848869642,0.0009851010902271638,0.0009851010902271638
138,0.004661768442121439,0.00018530204,0.004136589138369979,0.0016148826039216605,0.0016148826039216605,0.0014429221201199998,0.0014429221201199998,0.0010427936502046976,0.0010427936502046976,0.0019143255150883087,0.0019143255150883087,0.0017031418209500677,0.0017031418209500677,0.0010083384783411108,0.0010083384783411108
139,0.004588910958884282,0.00018530204,0.00468853592505343,0.0020758328184811554,0.0020758328184811554,0.0016662087720074662,0.0016662087720074662,0.0009104516981886888,0.0009104516981886888,0.0018816941748744094,0.0018816941748744094,0.0016913362359513816,0.0016913362359513816,0.0009798655378648036,0.0009798655378648036
140,0.00462910051125453,0.00016677183,0.0039886058844106195,0.0015546765755416866,0.0015546765755416866,0.0015947172425990405,0.0015947172425990405,0.0008031355719691474,0.0008031355719691474,0.001878284578003682,0.001878284578003682,0.001733650068783712,0.001733650068783712,0.0009811030848023517,0.0009811030848023517
141,0.0045514704384814735,0.00016677183,0.005164384858773689,0.0018058482388485524,0.0018058482388485524,0.002411874938053473,0.002411874938053473,0.0009105213476481741,0.0009105213476481741,0.0018660233605265145,0.0018660233605265145,0.0016803944888747688,0.0016803944888747688,0.0009689481189124395,0.0009689481189124395
142,0.004551656031162978,0.00016677183,0.003986873215351329,0.0017133336549328177,0.0017133336549328177,0.0014413750454035903,0.0014413750454035903,0.0007959853498339891,0.0007959853498339891,0.001859119840609883,0.001859119840609883,0.0016734404714403518,0.0016734404714403518,0.0009829442482029921,0.0009829442482029921
143,0.00450471797699604,0.00016677183,0.0039053864338864834,0.0016462920901892976,0.0016462920901892976,0.0014186915176182854,0.0014186915176182854,0.0008041595443219409,0.0008041595443219409,0.0018375357598270717,0.0018375357598270717,0.0016745554182342724,0.0016745554182342724,0.0009564108806454658,0.0009564108806454658
144,0.004507305491953845,0.00016677183,0.004589652313450226,0.0021715901997050127,0.0021715901997050127,0.001574435396214417,0.001574435396214417,0.0008073423420318546,0.0008073423420318546,0.001845456224212038,0.001845456224212038,0.0016799620192369529,0.0016799620192369529,0.000945615996916064,0.000945615996916064
145,0.00446116991571281,0.00015009465,0.003706212252337699,0.0015470729115617918,0.0015470729115617918,0.0013781616278120115,0.0013781616278120115,0.0007446504239113485,0.0007446504239113485,0.0018107417162472608,0.0018107417162472608,0.0016795451136373113,0.0016795451136373113,0.0009345798115530031,0.0009345798115530031
146,0.004428154933338642,0.00015009465,0.004823684157146711,0.001930839760437324,0.001930839760437324,0.00171924008578504,0.00171924008578504,0.0011372125352906676,0.0011372125352906676,0.0017952010575602662,0.0017952010575602662,0.0016650607190488562,0.0016650607190488562,0.0009315338745331611,0.0009315338745331611
147,0.00438414994025676,0.00015009465,0.004040907484700516,0.0015232112824433539,0.0015232112824433539,0.001674344752398929,0.001674344752398929,0.0008069085315368566,0.0008069085315368566,0.0017656094152548514,0.0017656094152548514,0.0016661995258266372,0.0016661995258266372,0.0009159239188522279,0.0009159239188522279
148,0.004444162099616378,0.00015009465,0.004694765690507944,0.0017432166602368848,0.0017432166602368848,0.0014761774725814665,0.0014761774725814665,0.001438900718095231,0.001438900718095231,0.0018118154139172573,0.0018118154139172573,0.0016483463974605041,0.0016483463974605041,0.000947543097518744,0.000947543097518744
149,0.004441447133504117,0.00015009465,0.004165381152200064,0.0019206560778905683,0.0019206560778905683,0.0014376193935843635,0.0014376193935843635,0.0007706020996889793,0.0007706020996889793,0.001796265536267653,0.001796265536267653,0.0016421245442697274,0.0016421245442697274,0.0009665809450409757,0.0009665809450409757
150,0.004409183075813562,0.00015009465,0.004430959320541703,0.0017433686041822328,0.0017433686041822328,0.0015608185695944895,0.0015608185695944895,0.0010902068583108662,0.0010902068583108662,0.001793830334687678,0.001793830334687678,0.0016136558237564071,0.0016136558237564071,0.0009651574575711786,0.0009651574575711786
151,0.004257837303460662,0.00013508518,0.0036861958289487596,0.0014539418802950873,0.0014539418802950873,0.001404646398098426,0.001404646398098426,0.0007909767957752522,0.0007909767957752522,0.001702840346646822,0.001702840346646822,0.0016155020418565152,0.0016155020418565152,0.000902906168933866,0.000902906168933866
152,0.0042483999494278965,0.00013508518,0.004236390750979854,0.0019217071794107696,0.0019217071794107696,0.0013493216910233717,0.0013493216910233717,0.0009286602874420134,0.0009286602874420134,0.0017090732305008174,0.0017090732305008174,0.0016085124057731912,0.0016085124057731912,0.0008941533252922361,0.0008941533252922361
153,0.004260839515851187,0.00013508518,0.0036147444816225878,0.001394542199401864,0.001394542199401864,0.0013011509820926497,0.0013011509820926497,0.000882300188989725,0.000882300188989725,0.001721442972782824,0.001721442972782824,0.0015667673144185473,0.0015667673144185473,0.0009359050675288729,0.0009359050675288729
154,0.004262345526742937,0.00013508518,0.003554545446745471,0.0014177284632543017,0.0014177284632543017,0.0013068989168741395,0.0013068989168741395,0.0007931140746792392,0.0007931140746792392,0.0017377251938019995,0.0017377251938019995,0.0015615303132693016,0.0015615303132693016,0.0009263090472246111,0.0009263090472246111
155,0.004268271945435937,0.00013508518,0.0035985434913509196,0.0014389002818195032,0.0014389002818195032,0.0013509868908978674,0.0013509868908978674,0.0007718043824988181,0.0007718043824988181,0.0017142461408528426,0.0017142461408528426,0.0015716788691421048,0.0015716788691421048,0.0009455092680634742,0.0009455092680634742
156,0.004167496310871999,0.00013508518,0.003752108959748444,0.0014473280909062388,0.0014473280909062388,0.0014369904753002262,0.0014369904753002262,0.0008308439156136729,0.0008308439156136729,0.0016631281661850955,0.0016631281661850955,0.0015525303496617536,0.0015525303496617536,0.0009149393113395734,0.0009149393113395734
157,0.004152274957300589,0.00013508518,0.003736914527241489,0.0015980884702572677,0.0015980884702572677,0.0013176483329430742,0.0013176483329430742,0.0007841622708094127,0.0007841622708094127,0.0016644650890781916,0.0016644650890781916,0.0015390698238555629,0.0015390698238555629,0.0009117618311197686,0.0009117618311197686
158,0.00415389480695385,0.00013508518,0.003927078816443149,0.0015267251526691122,0.0015267251526691122,0.001592882035079848,0.001592882035079848,0.0007703920594299801,0.0007703920594299801,0.0016651014900613947,0.0016651014900613947,0.0015608570974021065,0.0015608570974021065,0.0008908896022914554,0.0008908896022914554
159,0.0042524227809003405,0.00013508518,0.0035131092365852305,0.0014557016486340137,0.0014557016486340137,0.0012957399483682036,0.0012957399483682036,0.0007245335023209477,0.0007245335023209477,0.0017179416455429175,0.0017179416455429175,0.0015405601992746168,0.0015405601992746168,0.0009568110400732726,0.0009568110400732726
160,0.00411371073406885,0.00012157666,0.0045145621696904125,0.002048423362003917,0.002048423362003917,0.0015628880572438465,0.0015628880572438465,0.000866044348887084,0.000866044348887084,0.0016422749624568085,0.0016422749624568085,0.0015347801765678716,0.0015347801765678716,0.0008994946222471688,0.0008994946222471688
161,0.004072059792277132,0.00012157666,0.0036478213277396114,0.0016349266591345999,0.0016349266591345999,0.0012745165939686129,0.0012745165939686129,0.0007011191490850442,0.0007011191490850442,0.001620174167710933,0.001620174167710933,0.0015295717483847073,0.0015295717483847073,0.0008850810024817488,0.0008850810024817488
162,0.003997722742934812,0.00012157666,0.0034891282108703296,0.0013796865521126225,0.0013796865521126225,0.001318340455498903,0.001318340455498903,0.0007537605906446187,0.0007537605906446187,0.0015959888078460073,0.0015959888078460073,0.0015026826372943258,0.0015026826372943258,0.0008617478142681336,0.0008617478142681336
163,0.004021795814536362,0.00012157666,0.0034567453606079274,0.0013751953867865178,0.0013751953867865178,0.0012630196498973575,0.0012630196498973575,0.0007811272909827987,0.0007811272909827987,0.0016099869094792967,0.0016099869094792967,0.0014939379668930134,0.0014939379668930134,0.0008804980667538226,0.0008804980667538226
164,0.00405545700231067,0.00012157666,0.004359924748764524,0.001968414135832302,0.001968414135832302,0.0015489423889577132,0.0015489423889577132,0.000805091744767178,0.000805091744767178,0.0016276801798966265,0.0016276801798966265,0.0014981115470253884,0.0014981115470253884,0.0008922206211753378,0.0008922206211753378
165,0.003934876279628761,0.000109418994,0.003473457561596924,0.0013901521167959917,0.0013901521167959917,0.001271978329859481,0.001271978329859481,0.0007737940764787641,0.0007737940764787641,0.0015668722274075684,0.0015668722274075684,0.0014648605164319253,0.0014648605164319253,0.0008656334100365872,0.0008656334100365872
166,0.003978187129658627,0.000109418994,0.0035622290007124094,0.0014043730250962497,0.0014043730250962497,0.0012558621700419442,0.0012558621700419442,0.0008643844839538642,0.0008643844839538642,0.0016004176200920593,0.0016004176200920593,0.0014677166694253131,0.0014677166694253131,0.0008724846491061141,0.0008724846491061141
167,0.0038721716222966966,0.000109418994,0.004803165113496569,0.0020353209772818242,0.0020353209772818242,0.0013248065205507282,0.0013248065205507282,0.0014053544538102061,0.0014053544538102061,0.0015550360785897758,0.0015550360785897758,0.0014346805608633632,0.0014346805608633632,0.0008448082840814414,0.0008448082840814414
168,0.003966049265421428,0.000109418994,0.00325242046349892,0.0012683561966886148,0.0012683561966886148,0.001232903748772245,0.001232903748772245,0.0007134132667996639,0.0007134132667996639,0.0015836539861950139,0.0015836539861950139,0.0014930798290361863,0.0014930798290361863,0.0008515970695058303,0.0008515970695058303
169,0.003911028043800424,0.000109418994,0.0032954327487992358,0.0012497358900548624,0.0012497358900548624,0.0013185209659593244,0.0013185209659593244,0.0006893490415996137,0.0006893490415996137,0.00156275820812612,0.00156275820812612,0.0014646738882566842,0.0014646738882566842,0.0008458067800288516,0.0008458067800288516
170,0.0039350134368901345,0.000109418994,0.003878808280677293,0.001685565365993348,0.001685565365993348,0.0012473125932631864,0.0012473125932631864,0.0009080283108946343,0.0009080283108946343,0.0015735904787991478,0.0015735904787991478,0.0014631152286564443,0.0014631152286564443,0.0008604533590520704,0.0008604533590520704
171,0.003878713169651122,0.000109418994,0.0034060378164807114,0.0013575655150660426,0.0013575655150660426,0.0012601892993201061,0.0012601892993201061,0.0007503066694467138,0.0007503066694467138,0.0015418967345063562,0.0015418967345063562,0.0014468252226476118,0.0014468252226476118,0.0008520600410741415,0.0008520600410741415
172,0.0038343069976592894,0.000109418994,0.0032436169071184935,0.0012868981137872232,0.0012868981137872232,0.0012140996423327752,0.0012140996423327752,0.0007045606777959962,0.0007045606777959962,0.0015279133087286872,0.0015279133087286872,0.0014329012297651471,0.0014329012297651471,0.0008354829803834799,0.0008354829803834799
173,0.0038099168233541474,0.000109418994,0.003692665898263837,0.0013634279340518144,0.0013634279340518144,0.0013818130611018898,0.0013818130611018898,0.0009092954394579253,0.0009092954394579253,0.0015204328748241608,0.0015204328748241608,0.001429904300904133,0.001429904300904133,0.0008214880619167166,0.0008214880619167166
174,0.003769940641968918,9.8477096e-05,0.003757319569129886,0.0016146303006657164,0.0016146303006657164,0.0014227336403454308,0.0014227336403454308,0.0006817476501713741,0.0006817476501713741,0.0014982559944992752,0.0014982559944992752,0.0014131276748826373,0.0014131276748826373,0.0008203932825973552,0.0008203932825973552
175,0.003729566533165741,9.8477096e-05,0.0038736243970395826,0.0016950639356314288,0.0016950639356314288,0.0013143777068333857,0.0013143777068333857,0.0008259033225834415,0.0008259033225834415,0.0014898081446610713,0.0014898081446610713,0.0013975138555290267,0.0013975138555290267,0.0008040004971017807,0.0008040004971017807
176,0.003801877883703271,9.8477096e-05,0.0032352521083514074,0.001237426962514365,0.001237426962514365,0.0012183708820621576,0.0012183708820621576,0.0007411137217290657,0.0007411137217290657,0.0015159530224686624,0.0015159530224686624,0.001412117818782503,0.001412117818782503,0.0008355000263343896,0.0008355000263343896
177,0.003821125309576806,9.8477096e-05,0.0032464878610149106,0.0012221805527771739,0.0012221805527771739,0.0012301835111962517,0.0012301835111962517,0.0007557332529276292,0.0007557332529276292,0.0015275356119862956,0.0015275356119862956,0.0014083539295645722,0.0014083539295645722,0.0008468617784685911,0.0008468617784685911
178,0.0038098378233425057,9.8477096e-05,0.0032168677780186907,0.0012908438763683423,0.0012908438763683423,0.0011922973837211887,0.0011922973837211887,0.0006952551888303537,0.0006952551888303537,0.0015287037864070488,0.0015287037864070488,0.0014025472113536656,0.0014025472113536656,0.0008401520174538956,0.0008401520174538956
179,0.003730834891233876,8.8629386e-05,0.003308491396144666,0.0012603064293485928,0.0012603064293485928,0.0012002612436642973,0.0012002612436642973,0.0008093884303423889,0.0008093884303423889,0.0014673778103960653,0.0014673778103960653,0.001406482475122225,0.001406482475122225,0.0008184762434796375,0.0008184762434796375
180,0.0037051267669042766,8.8629386e-05,0.0036976174335289426,0.0013165925973881293,0.0013165925973881293,0.0012571651506291485,0.0012571651506291485,0.0010852430101227514,0.0010852430101227514,0.001467687155334573,0.001467687155334573,0.0013932613774923271,0.0013932613774923271,0.0008056052165726637,0.0008056052165726637
181,0.0037167290734303176,8.8629386e-05,0.003327267633709682,0.0012335132616854547,0.0012335132616854547,0.0012269782506361421,0.0012269782506361421,0.0008281029829481438,0.0008281029829481438,0.00147585876908265,0.00147585876908265,0.0013964971458966698,0.0013964971458966698,0.000805731921873494,0.000805731921873494
182,0.0036540475399553045,8.8629386e-05,0.0037795316646665788,0.001622848457933434,0.001622848457933434,0.0014239150416131953,0.0014239150416131953,0.0006940292112291229,0.0006940292112291229,0.0014448774932221754,0.0014448774932221754,0.0013680594700042862,0.0013680594700042862,0.000802404094670699,0.000802404094670699
183,0.0037139891226449797,8.8629386e-05,0.0031907435155572425,0.0012582985136851685,0.0012582985136851685,0.0011568139627024568,0.0011568139627024568,0.0007368228341182709,0.0007368228341182709,0.0014748052310004658,0.0014748052310004658,0.0013884590828700423,0.0013884590828700423,0.0008119486036807748,0.0008119486036807748
184,0.0036028867982408263,7.976645e-05,0.0032657176169064305,0.0012971157054995973,0.0012971157054995973,0.001203959642899227,0.001203959642899227,0.0007257646671486532,0.0007257646671486532,0.001413893711225909,0.001413893711225909,0.0013642979720297442,0.0013642979720297442,0.0007858510292403061,0.0007858510292403061
185,0.003587196218107744,7.976645e-05,0.0033075989844604404,0.0013476814572592165,0.0013476814572592165,0.0011768931613755664,0.0011768931613755664,0.0007440754423913421,0.0007440754423913421,0.0014245905557727916,0.0014245905557727916,0.0013445159988813014,0.0013445159988813014,0.0007791691755525123,0.0007791691755525123
186,0.0035947555571786347,7.976645e-05,0.003978767937130799,0.001763397246427318,0.001763397246427318,0.0012137399410030014,0.0012137399410030014,0.0009626099866546314,0.0009626099866546314,0.0014252235881281547,0.0014252235881281547,0.0013461027172856268,0.0013461027172856268,0.0007844463780322471,0.0007844463780322471
187,0.0035904505103701986,7.976645e-05,0.003241471988180345,0.0013266066307306246,0.0013266066307306246,0.0011889988614920146,0.0011889988614920146,0.0006867830009496449,0.0006867830009496449,0.0014186768498012,0.0014186768498012,0.0013620288822785266,0.0013620288822785266,0.000770694532152686,0.000770694532152686
188,0.0035447983108430462,7.976645e-05,0.003203731938520045,0.0012810285210349069,0.0012810285210349069,0.0011634543959866375,0.0011634543959866375,0.0007201019118467768,0.0007201019118467768,0.0013928513921815896,0.0013928513921815896,0.0013476633683294113,0.0013476633683294113,0.0007651674709930213,0.0007651674709930213
189,0.003522265355531883,7.17898e-05,0.0032847701308624396,0.001257538742836865,0.001257538742836865,0.0012070644280090229,0.0012070644280090229,0.0007809465351425442,0.0007809465351425442,0.001394590318268583,0.001394590318268583,0.0013298141400287162,0.0013298141400287162,0.0007586785188258122,0.0007586785188258122
190,0.003513532309415799,7.17898e-05,0.0029885231326953494,0.001158178716889439,0.001158178716889439,0.0011378109916054032,0.0011378109916054032,0.0006532476978978281,0.0006532476978978281,0.0013827378826147922,0.0013827378826147922,0.001326728652486065,0.001326728652486065,0.0007648136098872474,0.0007648136098872474
191,0.0035099846032445622,7.17898e-05,0.0036830557395605315,0.001356667739001392,0.001356667739001392,0.001221685303400946,0.001221685303400946,0.0010653578957693882,0.0010653578957693882,0.0013891413835048533,0.0013891413835048533,0.001312827793457323,0.001312827793457323,0.0007686999601164536,0.0007686999601164536
192,0.0035314617035337274,7.17898e-05,0.0035433735979847557,0.0015969052534390309,0.0015969052534390309,0.0012263836718862289,0.0012263836718862289,0.0006806729695447509,0.0006806729695447509,0.0014006861249967347,0.0014006861249967347,0.0013126268237339711,0.0013126268237339711,0.0007787680311187687,0.0007787680311187687
193,0.003442626494142204,7.17898e-05,0.0033554439686230143,0.0013453108569549716,0.0013453108569549716,0.0012430122920147556,0.0012430122920147556,0.0007276471477710001,0.0007276471477710001,0.0013571420286683936,0.0013571420286683936,0.001311190970281929,0.001311190970281929,0.0007348481019127364,0.0007348481019127364
194,0.0034704326682121235,7.17898e-05,0.004238819579841954,0.0018137796207695457,0.0018137796207695457,0.0014116868592144315,0.0014116868592144315,0.0009738106296440078,0.0009738106296440078,0.0013651704995670255,0.0013651704995670255,0.0013039399053381457,0.0013039399053381457,0.0007618132033825385,0.0007618132033825385
195,0.003502663970448494,7.17898e-05,0.0033657293841603403,0.0014783774009378163,0.0014783774009378163,0.001125837251290957,0.001125837251290957,0.0007219034398247961,0.0007219034398247961,0.0013757899483057905,0.0013757899483057905,0.0013120430908582982,0.0013120430908582982,0.000775253276594135,0.000775253276594135
196,0.003428402552082963,6.4610824e-05,0.003016699572387371,0.001178233349538009,0.001178233349538009,0.0011285133634683067,0.0011285133634683067,0.0006702789497506975,0.0006702789497506975,0.0013466234591776925,0.0013466234591776925,0.0012925256086758058,0.0012925256086758058,0.0007496121951456849,0.0007496121951456849
197,0.003401388807284204,6.4610824e-05,0.003032765156891854,0.0011953644372535888,0.0011953644372535888,0.001119574313496273,0.001119574313496273,0.0006780894231581837,0.0006780894231581837,0.0013368884270931053,0.0013368884270931053,0.0012890300913207555,0.0012890300913207555,0.0007357594196210673,0.0007357594196210673
198,0.0033998353433428133,6.4610824e-05,0.0032760436929202236,0.0011597650514849735,0.0011597650514849735,0.0011590144731890054,0.0011590144731890054,0.0009174691677134761,0.0009174691677134761,0.0013427674346165976,0.0013427674346165976,0.0012776574860983417,0.0012776574860983417,0.0007396373064891863,0.0007396373064891863
199,0.00339383536421565,6.4610824e-05,0.0031101015855119992,0.0012500732572570323,0.0012500732572570323,0.0011335407071608717,0.0011335407071608717,0.000686632999210328,0.000686632999210328,0.0013323562826145516,0.0013323562826145516,0.0012792386507988745,0.0012792386507988745,0.0007424150834614573,0.0007424150834614573
200,0.003383450934687077,6.4610824e-05,0.0029740715019417824,0.001158655228065755,0.001158655228065755,0.0011196124067019298,0.0011196124067019298,0.0006558827127334954,0.0006558827127334954,0.001321395994957989,0.001321395994957989,0.0012773968956060918,0.0012773968956060918,0.0007447721005062124,0.0007447721005062124
201,0.003298835929303255,5.814974e-05,0.004393896961755978,0.0019954718441250875,0.0019954718441250875,0.0015701334660395397,0.0015701334660395397,0.0007883056956961196,0.0007883056956961196,0.0012818485871786967,0.0012818485871786967,0.0012588286987973486,0.0012588286987973486,0.0007182048386904502,0.0007182048386904502
202,0.0033004792445008825,5.814974e-05,0.0029086055745008504,0.0010898171158719426,0.0010898171158719426,0.0011151365637678057,0.0011151365637678057,0.0006636041256208676,0.0006636041256208676,0.0012771777864142096,0.0012771777864142096,0.001262556441576212,0.001262556441576212,0.0007207280387068394,0.0007207280387068394
203,0.0033137363873588506,5.814974e-05,0.0028822469930336984,0.0010939980111648422,0.0010939980111648422,0.0010978225192700094,0.0010978225192700094,0.0006503240664296326,0.0006503240664296326,0.0012992957870312568,0.0012992957870312568,0.001250666378631662,0.001250666378631662,0.0007236980455587693,0.0007236980455587693
204,0.003283847616035074,5.814974e-05,0.0036284489549209616,0.001567855583936872,0.001567855583936872,0.0013377294215553609,0.0013377294215553609,0.0006827065360332861,0.0006827065360332861,0.0012772116687753683,0.0012772116687753683,0.0012434547734524268,0.0012434547734524268,0.0007230509944224722,0.0007230509944224722
205,0.0033171797862081884,5.814974e-05,0.003401210863983591,0.0014935443609477073,0.0014935443609477073,0.0011885276931959139,0.0011885276931959139,0.0006789162318197824,0.0006789162318197824,0.0012928876020606502,0.0012928876020606502,0.001251015844790668,0.001251015844790668,0.00073308957028486,0.00073308957028486
206,0.0033183152508590792,5.814974e-05,0.003029324494583316,0.0011843502962996483,0.0011843502962996483,0.0011288506455622899,0.0011288506455622899,0.0006758432223817086,0.0006758432223817086,0.00129981708881045,0.00129981708881045,0.001249298437792627,0.001249298437792627,0.0007289466859613598,0.0007289466859613598
207,0.0033186023687537965,5.814974e-05,0.0030328692911566714,0.001143183859171693,0.001143183859171693,0.0011860715216142933,0.0011860715216142933,0.0006632782178207384,0.0006632782178207384,0.001304984799749435,0.001304984799749435,0.0012560302548844868,0.0012560302548844868,0.0007172786355195565,0.0007172786355195565
208,0.003258430659934073,5.814974e-05,0.0029385995384096403,0.001120406600963142,0.001120406600963142,0.0010901168493837635,0.0010901168493837635,0.0006876822307175542,0.0006876822307175542,0.0012641277671362784,0.0012641277671362784,0.0012386811314333932,0.0012386811314333932,0.000715258074517294,0.000715258074517294
209,0.0032321393563685833,5.2334766e-05,0.0029821406468748656,0.0011875524459101633,0.0011875524459101633,0.0011036240408331883,0.0011036240408331883,0.0006505146252876216,0.0006505146252876216,0.0012573314544545584,0.0012573314544545584,0.0012256048735697907,0.0012256048735697907,0.0007087845459083198,0.0007087845459083198
210,0.003239290723310427,5.2334766e-05,0.003550877890803205,0.0012776847364177524,0.0012776847364177524,0.001262727672387928,0.001262727672387928,0.0009699651771995258,0.0009699651771995258,0.0012618644678184464,0.0012618644678184464,0.0012238350665768525,0.0012238350665768525,0.0007131192913976919,0.0007131192913976919
211,0.003221406933119752,5.2334766e-05,0.0028108475863681134,0.0010662593045901413,0.0010662593045901413,0.0010656183141250178,0.0010656183141250178,0.0006384159927197609,0.0006384159927197609,0.0012521868332554585,0.0012521868332554585,0.0012172523675740927,0.0012172523675740927,0.0007114371379542369,0.0007114371379542369
212,0.0032244425761880293,5.2334766e-05,0.0029825342352943407,0.0011782986472613317,0.0011782986472613317,0.0010819838047646411,0.0010819838047646411,0.0006816405216111411,0.0006816405216111411,0.0012519470283469812,0.0012519470283469812,0.0012196416039961394,0.0012196416039961394,0.0007122723931288535,0.0007122723931288535
213,0.0031996208747704907,5.2334766e-05,0.0030698750701116362,0.0012893441755681345,0.0012893441755681345,0.001097290138076083,0.001097290138076083,0.0006425741556557585,0.0006425741556557585,0.0012439732877017756,0.0012439732877017756,0.0012036344310359377,0.0012036344310359377,0.000711376051219165,0.000711376051219165
214,0.00314241667347315,4.710129e-05,0.0031720002404075453,0.0013403109005716651,0.0013403109005716651,0.001114761734671793,0.001114761734671793,0.0006762100389518898,0.0006762100389518898,0.001202225710473052,0.001202225710473052,0.0012032298163008057,0.0012032298163008057,0.000696271514467744,0.000696271514467744
215,0.0031597287399969965,4.710129e-05,0.00290198525746948,0.0011135154346120298,0.0011135154346120298,0.0010900274823363748,0.0010900274823363748,0.000657669189630684,0.000657669189630684,0.0012215385639657533,0.0012215385639657533,0.0012068173090899062,0.0012068173090899062,0.0006906285551789513,0.0006906285551789513
216,0.003169437018832988,4.710129e-05,0.0028621344539261993,0.001087116721397184,0.001087116721397184,0.0010811394061845943,0.0010811394061845943,0.0006530510086872633,0.0006530510086872633,0.0012253421874579352,0.0012253421874579352,0.0011998585568192479,0.0011998585568192479,0.0007034393686571115,0.0007034393686571115
217,0.003151464541256061,4.710129e-05,0.002941474310591423,0.0010755754631275151,0.0010755754631275151,0.0010619309387957492,0.0010619309387957492,0.0007630930863602948,0.0007630930863602948,0.0012159112939825747,0.0012159112939825747,0.0011988463444543465,0.0011988463444543465,0.0006958580678789461,0.0006958580678789461
218,0.003161892547015307,4.710129e-05,0.0028007000237450503,0.0010659418523408187,0.0010659418523408187,0.0010480226607003666,0.0010480226607003666,0.0006458076603227253,0.0006458076603227253,0.0012252972016841166,0.0012252972016841166,0.0011882748155293541,0.0011882748155293541,0.0007074199383967577,0.0007074199383967577
219,0.003099059408511342,4.2391162e-05,0.002855047046751535,0.0010908750034199673,0.0010908750034199673,0.0010879464680298343,0.0010879464680298343,0.0006352535178848484,0.0006352535178848484,0.0011870278424047582,0.0011870278424047582,0.0011859154314592896,0.0011859154314592896,0.0006851666444134414,0.0006851666444134414
220,0.003077441439172727,4.2391162e-05,0.0028440178174657595,0.0010920972648610625,0.0010920972648610625,0.0010862452437393078,0.0010862452437393078,0.0006246561624292207,0.0006246561624292207,0.0011803594769874291,0.0011803594769874291,0.0011791167029078261,0.0011791167029078261,0.0006769691545608636,0.0006769691545608636
221,0.003115987849675403,4.2391162e-05,0.0028556771058513178,0.0011382390117794154,0.0011382390117794154,0.0010398254655155316,0.0010398254655155316,0.000636552343169903,0.000636552343169903,0.0012050964530354652,0.0012050964530354652,0.0011809513312944502,0.0011809513312944502,0.0006888988810804209,0.0006888988810804209
222,0.0031074184263276236,4.2391162e-05,0.0030965901682592743,0.001303059900170343,0.001303059900170343,0.001069471753191575,0.001069471753191575,0.0006829508271002483,0.0006829508271002483,0.0011998627920423684,0.0011998627920423684,0.0011756992555486884,0.0011756992555486884,0.0006907708919239386,0.0006907708919239386
223,0.0030487277942869394,4.2391162e-05,0.0028269147028903924,0.001083261249971316,0.001083261249971316,0.0010588792097575793,0.0010588792097575793,0.0006436122091515615,0.0006436122091515615,0.0011653129916384213,0.0011653129916384213,0.0011692551989347208,0.0011692551989347208,0.0006730275068904171,0.0006730275068904171
224,0.003031255177788278,3.8152048e-05,0.0029057129910198096,0.0010892376543785516,0.0010892376543785516,0.0011009751894595899,0.0011009751894595899,0.0006742905388742497,0.0006742905388742497,0.0011572050899580526,0.0011572050899580526,0.0011560835413320176,0.0011560835413320176,0.00067678196779453,0.00067678196779453
225,0.003016865276362699,3.8152048e-05,0.0027122107171865103,0.0010281635068757303,0.0010281635068757303,0.0010239162389026092,0.0010239162389026092,0.0006188763072882635,0.0006188763072882635,0.0011570618718802004,0.0011570618718802004,0.0011466046272031365,0.0011466046272031365,0.0006719680871243068,0.0006719680871243068
226,0.003009880894199397,3.8152048e-05,0.002833943620185181,0.0010898899697017457,0.0010898899697017457,0.0010421410114382396,0.0010421410114382396,0.0006606102262459764,0.0006606102262459764,0.001147579245333266,0.001147579245333266,0.0011440876622305469,0.0011440876622305469,0.0006769356900420161,0.0006769356900420161
227,0.0030330384395081435,3.8152048e-05,0.0033120627755149085,0.0014000440578762845,0.0014000440578762845,0.0011724804389324417,0.0011724804389324417,0.0006981923740448735,0.0006981923740448735,0.001164499592475005,0.001164499592475005,0.0011470962385864369,0.0011470962385864369,0.0006801184953812042,0.0006801184953812042
228,0.0030279998838143992,3.8152048e-05,0.002996292254275655,0.0011707572858702816,0.0011707572858702816,0.0011099818166013064,0.0011099818166013064,0.0006741637596658418,0.0006741637596658418,0.0011567879034619082,0.0011567879034619082,0.0011524207203786761,0.0011524207203786761,0.0006774237386547148,0.0006774237386547148
229,0.003033120650862945,3.8152048e-05,0.0027308923870725684,0.00103713803134946,0.00103713803134946,0.0010321317626778904,0.0010321317626778904,0.0006201897202512867,0.0006201897202512867,0.0011522749682654832,0.0011522749682654832,0.0011553554954572053,0.0011553554954572053,0.0006840770119220637,0.0006840770119220637
230,0.003011093126418032,3.8152048e-05,0.0028374265307948223,0.0010930453734771762,0.0010930453734771762,0.0010765603511581595,0.0010765603511581595,0.0006263435395741069,0.0006263435395741069,0.0011566401294930086,0.0011566401294930086,0.0011372775324026182,0.0011372775324026182,0.0006757182870625655,0.0006757182870625655
231,0.0029750840404235163,3.4336845e-05,0.002815465692374683,0.0011069542610274083,0.0011069542610274083,0.001032669449177958,0.001032669449177958,0.0006343257172304729,0.0006343257172304729,0.0011272747371040585,0.0011272747371040585,0.0011376498635511192,0.0011376498635511192,0.0006686627959545902,0.0006686627959545902
232,0.0029534086578844,3.4336845e-05,0.002838308470122209,0.0010700167640178388,0.0010700167640178388,0.0011012886380137115,0.0011012886380137115,0.0006254432401944942,0.0006254432401944942,0.0011281718482370493,0.0011281718482370493,0.001124024035657763,0.001124024035657763,0.000659675020132783,0.000659675020132783
233,0.002962019214088074,3.4336845e-05,0.0027770088014307725,0.0010756922931299297,0.0010756922931299297,0.0010175375387941072,0.0010175375387941072,0.0006421756857362994,0.0006421756857362994,0.0011233296007985508,0.0011233296007985508,0.0011300977042926115,0.0011300977042926115,0.0006670091846846624,0.0006670091846846624
234,0.002964060199104156,3.4336845e-05,0.002731067209004978,0.0010386374719576264,0.0010386374719576264,0.0010243362859469155,0.0010243362859469155,0.0006264483595091237,0.0006264483595091237,0.0011229903332219317,0.0011229903332219317,0.0011317700814278604,0.0011317700814278604,0.0006676745420900478,0.0006676745420900478
235,0.002966093014027917,3.4336845e-05,0.0029550968023436064,0.0012680453176223884,0.0012680453176223884,0.0010039056848137058,0.0010039056848137058,0.0006414568470170566,0.0006414568470170566,0.0011272305607090405,0.0011272305607090405,0.0011295496489907783,0.0011295496489907783,0.0006676440892534834,0.0006676440892534834
236,0.0029326171661700423,3.090316e-05,0.0026952968193029968,0.0010161316956055395,0.0010161316956055395,0.0010091191031833138,0.0010091191031833138,0.000628320620706027,0.000628320620706027,0.0011040421742799624,0.0011040421742799624,0.0011286658548309624,0.0011286658548309624,0.0006582012558465458,0.0006582012558465458
237,0.0029432348139782215,3.090316e-05,0.0027914419445395,0.0010435879552190912,0.0010435879552190912,0.0010886523311336247,0.0010886523311336247,0.0006174324874640055,0.0006174324874640055,0.0011212467355617862,0.0011212467355617862,0.0011150548059958424,0.0011150548059958424,0.0006651876166351992,0.0006651876166351992
238,0.0029388439469551423,3.090316e-05,0.002748899469635197,0.001082213551544494,0.001082213551544494,0.0009993188264360339,0.0009993188264360339,0.000625562599924268,0.000625562599924268,0.0011142169222329282,0.0011142169222329282,0.001114874355778727,0.001114874355778727,0.0006679657317497763,0.0006679657317497763
239,0.0029243823053615135,3.090316e-05,0.0028825835793963883,0.00115876846425957,0.00115876846425957,0.0010427325935899092,0.0010427325935899092,0.0006392407993660998,0.0006392407993660998,0.001110754737817348,0.001110754737817348,0.001110324840960928,0.001110324840960928,0.0006614799021107079,0.0006614799021107079
240,0.0029090685686173692,3.090316e-05,0.0027576188137147244,0.0010521216640101024,0.0010521216640101024,0.0010355446977573532,0.0010355446977573532,0.0006280713936000214,0.0006280713936000214,0.0011029068015774247,0.0011029068015774247,0.001109204851686768,0.001109204851686768,0.0006550947258263809,0.0006550947258263809
241,0.002877684874620718,2.7812845e-05,0.002684117495022543,0.0009992090000940318,0.0009992090000940318,0.0010167307391598743,0.0010167307391598743,0.0006262623726289419,0.0006262623726289419,0.0010818326717531833,0.0010818326717531833,0.0011049279509782338,0.0011049279509782338,0.0006490225143867677,0.0006490225143867677
242,0.002883895755875784,2.7812845e-05,0.0035128369502118013,0.001628781466009209,0.001628781466009209,0.001207766426066558,0.001207766426066558,0.000634338284291412,0.000634338284291412,0.0010845102608722762,0.0010845102608722762,0.0011048435695209676,0.0011048435695209676,0.000652607605444136,0.000652607605444136
243,0.0028917471911693166,2.7812845e-05,0.002659885606293211,0.000981874198008796,0.000981874198008796,0.001006198439923041,0.001006198439923041,0.0006298297118828548,0.0006298297118828548,0.0010912996692974955,0.0010912996692974955,0.0011032584249180035,0.0011032584249180035,0.0006552218234431324,0.0006552218234431324
244,0.0028914583648369423,2.7812845e-05,0.0028074393246337766,0.0010736667967930556,0.0010736667967930556,0.0010404149491138252,0.0010404149491138252,0.0006513381314300315,0.0006513381314300315,0.0010935778278866588,0.0010935778278866588,0.0011006976757895629,0.0011006976757895629,0.0006551808337909322,0.0006551808337909322
245,0.002892530435372338,2.7812845e-05,0.0027680752270440303,0.0010316688947749437,0.0010316688947749437,0.0010397170554007071,0.0010397170554007071,0.0006546362102698205,0.0006546362102698205,0.0010932540910453439,0.0010932540910453439,0.0011012540872103488,0.0011012540872103488,0.000655984664107147,0.000655984664107147
246,0.0028577689718618598,2.503156e-05,0.0026887174679953384,0.0010186290051315031,0.0010186290051315031,0.0009981355333519195,0.0009981355333519195,0.0006298678737078964,0.0006298678737078964,0.0010764853740100441,0.0010764853740100441,0.0010922984227616991,0.0010922984227616991,0.0006469145819149965,0.0006469145819149965
247,0.0028405960319196643,2.503156e-05,0.0026148392815732394,0.0009729449182345996,0.0009729449182345996,0.0009913090644147551,0.0009913090644147551,0.0006084678277487671,0.0006084678277487671,0.0010656210132562105,0.0010656210132562105,0.0010863546882719753,0.0010863546882719753,0.0006465183541206949,0.0006465183541206949
248,0.002846618664518435,2.503156e-05,0.002923867424757154,0.001141859236453738,0.001141859236453738,0.0010750311166151678,0.0010750311166151678,0.0006648269923904014,0.0006648269923904014,0.0010747601027681357,0.0010747601027681357,0.0010883224008333876,0.0010883224008333876,0.0006414004207218412,0.0006414004207218412
249,0.0028634800731222646,2.503156e-05,0.002672565317674899,0.0010005022591934236,0.0010005022591934236,0.0010079976444942584,0.0010079976444942584,0.0006218879586967367,0.0006218879586967367,0.0010820028970262813,0.0010820028970262813,0.0010934906249868346,0.0010934906249868346,0.0006458205418927375,0.0006458205418927375
250,0.0028425483110377197,2.503156e-05,0.0027287463368087543,0.0010136297055748588,0.0010136297055748588,0.001062616927165038,0.001062616927165038,0.0006102895708236032,0.0006102895708236032,0.0010686445001022197,0.0010686445001022197,0.0010862322457143682,0.0010862322457143682,0.0006454775220892096,0.0006454775220892096
251,0.002840000358877017,2.2528404e-05,0.0027077766027787985,0.0009818430237549913,0.0009818430237549913,0.001058183308875968,0.001058183308875968,0.0006255105188064642,0.0006255105188064642,0.0010695069136214058,0.0010695069136214058,0.0010818637527587728,0.0010818637527587728,0.0006464066756480785,0.0006464066756480785
252,0.0028289051271133936,2.2528404e-05,0.0026698415724963173,0.0009750035817364044,0.0009750035817364044,0.0010130771386880487,0.0010130771386880487,0.0006394929732533128,0.0006394929732533128,0.0010627331618294482,0.0010627331618294482,0.0010858325292305482,0.0010858325292305482,0.0006380876153337895,0.0006380876153337895
253,0.0028190746500692185,2.2528404e-05,0.0026205513700909492,0.0009843936614323612,0.0009843936614323612,0.0009775470208581401,0.0009775470208581401,0.000616313496629109,0.000616313496629109,0.00105460385741763,0.00105460385741763,0.0010783396538582163,0.0010783396538582163,0.0006438494461363004,0.0006438494461363004
254,0.0028033291926260447,2.2528404e-05,0.002857032025662903,0.001095121443942005,0.001095121443942005,0.0010448496591701345,0.0010448496591701345,0.0006747333794343834,0.0006747333794343834,0.0010557791506053513,0.0010557791506053513,0.0010645272812069245,0.0010645272812069245,0.0006407109635134163,0.0006407109635134163
255,0.0028009715557249424,2.2528404e-05,0.0026877414535247776,0.001007205992870943,0.001007205992870943,0.0009789972076368052,0.0009789972076368052,0.0006591825513643821,0.0006591825513643821,0.0010442476769020412,0.0010442476769020412,0.0010728520251827181,0.0010728520251827181,0.0006415288931382431,0.0006415288931382431
256,0.0027940866175320683,2.0275564e-05,0.0026200345318736227,0.0009866727820708272,0.0009866727820708272,0.0009660612897173925,0.0009660612897173925,0.0006249179655073762,0.0006249179655073762,0.0010427257385047985,0.0010427257385047985,0.0010695991268446397,0.0010695991268446397,0.0006393932943549229,0.0006393932943549229
257,0.0027956186897840326,2.0275564e-05,0.002578904261595612,0.0009572906034523527,0.0009572906034523527,0.0009704843372312728,0.0009704843372312728,0.0006087215661138562,0.0006087215661138562,0.001044231379295615,0.001044231379295615,0.001070749590339334,0.001070749590339334,0.0006382423354968889,0.0006382423354968889
258,0.0027775483065517327,2.0275564e-05,0.002695016960274571,0.0010068237190800193,0.0010068237190800193,0.001020037072937987,0.001020037072937987,0.00062572178649134,0.00062572178649134,0.0010351840404022846,0.0010351840404022846,0.0010670745478971253,0.0010670745478971253,0.0006328687858993605,0.0006328687858993605
259,0.0027726602664662017,2.0275564e-05,0.0026047265577051233,0.0009865195272710718,0.0009865195272710718,0.0009666648623869172,0.0009666648623869172,0.0006090839424635333,0.0006090839424635333,0.001036996150544252,0.001036996150544252,0.001059476161270279,0.001059476161270279,0.0006337404687319345,0.0006337404687319345
260,0.002779783061108967,2.0275564e-05,0.0027584003268208775,0.001090165258745903,0.001090165258745903,0.001018840179625326,0.001018840179625326,0.0006069081655705641,0.0006069081655705641,0.0010345986535745854,0.0010345986535745854,0.0010638407266054702,0.0010638407266054702,0.0006388694908595104,0.0006388694908595104
261,0.0027662838170200836,2.0275564e-05,0.002794312149526744,0.0011120546925165228,0.0011120546925165228,0.00102065998379526,0.00102065998379526,0.0006190852292653437,0.0006190852292653437,0.0010330019614242063,0.0010330019614242063,0.0010568378151264127,0.0010568378151264127,0.0006339444504685035,0.0006339444504685035
262,0.0027631885682032867,2.0275564e-05,0.0026211823147752164,0.000987228947589315,0.000987228947589315,0.0009754404079045368,0.0009754404079045368,0.0006159710445308673,0.0006159710445308673,0.0010281837113668474,0.0010281837113668474,0.0010584769092202829,0.0010584769092202829,0.0006340016115782351,0.0006340016115782351
263,0.002764938782555019,1.8248007e-05,0.0025803289561993395,0.0009617937656199036,0.0009617937656199036,0.0009659514775154301,0.0009659514775154301,0.0006100217860355414,0.0006100217860355414,0.0010339001997841262,0.0010339001997841262,0.0010551542206714713,0.0010551542206714713,0.0006333321646125252,0.0006333321646125252
264,0.002744098642909165,1.8248007e-05,0.0026024711350014712,0.0009692204691222752,0.0009692204691222752,0.0009714300724245005,0.0009714300724245005,0.00061923558372018,0.00061923558372018,0.001020455872608015,0.001020455872608015,0.0010488389036332616,0.0010488389036332616,0.0006322309689004044,0.0006322309689004044
265,0.0027429922214206167,1.8248007e-05,0.002567677046276193,0.000959794581564957,0.000959794581564957,0.0009548622198966193,0.0009548622198966193,0.0006104124838481218,0.0006104124838481218,0.0010210905648658684,0.0010210905648658684,0.0010490318910693739,0.0010490318910693739,0.0006302703322715534,0.0006302703322715534
266,0.002747281050323307,1.8248007e-05,0.002636797672111356,0.001005900767696749,0.001005900767696749,0.0009719458646218652,0.0009719458646218652,0.0006163196532758809,0.0006163196532758809,0.0010227006851380393,0.0010227006851380393,0.0010497803091558604,0.0010497803091558604,0.0006321805951088299,0.0006321805951088299
267,0.0027625436385329397,1.8248007e-05,0.0025891440579321186,0.0009509385499891032,0.0009509385499891032,0.0009685862405450871,0.0009685862405450871,0.0006269624345651801,0.0006269624345651801,0.0010298959229377875,0.0010298959229377875,0.0010529127341445854,0.0010529127341445854,0.0006370916195529238,0.0006370916195529238
268,0.0027330216384025734,1.6423206e-05,0.0025674981980689216,0.0009615724461444629,0.0009615724461444629,0.0009543586821083755,0.0009543586821083755,0.0006088895393521139,0.0006088895393521139,0.0010112961070324446,0.0010112961070324446,0.0010516643537604579,0.0010516643537604579,0.0006273937912300949,0.0006273937912300949
269,0.002725802458937949,1.6423206e-05,0.0025648535654309006,0.0009376985570680679,0.0009376985570680679,0.0009602384078780141,0.0009602384078780141,0.0006242192434130097,0.0006242192434130097,0.0010067144982027632,0.0010067144982027632,0.001047774114481098,0.001047774114481098,0.0006286263049527497,0.0006286263049527497
270,0.002724178059142625,1.6423206e-05,0.0025959600166688902,0.0009408918767864943,0.0009408918767864943,0.0010001463685515197,0.0010001463685515197,0.0006122010344146665,0.0006122010344146665,0.0010120406972890339,0.0010120406972890339,0.001042184368153443,0.001042184368153443,0.0006272423802992438,0.0006272423802992438
271,0.002716847876087073,1.6423206e-05,0.0025747660676355283,0.0009587026409857884,0.0009587026409857884,0.0009588605467913973,0.0009588605467913973,0.0006144600973203349,0.0006144600973203349,0.0010039305553501804,0.0010039305553501804,0.001043616587005477,0.001043616587005477,0.0006265675182092413,0.0006265675182092413
272,0.002719914812070165,1.6423206e-05,0.00254851484444186,0.0009449146273989827,0.0009449146273989827,0.0009535463213427593,0.0009535463213427593,0.0006072902559375359,0.0006072902559375359,0.0010086835187695783,0.0010086835187695783,0.0010416330897191394,0.0010416330897191394,0.00062684326231753,0.00062684326231753
273,0.002714998236008589,1.4780885e-05,0.002563821352492651,0.0009563813832495548,0.0009563813832495548,0.0009586708067496508,0.0009586708067496508,0.0006059843054704089,0.0006059843054704089,0.0010015547461468496,0.0010015547461468496,0.0010407544433811906,0.0010407544433811906,0.0006299150119525079,0.0006299150119525079
274,0.002705132892424181,1.4780885e-05,0.002571391086866264,0.0009711455648492254,0.0009711455648492254,0.0009465367290985731,0.0009465367290985731,0.0006109039745950991,0.0006109039745950991,0.0009993217959930506,0.0009993217959930506,0.0010369893350337862,0.0010369893350337862,0.0006260271137277799,0.0006260271137277799
275,0.002697675393941241,1.4780885e-05,0.0025308736735358693,0.0009326636182082157,0.0009326636182082157,0.000951924345661775,0.000951924345661775,0.0006034619249941701,0.0006034619249941701,0.0009933408875392933,0.0009933408875392933,0.0010398647426145841,0.0010398647426145841,0.0006216547768896821,0.0006216547768896821
276,0.0027027790465386082,1.4780885e-05,0.002543071394299019,0.000938912414620412,0.000938912414620412,0.0009578243430822646,0.0009578243430822646,0.0006034918309836425,0.0006034918309836425,0.000998152297236394,0.000998152297236394,0.0010335125843545687,0.0010335125843545687,0.0006282799812393522,0.0006282799812393522
277,0.0026921195441574836,1.4780885e-05,0.002581720551908422,0.0009656143132944102,0.0009656143132944102,0.0009599885480867657,0.0009599885480867657,0.0006132546197097773,0.0006132546197097773,0.0009929093673105714,0.0009929093673105714,0.0010348938497038078,0.0010348938497038078,0.0006214635540649736,0.0006214635540649736
278,0.0026835488228709706,1.3302797e-05,0.0025618852106907234,0.0009478388133986532,0.0009478388133986532,0.0009594975786808315,0.0009594975786808315,0.000611667173402428,0.000611667173402428,0.0009916878622342148,0.0009916878622342148,0.0010287664529226186,0.0010287664529226186,0.0006202217482256873,0.0006202217482256873
279,0.0026885887343954446,1.3302797e-05,0.002534047436251921,0.0009417077792959665,0.0009417077792959665,0.0009447042425731693,0.0009447042425731693,0.0006047352357420481,0.0006047352357420481,0.000991961730119053,0.000991961730119053,0.0010311590005445462,0.0010311590005445462,0.0006225779078337552,0.0006225779078337552
280,0.002686419904403228,1.3302797e-05,0.0025676884734003587,0.0009472031394736147,0.0009472031394736147,0.0009497588295992252,0.0009497588295992252,0.0006278088580234074,0.0006278088580234074,0.0009965472757942164,0.0009965472757942164,0.0010273435655056837,0.0010273435655056837,0.000619620939515572,0.000619620939515572
281,0.0026592395074659957,1.3302797e-05,0.0025337696912199077,0.0009396607708646477,0.0009396607708646477,0.0009508006376897359,0.0009508006376897359,0.0006003737883226925,0.0006003737883226925,0.0009784701466997862,0.0009784701466997862,0.0010200557960478034,0.0010200557960478034,0.0006177873896921,0.0006177873896921
282,0.002678596887741802,1.3302797e-05,0.0025536195938826245,0.0009545496351389184,0.0009545496351389184,0.0009458257824637185,0.0009458257824637185,0.0006102925301448133,0.0006102925301448133,0.0009852737792299254,0.0009852737792299254,0.0010277798083347983,0.0010277798083347983,0.0006225987506075561,0.0006225987506075561
283,0.002673391576939191,1.1972517e-05,0.002580523446515071,0.0009484184711591634,0.0009484184711591634,0.0009837217312696667,0.0009837217312696667,0.0006054146301185733,0.0006054146301185733,0.0009856691340461327,0.0009856691340461327,0.0010258615426831067,0.0010258615426831067,0.0006189012321528383,0.0006189012321528383
284,0.0026681885334365364,1.1972517e-05,0.0025353804018045855,0.0009308345140002086,0.0009308345140002086,0.0009608855022193121,0.0009608855022193121,0.0006006754285671888,0.0006006754285671888,0.000984182979057313,0.000984182979057313,0.0010210312704039873,0.0010210312704039873,0.0006199972755699738,0.0006199972755699738
285,0.00266390550349855,1.1972517e-05,0.0025357764789200408,0.0009326508828662584,0.0009326508828662584,0.0009580976625926783,0.0009580976625926783,0.0006020284111764953,0.0006020284111764953,0.0009798394736487452,0.0009798394736487452,0.0010237632778300261,0.0010237632778300261,0.0006173095526821363,0.0006173095526821363
286,0.0026610868724577736,1.1972517e-05,0.002556123634857543,0.0009494967670731603,0.0009494967670731603,0.0009557768800138366,0.0009557768800138366,0.0006078338920426532,0.0006078338920426532,0.0009828562142815552,0.0009828562142815552,0.001016756416956524,0.001016756416956524,0.0006184675283121316,0.0006184675283121316
287,0.002661868191173555,1.1972517e-05,0.002572051704277579,0.0009462112252442379,0.0009462112252442379,0.0009614914393438599,0.0009614914393438599,0.000621316434587154,0.000621316434587154,0.0009812894909450112,0.0009812894909450112,0.0010173938763434098,0.0010173938763434098,0.0006201606192214419,0.0006201606192214419
288,0.0026458943546949945,1.0775266e-05,0.0025211599005169867,0.0009309113691243917,0.0009309113691243917,0.0009485994473206814,0.0009485994473206814,0.0005986012154252811,0.0005986012154252811,0.0009710918088833181,0.0009710918088833181,0.001015771809925153,0.001015771809925153,0.0006159897959105436,0.0006159897959105436
289,0.0026487754504659206,1.0775266e-05,0.0025165410417305333,0.0009225516616014667,0.0009225516616014667,0.0009464459937898998,0.0009464459937898998,0.0006044809358175705,0.0006044809358175705,0.0009714053143177373,0.0009714053143177373,0.0010188283639437268,0.0010188283639437268,0.0006154862920829649,0.0006154862920829649
290,0.002647028445449852,1.0775266e-05,0.0025101112414111057,0.000921847425981793,0.000921847425981793,0.0009463236046113624,0.0009463236046113624,0.000598862526739345,0.000598862526739345,0.0009709517203034265,0.0009709517203034265,0.0010157171983407522,0.0010157171983407522,0.0006172891974795197,0.0006172891974795197
291,0.002631794597679267,1.0775266e-05,0.0027963717017855465,0.0011127665380039193,0.0011127665380039193,0.0010341548531256739,0.0010341548531256739,0.0006063585648460791,0.0006063585648460791,0.0009605223101054482,0.0009605223101054482,0.0010166555956233779,0.0010166555956233779,0.0006115312621062603,0.0006115312621062603
292,0.0026401391600677023,1.0775266e-05,0.002499845772801337,0.0009157127700966543,0.0009157127700966543,0.0009359226723574729,0.0009359226723574729,0.0006051034942257419,0.0006051034942257419,0.0009715183687106399,0.0009715183687106399,0.0010138029377092814,0.0010138029377092814,0.0006117189725665484,0.0006117189725665484
293,0.0026295742184965086,9.697739e-06,0.002565604113800818,0.0009627920192815202,0.0009627920192815202,0.00094690835443366,0.00094690835443366,0.0006127845183581415,0.0006127845183581415,0.0009641366526261341,0.0009641366526261341,0.0010122047336679758,0.0010122047336679758,0.0006101203446888877,0.0006101203446888877
294,0.0026369094461511436,9.697739e-06,0.002493997835466969,0.000913989657885199,0.000913989657885199,0.0009385204778800624,0.0009385204778800624,0.0005983544728260681,0.0005983544728260681,0.0009695788275730943,0.0009695788275730943,0.0010103327425744994,0.0010103327425744994,0.0006138713660759236,0.0006138713660759236
295,0.002632536171854135,9.697739e-06,0.002516966439191305,0.000932233844399803,0.000932233844399803,0.000935208349577996,0.000935208349577996,0.0006063787211227806,0.0006063787211227806,0.0009642202548750138,0.0009642202548750138,0.0010089531017610344,0.0010089531017610344,0.000616224432510821,0.000616224432510821
296,0.00263780176054462,9.697739e-06,0.0025836237320299763,0.0009611229900576707,0.0009611229900576707,0.0009551784795503439,0.0009551784795503439,0.0006241632020857944,0.0006241632020857944,0.000966500977404401,0.000966500977404401,0.0010124558790458901,0.0010124558790458901,0.0006156923533930542,0.0006156923533930542
297,0.0026249679417435744,9.697739e-06,0.00270677134564663,0.0010735408529647182,0.0010735408529647182,0.0009740503797049792,0.0009740503797049792,0.0006160077613770622,0.0006160077613770622,0.0009609105300903093,0.0009609105300903093,0.0010092873570803939,0.0010092873570803939,0.0006116048010211893,0.0006116048010211893
298,0.0026210215086930745,8.727965e-06,0.002505721245421589,0.000919152089387745,0.000919152089387745,0.0009439183142882391,0.0009439183142882391,0.0005994659237569637,0.0005994659237569637,0.0009602704676294045,0.0009602704676294045,0.0010023525986936344,0.0010023525986936344,0.0006152193892169273,0.0006152193892169273
299,0.0026215100317364785,8.727965e-06,0.0025548357375417695,0.0009514388486425893,0.0009514388486425893,0.0009622503526213409,0.0009622503526213409,0.0005979504102828232,0.0005979504102828232,0.0009610319982044417,0.0009610319982044417,0.0010062412109451463,0.0010062412109451463,0.0006110458771421335,0.0006110458771421335
