170.97569,-24.018028,13.127112,1225.606,2.9874467,0
159.13806,-23.330168,12.626174,1224.67,3.0236702,0
147.64771,-22.628301,12.124182,1223.7261,3.0609006,0
136.51298,-21.908088,11.622137,1222.7714,3.0982074,0
125.74214,-21.172085,11.119362,1221.8077,3.1362929,0
115.34399,-20.418055,10.616354,1220.8334,3.1746744,0
105.32676,-19.647938,10.112562,1219.85,3.2139932,0
95.699052,-18.859599,9.6084176,1218.856,3.2537866,0
86.470671,-18.051111,9.1043631,1217.8504,3.2935216,0
77.650388,-17.227777,8.5990675,1216.8363,3.3350399,0
69.247949,-16.376532,8.0955381,1215.8058,3.3739623,0
61.27839,-15.498569,7.5939113,1214.7597,3.4099865,0
53.751117,-14.609215,7.0906532,1213.7074,3.4488421,0
46.671993,-13.704196,6.5864069,1212.6463,3.4895027,0
40.050062,-12.780741,6.0817026,1211.5748,3.5311598,0
33.894428,-11.838766,5.576419,1210.4928,3.574156,0
28.2143,-10.879028,5.0702033,1209.4008,3.6195034,0
23.018104,-9.9034579,4.5622489,1208.3,3.6696264,0
18.313368,-8.9123466,4.0517923,1207.1907,3.7273576,0
14.109265,-7.9008636,3.5391203,1206.0698,3.7930199,0
10.415777,-6.8701327,3.0228328,1204.9382,3.8736386,0
7.2421446,-5.8216856,2.5003396,1203.7968,3.9848615,0
4.5968623,-4.756686,1.9666355,1202.6463,4.16553,0
2.4890879,-3.6709127,1.4116028,1201.4842,4.5292018,0
0.92957209,-2.5638055,0.80082695,1200.3102,5.7310408,0
-0.071544851,-1.4407074,1.3907091,1199.1275,5.9877578,0
196.64097,-25.186731,14.217393,1254.3623,2.8712328,0
184.20496,-24.554616,13.716962,1253.4401,2.9083283,0
172.08995,-23.902151,13.21699,1252.5055,2.9450283,0
160.30609,-23.230753,12.717178,1251.5595,2.9815905,0
148.86163,-22.543891,12.216633,1250.6044,3.0188336,0
137.76563,-21.837409,11.716354,1249.6375,3.0558257,0
127.02688,-21.114273,11.215596,1248.6607,3.0933085,0
116.65464,-20.372112,10.714925,1247.6727,3.130713,0
106.65754,-19.613263,10.213736,1246.6748,3.1687114,0
97.04447,-18.835753,9.7124629,1245.6658,3.2068225,0
87.825432,-18.037431,9.2116467,1244.6445,3.2443684,0
79.009622,-17.223842,8.7099624,1243.6143,3.2831207,0
70.606348,-16.3837,8.210036,1242.5682,3.3192853,0
62.630932,-15.514585,7.7129302,1241.5046,3.3511523,0
55.09434,-14.630296,7.2156649,1240.4323,3.383294,0
48.003412,-13.730365,6.7182426,1239.3511,3.4156329,0
41.367131,-12.811954,6.2214128,1238.2591,3.4468095,0
35.194586,-11.874907,5.7253463,1237.1564,3.4763338,0
29.49547,-10.9188,5.2304057,1236.0426,3.5032712,0
24.278564,-9.9463584,4.7362168,1234.9196,3.5282736,0
19.551548,-8.9591384,4.2426165,1233.7883,3.5515481,0
15.322793,-7.9526853,3.7510356,1232.6459,3.5684068,0
11.602126,-6.9270348,3.2624404,1231.4926,3.5746813,0
8.3987566,-5.8837482,2.7780044,1230.3292,3.5640987,0
5.7211035,-4.8244292,2.299988,1229.1569,3.5233234,0
3.5770357,-3.7487149,1.833775,1227.9755,3.4166678,0
1.9756935,-2.6537119,1.3938387,1226.7832,3.1359205,0
0.92622822,-1.5416577,1.0233282,1225.5813,2.3411724,0
0.43630602,-0.4163955,0.90207434,1224.3724,0.25134114,0
223.74003,-26.791953,15.183717,1235.9809,2.8571829,0
210.49914,-26.169427,14.682751,1235.0782,2.8927945,0
197.57386,-25.528542,14.18192,1234.1646,2.9282988,0
184.97331,-24.871498,13.680696,1233.2415,2.9641446,0
172.7055,-24.196745,13.17941,1232.3079,3.0000466,0
160.77965,-23.504197,12.678099,1231.3639,3.0359882,0
149.20338,-22.798537,12.175556,1230.4124,3.0731141,0
137.98431,-22.075099,11.67282,1229.4505,3.1104533,0
127.13069,-21.336579,11.169183,1228.4799,3.1487615,0
116.6509,-20.580097,10.665264,1227.4989,3.1874211,0
106.55316,-19.808075,10.160399,1226.5089,3.2272198,0
96.845784,-19.018473,9.6549651,1225.5087,3.267771,0
87.538244,-18.208733,9.1495206,1224.4968,3.3084052,0
78.639605,-17.383958,8.6427888,1223.4763,3.3509116,0
70.1587,-16.534078,8.1369823,1222.441,3.3920792,0
62.110386,-15.655934,7.6331914,1221.389,3.4302133,0
54.504712,-14.765958,7.1276423,1220.3306,3.4714393,0
47.34691,-13.862169,6.6203365,1219.2645,3.5158993,0
40.645735,-12.939699,6.112168,1218.1877,3.5622237,0
34.410265,-11.999242,5.6027125,1217.1007,3.6115146,0
28.649504,-11.041048,5.0915351,1216.0037,3.6651667,0
23.371948,-10.066871,4.5776261,1214.8978,3.7264391,0
18.585144,-9.0772876,4.0597909,1213.7834,3.7999462,0
14.298196,-8.0672551,3.5377554,1212.6574,3.8888086,0
10.521213,-7.0376675,3.0092099,1211.5203,4.0055644,0
7.2635959,-5.9900371,2.4698377,1210.3731,4.1786968,0
4.5340251,-4.925318,1.9111402,1209.2165,4.4824697,0
2.3420703,-3.8388511,1.3142452,1208.0477,5.1700555,0
0.69900334,-2.7298076,0.61122402,1206.866,8.2604109,0
169.47203,-23.977867,13.053345,1224.9002,3.0019728,0
157.65593,-23.284419,12.552005,1223.9613,3.0382172,0
146.18979,-22.576998,12.049599,1223.0144,3.0754899,0
135.08202,-21.851762,11.547006,1222.0572,3.1129818,0
124.34061,-21.110591,11.043695,1221.0908,3.1512484,0
113.97438,-20.351974,10.539985,1220.1143,3.1900055,0
103.99134,-19.577194,10.035468,1219.1285,3.2297464,0
94.40016,-18.784105,9.5305658,1218.1322,3.2700113,0
85.21064,-17.971307,9.0255931,1217.1244,3.3104451,0
76.431206,-17.143666,8.5192827,1216.1083,3.3528191,0
68.072411,-16.286278,8.0151111,1215.0747,3.3920388,0
60.14902,-15.40455,7.5122086,1214.0268,3.4293497,0
52.669218,-14.513008,7.0071019,1212.9738,3.4705168,0
45.639005,-13.604752,6.5009978,1211.9113,3.5135807,0
39.06757,-12.678178,5.9941085,1210.8385,3.5583587,0
32.963985,-11.733264,5.4862107,1209.7554,3.605511,0
27.337273,-10.770894,4.9767786,1208.6624,3.6566056,0
22.195697,-9.7931731,4.4647591,1207.561,3.7150219,0
17.546832,-8.7989222,3.94943,1206.4504,3.7839391,0
13.400276,-7.7841219,3.4304987,1205.3282,3.8663323,0
9.7659586,-6.7502112,2.905713,1204.1954,3.9743107,0
6.6530544,-5.6987146,2.3709908,1203.0528,4.1351778,0
4.0700965,-4.6299076,1.8182705,1201.9007,4.4207955,0
2.0269528,-3.539115,1.2288302,1200.7362,5.0882826,0
0.53470637,-2.4263553,0.52889556,1199.5595,8.5033231,0
157.05022,-22.718434,12.654412,1281.2917,2.9187405,0
145.85719,-22.049975,12.157053,1280.3259,2.9556655,0
135.00356,-21.361955,11.659982,1279.348,2.9922947,0
124.49883,-20.653485,11.163435,1278.3576,3.0283483,0
114.35322,-19.926261,10.667073,1277.3558,3.0641772,0
104.57583,-19.180163,10.170937,1276.3424,3.0997083,0
95.17649,-18.413377,9.6755222,1275.3164,3.1343231,0
86.165935,-17.626102,9.1809274,1274.278,3.1678671,0
77.552934,-16.822472,8.6861921,1273.2297,3.201528,0
69.349112,-15.987525,8.1951208,1272.162,3.2298636,0
61.570066,-15.125538,7.7073862,1271.0777,3.2530918,0
54.226494,-14.245764,7.22122,1269.9829,3.273674,0
47.327618,-13.3467,6.7373597,1268.8764,3.2901426,0
40.882831,-12.429744,6.256004,1267.7594,3.3018464,0
34.901145,-11.493632,5.7781107,1266.631,3.3064814,0
29.392564,-10.53767,5.3048833,1265.4908,3.3009646,0
24.36635,-9.5647051,4.8370199,1264.3407,3.2829382,0
19.830319,-8.5770079,4.375733,1263.1821,3.2484067,0
15.792593,-7.5708279,3.9245867,1262.0127,3.1862986,0
12.262616,-6.5462691,3.4880536,1260.8326,3.0816826,0
9.2491719,-5.5049595,3.0729972,1259.6428,2.9109407,0
6.7602149,-4.4486017,2.6913771,1258.4445,2.6339638,0
4.8028221,-3.3790022,2.365239,1257.2388,2.185364,0
3.3833178,-2.2967959,2.1375485,1256.0262,1.4771457,0
2.5080883,-1.2025934,2.0901587,1254.8072,0.47886527,0
2.1817145,-0.10267091,2.3445254,1253.5856,-0.58427086,0
205.32387,-25.605682,14.560198,1258.4985,2.845362,0
192.67536,-24.985447,14.060035,1257.5808,2.8822544,0
180.34125,-24.34765,13.559639,1256.6525,2.9193401,0
168.33126,-23.689044,13.059829,1255.7116,2.9559179,0
156.65516,-23.013209,12.559762,1254.7604,2.9927389,0
145.32091,-22.320248,12.059346,1253.7989,3.0298799,0
134.33803,-21.608962,11.558888,1252.8265,3.0670801,0
123.71506,-20.879561,11.058291,1251.8433,3.1044182,0
113.46142,-20.132491,10.557456,1250.8495,3.142036,0
103.58555,-19.367982,10.056268,1249.8455,3.1800681,0
94.096644,-18.58401,9.5551859,1248.8299,3.2179726,0
85.00491,-17.780305,9.0543266,1247.8025,3.2556171,0
76.318774,-16.960813,8.5526828,1246.766,3.2943427,0
68.049723,-16.110168,8.054007,1245.7105,3.3286806,0
60.212721,-15.234909,7.5572748,1244.6403,3.3599982,0
52.816684,-14.346908,7.0598004,1243.563,3.3925404,0
45.868932,-13.441058,6.5627041,1242.4753,3.4243408,0
39.378682,-12.517133,6.0661655,1241.3771,3.4550139,0
33.35515,-11.573776,5.5706659,1240.2676,3.4834031,0
27.807954,-10.612346,5.0761853,1239.1477,3.5093745,0
22.745482,-9.635225,4.5824182,1238.0189,3.5334471,0
18.175265,-8.6425287,4.0895528,1236.8813,3.5547832,0
14.106379,-7.6298986,3.5992022,1235.7321,3.5679178,0
10.548546,-6.5985633,3.1122506,1234.5723,3.568526,0
7.5107278,-5.5500979,2.6301938,1233.4028,3.5484413,0
5.0010856,-4.486121,2.1559869,1232.2247,3.4896931,0
3.0276698,-3.4043625,1.697394,1231.0365,3.3394271,0
1.5999134,-2.303853,1.2745896,1229.8378,2.9431964,0
0.72655049,-1.1873162,0.95492249,1228.6301,1.8148735,0
0.41452023,-0.059693021,1.0155774,1227.4167,-0.55429956,0
197.67219,-25.183109,14.271752,1244.7696,2.85723,0
185.23643,-24.557285,13.771483,1243.8584,2.894542,0
173.11854,-23.910939,13.271688,1242.9348,2.9314461,0
161.32888,-23.244997,12.772194,1241.9995,2.9680834,0
149.87604,-22.563318,12.272031,1241.055,3.0053394,0
138.76909,-21.861612,11.77223,1240.0985,3.0422444,0
128.01712,-21.143073,11.272008,1239.1321,3.0795752,0
117.62939,-20.405156,10.771978,1238.1543,3.1167081,0
107.61475,-19.650442,10.271492,1237.1666,3.1543554,0
97.982081,-18.877085,9.7709589,1236.1679,3.1920622,0
88.741372,-18.082677,9.270989,1235.1569,3.2290622,0
79.902096,-17.272426,8.770364,1234.1366,3.2669619,0
71.473219,-16.437435,8.2711408,1233.1017,3.3027931,0
63.46991,-15.572168,7.7751096,1232.0486,3.3337915,0
55.903933,-14.690165,7.2794294,1230.986,3.3642216,0
48.782456,-13.792734,6.7837556,1229.9145,3.3945463,0
42.114374,-12.87676,6.2889437,1228.8324,3.4231927,0
35.908758,-11.942427,5.7951494,1227.7398,3.4496708,0
30.175326,-10.988456,5.3030228,1226.6358,3.4723691,0
24.923115,-10.017872,4.8122779,1225.5225,3.4916094,0
20.15991,-9.0326031,4.3228751,1224.401,3.5071251,0
15.893776,-8.0287217,3.8363707,1223.269,3.5137274,0
12.134466,-7.0055596,3.3543132,1222.1259,3.5051912,0
8.8912287,-5.9646822,2.8785941,1220.9729,3.4723091,0
6.1725215,-4.9077015,2.4127336,1219.811,3.3963125,0
3.9860687,-3.8353448,1.964186,1218.6407,3.2334223,0
2.3403947,-2.7444586,1.5518693,1217.4599,2.8651169,0
1.2444411,-1.6369577,1.2265605,1216.2701,1.9973293,0
0.70558237,-0.51696209,1.1517199,1215.0736,0.2258675,0
176.25883,-23.571365,13.528139,1235.2639,2.812936,0
164.62692,-22.952946,13.031467,1234.3643,2.8508412,0
153.30909,-22.314627,12.535021,1233.4528,2.8885108,0
142.31642,-21.652666,12.039812,1232.5272,2.9249899,0
131.6596,-20.971168,11.544919,1231.5899,2.9611149,0
121.3491,-20.267691,11.051023,1230.6396,2.9961664,0
111.39504,-19.545466,10.557419,1229.6783,3.0308434,0
101.80709,-18.803193,10.064488,1228.7052,3.064688,0
92.595823,-18.03838,9.5729744,1227.7187,3.0967507,0
83.771856,-17.255048,9.0820929,1226.7215,3.1279412,0
75.343906,-16.45141,8.5923377,1225.7124,3.1574667,0
67.32621,-15.614412,8.1073678,1224.6832,3.1800522,0
59.733475,-14.753623,7.6256509,1223.6402,3.197618,0
52.57624,-13.871907,7.1470533,1222.5849,3.209999,0
45.864961,-12.970298,6.6720326,1221.5182,3.2161056,0
39.608867,-12.051263,6.2007949,1220.4416,3.2151516,0
33.817154,-11.11234,5.7349795,1219.3535,3.2034305,0
28.499781,-10.154189,5.2759898,1218.2545,3.177353,0
23.665864,-9.179042,4.825372,1217.146,3.1326365,0
19.323209,-8.1889106,4.3854318,1216.0291,3.0627428,0
15.480252,-7.1799304,3.9613882,1214.9017,2.9531024,0
12.146279,-6.1532732,3.5598246,1213.7643,2.785211,0
9.329691,-5.1106654,3.1911911,1212.6181,2.5311286,0
7.0380248,-4.0538786,2.8730372,1211.4643,2.1501617,0
5.2778998,-2.9848192,2.63559,1210.304,1.5931559,0
4.0548953,-1.9058501,2.530197,1209.1386,0.83462912,0
3.3732253,-0.82007349,2.6343311,1207.9703,-0.049249675,0
166.85378,-23.350335,13.059661,1284.7893,2.9040937,0
155.34209,-22.693904,12.561144,1283.8287,2.9414954,0
144.16362,-22.016483,12.063197,1282.8552,2.978336,0
133.32872,-21.320501,11.565291,1281.8702,3.0151261,0
122.84675,-20.604108,11.067884,1280.8727,3.0513698,0
112.7276,-19.869771,10.570431,1279.8642,3.0876463,0
102.98027,-19.11664,10.073131,1278.8443,3.1237161,0
93.61457,-18.342508,9.5765679,1277.8115,3.1588515,0
84.641052,-17.549003,9.080474,1276.7669,3.1933629,0
76.068185,-16.738198,8.5843423,1275.712,3.2278498,0
67.908624,-15.89491,8.0920853,1274.6368,3.2566533,0
60.177395,-15.027034,7.6024709,1273.5466,3.2813429,0
52.884211,-14.142688,7.1138922,1272.4466,3.3042216,0
46.037959,-13.23934,6.6272468,1271.3352,3.3235725,0
39.647866,-12.318261,6.1426804,1270.2134,3.3388577,0
33.723124,-11.377428,5.6612571,1269.0797,3.3475455,0
28.27373,-10.417324,5.183795,1267.9347,3.3473338,0
23.308526,-9.4411118,4.710711,1266.7802,3.3365052,0
18.835082,-8.4498477,4.2432395,1265.6171,3.3108798,0
14.862001,-7.4394329,3.7847899,1264.4427,3.259372,0
11.398748,-6.4107921,3.3392564,1263.2577,3.1677981,0
8.4540312,-5.3655516,2.9129927,1262.0631,3.0120213,0
6.0357301,-4.3054091,2.5174326,1260.86,2.7486218,0
4.1508625,-3.2319347,2.1746895,1259.6496,2.300464,0
2.806389,-2.1436625,1.9314773,1258.4308,1.5478585,0
2.0092637,-1.0433152,1.8823624,1257.2054,0.43666248,0
1.7640407,0.062584448,2.1755197,1255.9777,-0.72938957,0
180.2691,-24.495826,13.519576,1282.6925,2.9519022,0
168.18832,-23.824215,13.018996,1281.7236,2.9880614,0
156.44771,-23.136133,12.518023,1280.7447,3.0245973,0
145.05468,-22.432615,12.01631,1279.7564,3.06184,0
134.01813,-21.711329,11.514405,1278.7573,3.0993053,0
123.34624,-20.972951,11.012074,1277.7479,3.1372284,0
113.04805,-20.217387,10.509317,1276.7281,3.1756623,0
103.13172,-19.444988,10.005958,1275.6981,3.2148276,0
93.606175,-18.653634,9.5024432,1274.6567,3.2542167,0
84.481399,-17.842898,8.9988831,1273.6035,3.2937262,0
75.765663,-17.016602,8.4942583,1272.5412,3.3347584,0
67.470411,-16.159336,7.9922671,1271.4596,3.3718883,0
59.610241,-15.278722,7.4915515,1270.3638,3.4070663,0
52.193129,-14.38758,6.9890541,1269.2622,3.4453209,0
45.225776,-13.478783,6.4861686,1268.1501,3.4843074,0
38.717411,-12.551838,5.9829561,1267.0273,3.5240107,0
32.677214,-11.605997,5.4795075,1265.8932,3.5642916,0
27.114364,-10.642738,4.9753765,1264.749,3.6063096,0
22.037084,-9.6641541,4.4697915,1263.5959,3.6523536,0
17.452946,-8.6690359,3.962467,1262.4333,3.7037206,0
13.37151,-7.6535711,3.453751,1261.2586,3.7601797,0
9.8025804,-6.6192543,2.9425104,1260.0729,3.8271981,0
6.755198,-5.5676309,2.4267463,1258.8772,3.9167018,0
4.2376927,-4.4994383,1.902679,1257.672,4.0577277,0
2.2593889,-3.4103848,1.3628602,1256.4547,4.3328919,0
0.83080311,-2.3007513,0.78000803,1255.2253,5.2274472,0
-0.038082534,-1.173548,1.1127308,1253.9859,6.0251661,0
162.04012,-23.543693,12.740355,1272.0389,3.0240699,0
150.44304,-22.842458,12.238184,1271.0588,3.0611272,0
139.20089,-22.123371,11.735842,1270.0679,3.0983685,0
128.32213,-21.389016,11.23266,1269.068,3.1365071,0
117.81512,-20.636415,10.729284,1268.057,3.1748916,0
107.68829,-19.868221,10.225009,1267.0368,3.2143469,0
97.949912,-19.082488,9.7201959,1266.006,3.2545044,0
88.609392,-18.276512,9.2154413,1264.9631,3.2946429,0
79.676089,-17.454709,8.7096567,1263.9108,3.3362736,0
71.158437,-16.610202,8.2042984,1262.8448,3.3772918,0
63.071053,-15.735846,7.7013723,1261.7605,3.4146499,0
55.425055,-14.84741,7.1973567,1260.668,3.453941,0
48.225859,-13.946325,6.691525,1259.5684,3.4965004,0
41.481948,-13.026445,6.1850908,1258.4577,3.5403537,0
35.202457,-12.088492,5.677695,1257.3364,3.5863849,0
29.396508,-11.132533,5.1690529,1256.2046,3.635524,0
24.072718,-10.160245,4.6583308,1255.0633,3.6903282,0
19.238697,-9.1730644,4.1443766,1253.9136,3.7548979,0
14.903153,-8.1658437,3.6272408,1252.7521,3.8306555,0
11.076198,-7.1389496,3.1053227,1251.5791,3.926025,0
7.7672904,-6.0938995,2.5754363,1250.3957,4.0604696,0
4.9851311,-5.0320988,2.0314303,1249.2027,4.2823876,0
2.7387558,-3.9497906,1.4606552,1247.9978,4.7363905,0
1.0390961,-2.845361,0.82272726,1246.78,6.2450454,0
-0.10356278,-1.726622,1.6678502,1245.5544,5.9863306,0
162.62117,-23.052331,12.892938,1262.4949,2.904108,0
151.25876,-22.393769,12.394925,1261.5496,2.9415228,0
140.23124,-21.713219,11.897756,1260.5909,2.9781143,0
129.5485,-21.014296,11.400591,1259.6212,3.0146732,0
119.22055,-20.294622,10.904058,1258.6389,3.0505436,0
109.25685,-19.557076,10.407492,1257.6459,3.0864142,0
99.666779,-18.799991,9.9113214,1256.6411,3.1217854,0
90.46071,-18.021026,9.4162112,1255.6232,3.1558054,0
81.648646,-17.225036,8.9211078,1254.5952,3.1897816,0
73.239403,-16.406163,8.4274256,1253.5534,3.2216628,0
65.248041,-15.554945,7.9379695,1252.4918,3.2472701,0
57.687874,-14.683129,7.4505345,1251.418,3.2696425,0
50.568031,-13.793106,6.9648746,1250.3335,3.2889078,0
43.897971,-12.884282,6.4815796,1249.238,3.3038067,0
37.686703,-11.957671,6.0009604,1248.1321,3.3133981,0
31.943806,-11.010767,5.5244199,1247.0143,3.3143621,0
26.679105,-10.045374,5.0527119,1245.8858,3.3043763,0
21.901049,-9.0645654,4.5865908,1244.7485,3.2807831,0
17.617199,-8.0676404,4.1282451,1243.602,3.236654,0
13.836673,-7.0515249,3.6818238,1242.4445,3.1585977,0
10.568662,-6.0178387,3.2524927,1241.2768,3.0285928,0
7.8215393,-4.9682428,2.8490621,1240.1003,2.8157795,0
5.6028275,-3.9044836,2.4874259,1238.9159,2.4675224,0
3.9191728,-2.8280744,2.1980472,1237.7246,1.9014065,0
2.7771,-1.7382506,2.0419029,1236.5261,1.0307246,0
2.1825467,-0.63899759,2.1269358,1235.3228,-0.070992257,0
192.62492,-25.283399,13.984479,1223.8817,2.9440684,0
180.14854,-24.619323,13.483034,1222.9619,2.9800422,0
168.00884,-23.936485,12.981791,1222.0311,3.0158472,0
156.21477,-23.237853,12.480029,1221.0912,3.0521518,0
144.77324,-22.525059,11.977241,1220.1432,3.0894556,0
133.69264,-21.79516,11.474088,1219.1853,3.1271683,0
122.9808,-21.049013,10.97027,1218.2181,3.1656105,0
112.64643,-20.28612,10.465856,1217.2412,3.2047745,0
102.69746,-19.506898,9.9606294,1216.255,3.2449458,0
93.142571,-18.709143,9.455022,1215.2582,3.2856494,0
83.991572,-17.892331,8.9491312,1214.2503,3.3268199,0
75.252585,-17.060129,8.441936,1213.2338,3.3699031,0
66.93705,-16.19711,7.9370842,1212.1991,3.409521,0
59.059175,-15.312161,7.4328483,1211.1517,3.4482784,0
51.626018,-14.418404,6.9259568,1210.0998,3.4917304,0
44.643905,-13.506994,6.4180378,1209.0379,3.5372183,0
38.122093,-12.577413,5.9089967,1207.9658,3.5851838,0
32.069571,-11.629816,5.3984721,1206.8836,3.6367039,0
26.495219,-10.664964,4.8858195,1205.7917,3.6938264,0
21.407121,-9.6852217,4.3697052,1204.6917,3.7610404,0
16.813041,-8.687702,3.8494944,1203.5817,3.8418303,0
12.7229,-7.669707,3.3241453,1202.4602,3.9426893,0
9.1465606,-6.6327349,2.790503,1201.3282,4.0819373,0
6.0931335,-5.5783013,2.2427224,1200.1865,4.3027258,0
3.5713105,-4.505383,1.6689534,1199.0347,4.7271975,0
1.5916529,-3.4096255,1.038003,1197.87,5.8977325,0
0.16550077,-2.2920426,0.1971672,1196.6931,22.57788,0
229.84181,-27.126286,15.396403,1242.6755,2.8518629,0
216.43333,-26.505099,14.895793,1241.7687,2.8868817,0
203.33917,-25.868424,14.394658,1240.8528,2.9223156,0
190.56811,-25.213393,13.8937,1239.926,2.9576169,0
178.12818,-24.543255,13.392088,1238.9903,2.9934822,0
166.02802,-23.854495,12.89066,1238.0435,3.0291966,0
154.27618,-23.151139,12.388424,1237.0883,3.0656895,0
142.87941,-22.432805,11.885345,1236.1244,3.1030137,0
131.8461,-21.698452,11.381627,1235.1512,3.1410366,0
121.18397,-20.947066,10.877408,1234.168,3.179627,0
110.90166,-20.179885,10.372333,1233.1757,3.2192442,0
101.00702,-19.395996,9.8664904,1232.1736,3.2598367,0
91.508885,-18.593103,9.3603338,1231.1605,3.3008892,0
82.416978,-17.772195,8.8535928,1230.1369,3.342831,0
73.739207,-16.934396,8.3458092,1229.1036,3.3863252,0
65.488208,-16.065252,7.8404841,1228.0515,3.426171,0
57.677187,-15.17737,7.3349475,1226.9886,3.4665173,0
50.312018,-14.280719,6.8265218,1225.9211,3.5120388,0
43.399703,-13.365542,6.3170515,1224.843,3.5597218,0
36.949495,-12.432466,5.8061199,1223.7547,3.6106842,0
30.970285,-11.481549,5.2932911,1222.6563,3.666297,0
25.47084,-10.513722,4.7777405,1221.5482,3.729273,0
20.459013,-9.5312316,4.2579284,1220.4321,3.8050793,0
15.942956,-8.5296376,3.7332906,1219.3051,3.8976466,0
11.932821,-7.5077781,3.2019554,1218.1666,4.0176414,0
8.4383682,-6.4671495,2.6597843,1217.0175,4.1910583,0
5.4686058,-5.4092585,2.098868,1215.8588,4.4825988,0
3.0325596,-4.331149,1.5026199,1214.6887,5.0929424,0
1.1414085,-3.2297578,0.82090579,1213.5053,7.1969117,0
-0.19359084,-2.1061449,2.0798079,1212.3093,5.9411808,0
228.52948,-26.990713,15.366701,1256.2324,2.8410288,0
215.18738,-26.375196,14.865999,1255.3194,2.8765377,0
202.15696,-25.743136,14.364976,1254.3964,2.9122986,0
189.44741,-25.092661,13.864108,1253.4624,2.9479474,0
177.06688,-24.426226,13.362754,1252.5189,2.9840125,0
165.02438,-23.740893,12.861632,1251.564,3.0198845,0
153.32842,-23.041285,12.359598,1250.6007,3.0566301,0
141.98602,-22.325247,11.857058,1249.6278,3.093877,0
131.00583,-21.593354,11.35384,1248.6455,3.1318551,0
120.39582,-20.843765,10.850295,1247.6527,3.1702098,0
110.16467,-20.078421,10.345907,1246.6507,3.2095686,0
100.3204,-19.296079,9.8408566,1245.6387,3.2497715,0
90.872014,-18.494101,9.3356972,1244.615,3.2901638,0
81.829275,-17.674602,8.8299062,1243.5811,3.3314954,0
73.20009,-16.837122,8.3234059,1242.5367,3.3738746,0
64.99776,-15.968032,7.8195847,1241.4732,3.4122581,0
57.235177,-15.080985,7.3155316,1240.3992,3.4511502,0
49.918198,-14.184087,6.8090254,1239.3199,3.4944061,0
43.054339,-13.268388,6.3018265,1238.2297,3.5391113,0
36.652833,-12.3347,5.7935474,1237.1291,3.5862277,0
30.72273,-11.3829,5.2839143,1236.0181,3.636656,0
25.27281,-10.414273,4.7721739,1234.8975,3.6927278,0
20.310897,-9.4310084,4.2570112,1233.7687,3.7589577,0
15.84516,-8.4286062,3.7382202,1232.6289,3.8375676,0
11.885704,-7.4061259,3.2144262,1231.4775,3.9362003,0
8.4421911,-6.3650752,2.6824355,1230.3156,4.0738888,0
5.5235264,-5.3069781,2.1361982,1229.1441,4.2967651,0
3.1385098,-4.2293987,1.563393,1227.9615,4.7386837,0
1.2979638,-3.1292283,0.92842833,1226.7659,6.0690607,0
0.012611495,-2.0126198,1.7357885,1225.5613,6.2348233,0
213.63712,-26.560198,14.743709,1245.3899,2.9310652,0
200.52069,-25.902441,14.242393,1244.458,2.9655175,0
187.73746,-25.228453,13.740842,1243.5164,3.0001844,0
175.29459,-24.54001,13.238551,1242.5665,3.0355014,0
163.2004,-23.834178,12.736207,1241.6062,3.0708891,0
151.4625,-23.115959,12.232542,1240.6388,3.107566,0
140.08715,-22.382657,11.728049,1239.6627,3.1450904,0
129.08222,-21.63503,11.222465,1238.6783,3.1838101,0
118.45518,-20.870484,10.71628,1237.684,3.2232443,0
108.21414,-20.091284,10.208851,1236.6813,3.2641977,0
98.366792,-19.295556,9.7004597,1235.6689,3.3064223,0
88.921983,-18.480542,9.1916371,1234.6453,3.34931,0
79.88899,-17.649398,8.6815427,1233.6124,3.3941046,0
71.27573,-16.7981,8.1708606,1232.5676,3.4398544,0
63.096074,-15.91704,7.6620022,1231.5051,3.4829447,0
55.360796,-15.023731,7.1509205,1230.4358,3.5300469,0
48.074001,-14.120384,6.6364253,1229.3612,3.5835643,0
41.243673,-13.198039,6.1200569,1228.2755,3.6411901,0
34.878767,-12.258887,5.6007526,1227.1804,3.7057313,0
28.987797,-11.30219,5.0778305,1226.0752,3.7797278,0
23.579271,-10.329571,4.5497113,1224.9611,3.8689046,0
18.660776,-9.3413183,4.0143644,1223.8383,3.982092,0
14.241569,-8.3321789,3.4701233,1222.7035,4.1303835,0
10.332012,-7.3029506,2.9123,1221.5572,4.3433917,0
6.9417834,-6.2551017,2.3321039,1220.4004,4.6924878,0
4.079987,-5.1885459,1.7115163,1219.2331,5.3912441,0
1.757444,-4.0976293,1.0043423,1218.0518,7.4879715,0
-0.013428227,-2.9819862,2.6134185,1216.8563,6.1979123,0
168.92103,-23.652675,13.101655,1253.3992,2.938785,0
157.26144,-22.98339,12.602071,1252.4539,2.9757034,0
145.94056,-22.296509,12.102244,1251.4981,3.0128357,0
134.96815,-21.590727,11.60252,1250.5309,3.0498761,0
124.35296,-20.866609,11.102733,1249.5529,3.0869696,0
114.10458,-20.124357,10.602853,1248.564,3.1241722,0
104.23159,-19.364512,10.102707,1247.5648,3.1616749,0
94.743284,-18.585056,9.6027703,1246.5539,3.1989153,0
85.649971,-17.785498,9.103229,1245.531,3.2356597,0
76.960242,-16.970266,8.6029892,1244.4991,3.2733478,0
68.685267,-16.124343,8.1057252,1243.4485,3.3066528,0
60.840273,-15.252574,7.6108488,1242.3825,3.3362594,0
53.434874,-14.366714,7.1157917,1241.3085,3.3661262,0
46.476649,-13.463132,6.6214177,1240.2242,3.3946861,0
39.974809,-12.541464,6.1280182,1239.1294,3.4213005,0
33.938513,-11.600405,5.6361667,1238.0234,3.4445622,0
28.377574,-10.640642,5.146171,1236.9065,3.4635083,0
23.300577,-9.6649672,4.6578759,1235.7807,3.4780918,0
18.715078,-8.674136,4.1716602,1234.6463,3.486747,0
14.629832,-7.6637306,3.6896066,1233.5006,3.482372,0
11.054528,-6.6346193,3.2134569,1232.3443,3.4574179,0
7.9981235,-5.5883881,2.7460197,1231.1783,3.3983189,0
5.4687723,-4.5266736,2.2926203,1230.0037,3.2770539,0
3.4740905,-3.449044,1.865069,1228.8203,3.0267154,0
2.0228149,-2.3533667,1.4927077,1227.6267,2.481297,0
1.12329,-1.2426539,1.2559461,1226.4249,1.3069787,0
0.78183639,-0.1222482,1.377747,1225.2182,-0.49439337,0
203.89717,-25.379294,14.543454,1227.6958,2.8182787,0
191.35882,-24.771177,14.043598,1226.8081,2.8558993,0
179.1291,-24.143974,13.543802,1225.9091,2.8934626,0
167.2185,-23.495112,13.044754,1224.9973,2.9303772,0
155.63693,-22.828972,12.545413,1224.0754,2.9675589,0
144.39298,-22.143338,12.046284,1223.142,3.004522,0
133.49666,-21.43949,11.547098,1222.198,3.0415443,0
122.95694,-20.716145,11.048149,1221.2426,3.0783024,0
112.78346,-19.975216,10.549004,1220.277,3.1152741,0
102.98493,-19.215983,10.049802,1219.3007,3.1522973,0
93.570915,-18.436408,9.5510514,1218.3127,3.1887485,0
84.551811,-17.637445,9.0526133,1217.3134,3.2247983,0
75.935995,-16.821783,8.5538007,1216.3045,3.2613172,0
67.735779,-15.973951,8.0585135,1215.2766,3.2926362,0
59.966081,-15.101889,7.5654529,1214.2345,3.3204747,0
52.636087,-14.215329,7.0725246,1213.1844,3.3480197,0
45.753956,-13.310192,6.5808092,1212.1237,3.3732992,0
39.328911,-12.387187,6.0904329,1211.0529,3.3958982,0
33.37019,-11.444413,5.6022319,1209.9709,3.4138078,0
27.887664,-10.483001,5.116581,1208.8783,3.4258041,0
22.889861,-9.5058586,4.6335217,1207.7771,3.4312271,0
18.384304,-8.5133543,4.1538552,1206.6674,3.4271591,0
14.379878,-7.5012774,3.6801747,1205.5467,3.4047332,0
10.886156,-6.4707895,3.2149988,1204.4157,3.3535216,0
7.9119459,-5.4234944,2.7625652,1203.2755,3.2545647,0
5.4652368,-4.3610557,2.3308136,1202.1271,3.0702344,0
3.5533894,-3.2835063,1.9365834,1200.9705,2.7191757,0
2.1846501,-2.188945,1.6196382,1199.8047,2.0311505,0
1.3667646,-1.0808059,1.4774226,1198.6316,0.79124207,0
1.1051505,0.034851849,1.7154748,1197.4552,-0.71248671,0
155.15633,-22.732508,12.540917,1251.177,2.95348,0
143.95958,-22.051041,12.042492,1250.2256,2.9903511,0
133.10835,-21.351287,11.544037,1249.2633,3.0272478,0
122.61187,-20.631414,11.045994,1248.2889,3.0636926,0
112.4799,-19.893823,10.547823,1247.304,3.1002649,0
102.72131,-19.137627,10.049722,1246.3081,3.136734,0
93.345851,-18.360585,9.5522682,1245.2998,3.1723813,0
84.363985,-17.564349,9.055176,1244.28,3.2075509,0
75.784122,-16.75077,8.557974,1243.2502,3.2428036,0
67.618978,-15.904712,8.0645476,1242.2006,3.2724989,0
59.883421,-15.034559,7.5735214,1241.1367,3.2984411,0
52.586833,-14.148843,7.0831376,1240.0638,3.3232234,0
45.737819,-13.244234,6.5944097,1238.98,3.3449521,0
39.345597,-12.321853,6.1074585,1237.8858,3.3631637,0
33.419406,-11.379642,5.6232801,1236.7802,3.3754781,0
27.9692,-10.418447,5.1424954,1235.6635,3.3800488,0
23.003639,-9.4414292,4.6653457,1234.538,3.3756181,0
18.530256,-8.449158,4.1929466,1233.4038,3.3583224,0
14.557823,-7.4375247,3.7284003,1232.2586,3.3178056,0
11.095835,-6.4076315,3.275072,1231.1029,3.241117,0
8.1530207,-5.3610971,2.8385591,1229.9379,3.1054826,0
5.7372811,-4.2996075,2.4291195,1228.7646,2.8682,0
3.8557272,-3.2241529,2.0673294,1227.5838,2.4472934,0
2.5158797,-2.1328741,1.7987895,1226.3941,1.6996006,0
1.724994,-1.0290702,1.7223932,1225.1978,0.52307623,0
1.4878818,0.08086412,2.0083395,1223.9988,-0.75238273,0
161.97516,-23.572282,12.729762,1262.2971,3.031637,0
150.36448,-22.868343,12.227337,1261.3228,3.0686728,0
139.11,-22.146829,11.724672,1260.338,3.1059621,0
128.22009,-21.410223,11.221118,1259.3442,3.1442043,0
117.703,-20.655548,10.717314,1258.3397,3.1827583,0
107.56709,-19.885419,10.212557,1257.326,3.222453,0
97.820566,-19.097874,9.7072042,1256.302,3.2629292,0
88.472784,-18.290187,9.2018456,1255.266,3.3034758,0
79.533052,-17.466767,8.6953863,1254.2207,3.3456249,0
71.00979,-16.620596,8.189302,1253.1618,3.3872451,0
62.917579,-15.744801,7.6855188,1252.0849,3.4254099,0
55.267326,-14.855559,7.18039,1251.0003,3.4659595,0
48.064232,-13.953761,6.6732669,1249.9087,3.5101335,0
41.316785,-13.033152,6.1653479,1248.806,3.5560179,0
35.034102,-12.094611,5.6561834,1247.693,3.6047435,0
29.225207,-11.138198,5.1454035,1246.5695,3.6575233,0
23.898681,-10.165546,4.6320685,1245.4368,3.7173494,0
19.062116,-9.1778594,4.1149076,1244.2955,3.7889308,0
14.724346,-8.1699483,3.5937302,1243.1425,3.8749244,0
10.895517,-7.1423329,3.0664681,1241.9781,3.9864905,0
7.5851056,-6.0965243,2.5291381,1240.8033,4.1491747,0
4.8018406,-5.0337754,1.9739629,1239.6188,4.4283178,0
2.5550389,-3.9497706,1.384245,1238.4221,5.0348964,0
0.855899,-2.8432001,0.7034725,1237.2123,7.4114752,0
201.81546,-26.086263,14.263935,1288.7297,2.9857987,0
188.94263,-25.403026,13.762208,1287.7486,3.0198535,0
176.41451,-24.70665,13.25949,1286.7596,3.0547821,0
164.23882,-23.993522,12.756605,1285.7604,3.0898865,0
152.42312,-23.267926,12.252462,1284.7538,3.1262273,0
140.97313,-22.529177,11.747048,1283.7394,3.1638629,0
129.89635,-21.776105,11.240539,1282.7164,3.2027117,0
119.19987,-21.007088,10.733168,1281.6839,3.2425703,0
108.89166,-20.223581,10.224471,1280.6427,3.2840628,0
98.979105,-19.424193,9.7145897,1279.592,3.327119,0
89.470723,-18.606123,9.2040267,1278.5299,3.3711855,0
80.375798,-17.771482,8.692168,1277.458,3.4172248,0
71.70202,-16.918445,8.1791461,1276.375,3.4651165,0
63.462634,-16.035511,7.6677122,1275.2735,3.510752,0
55.668642,-15.140129,7.1538108,1274.1649,3.5608909,0
48.323703,-14.2366,6.6356734,1273.0519,3.619074,0
41.435318,-13.314065,6.115115,1271.9276,3.6826229,0
35.012312,-12.375327,5.5907763,1270.7938,3.755197,0
29.062998,-11.419138,5.0618538,1269.6497,3.8399859,0
23.595856,-10.447071,4.5264654,1268.4963,3.9441406,0
18.618508,-9.4591763,3.9821632,1267.3338,4.0789183,0
14.140338,-8.4501353,3.4265408,1266.1587,4.2603124,0
10.17183,-7.4207585,2.8536106,1264.9716,4.5291065,0
6.7227904,-6.3724917,2.2520758,1263.7734,4.9873617,0
3.8025678,-5.3045159,1.5982552,1262.5637,5.9660292,0
1.422675,-4.2108704,0.82719947,1261.3387,9.5091734,0
168.78048,-23.731626,13.074567,1249.2463,2.9583424,0
157.0833,-23.054858,12.574437,1248.2993,2.9950865,0
145.72833,-22.3615,12.07383,1247.3426,3.0322726,0
134.72496,-21.649587,11.573234,1246.3748,3.0694658,0
124.08174,-20.919928,11.072408,1245.3964,3.1068952,0
113.80802,-20.17245,10.571372,1244.4076,3.1445757,0
103.91221,-19.407731,10.069924,1243.4086,3.1827391,0
94.403453,-18.623697,9.5685302,1242.3981,3.2208432,0
85.291915,-17.819793,9.0673687,1241.3759,3.2586779,0
76.586086,-17.00033,8.5653477,1240.3448,3.2977054,0
68.29715,-16.150141,8.0661419,1239.295,3.3325734,0
60.440146,-15.274887,7.5689274,1238.2304,3.3643548,0
53.024132,-14.386984,7.0708945,1237.1586,3.397499,0
46.056239,-13.48153,6.573084,1236.0768,3.4301866,0
39.545672,-12.55794,6.0757348,1234.9845,3.4619467,0
33.501626,-11.615024,5.579257,1233.881,3.491791,0
27.933696,-10.654028,5.0836108,1232.7671,3.5196657,0
22.850286,-9.677287,4.5884426,1231.6443,3.5462597,0
18.258924,-8.6850594,4.0938164,1230.5129,3.5711592,0
14.168663,-7.6728571,3.6012256,1229.3699,3.5893932,0
10.589261,-6.6418714,3.1113332,1228.2163,3.5976154,0
7.529718,-5.5936727,2.625234,1227.053,3.5896116,0
4.9982405,-4.5298722,2.1451169,1225.881,3.5515724,0
3.002957,-3.4480467,1.6771316,1224.6989,3.4399835,0
1.5534304,-2.347195,1.2373508,1223.5061,3.1220496,0
0.65857323,-1.2298511,0.88162147,1222.3042,2.118121,0
0.32565542,-0.1005222,0.88015397,1221.096,-0.44343483,0
169.66592,-24.180841,13.015109,1280.4562,3.0439564,0
157.75236,-23.471372,12.512607,1279.4643,3.0797814,0
146.1964,-22.749873,12.008615,1278.4653,3.1170709,0
135.00544,-22.011714,11.504142,1277.4563,3.1548913,0
124.18701,-21.258971,10.998584,1276.4385,3.1939109,0
113.74934,-20.489446,10.492373,1275.4107,3.2337342,0
103.70011,-19.704635,9.9850151,1274.3737,3.2749869,0
94.04756,-18.902287,9.4769048,1273.3262,3.3172722,0
84.801171,-18.080641,8.9683796,1272.2671,3.3602321,0
75.969206,-17.244632,8.4581067,1271.1995,3.4058033,0
67.56191,-16.379448,7.9494353,1270.114,3.4490542,0
59.593617,-15.49145,7.4411644,1269.0146,3.4918624,0
52.071329,-14.596331,6.9293555,1267.9116,3.5410429,0
45.000278,-13.684763,6.4155096,1266.7989,3.5942957,0
38.389661,-12.755039,5.8996087,1265.6755,3.6521745,0
32.248123,-11.808259,5.3807792,1264.542,3.7171972,0
26.584369,-10.844172,4.8582024,1263.3985,3.7924188,0
21.406462,-9.8652208,4.3299675,1262.2464,3.8848638,0
16.722269,-8.8681029,3.7946746,1261.0837,4.0021184,0
12.541902,-7.850146,3.2498898,1259.9087,4.1591685,0
8.875415,-6.8128226,2.6900364,1258.7223,4.3933727,0
5.7321211,-5.7576071,2.104484,1257.5256,4.7998975,0
3.1212996,-4.6817121,1.4704205,1256.3168,5.6960002,0
1.0545953,-3.5811404,0.71824073,1255.0934,9.3001238,0
169.41759,-23.23735,13.231355,1274.0701,2.8406128,0
157.95613,-22.605657,12.734546,1273.1336,2.8784343,0
146.81592,-21.951328,12.238674,1272.1831,2.9153526,0
136.0083,-21.276417,11.743351,1271.22,2.951714,0
125.54325,-20.580159,11.248814,1270.2438,2.9872262,0
115.43143,-19.86427,10.754753,1269.2557,3.0221906,0
105.68231,-19.128957,10.261162,1268.2557,3.0565651,0
96.305974,-18.372496,9.768556,1267.2429,3.0897038,0
87.313424,-17.594842,9.2771348,1266.2172,3.1213085,0
78.713734,-16.800844,8.7858192,1265.1818,3.1526824,0
70.518147,-15.976128,8.2983081,1264.1275,3.1786,0
62.742589,-15.122637,7.8148993,1263.0555,3.1983521,0
55.398766,-14.249257,7.3340591,1261.9716,3.2139219,0
48.496927,-13.354982,6.8566195,1260.8752,3.223646,0
42.046846,-12.442643,6.38264,1259.7682,3.2270473,0
36.05741,-11.51174,5.9131055,1258.6503,3.2217815,0
30.53851,-10.56082,5.449673,1257.5205,3.2039083,0
25.499683,-9.5918418,4.9936667,1256.3802,3.1697483,0
20.94922,-8.6077754,4.5467451,1255.2312,3.1144918,0
16.89492,-7.6062693,4.1128752,1254.0721,3.0269057,0
13.346087,-6.5862594,3.6978548,1252.9023,2.8903512,0
10.311497,-5.5495665,3.3099679,1251.723,2.6813905,0
7.7990643,-4.4979163,2.9630504,1250.5352,2.3641495,0
5.8158122,-3.4331475,2.68093,1249.3402,1.8893072,0
4.3678039,-2.3573074,2.5051678,1248.1393,1.2101012,0
3.4599149,-1.2731595,2.5040715,1246.9343,0.34501714,0
3.0953888,-0.18490982,2.7659764,1245.7278,-0.53815129,0
182.89532,-24.851126,13.574562,1263.167,2.9895716,0
170.64047,-24.165379,13.072884,1262.2037,3.025169,0
158.73282,-23.463051,12.570914,1261.2306,3.0610567,0
147.17936,-22.748206,12.067566,1260.2501,3.0982855,0
135.98767,-22.01615,11.563879,1259.2593,3.1358903,0
125.16554,-21.269326,11.059177,1258.2599,3.1746028,0
114.72134,-20.505169,10.553995,1257.2501,3.2139102,0
104.66293,-19.725607,10.047754,1256.2313,3.254517,0
94.998632,-18.928384,9.5408682,1255.202,3.2959991,0
85.737976,-18.111499,9.0337503,1254.161,3.3378864,0
76.889502,-17.280112,8.5250516,1253.1116,3.3821063,0
68.462985,-16.420603,8.0178429,1252.0451,3.4241608,0
60.473095,-15.536207,7.5116959,1250.9636,3.4646833,0
52.927984,-14.643104,7.0026964,1249.8776,3.5102787,0
45.832822,-13.734434,6.491862,1248.7825,3.5594229,0
39.196688,-12.807327,5.9795353,1247.6768,3.6118653,0
33.028456,-11.862758,5.4650413,1246.5608,3.6694699,0
27.336917,-10.900711,4.9477373,1245.4348,3.7344873,0
22.130317,-9.9234329,4.4261064,1244.3002,3.8121919,0
17.416281,-8.9292651,3.8988781,1243.1559,3.9085735,0
13.204601,-7.9142323,3.364712,1241.9994,4.0324011,0
9.5053469,-6.8798009,2.8195638,1240.8318,4.2081918,0
6.3278441,-5.827465,2.2559495,1239.6539,4.4944537,0
3.6809652,-4.7563808,1.658462,1238.4653,5.0640392,0
1.5755158,-3.6616247,0.98619369,1237.2629,6.7539176,0
0.023239697,-2.5441281,2.1904613,1236.0474,6.2387698,0
240.39281,-27.373353,15.837081,1285.8294,2.785014,0
226.85236,-26.78566,15.336373,1284.913,2.821235,0
213.61022,-26.18042,14.835525,1283.9859,2.8575684,0
200.67504,-25.556751,14.334734,1283.0473,2.8938554,0
188.0566,-24.914657,13.834036,1282.0974,2.9300818,0
175.76333,-24.255101,13.33316,1281.1368,2.9664581,0
163.80479,-23.576229,12.832583,1280.1644,3.002578,0
152.18949,-22.882961,12.331084,1279.1832,3.0395728,0
140.92508,-22.171678,11.829454,1278.1911,3.0767003,0
130.02043,-21.444486,11.327164,1277.1894,3.1145278,0
119.48391,-20.698767,10.824779,1276.1764,3.1524763,0
109.32429,-19.937149,10.321628,1275.154,3.1913249,0
99.549841,-19.157909,9.8180306,1274.1208,3.2307427,0
90.169944,-18.358415,9.3145774,1273.0754,3.2700131,0
81.194309,-17.541955,8.8104845,1272.0198,3.3102092,0
72.63108,-16.705535,8.3063071,1270.9522,3.3505191,0
64.494277,-15.837697,7.8050316,1269.8652,3.3864756,0
56.796417,-14.952479,7.3036719,1268.7678,3.4226556,0
49.543695,-14.055473,6.8006729,1267.6638,3.4616991,0
42.744177,-13.139678,6.2974995,1266.5486,3.5011282,0
36.407041,-12.205774,5.7939226,1265.4227,3.5414479,0
30.541597,-11.253209,5.2899826,1264.2857,3.5826809,0
25.156686,-10.283913,4.7850579,1263.139,3.62649,0
20.260127,-9.2999693,4.2782549,1261.984,3.6756983,0
15.860043,-8.2970747,3.7699408,1260.8178,3.7298459,0
11.966421,-7.2743636,3.2597122,1259.64,3.7913393,0
8.5887889,-6.2333628,2.7460901,1258.4515,3.8679549,0
5.7359038,-5.1756251,2.2263558,1257.2535,3.9775598,0
3.4161473,-4.0999155,1.6954925,1256.045,4.1643987,0
1.6396299,-3.0028308,1.1409105,1254.8241,4.5920656,0
0.4167652,-1.8854172,0.50685978,1253.5914,6.7677466,0
215.27969,-26.278085,14.894479,1256.0629,2.8567127,0
202.29545,-25.655342,14.393568,1255.1453,2.8929797,0
189.62761,-25.013516,13.892919,1254.2163,2.929047,0
177.28464,-24.355006,13.391914,1253.2772,2.9654158,0
165.27589,-23.677035,12.891246,1252.3265,3.0014965,0
153.61012,-22.98422,12.38978,1251.367,3.0383359,0
142.29473,-22.274227,11.887984,1250.3972,3.075497,0
131.33863,-21.547961,11.385622,1249.4179,3.1132634,0
120.75001,-20.803556,10.88307,1248.4278,3.1512499,0
110.53774,-20.043055,10.379802,1247.4283,3.1900796,0
100.71,-19.265268,9.8760052,1246.4185,3.229575,0
91.275925,-18.467613,9.3722418,1245.397,3.2690625,0
82.245406,-17.652162,8.8680225,1244.365,3.3092276,0
73.626428,-16.818823,8.3632124,1243.3226,3.3502419,0
65.432243,-15.953575,7.8613218,1242.2608,3.386897,0
57.676139,-15.069171,7.35971,1241.1878,3.4231903,0
50.364608,-14.174113,6.8561704,1240.109,3.4628482,0
43.50526,-13.260312,6.3523654,1239.0193,3.5030667,0
37.107323,-12.328443,5.8480524,1237.9191,3.5444017,0
31.180034,-11.377893,5.3432515,1236.8082,3.5869355,0
25.732317,-10.410403,4.8373565,1235.6876,3.632316,0
20.772108,-9.4281988,4.3294112,1234.5587,3.6835641,0
16.307325,-8.4276087,3.8195398,1233.4193,3.7410378,0
12.347903,-7.4069968,3.3073795,1232.2684,3.8072184,0
8.903474,-6.3678833,2.7912711,1231.1069,3.8908577,0
5.9829024,-5.3118147,2.2681826,1229.936,4.0119084,0
3.5945785,-4.2380539,1.7323466,1228.755,4.220993,0
1.7485388,-3.1427245,1.1697597,1227.5617,4.7014277,0
0.45537074,-2.0266628,0.52065785,1226.3566,7.1131537,0
202.94571,-26.10106,14.317935,1282.9649,2.9740706,0
190.06417,-25.422892,13.81639,1281.9915,3.008252,0
177.52489,-24.731501,13.313858,1281.0102,3.0432971,0
165.33559,-24.023055,12.81122,1280.0185,3.0784605,0
153.5041,-23.301357,12.307511,1279.0189,3.1146718,0
142.0363,-22.566867,11.802453,1278.0118,3.1522434,0
130.93977,-21.817461,11.296457,1276.9958,3.1908543,0
120.22164,-21.052234,10.789593,1275.9703,3.2304678,0
109.89002,-20.272122,10.281532,1274.936,3.2715503,0
99.952326,-19.476081,9.7723428,1273.8921,3.3141051,0
90.417062,-18.661652,9.2624567,1272.8372,3.3576709,0
81.293609,-17.829952,8.7515075,1271.7719,3.4028611,0
72.589635,-16.981174,8.2391758,1270.6965,3.4502021,0
64.317905,-16.101877,7.7286397,1269.6023,3.4949532,0
56.490374,-15.207627,7.2163662,1268.4993,3.5429061,0
49.111184,-14.306309,6.6998558,1267.3927,3.5987774,0
42.187347,-13.386078,6.1811674,1266.2749,3.6593914,0
35.727888,-12.449192,5.659164,1265.1473,3.7278032,0
29.741139,-11.494965,5.1330378,1264.0095,3.8069612,0
24.235672,-10.52452,4.6011978,1262.8624,3.9028325,0
19.219117,-9.5388187,4.0612867,1261.7064,4.0255824,0
14.700481,-8.5323416,3.5113666,1260.5382,4.1879865,0
10.690248,-7.5054397,2.9463949,1259.358,4.4228053,0
7.1982659,-6.4595685,2.356823,1258.1666,4.8097355,0
4.2337795,-5.3948727,1.723113,1256.9644,5.5899202,0
1.8076825,-4.3054117,0.99555798,1255.7474,7.9773891,0
-0.068992547,-3.2055949,2.8580831,1254.5251,6.1590326,0
167.71846,-23.872152,12.98112,1272.3222,3.0061258,0
155.95562,-23.177244,12.479623,1271.346,3.0425596,0
144.5436,-22.467514,11.977248,1270.361,3.0798444,0
133.49105,-21.740544,11.474543,1269.3655,3.117498,0
122.80591,-20.996806,10.971311,1268.3601,3.1557294,0
112.49704,-20.236311,10.467509,1267.3446,3.1946456,0
102.57245,-19.459192,9.9629966,1266.3191,3.2344386,0
93.040937,-18.663306,9.4582057,1265.2824,3.2746249,0
83.912389,-17.848376,8.9531908,1264.2343,3.315188,0
75.194923,-17.017831,8.446995,1263.177,3.3574676,0
66.900212,-16.15612,7.9433347,1262.1005,3.3959888,0
59.042505,-15.272434,7.4404347,1261.0109,3.4333986,0
51.629008,-14.379341,6.9351888,1259.9161,3.4749227,0
44.66632,-13.46837,6.4292116,1258.8108,3.5178878,0
38.163701,-12.539246,5.9224156,1257.6948,3.5626494,0
32.130239,-11.591744,5.4146237,1256.5681,3.609789,0
26.574892,-10.627005,4.9052407,1255.4313,3.6610647,0
21.505769,-9.6472872,4.3931449,1254.286,3.7201187,0
16.930585,-8.6500698,3.8779019,1253.1306,3.7893569,0
12.859166,-7.6324642,3.3589613,1251.9632,3.8726839,0
9.3013306,-6.5959764,2.833953,1250.7849,3.9831109,0
6.2661394,-5.5421347,2.2985451,1249.5966,4.1504436,0
3.7621065,-4.4705631,1.744146,1248.3981,4.4545089,0
1.7993891,-3.3767843,1.1496765,1247.1867,5.2024665,0
0.389028,-2.2611373,0.42467145,1245.9626,9.9770237,0
227.87233,-27.351891,15.246284,1251.8713,2.9161531,0
214.35915,-26.698789,14.745737,1250.9375,2.949367,0
201.1756,-26.032603,14.244282,1249.996,2.9833108,0
188.3293,-25.350586,13.742553,1249.0451,3.0175017,0
175.82717,-24.655082,13.239902,1248.0864,3.0525057,0
163.67706,-23.94276,12.737092,1247.1178,3.0876786,0
151.88649,-23.218208,12.232956,1246.1421,3.1241551,0
140.46127,-22.479853,11.727694,1245.1585,3.1617814,0
129.40901,-21.727318,11.221299,1244.1666,3.2006593,0
118.73687,-20.958549,10.714114,1243.1652,3.2404709,0
108.45283,-20.175349,10.20559,1242.1555,3.2819295,0
98.564362,-19.376074,9.6959346,1241.1364,3.3248874,0
89.080076,-18.557907,9.185662,1240.1063,3.3687704,0
80.009221,-17.723466,8.6740396,1239.0667,3.4146998,0
71.35957,-16.869767,8.1614773,1238.0158,3.4621441,0
63.144649,-15.986423,7.6505,1236.9471,3.5073293,0
55.375139,-15.091343,7.1369281,1235.872,3.557232,0
48.054721,-14.187265,6.6193557,1234.7922,3.6147454,0
41.191143,-13.264195,6.0994379,1233.7013,3.6774627,0
34.793213,-12.32486,5.5758495,1232.6012,3.7489463,0
28.869295,-11.368033,5.047813,1231.4911,3.8322874,0
23.427849,-10.395403,4.5134547,1230.372,3.9345517,0
18.476486,-9.4068503,3.9704137,1229.2441,4.0666193,0
14.024653,-8.397126,3.4163585,1228.1039,4.2439798,0
10.082802,-7.3671551,2.8454026,1226.952,4.5064323,0
6.6606935,-6.3183873,2.2464612,1225.7896,4.9533373,0
3.7676433,-5.2499325,1.596288,1224.6159,5.9058216,0
1.4151357,-4.1559419,0.83096638,1223.4275,9.3308173,0
212.03043,-26.593231,14.655715,1232.3874,2.9572051,0
198.90056,-25.923253,14.154231,1231.4575,2.9911143,0
186.10972,-25.23832,13.652259,1230.519,3.025456,0
173.66466,-24.539102,13.149548,1229.5722,3.0604568,0
161.57345,-23.823385,12.6466,1228.6158,3.0957013,0
149.84314,-23.096413,12.142066,1227.653,3.1325084,0
138.47975,-22.354537,11.636651,1226.6818,3.1702368,0
127.49081,-21.59905,11.129941,1225.7028,3.209397,0
116.88369,-20.826996,10.622497,1224.7142,3.2494449,0
106.66615,-20.040684,10.113638,1223.7175,3.2912465,0
96.845819,-19.238039,9.6036709,1222.7115,3.3345383,0
87.431539,-18.416121,9.0931489,1221.6943,3.3786943,0
78.432253,-17.579167,8.5809353,1220.6686,3.425407,0
69.856204,-16.719385,8.0685709,1219.6295,3.4724695,0
61.71755,-15.832226,7.5572867,1218.5744,3.5180691,0
54.025314,-14.936544,7.0425453,1217.5148,3.5699482,0
46.783167,-14.028934,6.5242951,1216.4488,3.6286667,0
39.999585,-13.102719,6.0034635,1215.3722,3.6931988,0
33.683128,-12.160337,5.4787083,1214.2866,3.767271,0
27.842262,-11.200451,4.9492005,1213.191,3.8543115,0
22.485272,-10.225202,4.4128077,1212.087,3.9624748,0
17.619854,-9.2330094,3.8672608,1210.9736,4.1031064,0
13.255903,-8.2194754,3.3097089,1209.848,4.2950328,0
9.4037784,-7.1859409,2.7334034,1208.7111,4.5860163,0
6.0731168,-6.1338507,2.1255291,1207.5639,5.0997445,0
3.2734068,-5.0608375,1.4584072,1206.4048,6.2683711,0
1.0166888,-3.9618249,0.64822106,1205.231,11.55183,0
229.64188,-27.161463,15.378128,1259.9596,2.8606253,0
216.21693,-26.535882,14.877538,1259.0374,2.8953865,0
203.10839,-25.895169,14.376365,1258.1062,2.9306095,0
190.3249,-25.236429,13.875312,1257.1641,2.9657472,0
177.87433,-24.562829,13.373563,1256.2132,3.0014867,0
165.7652,-23.870853,12.871952,1255.2513,3.0371172,0
154.00592,-23.164572,12.369471,1254.2809,3.0735882,0
142.60312,-22.443529,11.866097,1253.3019,3.1109443,0
131.56507,-21.706697,11.362023,1252.3135,3.1490669,0
120.89941,-20.952966,10.857403,1251.3152,3.18781,0
110.6147,-20.183622,10.351865,1250.3077,3.2276598,0
100.71871,-19.397668,9.8455075,1249.2904,3.2685555,0
91.220261,-18.59274,9.3387931,1248.2619,3.309975,0
82.129001,-17.770002,8.8313999,1247.2229,3.3524231,0
73.452798,-16.930194,8.3229466,1246.174,3.3964628,0
65.204406,-16.059144,7.816863,1245.1061,3.4369918,0
57.396783,-15.170086,7.3103039,1244.0277,3.4784753,0
50.035471,-14.272514,6.8006495,1242.9448,3.5255431,0
43.127515,-13.356319,6.2897897,1241.8511,3.5751297,0
36.682155,-12.42235,5.7772068,1240.7471,3.6286149,0
30.708187,-11.470697,5.2623778,1239.6329,3.6876565,0
25.214337,-10.502233,4.7443838,1238.5091,3.7553729,0
20.208396,-9.5191081,4.2215422,1237.3771,3.8379231,0
15.698654,-8.5164985,3.6931444,1236.2338,3.9402038,0
11.695343,-7.4936201,3.1568405,1235.0789,4.0756899,0
8.2082258,-6.4519637,2.6077541,1233.9132,4.276437,0
5.2463184,-5.392996,2.0364434,1232.7377,4.6246305,0
2.8188883,-4.3129065,1.4225978,1231.5501,5.3915689,0
0.93742695,-3.2091508,0.70080588,1230.3488,8.4866041,0
228.749,-26.768533,15.432292,1266.2651,2.797304,0
215.51242,-26.17507,14.931453,1265.359,2.8341768,0
202.57698,-25.562974,14.430655,1264.4415,2.8710165,0
189.95283,-24.931003,13.930251,1263.5119,2.9075503,0
177.64883,-24.281571,13.429629,1262.5718,2.944265,0
165.67466,-23.612036,12.929464,1261.6194,2.9805841,0
154.03941,-22.926979,12.428639,1260.6578,3.0175243,0
142.75087,-22.223966,11.927669,1259.6853,3.0546015,0
131.81826,-21.504168,11.426269,1258.7029,3.0921334,0
121.25002,-20.765769,10.924822,1257.7093,3.1297215,0
111.05524,-20.010867,10.422806,1256.7059,3.1679688,0
101.24225,-19.238363,9.9204099,1255.692,3.2066875,0
91.82035,-18.445776,9.4181934,1254.6661,3.2451975,0
82.79956,-17.635022,8.9157317,1253.6295,3.2840793,0
74.187975,-16.806566,8.4127899,1252.5824,3.3236255,0
65.998691,-15.945995,7.9129974,1251.5157,3.3584756,0
58.24547,-15.064799,7.4140745,1250.4367,3.3919836,0
50.93558,-14.171958,6.9138272,1249.3513,3.427744,0
44.07673,-13.26047,6.4137727,1248.2549,3.463144,0
37.678125,-12.330988,5.9137946,1247.1481,3.4983912,0
31.749116,-11.382139,5.4142694,1246.0299,3.5326423,0
26.298889,-10.416163,4.9147532,1244.9019,3.5668786,0
21.3355,-9.4352061,4.4146883,1243.7654,3.6026065,0
16.866657,-8.4368484,3.9144545,1242.619,3.6387582,0
12.902048,-7.4185141,3.4147505,1241.4609,3.6731272,0
9.4512787,-6.3817361,2.9154114,1240.2923,3.7060773,0
6.5231809,-5.3280822,2.416204,1239.1141,3.7384373,0
4.1258679,-4.2582615,1.9169638,1237.9268,3.7708602,0
2.2684193,-3.1683106,1.4190027,1236.728,3.7936912,0
0.96082672,-2.0591303,0.92414952,1235.5182,3.7844165,0
0.21223745,-0.93261555,0.44221984,1234.2987,3.5460276,0
0.030722048,0.20832926,0.38849086,1233.0713,-1.7443597,0
178.62201,-24.30054,13.477938,1269.4178,2.9341185,0
166.63725,-23.635355,12.977942,1268.463,2.9705343,0
154.9894,-22.954084,12.477419,1267.4986,3.0074457,0
143.68629,-22.255018,11.976708,1266.5235,3.0445286,0
132.7373,-21.53866,11.475699,1265.5379,3.0819318,0
122.15091,-20.803772,10.974635,1264.5412,3.1193916,0
111.93634,-20.05205,10.473106,1263.5344,3.1573918,0
102.10196,-19.282657,9.9712381,1262.517,3.1958011,0
92.657049,-18.493424,9.4695264,1261.4877,3.2340272,0
83.611724,-17.685414,8.9677577,1260.4472,3.2723677,0
74.974169,-16.860537,8.4653745,1259.3967,3.3115576,0
66.756909,-16.00365,7.9661432,1258.3265,3.3460624,0
58.974226,-15.124621,7.4682079,1257.2431,3.3785472,0
51.634,-14.23366,6.9691607,1256.1529,3.4129015,0
44.743761,-13.324301,6.4704137,1255.052,3.4466768,0
38.312728,-12.396938,5.9719524,1253.9405,3.479866,0
32.350217,-11.450076,5.4742347,1252.8175,3.5114065,0
26.865593,-10.485796,4.9769534,1251.6844,3.5418863,0
21.86703,-9.5062299,4.4796913,1250.5426,3.5722907,0
17.362111,-8.5101161,3.9827368,1249.3913,3.6016473,0
13.360325,-7.4939362,3.4872542,1248.2283,3.6260463,0
9.8713251,-6.4592247,2.9935468,1247.0547,3.6435782,0
6.9039841,-5.4075534,2.5022229,1245.8713,3.6503452,0
4.4664045,-4.3401546,2.0146674,1244.6791,3.6367025,0
2.5672013,-3.2534634,1.5357555,1243.4758,3.5651005,0
1.2161629,-2.1478307,1.0780652,1242.2616,3.3127482,0
0.42219067,-1.0256532,0.694904,1241.0382,2.2800735,0
0.19258399,0.10838887,0.75856876,1239.8085,-0.95762644,0
209.80411,-25.924836,14.708008,1288.7327,2.8534137,0
196.99663,-25.301806,14.207564,1287.7911,2.889883,0
184.50516,-24.66162,13.706855,1286.839,2.9265817,0
172.33848,-24.00191,13.20644,1285.8747,2.9630251,0
160.50647,-23.323598,12.706135,1284.899,2.9993798,0
149.01719,-22.630658,12.204917,1283.9145,3.036595,0
137.87919,-21.918645,11.703826,1282.9182,3.0736979,0
127.10111,-21.190517,11.202112,1281.9122,3.1114532,0
116.69192,-20.44369,10.700368,1280.8948,3.1492644,0
106.66012,-19.680558,10.197966,1279.8675,3.1878483,0
97.014399,-18.899177,9.6953044,1278.8292,3.2267703,0
87.764576,-18.097152,9.1929582,1277.7782,3.2653226,0
78.919823,-17.279971,8.6895984,1276.7183,3.3053077,0
70.489254,-16.436738,8.1877137,1275.6423,3.3431218,0
62.488059,-15.564707,7.688397,1274.5485,3.377028,0
54.926969,-14.678488,7.1884253,1273.4464,3.4120686,0
47.812244,-13.777353,6.6877423,1272.3357,3.4483261,0
41.152786,-12.857663,6.1871777,1271.2138,3.4843743,0
34.957712,-11.919392,5.6867464,1270.0809,3.5201358,0
29.236521,-10.962633,5.18649,1268.9371,3.5555261,0
23.997855,-9.989608,4.6858722,1267.7838,3.591859,0
19.249339,-9.0017371,4.184366,1266.622,3.6307029,0
14.999557,-7.9941784,3.6829167,1265.4485,3.669367,0
11.258445,-6.9672998,3.1814818,1264.2637,3.7080542,0
8.035279,-5.9226475,2.6796232,1263.0685,3.7486533,0
5.3385513,-4.8617998,2.1765789,1261.864,3.795523,0
3.1765458,-3.7828252,1.6717929,1260.6491,3.8536166,0
1.5591897,-2.6834766,1.1640066,1259.4222,3.938904,0
0.49624384,-1.5654491,0.64561281,1258.1846,4.1776439,0
-0.0033285066,-0.43009999,0.39693583,1256.937,6.0829553,0
196.67714,-24.926531,14.283484,1261.0343,2.8184048,0
184.36536,-24.317443,13.783818,1260.1219,2.8565503,0
172.3636,-23.686074,13.284976,1259.1958,2.8939893,0
160.68277,-23.034497,12.786525,1258.2575,2.9310786,0
149.33193,-22.365234,12.287833,1257.3086,2.9683699,0
138.32117,-21.674952,11.789758,1256.3469,3.0050577,0
127.6599,-20.966561,11.291604,1255.3743,3.0418005,0
117.35801,-20.238257,10.793851,1254.3898,3.0781058,0
107.42458,-19.492328,10.295947,1253.3948,3.1145537,0
97.868916,-18.726894,9.7983568,1252.3881,3.1506017,0
88.701423,-17.940021,9.3016382,1251.3685,3.1855352,0
79.931572,-17.13739,8.804491,1250.3398,3.2210203,0
71.568743,-16.308325,8.3094834,1249.2951,3.2533777,0
63.628497,-15.448941,7.8181255,1248.2319,3.2802287,0
56.122851,-14.571401,7.3279941,1247.1581,3.3050596,0
49.060179,-13.676246,6.8391602,1246.074,3.3275388,0
42.449753,-12.762656,6.3521742,1244.9792,3.3465039,0
36.300565,-11.830786,5.8674468,1243.8738,3.360832,0
30.622423,-10.878709,5.3861436,1242.7565,3.3676625,0
25.424797,-9.9092782,4.908564,1241.6293,3.3656923,0
20.715653,-8.9250995,4.4352604,1240.4938,3.3527569,0
16.502792,-7.923179,3.9686346,1239.3481,3.3210448,0
12.795704,-6.9022576,3.5120012,1238.1914,3.2588148,0
9.6034938,-5.8639288,3.0698873,1237.0249,3.1484349,0
6.9344535,-4.8098481,2.6502724,1235.8495,2.9578465,0
4.7960289,-3.741752,2.2682461,1234.6665,2.6273925,0
3.1951965,-2.6589685,1.9555209,1233.4753,2.0475934,0
2.1395221,-1.5617498,1.7808373,1232.2762,1.0820956,0
1.6350732,-0.45507956,1.8791546,1231.0724,-0.18750941,0
172.92682,-24.141423,13.205018,1246.0579,2.9845471,0
161.02711,-23.454887,12.704114,1245.1072,3.0206324,0
149.4741,-22.754705,12.202094,1244.1485,3.057785,0
138.27569,-22.036218,11.700009,1243.179,3.0950174,0
127.44035,-21.302271,11.197129,1242.2005,3.1330981,0
116.97664,-20.550036,10.694075,1241.2112,3.1714021,0
106.89293,-19.781997,10.190181,1240.2126,3.2107061,0
97.197647,-18.996155,9.6858323,1239.2036,3.2506077,0
87.900367,-18.189975,9.1816005,1238.1826,3.2904124,0
79.01027,-17.368508,8.6762417,1237.1529,3.3318396,0
70.536173,-16.522268,8.1718563,1236.1083,3.3718457,0
62.492986,-15.647152,7.6697846,1235.0465,3.4083519,0
54.891264,-14.758841,7.166495,1233.9772,3.4469906,0
47.736624,-13.856656,6.6617813,1232.9002,3.4881909,0
41.0378,-12.935797,6.1566023,1231.8124,3.5303975,0
34.803911,-11.996687,5.6507079,1230.7141,3.5742283,0
29.04416,-11.039564,5.1438434,1229.6055,3.6204862,0
23.767115,-10.06625,4.6352214,1228.4878,3.6715195,0
18.980363,-9.0778945,4.1238721,1227.3617,3.7307528,0
14.692719,-8.0694359,3.6100382,1226.224,3.7986999,0
10.914243,-7.0414689,3.0923786,1225.0752,3.882225,0
7.6543079,-5.9955186,2.5682422,1223.9163,3.9971123,0
4.9215268,-4.9329807,2.0325288,1222.7481,4.1821783,0
2.7248584,-3.8501411,1.4750461,1221.5684,4.5485127,0
1.0750645,-2.7456383,0.86331989,1220.3764,5.6887966,0
-0.017318494,-1.6231356,1.44652,1219.1743,6.1600481,0
145.85029,-22.396785,12.072629,1246.263,3.0384865,0
134.82976,-21.682973,11.571741,1245.2948,3.0757188,0
124.17023,-20.951732,11.070538,1244.3163,3.113279,0
113.88101,-20.20269,10.569106,1243.3273,3.1511161,0
103.97043,-19.436586,10.067198,1242.3283,3.1895153,0
94.447557,-18.651311,9.5652807,1241.3179,3.2279395,0
85.32252,-17.846168,9.0635556,1240.2958,3.2661516,0
76.603804,-17.025597,8.5608952,1239.2649,3.3056728,0
68.302463,-16.174484,8.0609383,1238.2155,3.3411981,0
60.433514,-15.29835,7.5628796,1237.1512,3.3737871,0
53.005914,-14.40996,7.0638042,1236.0801,3.4080889,0
46.026613,-13.504182,6.5647623,1234.999,3.4422876,0
39.504809,-12.580227,6.0660011,1233.9074,3.4759283,0
33.449697,-11.637047,5.5678469,1232.8046,3.5082343,0
27.870786,-10.675925,5.070169,1231.6917,3.5394154,0
22.776459,-9.6990767,4.5725333,1230.5698,3.5704664,0
18.174246,-8.7066417,4.0748742,1229.4392,3.6014759,0
14.073264,-7.6941485,3.5784445,1228.2971,3.628421,0
10.4833,-6.6628167,3.0835111,1227.1442,3.6497236,0
7.4133839,-5.6142101,2.5904885,1225.9817,3.6626254,0
4.8717582,-4.5498556,2.1002807,1224.8104,3.6607623,0
2.866771,-3.4668316,1.6163852,1223.6286,3.6177564,0
1.4082265,-2.3644044,1.1477605,1222.4359,3.4481764,0
0.50529494,-1.2447798,0.7286284,1221.2336,2.744921,0
0.16578492,-0.11162286,0.61164811,1220.024,-0.30686395,0
193.60245,-25.150652,14.068021,1228.533,2.9037235,0
181.18805,-24.503954,13.567209,1227.6206,2.9403777,0
169.10196,-23.837285,13.06682,1226.6963,2.9766669,0
157.35372,-23.15351,12.56618,1225.7621,3.0131971,0
145.95092,-22.454282,12.064806,1224.819,3.0504237,0
134.90257,-21.736781,11.563367,1223.8651,3.0877393,0
124.21693,-21.002369,11.061474,1222.9015,3.1255365,0
113.90317,-20.250236,10.559304,1221.9276,3.1636703,0
103.96951,-19.481349,10.056546,1220.9441,3.2025077,0
94.424908,-18.693538,9.5536649,1219.9495,3.2415208,0
85.279379,-17.885913,9.0508907,1218.9435,3.2804445,0
76.541391,-17.063043,8.5470524,1217.9288,3.3208772,0
68.221843,-16.209873,8.0457398,1216.8962,3.3575758,0
60.335672,-15.331922,7.5461187,1215.8491,3.3916708,0
52.891581,-14.442496,7.0450994,1214.7958,3.4281576,0
45.896213,-13.535903,6.5437812,1213.7328,3.4651736,0
39.358764,-12.611086,6.0424025,1212.6595,3.5023416,0
33.28841,-11.667252,5.5411332,1211.5754,3.5392885,0
27.694499,-10.705714,5.0396817,1210.4813,3.5767131,0
22.585366,-9.7285433,4.5374432,1209.3786,3.6162625,0
17.968551,-8.7355075,4.0341384,1208.2671,3.6589377,0
13.853322,-7.7222553,3.5305475,1207.1441,3.7026827,0
10.249513,-6.690079,3.0261701,1206.0106,3.7496281,0
7.166197,-5.64053,2.5200883,1204.8675,3.8045998,0
4.6116819,-4.5749009,2.0106308,1203.7156,3.8788576,0
2.5947697,-3.4893996,1.4956136,1202.5527,3.9943235,0
1.125704,-2.3837659,0.96689818,1201.3785,4.2588942,0
0.2141861,-1.2593778,0.37923877,1200.194,5.9697544,0
166.20671,-23.689754,12.940545,1272.1469,2.9894679,0
154.53346,-23.001371,12.439461,1271.1751,3.0262754,0
143.20834,-22.295893,11.938027,1270.193,3.0634183,0
132.24041,-21.573611,11.436165,1269.2007,3.1010209,0
121.63794,-20.833195,10.934127,1268.1975,3.1388193,0
111.40996,-20.076325,10.431487,1267.1845,3.1773236,0
101.56467,-19.302066,9.9283805,1266.161,3.2164062,0
92.111246,-18.508131,9.4253075,1265.1257,3.2554724,0
83.059665,-17.695796,8.9219819,1264.0794,3.2949315,0
74.41801,-16.866361,8.4179619,1263.0229,3.335377,0
66.198996,-16.005052,7.9169084,1261.9469,3.3714036,0
58.416491,-15.122858,7.4166455,1260.8583,3.4062312,0
51.077671,-14.229781,6.9147076,1259.7636,3.4439467,0
44.18992,-13.318232,6.4126704,1258.6581,3.4818697,0
37.762466,-12.388654,5.9104033,1257.542,3.5202974,0
31.804585,-11.440002,5.4081114,1256.4147,3.5588285,0
26.325372,-10.474228,4.9052797,1255.2774,3.5987394,0
21.332893,-9.4935061,4.401161,1254.1316,3.6422373,0
16.834866,-8.4952674,3.8958875,1252.9756,3.6892918,0
12.841042,-7.4769336,3.3897193,1251.8079,3.7396812,0
9.3610892,-6.4400293,2.8817558,1250.6294,3.7976633,0
6.4039054,-5.3861091,2.3704123,1249.4413,3.8725947,0
3.9777367,-4.3154628,1.8528316,1248.2436,3.9863808,0
2.0920464,-3.2239814,1.3235291,1247.0338,4.1999409,0
0.75716028,-2.1124552,0.76092037,1245.8124,4.8805143,0
-0.017219505,-0.98325306,0.90695491,1244.5811,6.0841057,0
176.49303,-23.81892,13.479843,1260.6479,2.862151,0
164.74219,-23.181202,12.981885,1259.7174,2.8994609,0
153.31472,-22.525592,12.483722,1258.7761,2.9369397,0
142.2205,-21.847999,11.986385,1257.8215,2.9736148,0
131.46972,-21.152084,11.489037,1256.8558,3.010279,0
121.07212,-20.435244,10.992345,1255.8774,3.0462319,0
111.03744,-19.700589,10.495601,1254.8884,3.0822114,0
101.37487,-18.946696,9.9991627,1253.8879,3.1178022,0
92.094561,-18.171089,9.5037071,1252.8744,3.1521457,0
83.206881,-17.377247,9.0085274,1251.85,3.1861008,0
74.720315,-16.563767,8.5139543,1250.8139,3.2191148,0
66.648858,-15.717244,8.0236185,1249.7576,3.2458903,0
59.00681,-14.848155,7.5356656,1248.6879,3.2689135,0
51.803585,-13.961561,7.0492234,1247.608,3.2893085,0
45.048502,-13.055853,6.5650768,1246.5168,3.3055106,0
38.750684,-12.132514,6.0833967,1245.4154,3.3168757,0
32.919487,-11.189071,5.6054916,1244.3023,3.3203277,0
27.564863,-10.226655,5.1321949,1243.1781,3.3134406,0
22.695521,-9.2483751,4.6641581,1242.0449,3.2938667,0
18.318997,-8.2547047,4.2030982,1240.9029,3.2560599,0
14.444122,-7.2418065,3.7529612,1239.7499,3.1873949,0
11.08023,-6.2110293,3.3184218,1238.5867,3.0715089,0
8.2358523,-5.1640192,2.9072936,1237.4143,2.8806037,0
5.9186773,-4.1025026,2.5335655,1236.2339,2.5666667,0
4.1355112,-3.0281675,2.2238752,1235.0465,2.0514706,0
2.8929078,-1.9401367,2.0321023,1233.8517,1.2376328,0
2.1971981,-0.84147862,2.0583914,1232.6513,0.1457536,0
218.30431,-26.990235,14.869397,1264.1713,2.9584521,0
204.97641,-26.319416,14.368014,1263.2168,2.9917577,0
191.98769,-25.633163,13.866324,1262.2532,3.0253279,0
179.34518,-24.934677,13.363484,1261.2825,3.0599086,0
167.05585,-24.220049,12.86036,1260.3021,3.0947663,0
155.12749,-23.491744,12.356314,1259.3137,3.1305327,0
143.56574,-22.752602,11.850491,1258.3191,3.1680881,0
132.37752,-21.998361,11.343777,1257.3157,3.2066351,0
121.56969,-21.22998,10.835785,1256.304,3.2466399,0
111.1501,-20.446288,10.326665,1255.2833,3.2880471,0
101.12597,-19.647546,9.81616,1254.2538,3.3312477,0
91.505405,-18.831363,9.3046506,1253.214,3.3758769,0
82.29768,-17.997204,8.7921308,1252.1636,3.4220802,0
73.510465,-17.147813,8.2776759,1251.1044,3.4712922,0
65.155376,-16.268356,7.7646511,1250.0269,3.5185093,0
57.244963,-15.372466,7.2499735,1248.9399,3.5688413,0
49.783406,-14.471456,6.7303228,1247.8505,3.6285207,0
42.776755,-13.552148,6.2078849,1246.7505,3.6942535,0
36.233978,-12.616509,5.6814637,1245.6411,3.7694338,0
30.163183,-11.663813,5.1500654,1244.5219,3.8577242,0
24.572927,-10.694797,4.6119349,1243.3933,3.966024,0
19.470901,-9.7104985,4.0643403,1242.2561,4.1065341,0
14.866066,-8.7054075,3.5047441,1241.1067,4.2959306,0
10.76902,-7.6795724,2.9271978,1239.9454,4.5751926,0
7.1897755,-6.6344287,2.3203539,1238.7729,5.0466085,0
4.1377955,-5.5697949,1.6607522,1237.5892,6.0357025,0
1.6244258,-4.4794177,0.88664184,1236.3904,9.4323781,0
-0.34081871,-3.3859786,3.2283563,1235.1909,6.013503,0
195.11004,-24.884007,14.212368,1268.793,2.8298853,0
182.82083,-24.269453,13.712641,1267.8715,2.8678653,0
170.84444,-23.63267,13.213749,1266.9362,2.9051274,0
159.1915,-22.976492,12.715063,1265.9892,2.9422043,0
147.87086,-22.302313,12.216215,1265.0312,2.9794095,0
136.89267,-21.607792,11.717826,1264.0609,3.0161663,0
126.26608,-20.894928,11.219406,1263.0795,3.0529289,0
116.001,-20.162684,10.721251,1262.0864,3.0894013,0
106.10636,-19.412697,10.222954,1261.0826,3.1260099,0
96.591513,-18.643098,9.7249769,1260.0671,3.1622109,0
87.466905,-17.852425,9.2277647,1259.0389,3.1974305,0
78.741647,-17.046192,8.730028,1258.0015,3.2333316,0
70.425887,-16.211378,8.2349384,1256.9467,3.2653646,0
62.535232,-15.347877,7.7431255,1255.8744,3.2924044,0
55.080829,-14.46749,7.2521807,1254.7922,3.3179774,0
48.070854,-13.569358,6.7624718,1253.6996,3.3412813,0
41.514581,-12.652975,6.2744583,1252.5963,3.3613145,0
35.421024,-11.71789,5.7886715,1251.4821,3.3767048,0
29.800096,-10.762868,5.306102,1250.3561,3.3849344,0
24.660994,-9.7910764,4.8269105,1249.2205,3.3850165,0
20.01148,-8.8046118,4.3516849,1248.0765,3.3746757,0
15.859632,-7.7996439,3.8829921,1246.9219,3.3454826,0
12.215038,-6.7758473,3.4238834,1245.7563,3.2861351,0
9.0867145,-5.7348192,2.9788233,1244.581,3.178538,0
6.4828664,-4.6782177,2.5558144,1243.3968,2.9889887,0
4.410856,-3.6076464,2.1703739,1242.205,2.6525925,0
2.8779682,-2.521328,1.8565101,1241.0043,2.0443473,0
1.8919489,-1.4208217,1.689796,1239.7958,1.0097944,0
1.458689,-0.31136931,1.8222931,1238.5829,-0.33012088,0
210.13133,-26.521676,14.578304,1269.9564,2.9666587,0
197.03846,-25.847015,14.076822,1268.9951,3.0004255,0
184.28666,-25.15853,13.574582,1268.0256,3.0348571,0
171.8826,-24.454993,13.071788,1267.0472,3.0697904,0
159.83441,-23.735597,12.568605,1266.0593,3.1051116,0
148.14872,-23.005493,12.063684,1265.0652,3.1421534,0
136.83173,-22.260026,11.557976,1264.062,3.1800354,0
125.89081,-21.501198,11.050886,1263.051,3.2194533,0
115.33347,-20.725864,10.543025,1262.0302,3.2598189,0
105.1673,-19.936208,10.033722,1261.001,3.3019868,0
95.400046,-19.129992,9.5233228,1259.9621,3.3456493,0
86.040713,-18.304548,9.0123219,1258.9116,3.3902616,0
77.097884,-17.464951,8.4993529,1257.8529,3.4378586,0
68.580453,-16.59937,7.9869204,1256.7785,3.4847839,0
60.502692,-15.709161,7.4749034,1255.6893,3.53132,0
52.872149,-14.812516,6.9587765,1254.5969,3.5853642,0
45.692802,-13.901738,6.4394424,1253.4963,3.6458294,0
38.973523,-12.972886,5.9171907,1252.3853,3.7129581,0
32.722659,-12.027753,5.3907275,1251.2648,3.7905313,0
26.948753,-11.065299,4.8590519,1250.1343,3.8826553,0
21.659904,-10.087822,4.3197953,1248.9952,3.998655,0
16.864019,-9.0922006,3.7707496,1247.8457,4.1506353,0
12.571317,-8.0753193,3.2083238,1246.6837,4.3621259,0
8.7920678,-7.0386249,2.6247525,1245.5102,4.6914131,0
5.5358165,-5.983553,2.0049763,1244.3261,5.2968474,0
2.812405,-4.9059238,1.315332,1243.1289,6.7877436,0
0,0,0,0,0,0
209.10486,-25.847627,14.691856,1284.9589,2.8467789,0
196.33528,-25.227452,14.191514,1284.0219,2.8834325,0
183.88026,-24.589977,13.690917,1283.0743,2.9203047,0
171.74883,-23.932514,13.190715,1282.1143,2.9568367,0
159.95095,-23.256508,12.690594,1281.143,2.9933023,0
148.49469,-22.565435,12.189654,1280.1625,3.030537,0
137.38889,-21.855097,11.68889,1279.1703,3.0676105,0
126.64222,-21.128335,11.187582,1278.1681,3.1052506,0
116.26379,-20.382836,10.686269,1277.1545,3.1429169,0
106.26212,-19.620824,10.184364,1276.131,3.1812727,0
96.646032,-18.84025,9.6823057,1275.0962,3.2198322,0
87.425475,-18.039054,9.1806036,1274.0489,3.2579644,0
78.609521,-17.222711,8.6779312,1272.9926,3.2974582,0
70.207614,-16.379394,8.1770332,1271.9197,3.3343405,0
62.235019,-15.507716,7.6787103,1270.8293,3.3672915,0
54.702288,-14.621841,7.1798455,1269.7307,3.4011694,0
47.615946,-13.720461,6.6805685,1268.623,3.4357186,0
40.984979,-12.800608,6.1816043,1267.5043,3.469662,0
34.818503,-11.862031,5.6830748,1266.3745,3.5026573,0
29.1261,-10.904848,5.185106,1265.2338,3.5343654,0
23.91642,-9.9314546,4.6872355,1264.0836,3.5658054,0
19.197076,-8.9431965,4.1891196,1262.9249,3.5978716,0
14.976653,-7.9353009,3.6919523,1261.7546,3.6268473,0
11.26504,-6.9082,3.1960928,1260.5731,3.6510489,0
8.0714534,-5.8634479,2.7018204,1259.3813,3.668514,0
5.4043224,-4.8026356,2.2097402,1258.1804,3.6749331,0
3.2717531,-3.7243029,1.7221361,1256.9694,3.6533587,0
1.6834044,-2.626063,1.245547,1255.7469,3.5448681,0
0.64872547,-1.5099856,0.80124144,1254.5141,3.0972608,0
0.17597368,-0.37900162,0.53305231,1253.273,0.75015095,0
202.99055,-25.297732,14.517295,1241.9538,2.813331,0
190.49245,-24.691776,14.017505,1241.0571,2.8511371,0
178.30201,-24.066196,13.51789,1240.1488,2.8887896,0
166.42992,-23.418828,13.019044,1239.2273,2.9257719,0
154.88606,-22.754221,12.519884,1238.2956,2.9630387,0
143.6793,-22.069435,12.021104,1237.3519,2.9999273,0
132.81965,-21.366622,11.522224,1236.3976,3.0369125,0
122.31623,-20.643877,11.023698,1235.4315,3.0735088,0
112.17869,-19.903614,10.524976,1234.4551,3.1103135,0
102.41585,-19.144885,10.026262,1233.4678,3.1470934,0
93.037388,-18.365377,9.5281393,1232.4683,3.1831222,0
84.053697,-17.566887,9.0302775,1231.4577,3.2188095,0
75.473138,-16.7509,8.5322793,1230.4369,3.2546228,0
67.308555,-15.902425,8.0379897,1229.3966,3.284962,0
59.574626,-15.030444,7.5458667,1228.3425,3.311901,0
52.280414,-14.14348,7.0541082,1227.2799,3.3381435,0
45.434376,-13.237699,6.5637969,1226.2065,3.3616949,0
39.045712,-12.314122,6.0750298,1225.1229,3.3821575,0
33.12371,-11.370634,5.5887595,1224.0279,3.3972538,0
27.678251,-10.408511,5.1054162,1222.9222,3.4055846,0
22.717856,-9.4307313,4.6251469,1221.8077,3.4061701,0
18.250031,-8.4375035,4.1489696,1220.6847,3.3954222,0
14.283711,-7.4247247,3.6797479,1219.5505,3.3635985,0
10.828412,-6.3936768,3.2204207,1218.4061,3.2988547,0
7.8928664,-5.3459732,2.7759791,1217.2524,3.1797404,0
5.4849858,-4.2832908,2.3557145,1216.0905,2.9646566,0
3.6119912,-3.2059641,1.9789352,1214.9206,2.5682356,0
2.2818565,-2.1121621,1.6900462,1213.7417,1.8276774,0
1.5020291,-1.0054914,1.5916778,1212.5559,0.59158151,0
1.2774995,0.1076747,1.87553,1211.3673,-0.78667496,0
180.32645,-24.455596,13.532479,1285.158,2.9425011,0
168.26482,-23.787749,13.032119,1284.1897,2.9787797,0
156.54156,-23.103198,12.531408,1283.2112,3.0153924,0
145.1642,-22.402779,12.030057,1282.223,3.0526133,0
134.14184,-21.684384,11.528567,1281.2239,3.0899979,0
123.48277,-20.948624,11.02673,1280.2143,3.1277531,0
113.19612,-20.195523,10.524524,1279.1941,3.1659482,0
103.29014,-19.425426,10.021785,1278.1637,3.2047856,0
93.773832,-18.636235,9.5189638,1277.1216,3.2437473,0
84.657238,-17.827549,9.0161771,1276.0678,3.282715,0
75.948682,-17.003254,8.5124031,1275.0046,3.3230818,0
67.659597,-16.147965,8.0113506,1273.9222,3.3594173,0
59.804696,-15.268922,7.5117747,1272.8254,3.3934757,0
52.392251,-14.378683,7.0107245,1271.7222,3.4300562,0
45.429123,-13.470782,6.5094961,1270.6085,3.4669551,0
38.924532,-12.544753,6.008196,1269.4841,3.5040257,0
32.887683,-11.599611,5.5070443,1268.3483,3.5407906,0
27.327884,-10.636922,5.0056919,1267.2022,3.5780764,0
22.253402,-9.6587644,4.5035271,1266.0472,3.6175677,0
17.67179,-8.6643944,4.00039,1264.8828,3.6599204,0
13.592459,-7.6497969,3.4970162,1263.7064,3.7031878,0
10.025192,-6.6163854,2.992889,1262.5189,3.7495494,0
6.979008,-5.5657143,2.4871024,1261.3216,3.8038072,0
4.4621746,-4.4988966,1.9780412,1260.1149,3.8769858,0
2.4836126,-3.4120243,1.4636203,1258.8966,3.9905901,0
1.0535487,-2.3051563,0.93559602,1257.6666,4.25582,0
0.18161552,-1.1796673,0.34568381,1256.4259,6.1532687,0
211.13223,-25.751366,14.817641,1279.7019,2.8039168,0
198.40561,-25.151526,14.317506,1278.782,2.8415405,0
185.98389,-24.532672,13.817435,1277.8504,2.879119,0
173.87662,-23.892986,13.317883,1276.9059,2.9162515,0
162.09439,-23.233137,12.818748,1275.949,2.9530139,0
150.64606,-22.557126,12.319036,1274.9823,2.9903031,0
139.54088,-21.860627,11.819797,1274.0031,3.0271307,0
128.78818,-21.147003,11.320222,1273.0135,3.0642918,0
118.39733,-20.413655,10.820945,1272.0118,3.1011349,0
108.37735,-19.663325,10.321293,1271,3.13839,0
98.737192,-18.894207,9.8216783,1269.9768,3.1755954,0
89.486884,-18.103864,9.3227299,1268.9407,3.2119573,0
80.636111,-17.297143,8.8233387,1267.8948,3.2489161,0
72.193636,-16.46704,8.3251207,1266.8348,3.2841339,0
64.174472,-15.605719,7.8304109,1265.7554,3.3140715,0
56.591009,-14.726285,7.3365367,1264.6653,3.3426516,0
49.450886,-13.831189,6.8429686,1263.5661,3.3705986,0
42.763008,-12.917473,6.3505858,1262.4558,3.3962657,0
36.536433,-11.985601,5.8595539,1261.3349,3.4191058,0
30.780861,-11.033703,5.370761,1260.202,3.4369501,0
25.505603,-10.064802,4.8841005,1259.0593,3.4496013,0
20.718571,-9.0811155,4.3997024,1257.9082,3.4562046,0
16.427601,-8.0795476,3.9192288,1256.7466,3.4511749,0
12.642308,-7.0586598,3.4448717,1255.5737,3.426214,0
9.3719592,-6.0200228,2.9793028,1254.3906,3.3693749,0
6.6250269,-4.9652586,2.5273629,1253.1983,3.2573467,0
4.4091682,-3.8958129,2.0986625,1251.9978,3.0408082,0
2.732241,-2.8090653,1.7158608,1250.7874,2.6023801,0
1.6028494,-1.7062025,1.4346731,1249.5679,1.70667,0
1.0280619,-0.59154398,1.4021146,1248.3421,0.17193397,0
159.09369,-23.410323,12.604297,1267.437,3.0428029,0
147.56496,-22.701856,12.101602,1266.4559,3.0800219,0
136.39497,-21.975628,11.598705,1265.464,3.1174699,0
125.59174,-21.2342,11.094918,1264.4631,3.1558802,0
115.16383,-20.475052,10.590782,1263.4516,3.1947256,0
105.11929,-19.700217,10.08571,1262.4308,3.234706,0
95.466563,-18.90748,9.5801268,1261.3993,3.2753751,0
86.215291,-18.094817,9.0744732,1260.3558,3.3162155,0
77.374165,-17.267478,8.5674069,1259.3038,3.359115,0
68.952852,-16.412336,8.0619083,1258.2349,3.3997216,0
60.966219,-15.531229,7.5579176,1257.1502,3.4380684,0
53.423123,-14.639998,7.0516952,1256.06,3.4803381,0
46.329017,-13.733332,6.5440066,1254.9608,3.5253699,0
39.692938,-12.808195,6.0353325,1253.8508,3.5725499,0
33.523909,-11.865034,5.5252749,1252.7303,3.6229668,0
27.830894,-10.904303,5.0133096,1251.5995,3.6782872,0
22.622248,-9.9280161,4.4982911,1250.4599,3.7422735,0
17.905526,-8.9355883,3.9791779,1249.311,3.8193186,0
13.690193,-7.9225281,3.4554634,1248.1501,3.9136539,0
9.9862868,-6.8901201,2.9244544,1246.9779,4.0402178,0
6.8031044,-5.8398774,2.3812168,1245.7956,4.2330979,0
4.1492899,-4.7721633,1.8159128,1244.6032,4.5840846,0
2.0348211,-3.6820685,1.2053418,1243.3978,5.4377294,0
0.47106726,-2.5692801,0.45686349,1242.1793,10.57562,0
219.70531,-26.438895,15.073426,1258.55,2.8361597,0
206.63812,-25.826819,14.572401,1257.6375,2.8727664,0
193.88211,-25.194315,14.071931,1256.7126,2.9089355,0
181.44644,-24.545471,13.571015,1255.7778,2.9454832,0
169.34008,-23.876867,13.07048,1254.8312,2.9817019,0
157.57252,-23.191165,12.569702,1253.8743,3.0181559,0
146.1513,-22.490403,12.068102,1252.9085,3.0553933,0
135.08526,-21.771414,11.566423,1251.9319,3.0927344,0
124.3826,-21.035822,11.064209,1250.9454,3.1306446,0
114.05242,-20.282473,10.561716,1249.9484,3.1688991,0
104.10291,-19.51253,10.05858,1248.9416,3.2079239,0
94.542941,-18.723848,9.5552526,1247.9237,3.2472148,0
85.38248,-17.915315,9.0520072,1246.8941,3.2864534,0
76.630011,-17.091693,8.5476245,1245.8556,3.3273135,0
68.296259,-16.238022,8.0456469,1244.799,3.3646194,0
60.396165,-15.359466,7.5453113,1243.7276,3.3994067,0
52.938405,-14.469737,7.0434198,1242.6499,3.4368703,0
45.929442,-13.563034,6.5410562,1241.5625,3.4751927,0
39.378465,-12.638067,6.03848,1240.4644,3.5139892,0
33.294636,-11.694215,5.5357753,1239.3554,3.5531056,0
27.687232,-10.732716,5.032597,1238.2363,3.593425,0
22.564587,-9.7555987,4.5282586,1237.1083,3.6369095,0
17.934241,-8.7625545,4.0223602,1235.9713,3.6850674,0
13.805507,-7.749225,3.5154712,1234.8226,3.7367865,0
10.188244,-6.7169105,3.0067363,1233.663,3.7960535,0
7.0915609,-5.6671568,2.4946028,1232.4936,3.8716799,0
4.5238121,-4.6011102,1.9761509,1231.315,3.9847842,0
2.4939987,-3.5147496,1.4462254,1230.1248,4.1887292,0
1.0125474,-2.4078769,0.88688491,1228.923,4.7581103,0
0.089446644,-1.2813548,0.18031607,1227.71,13.540465,0
