0,1320.3992,-24.919338,1194.3407
1,1295.0876,-25.703877,1193.831
2,1268.9916,-26.488059,1193.3213
3,1242.1116,-27.271883,1192.8116
4,1214.4479,-28.055348,1192.302
5,1186.001,-28.838455,1191.7923
6,1156.7711,-29.621203,1191.2826
7,1126.7587,-30.403592,1190.7729
8,1095.9641,-31.185622,1190.2632
9,1064.3876,-31.967292,1189.7535
10,1032.0296,-32.748601,1189.2439
11,1360.5208,-20.805599,1028.422
12,1339.3905,-21.454994,1027.9123
13,1317.611,-22.103908,1027.4026
14,1295.1828,-22.752338,1026.8929
15,1272.1065,-23.400285,1026.3833
16,1248.3824,-24.047748,1025.8736
17,1224.0111,-24.694727,1025.3639
18,1198.9931,-25.341221,1024.8542
19,1173.3288,-25.987229,1024.3445
20,1147.0188,-26.632752,1023.8348
21,1120.0635,-27.277789,1023.3252
22,1228.9697,-27.620142,1010.3818
23,1201.0335,-28.252167,1009.8721
24,1172.4655,-28.883693,1009.3624
25,1143.2663,-29.514718,1008.8527
26,1113.4363,-30.145243,1008.3431
27,1082.976,-30.775266,1007.8334
28,1051.8859,-31.404788,1007.3237
29,1020.1666,-32.033807,1006.814
30,987.81845,-32.662323,1006.3043
31,1333.0739,-29.933606,1430.9434
32,1302.6788,-30.856642,1430.4337
33,1271.3607,-31.779429,1429.924
34,1239.12,-32.701966,1429.4143
35,1205.9569,-33.624254,1428.9047
36,1171.8716,-34.546293,1428.395
37,1136.8643,-35.468081,1427.8853
38,1100.9355,-36.38962,1427.3756
39,1064.0852,-37.310908,1426.8659
40,1026.3137,-38.231946,1426.3562
41,987.62138,-39.152734,1425.8466
42,948.21885,-39.231184,1424.7253
43,1174.3305,-20.791235,1447.138
44,1153.0738,-21.722094,1446.6283
45,1130.8864,-22.65271,1446.1186
46,1107.7685,-23.583082,1445.6089
47,1083.7203,-24.51321,1445.0993
48,1058.7421,-25.443094,1444.5896
49,1032.8342,-26.372733,1444.0799
50,1005.9968,-27.302129,1443.5702
51,978.23003,-28.231279,1443.0605
52,949.53428,-29.160185,1442.5508
53,919.90974,-30.088846,1442.0412
54,889.35666,-31.017262,1441.5315
55,1402.8799,-27.526703,1306.4766
56,1374.925,-28.383136,1305.9669
57,1346.1137,-29.239271,1305.4572
58,1316.4465,-30.095106,1304.9475
59,1285.9236,-30.950642,1304.4379
60,1254.5453,-31.805878,1303.9282
61,1222.312,-32.660815,1303.4185
62,1189.2238,-33.515452,1302.9088
63,1155.2812,-34.369788,1302.3991
64,1120.4843,-35.223824,1301.8894
65,1084.8336,-36.077559,1301.3798
66,1451.1629,-22.387494,1497.8591
67,1428.2983,-23.341761,1497.3494
68,1404.4795,-24.2958,1496.8397
69,1379.7067,-25.249612,1496.33
70,1353.9803,-26.203197,1495.8204
71,1327.3004,-27.156553,1495.3107
72,1299.6673,-28.109682,1494.801
73,1271.0811,-29.062583,1494.2913
74,1241.5422,-30.015255,1493.7816
75,1211.0507,-30.967699,1493.2719
76,1179.6069,-31.919914,1492.7623
77,1147.2109,-32.871901,1492.2526
78,1113.8631,-33.823658,1491.7429
79,1079.5637,-34.775187,1491.2332
80,1023.1303,-23.678189,1235.0574
81,999.04601,-24.490343,1234.5477
82,974.14973,-25.302162,1234.038
83,948.44179,-26.113647,1233.5283
84,921.92254,-26.924797,1233.0187
85,894.59231,-27.735612,1232.509
86,866.45143,-28.546091,1231.9993
87,837.50024,-29.356234,1231.4896
88,807.73908,-30.166041,1230.9799
89,1404.453,-20.904759,1026.4582
90,1383.2244,-21.552293,1025.9485
91,1361.3486,-22.199343,1025.4388
92,1338.8259,-22.845909,1024.9291
93,1315.6569,-23.491989,1024.4195
94,1291.8421,-24.137583,1023.9098
95,1267.3819,-24.782691,1023.4001
96,1242.2769,-25.427313,1022.8904
97,1216.5275,-26.071448,1022.3807
98,1190.1341,-26.715095,1021.871
99,1163.0974,-27.358253,1021.3614
100,1272.8237,-28.789987,1446.0242
101,1243.5685,-29.720314,1445.5145
102,1213.3832,-30.650397,1445.0048
103,1182.2678,-31.580235,1444.4951
104,1150.2228,-32.50983,1443.9855
105,1117.2482,-33.43918,1443.4758
106,1083.3445,-34.368285,1442.9661
107,1048.5118,-35.297146,1442.4564
108,1012.7503,-36.225761,1441.9467
109,976.06031,-37.154132,1441.437
110,938.4421,-38.082257,1440.9274
111,900.72911,-37.343246,1439.1944
112,1460.6499,-22.512968,1353.3817
113,1437.6954,-23.395939,1352.872
114,1413.8581,-24.278631,1352.3623
115,1389.1383,-25.161045,1351.8526
116,1363.5361,-26.04318,1351.343
117,1337.052,-26.925036,1350.8333
118,1309.6861,-27.806613,1350.3236
119,1281.4389,-28.68791,1349.8139
120,1252.3104,-29.568927,1349.3042
121,1222.3011,-30.449664,1348.7945
122,1191.4112,-31.330121,1348.2849
123,1159.6409,-32.210298,1347.7752
124,1053.6477,-22.955255,1032.6717
125,1030.3657,-23.608654,1032.162
126,1006.4306,-24.261575,1031.6523
127,981.84272,-24.914016,1031.1426
128,956.60268,-25.565979,1030.633
129,930.71092,-26.217461,1030.1233
130,904.16792,-26.868463,1029.6136
131,876.97415,-27.518985,1029.1039
132,849.13011,-28.169025,1028.5942
133,1259.1305,-24.020503,1405.2837
134,1234.6548,-24.930774,1404.774
135,1209.269,-25.840786,1404.2643
136,1182.9734,-26.75054,1403.7546
137,1155.768,-27.660036,1403.245
138,1127.6534,-28.569273,1402.7353
139,1098.6296,-29.47825,1402.2256
140,1068.697,-30.386968,1401.7159
141,1037.8557,-31.295427,1401.2062
142,1006.1062,-32.203627,1400.6965
143,973.44857,-33.111566,1400.1869
144,939.88314,-34.019246,1399.6772
145,1077.9043,-25.675545,1159.2099
146,1051.8491,-26.434699,1158.7002
147,1025.035,-27.193473,1158.1905
148,997.46233,-27.951867,1157.6808
149,969.13142,-28.709881,1157.1712
150,940.04269,-29.467514,1156.6615
151,910.19652,-30.224766,1156.1518
152,879.59329,-30.981637,1155.6421
153,848.23337,-31.738127,1155.1324
154,1223.5356,-24.858603,1339.1478
155,1198.2394,-25.733717,1338.6381
156,1172.0683,-26.608547,1338.1284
157,1145.0224,-27.483092,1337.6187
158,1117.1022,-28.357353,1337.1091
159,1088.3078,-29.231328,1336.5994
160,1058.6396,-30.105018,1336.0897
161,1028.0979,-30.978422,1335.58
162,996.68286,-31.851541,1335.0703
163,964.39488,-32.724374,1334.5606
164,931.23421,-33.596921,1334.051
165,1269.0191,-25.560489,1180.491
166,1243.0712,-26.335201,1179.9813
167,1216.3488,-27.109547,1179.4716
168,1188.8523,-27.883526,1178.9619
169,1160.5819,-28.657139,1178.4523
170,1131.5381,-29.430385,1177.9426
171,1101.7212,-30.203263,1177.4329
172,1071.1317,-30.975774,1176.9232
173,1039.7698,-31.747917,1176.4135
174,1007.636,-32.519692,1175.9038
175,1259.0235,-26.222392,1462.2518
176,1232.3321,-27.160396,1461.7421
177,1204.7028,-28.098162,1461.2324
178,1176.1358,-29.035688,1460.7227
179,1146.6315,-29.972976,1460.2131
180,1116.19,-30.910025,1459.7034
181,1084.8115,-31.846835,1459.1937
182,1052.4964,-32.783405,1458.684
183,1019.2448,-33.719736,1458.1743
184,985.05699,-34.655827,1457.6646
185,949.93322,-35.591678,1457.155
186,913.87371,-36.527289,1456.6453
187,1148.6299,-21.277556,1380.7392
188,1126.9035,-22.175173,1380.2295
189,1104.2796,-23.072522,1379.7198
190,1080.7586,-23.969603,1379.2101
191,1056.3405,-24.866416,1378.7005
192,1031.0258,-25.762961,1378.1908
193,1004.8147,-26.659238,1377.6811
194,977.70743,-27.555247,1377.1714
195,949.70429,-28.450986,1376.6617
196,920.80555,-29.346457,1376.152
197,891.01147,-30.241658,1375.6424
198,1406.0361,-27.802694,1486.7589
199,1377.7587,-28.751975,1486.2492
200,1348.5322,-29.701025,1485.7395
201,1318.3568,-30.649844,1485.2298
202,1287.2326,-31.598432,1484.7202
203,1255.16,-32.546788,1484.2105
204,1222.1391,-33.494914,1483.7008
205,1188.1702,-34.442808,1483.1911
206,1153.2536,-35.39047,1482.6814
207,1117.3894,-36.3379,1482.1717
208,1276.6275,-24.892776,1007.7768
209,1251.4199,-25.522242,1007.2671
210,1225.5832,-26.151205,1006.7574
211,1199.1177,-26.779666,1006.2477
212,1172.024,-27.407623,1005.7381
213,1144.3026,-28.035076,1005.2284
214,1115.954,-28.662025,1004.7187
215,1086.9787,-29.288469,1004.209
216,1057.3773,-29.914408,1003.6993
217,1027.1501,-30.53984,1003.1896
218,1291.9332,-21.813697,1118.5339
219,1269.7556,-22.541466,1118.0242
220,1246.8504,-23.268827,1117.5145
221,1223.2181,-23.99578,1117.0048
222,1198.859,-24.722324,1116.4952
223,1173.7736,-25.44846,1115.9855
224,1147.9622,-26.174186,1115.4758
225,1121.4253,-26.899503,1114.9661
226,1094.1633,-27.624409,1114.4564
227,1066.1766,-28.348906,1113.9467
228,1037.4657,-29.072991,1113.4371
229,1320.0439,-28.249311,1369.5415
230,1291.3487,-29.141004,1369.0318
231,1261.762,-30.032425,1368.5221
232,1231.284,-30.923573,1368.0124
233,1199.9149,-31.814449,1367.5028
234,1167.6552,-32.705053,1366.9931
235,1134.5049,-33.595384,1366.4834
236,1100.4645,-34.485442,1365.9737
237,1065.5341,-35.375227,1365.464
238,1029.7141,-36.264739,1364.9543
239,993.00473,-37.153977,1364.4447
240,1463.2846,-21.437927,1025.6108
241,1441.5233,-22.084656,1025.1011
242,1419.1154,-22.7309,1024.5914
243,1396.0616,-23.376658,1024.0817
244,1372.3623,-24.021931,1023.5721
245,1348.0179,-24.666716,1023.0624
246,1323.029,-25.311015,1022.5527
247,1297.3961,-25.954827,1022.043
248,1271.1195,-26.59815,1021.5333
249,1244.1999,-27.240986,1021.0236
250,1216.6377,-27.883332,1020.514
251,1069.6943,-21.106612,1362.4212
252,1048.1437,-21.994487,1361.9115
253,1025.7054,-22.882088,1361.4018
254,1002.3796,-23.769413,1360.8921
255,978.16668,-24.656464,1360.3825
256,953.06681,-25.543238,1359.8728
257,927.0803,-26.429738,1359.3631
258,900.20743,-27.315961,1358.8534
259,872.44847,-28.201908,1358.3437
260,843.8037,-29.08758,1357.834
261,814.2734,-29.972974,1357.3244
262,1283.4422,-26.878312,1475.3701
263,1256.0918,-27.822399,1474.8604
264,1227.7975,-28.766251,1474.3507
265,1198.5594,-29.709869,1473.841
266,1168.3778,-30.653253,1473.3314
267,1137.253,-31.596402,1472.8217
268,1105.1851,-32.539315,1472.312
269,1072.1744,-33.481994,1471.8023
270,1038.2212,-34.424437,1471.2926
271,1003.3256,-35.366645,1470.7829
272,967.48797,-36.308617,1470.2733
273,930.83911,-36.597078,1469.2743
274,1351.1026,-28.529848,1150.5616
275,1322.1964,-29.282515,1150.0519
276,1292.5377,-30.034796,1149.5422
277,1262.1269,-30.786692,1149.0325
278,1230.9644,-31.538201,1148.5229
279,1199.0506,-32.289324,1148.0132
280,1166.3859,-33.040061,1147.5035
281,1132.9707,-33.79041,1146.9938
282,1098.8052,-34.540372,1146.4841
283,1063.89,-35.289946,1145.9744
284,1487.1653,-22.333437,1494.0263
285,1464.3556,-23.285991,1493.5166
286,1440.5934,-24.238316,1493.0069
287,1415.879,-25.190412,1492.4972
288,1390.2126,-26.14228,1491.9876
289,1363.5945,-27.093918,1491.4779
290,1336.0249,-28.045328,1490.9682
291,1307.504,-28.996508,1490.4585
292,1278.0319,-29.947459,1489.9488
293,1247.6091,-30.89818,1489.4391
294,1216.2357,-31.848671,1488.9295
295,1078.236,-25.284372,1394.0778
296,1052.4993,-26.188921,1393.5681
297,1025.8582,-27.093207,1393.0584
298,998.31301,-27.997231,1392.5487
299,969.86387,-28.900992,1392.0391
300,940.51111,-29.804489,1391.5294
301,910.25498,-30.707724,1391.0197
302,879.09575,-31.610695,1390.51
303,847.03368,-32.513403,1390.0003
304,814.06903,-33.415847,1389.4906
305,780.20207,-34.318026,1388.981
306,1168.1931,-21.143135,1021.9108
307,1146.7283,-21.786332,1021.4011
308,1124.6206,-22.42904,1020.8914
309,1101.8704,-23.07126,1020.3817
310,1078.4782,-23.712989,1019.8721
311,1054.4446,-24.354229,1019.3624
312,1029.7699,-24.994978,1018.8527
313,1004.4548,-25.635237,1018.343
314,978.49964,-26.275003,1017.8333
315,951.90496,-26.914278,1017.3236
316,1286.9689,-26.348992,1397.9654
317,1260.1666,-27.255536,1397.4557
318,1232.4579,-28.16182,1396.946
319,1203.8431,-29.067842,1396.4363
320,1174.3223,-29.973602,1395.9267
321,1143.8959,-30.879102,1395.417
322,1112.5642,-31.784339,1394.9073
323,1080.3274,-32.689314,1394.3976
324,1047.1857,-33.594028,1393.8879
325,1013.1394,-34.498479,1393.3782
326,978.18879,-35.402667,1392.8686
327,942.33414,-36.306593,1392.3589
328,1440.2282,-29.988153,1214.8639
329,1409.8407,-30.786843,1214.3542
330,1378.6546,-31.585187,1213.8445
331,1346.6704,-32.383185,1213.3348
332,1313.8884,-33.180837,1212.8252
333,1280.3089,-33.978143,1212.3155
334,1245.9322,-34.775102,1211.8058
335,1210.7588,-35.571713,1211.2961
336,1174.7889,-36.367978,1210.7864
337,1138.0229,-37.163894,1210.2767
338,1100.4612,-37.959463,1209.7671
339,1141.1866,-20.301139,1150.3943
340,1120.5092,-21.053679,1149.8846
341,1099.0794,-21.805834,1149.3749
342,1076.8976,-22.557603,1148.8652
343,1053.9643,-23.308986,1148.3556
344,1030.2798,-24.059982,1147.8459
345,1005.8445,-24.810591,1147.3362
346,980.65872,-25.560814,1146.8265
347,954.72296,-26.310648,1146.3168
348,928.03756,-27.060095,1145.8071
349,1018.0745,-23.8399,1338.3773
350,993.79723,-24.714584,1337.8676
351,968.64543,-25.588984,1337.3579
352,942.61936,-26.463098,1336.8482
353,915.71933,-27.336928,1336.3386
354,887.9456,-28.210471,1335.8289
355,859.29848,-29.08373,1335.3192
356,829.77824,-29.956702,1334.8095
357,799.38517,-30.829388,1334.2998
358,768.11956,-31.701789,1333.7901
359,1152.2894,-26.333385,1339.3702
360,1125.5184,-27.208623,1338.8605
361,1097.8722,-28.083577,1338.3508
362,1069.3513,-28.958247,1337.8411
363,1039.9558,-29.832631,1337.3315
364,1009.6861,-30.706731,1336.8218
365,978.54248,-31.580546,1336.3121
366,946.52515,-32.454075,1335.8024
367,913.63443,-33.327318,1335.2927
368,879.87061,-34.200276,1334.783
369,845.23397,-35.072947,1334.2734
370,1105.077,-24.350247,1494.9414
371,1080.2503,-25.30321,1494.4317
372,1054.4707,-26.255946,1493.922
373,1027.7384,-27.208452,1493.4123
374,1000.0538,-28.160731,1492.9027
375,971.41705,-29.11278,1492.393
376,941.82834,-30.064601,1491.8833
377,911.28793,-31.016193,1491.3736
378,879.79603,-31.967555,1490.8639
379,847.35289,-32.918689,1490.3542
380,814.16011,-33.063974,1489.2329
381,781.42711,-32.40159,1487.5
382,1363.3071,-23.486964,1479.2273
383,1339.3472,-24.432819,1478.7176
384,1314.4415,-25.378441,1478.2079
385,1288.5904,-26.323829,1477.6982
386,1261.794,-27.268984,1477.1886
387,1234.0525,-28.213906,1476.6789
388,1205.3662,-29.158594,1476.1692
389,1175.7354,-30.103048,1475.6595
390,1145.1602,-31.047267,1475.1498
391,1113.6409,-31.991253,1474.6401
392,1081.1778,-32.935004,1474.1305
393,1047.771,-33.878521,1473.6208
394,1013.4208,-34.821803,1473.1111
395,1010.8229,-22.517876,1498.1413
396,987.82781,-23.472269,1497.6316
397,963.87844,-24.426434,1497.1219
398,938.97502,-25.380372,1496.6122
399,913.11777,-26.334083,1496.1026
400,886.30693,-27.287565,1495.5929
401,858.54272,-28.24082,1495.0832
402,829.82536,-29.193847,1494.5735
403,800.1551,-30.146646,1494.0638
404,769.53215,-31.099216,1493.5541
405,738.15769,-31.247666,1492.4328
406,1289.2883,-29.959483,1439.4902
407,1258.8652,-30.88667,1438.9805
408,1227.515,-31.81361,1438.4708
409,1195.2381,-32.740304,1437.9611
410,1162.0345,-33.666752,1437.4515
411,1127.9046,-34.592953,1436.9418
412,1092.8487,-35.518907,1436.4321
413,1056.8669,-36.444614,1435.9224
414,1019.9595,-37.370074,1435.4127
415,982.12685,-38.295287,1434.903
416,943.50292,-38.550865,1433.9041
417,905.32711,-37.800282,1432.1711
418,1318.6402,-28.549958,1102.9993
419,1289.7326,-29.26513,1102.4896
420,1260.1101,-29.979882,1101.9799
421,1229.773,-30.694214,1101.4702
422,1198.7218,-31.408127,1100.9606
423,1166.9569,-32.121619,1100.4509
424,1134.4787,-32.83469,1099.9412
425,1101.2876,-33.54734,1099.4315
426,1067.3842,-34.259568,1098.9218
427,1032.7687,-34.971374,1098.4121
428,1009.4852,-24.851707,1383.8288
429,984.18385,-25.750941,1383.3191
430,957.98341,-26.649909,1382.8094
431,930.88412,-27.54861,1382.2997
432,902.88628,-28.447045,1381.7901
433,873.99012,-29.345212,1381.2804
434,844.19594,-30.243113,1380.7707
435,813.50399,-31.140746,1380.261
436,781.91454,-32.038111,1379.7513
437,749.42785,-32.935209,1379.2416
438,1217.9464,-20.245835,1306.1239
439,1197.2724,-21.102061,1305.6142
440,1175.7424,-21.957989,1305.1045
441,1153.3565,-22.813617,1304.5948
442,1130.1152,-23.668946,1304.0852
443,1106.0188,-24.523975,1303.5755
444,1081.0674,-25.378704,1303.0658
445,1055.2614,-26.233133,1302.5561
446,1028.6012,-27.087261,1302.0464
447,1001.087,-27.941089,1301.5367
448,972.71915,-28.794616,1301.0271
449,1412.2138,-24.352027,1419.4854
450,1387.4031,-25.26942,1418.9757
451,1361.675,-26.18656,1418.466
452,1335.03,-27.103446,1417.9563
453,1307.4682,-28.020079,1417.4467
454,1278.9899,-28.936458,1416.937
455,1249.5954,-29.852583,1416.4273
456,1219.2849,-30.768455,1415.9176
457,1188.0586,-31.684072,1415.4079
458,1155.9168,-32.599434,1414.8982
459,1122.8598,-33.514542,1414.3886
460,1088.8878,-34.429396,1413.8789
461,1054.0011,-35.343994,1413.3692
462,1399.8069,-28.95757,1098.9576
463,1370.4934,-29.669406,1098.4479
464,1340.4682,-30.380819,1097.9382
465,1309.7319,-31.091809,1097.4285
466,1278.2848,-31.802377,1096.9189
467,1246.1273,-32.51252,1096.4092
468,1213.2599,-33.22224,1095.8995
469,1179.6829,-33.931535,1095.3898
470,1145.3969,-34.640406,1094.8801
471,1110.4023,-35.348851,1094.3704
472,1495.6449,-21.102849,1363.8528
473,1474.0977,-21.991495,1363.3431
474,1451.662,-22.879867,1362.8334
475,1428.3381,-23.767964,1362.3237
476,1404.1262,-24.655787,1361.8141
477,1379.0266,-25.543335,1361.3044
478,1353.0396,-26.430608,1360.7947
479,1326.1655,-27.317605,1360.285
480,1298.4045,-28.204328,1359.7753
481,1269.7569,-29.090774,1359.2656
482,1240.223,-29.976945,1358.756
483,1209.8031,-30.862839,1358.2463
484,1178.4974,-31.748458,1357.7366
485,1043.7386,-27.67414,1496.1536
486,1015.5877,-28.627646,1495.6439
487,986.48338,-29.580923,1495.1342
488,956.42592,-30.533973,1494.6245
489,925.41551,-31.486795,1494.1149
490,893.4524,-32.439388,1493.6052
491,860.53682,-33.391753,1493.0955
492,827.06297,-33.218002,1491.7295
493,794.17402,-32.559444,1489.9966
494,761.79186,-32.059487,1488.386
495,730.06399,-31.395802,1486.6531
496,1161.3796,-22.867249,1258.0123
497,1138.0989,-23.694183,1257.5026
498,1113.9913,-24.520795,1256.9929
499,1089.0574,-25.347084,1256.4832
500,1063.2973,-26.173051,1255.9736
501,1036.7114,-26.998694,1255.4639
502,1009.3,-27.824014,1254.9542
503,981.06346,-28.64901,1254.4445
504,952.00209,-29.473683,1253.9348
505,922.1162,-30.298031,1253.4251
506,1241.436,-29.821318,1462.5348
507,1211.1456,-30.759454,1462.0251
508,1179.9172,-31.697352,1461.5154
509,1147.751,-32.635012,1461.0057
510,1114.6472,-33.572432,1460.4961
511,1080.6062,-34.509614,1459.9864
512,1045.6281,-35.446556,1459.4767
513,1009.7132,-36.38326,1458.967
514,972.86164,-37.319724,1458.4573
515,935.27957,-37.4327,1457.336
516,898.20284,-36.720288,1455.6031
517,861.83992,-36.005095,1453.8702
518,1165.1548,-29.842335,1337.8253
519,1134.8753,-30.716711,1337.3156
520,1103.7215,-31.590802,1336.8059
521,1071.6937,-32.464607,1336.2962
522,1038.7924,-33.338127,1335.7866
523,1005.0176,-34.211362,1335.2769
524,970.36973,-35.084311,1334.7672
525,934.84906,-35.956973,1334.2575
526,898.45587,-36.82935,1333.7478
527,861.19046,-37.701439,1333.2381
528,1088.2424,-27.049381,1046.4029
529,1060.8599,-27.715493,1045.8932
530,1032.8116,-28.38114,1045.3835
531,1004.0978,-29.04632,1044.8738
532,974.71908,-29.711033,1044.3642
533,944.67589,-30.375279,1043.8545
534,913.96868,-31.039057,1043.3448
535,882.59793,-31.702367,1042.8351
536,850.56411,-32.365208,1042.3254
537,1244.5524,-20.445078,1076.795
538,1223.7607,-21.138176,1076.2853
539,1202.2762,-21.830835,1075.7756
540,1180.0992,-22.523052,1075.2659
541,1157.2302,-23.214829,1074.7563
542,1133.6697,-23.906165,1074.2466
543,1109.4181,-24.597059,1073.7369
544,1084.4757,-25.287511,1073.2272
545,1058.8432,-25.977521,1072.7175
546,1032.5208,-26.667088,1072.2078
