0,1329.4026,-25.140746,1423.4858
1,1303.8021,-26.060119,1422.9761
2,1277.2824,-26.979241,1422.4664
3,1249.8437,-27.898111,1421.9567
4,1221.4863,-28.816728,1421.4471
5,1192.2104,-29.735094,1420.9374
6,1162.0162,-30.653207,1420.4277
7,1130.904,-31.571067,1419.918
8,1098.8742,-32.488675,1419.4083
9,1065.9268,-33.406029,1418.8986
10,1032.0622,-34.323131,1418.389
11,997.2806,-35.239979,1417.8793
12,961.58231,-36.156573,1417.3696
13,924.96754,-37.072914,1416.8599
14,887.47045,-37.650073,1416.1056
15,1239.6912,-25.483557,1308.8223
16,1213.7787,-26.341363,1308.3126
17,1187.0086,-27.19887,1307.8029
18,1159.3811,-28.05608,1307.2932
19,1130.8965,-28.912992,1306.7836
20,1101.5552,-29.769605,1306.2739
21,1071.3574,-30.625919,1305.7642
22,1040.3035,-31.481934,1305.2545
23,1008.3936,-32.337651,1304.7448
24,975.62825,-33.193068,1304.2351
25,942.0076,-34.048185,1303.7255
26,907.53198,-34.903002,1303.2158
27,872.20169,-35.757519,1302.7061
28,1000.1957,-26.500562,1421.9375
29,973.23581,-27.41917,1421.4278
30,945.35744,-28.337526,1420.9181
31,916.56085,-29.255629,1420.4084
32,886.84627,-30.17348,1419.8988
33,856.21397,-31.091078,1419.3891
34,824.6642,-32.008423,1418.8794
35,792.19721,-32.925515,1418.3697
36,758.81325,-33.842354,1417.86
37,724.72426,-33.912106,1416.7387
38,691.20159,-33.132759,1415.0058
39,658.45973,-32.350469,1413.2729
40,626.50163,-31.56523,1411.5399
41,1290.3756,-21.005374,1120.9631
42,1269.0053,-21.735081,1120.4534
43,1246.9056,-22.464382,1119.9437
44,1224.0767,-23.193277,1119.434
45,1200.5192,-23.921765,1118.9244
46,1176.2333,-24.649846,1118.4147
47,1151.2196,-25.377519,1117.905
48,1125.4784,-26.104785,1117.3953
49,1099.0102,-26.831642,1116.8856
50,1071.8153,-27.558091,1116.3759
51,1043.8941,-28.284131,1115.8663
52,1015.2471,-29.009762,1115.3566
53,985.87473,-29.734982,1114.8469
54,1450.4032,-29.302519,1392.4465
55,1420.6488,-30.206227,1391.9368
56,1389.9908,-31.109672,1391.4271
57,1358.4295,-32.012854,1390.9174
58,1325.9652,-32.915772,1390.4078
59,1292.5981,-33.818427,1389.8981
60,1258.3284,-34.720818,1389.3884
61,1223.1565,-35.622944,1388.8787
62,1187.0826,-36.524807,1388.369
63,1150.107,-37.426405,1387.8593
64,1112.2299,-38.327739,1387.3497
65,1073.4516,-39.228808,1386.84
66,1033.7724,-40.129611,1386.3303
67,993.1925,-41.03015,1385.8206
68,952.02406,-40.89067,1384.577
69,1292.3688,-22.261793,1044.3458
70,1269.7749,-22.926022,1043.8361
71,1246.5169,-23.589783,1043.3264
72,1222.5954,-24.253076,1042.8167
73,1198.0109,-24.915901,1042.3071
74,1172.7638,-25.578256,1041.7974
75,1146.8546,-26.240141,1041.2877
76,1120.2837,-26.901557,1040.778
77,1093.0516,-27.562502,1040.2683
78,1065.1588,-28.222976,1039.7586
79,1036.6058,-28.882978,1039.249
80,1007.393,-29.542509,1038.7393
81,977.52095,-30.201567,1038.2296
82,1427.898,-26.72207,1417.9625
83,1400.7176,-27.638706,1417.4528
84,1372.6207,-28.555088,1416.9431
85,1343.6075,-29.471217,1416.4334
86,1313.6783,-30.387091,1415.9238
87,1282.8334,-31.302711,1415.4141
88,1251.073,-32.218077,1414.9044
89,1218.3973,-33.133188,1414.3947
90,1184.8067,-34.048044,1413.885
91,1150.3013,-34.962646,1413.3753
92,1114.8815,-35.876992,1412.8657
93,1078.5474,-36.791083,1412.356
94,1041.2994,-37.704918,1411.8463
95,1003.1377,-38.618498,1411.3366
96,964.0625,-39.531822,1410.8269
97,924.61875,-39.083021,1409.3386
98,1160.464,-29.165655,1195.4853
99,1130.9056,-29.950996,1194.9756
100,1100.5621,-30.735981,1194.4659
101,1069.4338,-31.520608,1193.9562
102,1037.521,-32.304877,1193.4466
103,1004.8242,-33.088789,1192.9369
104,971.34357,-33.872342,1192.4272
105,937.0796,-34.655538,1191.9175
106,902.03262,-35.438374,1191.4078
107,866.20297,-36.220851,1190.8981
108,829.59103,-37.002969,1190.3885
109,792.19716,-37.784727,1189.8788
110,1479.4644,-21.621159,1489.6748
111,1457.3679,-22.571757,1489.1651
112,1434.321,-23.522125,1488.6554
113,1410.3238,-24.472262,1488.1457
114,1385.3765,-25.42217,1487.6361
115,1359.4795,-26.371847,1487.1264
116,1332.6329,-27.321294,1486.6167
117,1304.837,-28.270511,1486.107
118,1276.092,-29.219496,1485.5973
119,1246.3981,-30.168251,1485.0876
120,1215.7555,-31.116774,1484.578
121,1184.1646,-32.065067,1484.0683
122,1151.6255,-33.013127,1483.5586
123,1118.1384,-33.960957,1483.0489
124,1083.7036,-34.908554,1482.5392
125,1048.3214,-35.85592,1482.0295
126,1011.9919,-36.803053,1481.5199
127,1406.7669,-24.479729,1397.9728
128,1381.8339,-25.386277,1397.4631
129,1355.9944,-26.292564,1396.9534
130,1329.2488,-27.19859,1396.4437
131,1301.5973,-28.104355,1395.9341
132,1273.0402,-29.009858,1395.4244
133,1243.5777,-29.915099,1394.9147
134,1213.2101,-30.820078,1394.405
135,1181.9376,-31.724795,1393.8953
136,1149.7606,-32.62925,1393.3856
137,1116.6792,-33.533442,1392.876
138,1082.6938,-34.437372,1392.3663
139,1047.8046,-35.341039,1391.8566
140,1012.0118,-36.244442,1391.3469
141,975.31578,-37.147583,1390.8372
142,1413.183,-27.839145,1344.7994
143,1384.9047,-28.717399,1344.2897
144,1355.7483,-29.59537,1343.78
145,1325.7141,-30.47306,1343.2703
146,1294.8023,-31.350467,1342.7607
147,1263.0132,-32.227591,1342.251
148,1230.3472,-33.104432,1341.7413
149,1196.8044,-33.980991,1341.2316
150,1162.3853,-34.857266,1340.7219
151,1127.09,-35.733257,1340.2122
152,1090.9189,-36.608965,1339.7026
153,1053.8722,-37.484388,1339.1929
154,1015.9502,-38.359528,1338.6832
155,977.15322,-39.234383,1338.1735
156,937.48153,-40.108953,1337.6638
157,1148.3886,-28.997851,1223.4213
158,1118.9885,-29.802301,1222.9116
159,1088.7841,-30.60641,1222.4019
160,1057.7758,-31.410178,1221.8922
161,1025.9639,-32.213604,1221.3826
162,993.3487,-33.016689,1220.8729
163,959.93061,-33.819432,1220.3632
164,925.70995,-34.621832,1219.8535
165,890.68706,-35.423891,1219.3438
166,854.86228,-36.225606,1218.8341
167,818.23596,-37.026978,1218.3245
168,780.80844,-37.828007,1217.8148
169,1125.7297,-21.73199,1109.2096
170,1103.6376,-22.45224,1108.6999
171,1080.8254,-23.172075,1108.1902
172,1057.2935,-23.891496,1107.6805
173,1033.0425,-24.6105,1107.1709
174,1008.0727,-25.329089,1106.6612
175,982.38447,-26.047262,1106.1515
176,955.97829,-26.765019,1105.6418
177,928.85457,-27.482358,1105.1321
178,901.01371,-28.19928,1104.6224
179,872.45615,-28.915785,1104.1128
180,843.18228,-29.631871,1103.6031
181,1389.9824,-29.005917,1398.5805
182,1360.523,-29.912776,1398.0708
183,1330.1569,-30.819374,1397.5611
184,1298.8844,-31.725712,1397.0514
185,1266.7056,-32.631788,1396.5418
186,1233.6209,-33.537602,1396.0321
187,1199.6305,-34.443156,1395.5224
188,1164.7347,-35.348447,1395.0127
189,1128.9337,-36.253477,1394.503
190,1092.2278,-37.158245,1393.9933
191,1054.6173,-38.06275,1393.4837
192,1016.1024,-38.966993,1392.974
193,976.68337,-39.870973,1392.4643
194,936.49847,-40.084891,1391.4653
195,896.82482,-39.261901,1389.7324
196,1340.4337,-26.883991,1464.398
197,1313.0802,-27.822998,1463.8883
198,1284.7878,-28.761767,1463.3786
199,1255.5567,-29.700297,1462.8689
200,1225.3873,-30.63859,1462.3593
201,1194.2796,-31.576644,1461.8496
202,1162.2341,-32.51446,1461.3399
203,1129.2508,-33.452037,1460.8302
204,1095.3301,-34.389376,1460.3205
205,1060.4721,-35.326475,1459.8108
206,1024.6772,-36.263335,1459.3012
207,987.94553,-37.199956,1458.7915
208,950.35143,-37.642543,1457.9148
209,913.06439,-36.931058,1456.1819
210,876.49024,-36.216795,1454.449
211,840.63173,-35.499746,1452.716
212,1290.2469,-28.719638,1030.7828
213,1261.2014,-29.371262,1030.2731
214,1231.5045,-30.022405,1029.7634
215,1201.1568,-30.673068,1029.2537
216,1170.1586,-31.323249,1028.7441
217,1138.5104,-31.972949,1028.2344
218,1106.2128,-32.622167,1027.7247
219,1073.2662,-33.270903,1027.215
220,1039.6712,-33.919155,1026.7053
221,1005.4281,-34.566924,1026.1956
222,970.53749,-35.214209,1025.686
223,934.99984,-35.861009,1025.1763
224,1305.9191,-24.86984,1223.7261
225,1280.6469,-25.674493,1223.2164
226,1254.5702,-26.478806,1222.7067
227,1227.6894,-27.282778,1222.197
228,1200.0048,-28.086409,1221.6874
229,1171.5167,-28.889698,1221.1777
230,1142.2255,-29.692645,1220.668
231,1112.1315,-30.495251,1220.1583
232,1081.2351,-31.297514,1219.6486
233,1049.5366,-32.099434,1219.1389
234,1017.0364,-32.901012,1218.6293
235,983.7347,-33.702246,1218.1196
236,949.63198,-34.503137,1217.6099
237,1072.0294,-29.125976,1190.9469
238,1042.5123,-29.908128,1190.4372
239,1012.2133,-30.689921,1189.9275
240,981.1326,-31.471354,1189.4178
241,949.27068,-32.252426,1188.9082
242,916.62786,-33.033138,1188.3985
243,883.20452,-33.813489,1187.8888
244,849.00101,-34.593478,1187.3791
245,814.01768,-35.373107,1186.8694
246,778.25492,-36.152373,1186.3597
247,741.71306,-36.931277,1185.8501
248,1253.0899,-27.551838,1098.8891
249,1225.1821,-28.263617,1098.3794
250,1196.5628,-28.974973,1097.8697
251,1167.2323,-29.685907,1097.36
252,1137.1911,-30.396417,1096.8504
253,1106.4396,-31.106504,1096.3407
254,1074.9783,-31.816167,1095.831
255,1042.8074,-32.525405,1095.3213
256,1009.9276,-33.234218,1094.8116
257,976.33915,-33.942607,1094.3019
258,942.04253,-34.650569,1093.7923
259,907.03815,-35.358106,1093.2826
260,1353.7369,-25.238834,1281.5765
261,1328.0773,-26.08039,1281.0668
262,1301.5762,-26.921635,1280.5571
263,1274.2341,-27.76257,1280.0474
264,1246.0512,-28.603193,1279.5378
265,1217.0278,-29.443505,1279.0281
266,1187.1643,-30.283506,1278.5184
267,1156.4609,-31.123194,1278.0087
268,1124.918,-31.962571,1277.499
269,1092.5359,-32.801635,1276.9893
270,1059.3148,-33.640387,1276.4797
271,1025.2552,-34.478826,1275.97
272,990.35728,-35.316952,1275.4603
273,954.6214,-36.154765,1274.9506
274,1292.6573,-22.133111,1273.7366
275,1270.1058,-22.969862,1273.2269
276,1246.7177,-23.806299,1272.7172
277,1222.4933,-24.642421,1272.2075
278,1197.4329,-25.478228,1271.6979
279,1171.5369,-26.31372,1271.1882
280,1144.8056,-27.148897,1270.6785
281,1117.2393,-27.983758,1270.1688
282,1088.8382,-28.818303,1269.6591
283,1059.6028,-29.652532,1269.1494
284,1029.5332,-30.486445,1268.6398
285,998.62997,-31.32004,1268.1301
286,966.89326,-32.153319,1267.6204
287,934.32344,-32.986281,1267.1107
288,1062.6208,-23.658437,1309.4929
289,1038.5332,-24.516634,1308.9832
290,1013.5876,-25.374533,1308.4735
291,987.78427,-26.232135,1307.9638
292,961.12346,-27.089439,1307.4542
293,933.60549,-27.946445,1306.9445
294,905.23067,-28.803152,1306.4348
295,875.99929,-29.659561,1305.9251
296,845.91165,-30.515671,1305.4154
297,814.96805,-31.371481,1304.9057
298,783.16878,-32.226993,1304.3961
299,750.51416,-33.082205,1303.8864
300,717.00448,-33.937117,1303.3767
301,1047.2742,-26.776972,1000.9395
302,1020.1858,-27.399656,1000.4298
303,992.47506,-28.021831,999.92013
304,964.14235,-28.643496,999.41045
305,935.18824,-29.264651,998.90076
306,905.61322,-29.885295,998.39108
307,875.41782,-30.505428,997.8814
308,844.60253,-31.125049,997.37171
309,813.16789,-31.744157,996.86203
310,781.11439,-32.362753,996.35234
311,1347.9123,-25.16512,1195.7969
312,1322.3544,-25.950679,1195.2872
313,1296.0111,-26.735882,1194.7775
314,1268.8827,-27.520727,1194.2678
315,1240.9697,-28.305216,1193.7582
316,1212.2724,-29.089346,1193.2485
317,1182.7912,-29.873119,1192.7388
318,1152.5263,-30.656533,1192.2291
319,1121.4782,-31.439589,1191.7194
320,1089.6472,-32.222285,1191.2097
321,1057.0338,-33.004623,1190.7001
322,1023.6381,-33.786601,1190.1904
323,989.46067,-34.56822,1189.6807
324,1482.1081,-27.092718,1188.0146
325,1454.6253,-27.872797,1187.5049
326,1426.3626,-28.652514,1186.9952
327,1397.3204,-29.43187,1186.4855
328,1367.499,-30.210864,1185.9759
329,1336.8988,-30.989495,1185.4662
330,1305.5201,-31.767764,1184.9565
331,1273.3634,-32.545669,1184.4468
332,1240.4289,-33.323212,1183.9371
333,1206.7171,-34.10039,1183.4274
334,1172.2283,-34.877205,1182.9178
335,1136.9628,-35.653655,1182.4081
336,1100.9211,-36.429741,1181.8984
337,1064.1034,-37.205463,1181.3887
338,1198.7732,-28.907809,1470.2
339,1169.3945,-29.849512,1469.6903
340,1139.0743,-30.790978,1469.1806
341,1107.8126,-31.732208,1468.6709
342,1075.6099,-32.673203,1468.1613
343,1042.4663,-33.61396,1467.6516
344,1008.3821,-34.554481,1467.1419
345,973.35743,-35.494766,1466.6322
346,937.39262,-36.434813,1466.1225
347,901.01197,-36.064153,1464.6343
348,865.29797,-35.36338,1462.9013
349,830.28612,-34.659854,1461.1684
350,795.97918,-33.953568,1459.4355
351,762.37991,-33.244516,1457.7025
352,1053.4986,-20.213538,1201.9844
353,1032.8901,-21.003404,1201.4747
354,1011.4919,-21.792917,1200.965
355,989.30438,-22.582076,1200.4553
356,966.32787,-23.370882,1199.9457
357,942.56274,-24.159334,1199.436
358,918.00932,-24.947432,1198.9263
359,892.66799,-25.735175,1198.4166
360,866.53909,-26.522563,1197.9069
361,839.62298,-27.309596,1197.3972
362,811.92002,-28.096273,1196.8876
363,783.43056,-28.882595,1196.3779
364,1119.988,-23.99677,1257.9958
365,1095.5777,-24.823694,1257.4861
366,1070.3407,-25.650295,1256.9764
367,1044.2773,-26.476574,1256.4667
368,1017.3877,-27.30253,1255.9571
369,989.67231,-28.128163,1255.4474
370,961.13146,-28.953472,1254.9377
371,931.76547,-29.778458,1254.428
372,901.57465,-30.60312,1253.9183
373,870.55934,-31.427458,1253.4086
374,838.71985,-32.251471,1252.899
375,806.0565,-33.07516,1252.3893
376,772.56964,-33.898523,1251.8796
377,1268.8536,-22.958582,1257.9032
378,1245.4816,-23.785447,1257.3935
379,1221.2828,-24.61199,1256.8838
380,1196.2577,-25.43821,1256.3741
381,1170.4065,-26.264107,1255.8645
382,1143.7296,-27.089682,1255.3548
383,1116.2272,-27.914932,1254.8451
384,1087.8998,-28.739859,1254.3354
385,1058.7476,-29.564462,1253.8257
386,1028.771,-30.388741,1253.316
387,997.97026,-31.212695,1252.8064
388,966.34572,-32.036325,1252.2967
389,933.89772,-32.85963,1251.787
390,900.62657,-33.682609,1251.2773
391,1378.4268,-25.259244,1107.9451
392,1352.8079,-25.978465,1107.4354
393,1326.47,-26.697269,1106.9257
394,1299.4135,-27.415658,1106.416
395,1271.6388,-28.133631,1105.9064
396,1243.1464,-28.851187,1105.3967
397,1213.9366,-29.568326,1104.887
398,1184.0099,-30.285047,1104.3773
399,1153.3666,-31.00135,1103.8676
400,1122.0073,-31.717235,1103.3579
401,1089.9323,-32.432702,1102.8483
402,1057.1421,-33.147749,1102.3386
403,1023.637,-33.862377,1101.8289
404,1205.1833,-28.13476,1254.7377
405,1176.6361,-28.959619,1254.228
406,1147.2642,-29.784154,1253.7183
407,1117.0679,-30.608364,1253.2086
408,1086.0476,-31.43225,1252.699
409,1054.2035,-32.255811,1252.1893
410,1021.536,-33.079047,1251.6796
411,988.04551,-33.901958,1251.1699
412,953.73223,-34.724543,1250.6602
413,918.59653,-35.546803,1250.1505
414,882.63873,-36.368736,1249.6409
415,845.85917,-37.190343,1249.1312
416,808.25816,-38.011623,1248.6215
417,1215.3229,-28.887167,1179.4288
418,1186.0487,-29.661116,1178.9191
419,1156.0008,-30.434698,1178.4094
420,1125.1795,-31.207913,1177.8997
421,1093.5851,-31.98076,1177.3901
422,1061.2181,-32.75324,1176.8804
423,1028.0787,-33.525352,1176.3707
424,994.16748,-34.297096,1175.861
425,959.48466,-35.068471,1175.3513
426,924.03066,-35.839477,1174.8416
427,887.80583,-36.610113,1174.332
428,850.81055,-37.380381,1173.8223
429,1478.6475,-26.003441,1009.0826
430,1452.3286,-26.634191,1008.5729
431,1425.3793,-27.264441,1008.0632
432,1397.7999,-27.894189,1007.5535
433,1369.5911,-28.523435,1007.0439
434,1340.7532,-29.152178,1006.5342
435,1311.2869,-29.780418,1006.0245
436,1281.1926,-30.408154,1005.5148
437,1250.4707,-31.035387,1005.0051
438,1219.122,-31.662115,1004.4954
439,1187.1467,-32.288337,1003.9858
440,1154.5454,-32.914054,1003.4761
441,1121.3187,-33.539265,1002.9664
442,1183.2462,-20.902879,1091.3392
443,1161.9905,-21.60836,1090.8295
444,1140.0296,-22.313412,1090.3198
445,1117.3639,-23.018035,1089.8101
446,1093.9937,-23.72223,1089.3005
447,1069.9195,-24.425994,1088.7908
448,1045.1419,-25.129329,1088.2811
449,1019.661,-25.832234,1087.7714
450,993.47753,-26.534708,1087.2617
451,966.59176,-27.23675,1086.752
452,939.00417,-27.938361,1086.2424
453,910.71518,-28.63954,1085.7327
454,1459.621,-21.563751,1363.8475
455,1437.6129,-22.452394,1363.3378
456,1414.7163,-23.340763,1362.8281
457,1390.9315,-24.228858,1362.3184
458,1366.2587,-25.116677,1361.8088
459,1340.6982,-26.004223,1361.2991
460,1314.2503,-26.891493,1360.7894
461,1286.9153,-27.778487,1360.2797
462,1258.6934,-28.665207,1359.77
463,1229.585,-29.55165,1359.2603
464,1199.5902,-30.437818,1358.7507
465,1168.7094,-31.32371,1358.241
466,1136.9429,-32.209325,1357.7313
467,1104.2909,-33.094664,1357.2216
468,1070.7537,-33.979727,1356.7119
469,1036.3315,-34.864512,1356.2022
470,1094.2771,-29.442468,1318.1439
471,1064.403,-30.305679,1317.6342
472,1033.6658,-31.168596,1317.1245
473,1002.0659,-32.031219,1316.6148
474,969.6035,-32.893549,1316.1052
475,936.27891,-33.755584,1315.5955
476,902.09243,-34.617325,1315.0858
477,867.04436,-35.478771,1314.5761
478,831.13499,-36.339922,1314.0664
479,794.36461,-37.200777,1313.5567
480,756.73353,-38.061338,1313.0471
481,718.69008,-37.641221,1311.6811
482,1240.4548,-23.946035,1093.7306
483,1216.155,-24.65352,1093.2209
484,1191.1479,-25.360578,1092.7112
485,1165.434,-26.06721,1092.2015
486,1139.0136,-26.773414,1091.6919
487,1111.8873,-27.479191,1091.1822
488,1084.0554,-28.18454,1090.6725
489,1055.5183,-28.88946,1090.1628
490,1026.2766,-29.593951,1089.6531
491,996.33059,-30.298013,1089.1434
492,965.68072,-31.001646,1088.6338
493,934.32744,-31.704848,1088.1241
494,1476.9737,-23.56235,1138.5856
495,1453.0396,-24.305871,1138.0759
496,1428.3621,-25.048998,1137.5662
497,1402.9417,-25.791731,1137.0565
498,1376.7788,-26.53407,1136.5469
499,1349.8737,-27.276015,1136.0372
500,1322.2269,-28.017564,1135.5275
501,1293.8387,-28.758719,1135.0178
502,1264.7096,-29.499477,1134.5081
503,1234.8399,-30.23984,1133.9984
504,1204.23,-30.979806,1133.4888
505,1172.8804,-31.719376,1132.9791
506,1140.7914,-32.458549,1132.4694
507,1107.9634,-33.197324,1131.9597
508,1394.5557,-23.351325,1232.7314
509,1370.799,-24.161951,1232.2217
510,1346.2319,-24.97224,1231.712
511,1320.8547,-25.782194,1231.2023
512,1294.6676,-26.591812,1230.6927
513,1267.6712,-27.401093,1230.183
514,1239.8656,-28.210037,1229.6733
515,1211.2512,-29.018645,1229.1636
516,1181.8284,-29.826915,1228.6539
517,1151.5975,-30.634847,1228.1442
518,1120.5588,-31.442441,1227.6346
519,1088.7127,-32.249698,1227.1249
520,1056.0595,-33.056615,1226.6152
521,1022.5996,-33.863194,1226.1055
522,1275.5249,-23.572213,1211.8435
523,1251.5543,-24.36885,1211.3338
524,1226.7873,-25.16514,1210.8241
525,1201.2242,-25.961083,1210.3144
526,1174.8653,-26.756677,1209.8048
527,1147.7109,-27.551923,1209.2951
528,1119.7615,-28.346821,1208.7854
529,1091.0174,-29.14137,1208.2757
530,1061.4789,-29.93557,1207.766
531,1031.1464,-30.72942,1207.2563
532,1000.0202,-31.52292,1206.7467
533,968.10066,-32.316071,1206.237
534,935.38816,-33.108871,1205.7273
535,1422.6158,-22.194035,1072.5166
536,1400.077,-22.883427,1072.0069
537,1376.8491,-23.572375,1071.4972
538,1352.9324,-24.26088,1070.9875
539,1328.3275,-24.94894,1070.4779
540,1303.0347,-25.636555,1069.9682
541,1277.0545,-26.323725,1069.4585
542,1250.3874,-27.01045,1068.9488
543,1223.0338,-27.696728,1068.4391
544,1194.9941,-28.38256,1067.9294
545,1166.2688,-29.067945,1067.4198
546,1136.8583,-29.752883,1066.9101
547,1106.7632,-30.437373,1066.4004
548,1075.9838,-31.121414,1065.8907
549,1197.1683,-22.242411,1143.6435
550,1174.5522,-22.989818,1143.1338
551,1151.1888,-23.736834,1142.6241
552,1127.0786,-24.483461,1142.1144
553,1102.222,-25.229696,1141.6048
554,1076.6194,-25.975541,1141.0951
555,1050.2711,-26.720994,1140.5854
556,1023.1775,-27.466055,1140.0757
557,995.33907,-28.210724,1139.566
558,966.75618,-28.955001,1139.0563
559,937.4292,-29.698885,1138.5467
560,907.35854,-30.442375,1138.037
561,876.54458,-31.185473,1137.5273
562,1030.6783,-25.76346,1442.7087
563,1004.4505,-26.692197,1442.199
564,977.29399,-27.620689,1441.6893
565,949.20916,-28.548935,1441.1796
566,920.1962,-29.476937,1440.67
567,890.25536,-30.404692,1440.1603
568,859.3869,-31.332202,1439.6506
569,827.59104,-32.259466,1439.1409
570,794.86805,-33.186484,1438.6312
571,761.2265,-33.946364,1437.9992
572,727.65181,-33.202542,1436.2663
573,694.82237,-32.455864,1434.5334
574,662.74103,-31.706323,1432.8004
575,1071.8124,-23.002128,1150.5905
576,1048.4339,-23.754817,1150.0808
577,1024.3029,-24.50712,1149.5711
578,999.41978,-25.259037,1149.0614
579,973.78495,-26.010569,1148.5518
580,947.39878,-26.761714,1148.0421
581,920.26165,-27.512472,1147.5324
582,892.37396,-28.262843,1147.0227
583,863.73609,-29.012827,1146.513
584,834.34844,-29.762423,1146.0033
585,804.21138,-30.511632,1145.4937
586,773.3253,-31.260451,1144.984
587,1363.2831,-28.981789,1388.5885
588,1333.8504,-29.883501,1388.0788
589,1303.5162,-30.784949,1387.5691
590,1272.2806,-31.686131,1387.0594
591,1240.144,-32.587049,1386.5498
592,1207.1066,-33.487702,1386.0401
593,1173.1687,-34.388089,1385.5304
594,1138.3305,-35.288211,1385.0207
595,1102.5924,-36.188068,1384.511
596,1065.9545,-37.087658,1384.0013
597,1028.4171,-37.986982,1383.4917
598,989.9806,-38.88604,1382.982
599,950.64514,-39.784832,1382.4723
600,910.62813,-39.814834,1381.351
601,871.23349,-38.97393,1379.6181
602,1429.741,-29.584141,1084.6564
603,1399.8069,-30.283973,1084.1467
604,1369.1732,-30.983372,1083.637
605,1337.8403,-31.682337,1083.1273
606,1305.8087,-32.380867,1082.6177
607,1273.0787,-33.078962,1082.108
608,1239.6509,-33.776622,1081.5983
609,1205.5256,-34.473847,1081.0886
610,1170.7033,-35.170635,1080.5789
611,1135.1845,-35.866987,1080.0692
612,1098.9695,-36.562902,1079.5596
613,1062.0588,-37.25838,1079.0499
614,1024.4529,-37.953419,1078.5402
615,1088.6851,-27.523452,1351.9876
616,1060.7205,-28.405661,1351.4779
617,1031.8739,-29.287591,1350.9682
618,1002.1454,-30.169241,1350.4585
619,971.53548,-31.050612,1349.9489
620,940.0443,-31.931703,1349.4392
621,907.67217,-32.812515,1348.9295
622,874.41937,-33.693046,1348.4198
623,840.28617,-34.573297,1347.9101
624,805.27286,-35.453268,1347.4004
625,769.37973,-36.332957,1346.8908
626,732.68726,-36.677526,1346.0141
627,696.46227,-35.771922,1344.2812
628,1340.0107,-25.025595,1119.7207
629,1314.6207,-25.754312,1119.211
630,1288.5022,-26.482622,1118.7013
631,1261.6556,-27.210524,1118.1916
632,1234.0813,-27.938019,1117.682
633,1205.7797,-28.665107,1117.1723
634,1176.7512,-29.391785,1116.6626
635,1146.9963,-30.118055,1116.1529
636,1116.5152,-30.843916,1115.6432
637,1085.3086,-31.569367,1115.1335
638,1053.3767,-32.294409,1114.6239
639,1020.7199,-33.01904,1114.1142
640,987.33871,-33.74326,1113.6045
641,1179.6737,-29.243307,1122.8039
642,1150.0648,-29.974477,1122.2942
643,1119.7249,-30.705243,1121.7845
644,1088.6544,-31.435604,1121.2748
645,1056.8538,-32.165559,1120.7652
646,1024.3234,-32.895108,1120.2555
647,991.06373,-33.624252,1119.7458
648,957.07507,-34.352989,1119.2361
649,922.35789,-35.081319,1118.7264
650,886.91257,-35.809241,1118.2167
651,850.73954,-36.536756,1117.7071
652,813.83919,-37.263864,1117.1974
653,1246.5382,-22.324587,1354.652
654,1223.7718,-23.208251,1354.1423
655,1200.1218,-24.091637,1353.6326
656,1175.5886,-24.974745,1353.1229
657,1150.1724,-25.857575,1352.6133
658,1123.8735,-26.740126,1352.1036
659,1096.6922,-27.622398,1351.5939
660,1068.6288,-28.504392,1351.0842
661,1039.6835,-29.386106,1350.5745
662,1009.8567,-30.26754,1350.0648
663,979.14856,-31.148695,1349.5552
664,947.5594,-32.02957,1349.0455
665,915.08951,-32.910165,1348.5358
666,881.73916,-33.79048,1348.0261
