738.90997,-25.506207,34.228135,0.81851059,0
713.01507,-26.268644,33.226716,0.90932167,0
686.40306,-26.940394,32.225275,1.0001496,0
659.1647,-27.521346,31.223843,1.0909873,0
631.3908,-28.011457,30.222432,1.1818321,0
603.17222,-28.410721,29.221041,1.2726842,0
574.59979,-28.719147,28.219663,1.3635453,0
545.76436,-28.93673,27.218297,1.4544161,0
516.75677,-29.063442,26.216948,1.5452948,0
487.66793,-29.099241,25.215626,1.636178,0
458.58876,-29.044072,24.214346,1.72706,0
429.61027,-28.897897,23.213119,1.8179357,0
400.82346,-28.660702,22.21195,1.9088017,0
372.31935,-28.332515,21.210832,1.9996594,0
344.18889,-27.913404,20.209746,2.0905162,0
316.52297,-27.403468,19.208664,2.181386,0
289.41235,-26.802808,18.207552,2.2722874,0
262.94772,-26.111499,17.206381,2.3632404,0
237.21971,-25.329555,16.205133,2.4542607,0
212.31899,-24.456901,15.20381,2.5453526,0
188.33635,-23.493376,14.202438,2.6365037,0
165.36276,-22.438753,13.201065,2.7276824,0
143.48944,-21.292794,12.199748,2.8188396,0
122.80783,-20.055326,11.198542,2.9099202,0
103.40946,-18.726317,10.197475,3.0008817,0
85.38581,-17.305921,9.196538,3.0917186,0
68.828118,-15.794474,8.1956728,3.1824903,0
53.827227,-14.192385,7.1947822,3.2733338,0
40.47361,-12.499947,6.1937591,3.3644495,0
28.857627,-10.717059,5.1925458,3.4560087,0
19.070015,-8.8430419,4.1911991,3.5479603,0
11.202437,-6.8768185,3.1899305,3.6397244,0
5.3474704,-4.8178539,2.189038,3.7299458,0
1.5973071,-2.6677201,1.1887344,3.8164823,0
0.041020659,-0.431215,0.18968507,3.874787,0
1230.2953,-22.783732,47.658456,0.28427107,0
1206.8534,-24.087485,46.656943,0.36068153,0
1182.146,-25.314606,45.655528,0.43708496,0
1156.2498,-26.465148,44.654195,0.5134832,0
1129.2413,-27.539302,43.652876,0.58988616,0
1101.1968,-28.537159,42.651537,0.66629945,0
1072.1925,-29.458704,41.650176,0.74272323,0
1042.305,-30.303868,40.648822,0.81915403,0
1011.6104,-31.072579,39.647487,0.89558814,0
980.18543,-31.764785,38.646194,0.9720221,0
948.10649,-32.380461,37.644947,1.0484541,0
915.45015,-32.919597,36.643749,1.124883,0
882.29294,-33.382194,35.642601,1.2013082,0
848.7114,-33.768266,34.641498,1.2777303,0
814.78203,-34.077837,33.640431,1.3541504,0
780.58134,-34.310942,32.639391,1.430571,0
746.18575,-34.467631,31.638361,1.5069962,0
711.67166,-34.547957,30.637322,1.5834313,0
677.1154,-34.551964,29.63626,1.6598814,0
642.59329,-34.479676,28.635162,1.736351,0
608.18161,-34.331089,27.634024,1.8128426,0
573.95669,-34.10616,26.632854,1.8893551,0
539.99489,-33.80482,25.631665,1.9658845,0
506.37267,-33.426983,24.630479,2.0424236,0
473.16658,-32.972568,23.629315,2.1189644,0
440.45321,-32.441509,22.628192,2.1954988,0
408.30924,-31.833776,21.627119,2.2720214,0
376.81135,-31.149372,20.626098,2.3485299,0
346.03617,-30.388334,19.625122,2.4250266,0
316.06033,-29.550714,18.624179,2.5015166,0
286.96038,-28.636565,17.623255,2.5780066,0
258.81283,-27.645926,16.62234,2.6545035,0
231.69415,-26.578814,15.621427,2.731012,0
205.68082,-25.435225,14.620512,2.8075347,0
180.84932,-24.215142,13.619598,2.8840718,0
157.27617,-22.918547,12.618685,2.9606236,0
135.03787,-21.545426,11.617772,3.0371918,0
114.21095,-20.095771,10.616857,3.1137804,0
94.871967,-18.569568,9.6159383,3.1903933,0
77.097473,-16.966779,8.6150195,3.2670291,0
60.964085,-15.287345,7.61411,3.343676,0
46.548483,-13.531195,6.6132265,3.420307,0
33.927409,-11.69829,5.6123856,3.4968863,0
23.177602,-9.7886781,4.6115904,3.5733961,0
14.375697,-7.8025183,3.6108163,3.6498932,0
7.598144,-5.7399987,2.6100045,3.7266045,0
2.9212715,-3.6011303,1.6090463,3.8042508,0
0.42161672,-1.3853856,0.6074812,3.889227,0
685.56059,-21.009559,34.166435,0.55798179,0
664.03244,-22.030234,33.164385,0.65669334,0
641.53338,-22.951593,32.16258,0.75536897,0
618.16229,-23.774321,31.160789,0.85405827,0
594.01774,-24.49851,30.158973,0.95277054,0
569.19832,-25.124055,29.157162,1.0514995,0
543.80272,-25.650832,28.15539,1.1502359,0
517.92977,-26.078751,27.153682,1.2489717,0
491.67835,-26.407764,26.152053,1.3477013,0
465.14738,-26.637854,25.150508,1.4464212,0
438.43578,-26.769026,24.149046,1.5451297,0
411.64246,-26.801306,23.14766,1.6438272,0
384.86628,-26.734742,22.146338,1.742517,0
358.20606,-26.569409,21.145056,1.8412067,0
331.76052,-26.3054,20.143788,1.9399086,0
305.62829,-25.942816,19.142499,2.0386398,0
279.90789,-25.481741,18.141155,2.13742,0
254.69779,-24.922209,17.139734,2.2362665,0
230.09646,-24.264178,16.138229,2.335189,0
206.20248,-23.507508,15.136661,2.4341817,0
183.11457,-22.651968,14.135075,2.5332178,0
160.93175,-21.697277,13.133537,2.6322481,0
139.75332,-20.643173,12.132124,2.7312056,0
119.67876,-19.489511,11.130894,2.8300227,0
100.80763,-18.236354,10.129868,2.9286574,0
83.239279,-16.88403,9.1290046,3.0271316,0
67.072609,-15.43309,8.1281946,3.125567,0
52.405931,-13.884137,7.1272772,3.224202,0
39.337049,-12.237509,6.1260922,3.3233545,0
27.963738,-10.492866,5.1245737,3.4232632,0
18.384569,-8.6489427,4.1228538,3.5237553,0
10.699718,-6.703961,3.1213091,3.6237541,0
5.0107676,-4.6572506,2.1204392,3.7208681,0
1.4183704,-2.5117509,1.1206385,3.8108594,0
720.45393,-22.090732,34.835599,0.59643049,0
697.8641,-23.073119,33.834034,0.69204556,0
674.3397,-23.959926,32.832482,0.78767132,0
649.9762,-24.751348,31.830871,0.8833244,0
624.86899,-25.447303,30.829221,0.97900167,0
599.11362,-26.047656,29.827569,1.0746947,0
572.80574,-26.5523,28.825945,1.1703957,0
546.0411,-26.961176,27.824366,1.2661,0
518.91548,-27.274248,26.82284,1.3618041,0
491.5247,-27.491498,25.821371,1.4575056,0
463.96459,-27.612911,24.819965,1.553202,0
436.33099,-27.63848,23.818622,1.6488911,0
408.71973,-27.568214,22.81734,1.7445722,0
381.22665,-27.402149,21.816111,1.8402477,0
353.94751,-27.140348,20.814915,1.9359244,0
326.978,-26.782903,19.813725,2.0316153,0
300.41371,-26.329913,18.812507,2.127338,0
274.35015,-25.781456,17.811229,2.2231122,0
248.88277,-25.137559,16.80987,2.318955,0
224.10702,-24.398165,15.808428,2.4148745,0
200.11848,-23.563124,14.806924,2.5108625,0
177.0129,-22.632199,13.805406,2.6068899,0
154.8863,-21.605115,12.803941,2.7029058,0
133.83496,-20.481636,11.802596,2.7988459,0
113.95535,-19.261655,10.801421,2.8946494,0
95.343947,-17.945273,9.8004274,2.9902865,0
78.09699,-16.532833,8.7995642,3.0857937,0
62.310288,-15.024853,7.7987228,3.181303,0
48.079117,-13.421838,6.7977579,3.2770471,0
35.498383,-11.723962,5.7965449,3.3733008,0
24.663129,-9.9307248,4.7950661,3.4702052,0
15.669305,-8.0408454,3.793497,3.5674243,0
8.6143041,-6.0529082,2.7922081,3.6637166,0
3.5963194,-3.9670954,1.7916084,3.7566751,0
0.71165758,-1.7872735,0.79200721,3.8414214,0
1019.3165,-31.673571,39.641701,0.92613815,0
987.30573,-32.335472,38.640458,1.0018045,0
954.67092,-32.921653,37.639247,1.0774714,0
921.4878,-33.432101,36.638071,1.153138,0
887.8321,-33.866804,35.636934,1.2288032,0
853.77957,-34.225758,34.635835,1.3044662,0
819.40595,-34.508973,33.634773,1.3801275,0
784.78698,-34.716475,32.633738,1.4557888,0
749.99835,-34.848305,31.632718,1.5314533,0
715.11571,-34.904516,30.631695,1.607126,0
680.21464,-34.885156,29.630652,1.6828124,0
645.3707,-34.790252,28.629577,1.758517,0
610.65944,-34.619803,27.628465,1.8342424,0
576.15641,-34.373775,26.627321,1.9099881,0
541.93723,-34.052102,25.626159,1.9857504,0
508.07758,-33.654705,24.624997,2.061523,0
474.65321,-33.181504,23.623855,2.137298,0
441.73998,-32.63244,22.622749,2.2130682,0
409.41376,-32.007482,21.621688,2.2888286,0
377.75044,-31.306633,20.620674,2.3645772,0
346.82591,-30.529923,19.619701,2.4403156,0
316.71599,-29.677397,18.618759,2.5160485,0
287.4965,-28.749097,17.617836,2.591781,0
259.24317,-27.745053,16.616925,2.6675184,0
232.03176,-26.665277,15.61602,2.7432637,0
205.93799,-25.509764,14.615121,2.8190183,0
181.03761,-24.278506,13.614227,2.894783,0
157.40635,-22.971501,12.613336,2.9705605,0
135.11998,-21.58875,11.612443,3.0463553,0
114.25423,-20.130258,10.611544,3.1221757,0
94.884841,-18.596014,9.6106322,3.1980292,0
77.087594,-16.985968,8.6097135,3.2739141,0
60.938326,-15.300037,7.6088012,3.3498138,0
46.512974,-13.538122,6.6079189,3.4256904,0
33.887555,-11.700171,5.6070893,3.5014948,0
23.138084,-9.7862503,4.606317,3.577202,0
14.340433,-7.7965756,3.6055695,3.6528858,0
7.5702237,-5.7313969,2.6047698,3.7288391,0
2.9029287,-3.5907048,1.6037886,3.8059239,0
0.41433319,-1.3737656,0.60212403,3.8912108,0
563.25569,-21.691619,30.074884,0.77065282,0
541.15339,-22.495706,29.073163,0.87566942,0
518.29937,-23.195018,28.071387,0.98071932,0
494.7985,-23.789408,27.069596,1.0857934,0
470.75577,-24.278694,26.067842,1.190877,0
446.27636,-24.662748,25.066162,1.2959577,0
421.46555,-24.941514,24.064573,1.4010279,0
396.42861,-25.115001,23.063073,1.5060861,0
371.27079,-25.183265,22.061646,1.6111362,0
346.09729,-25.146397,21.060265,1.7161874,0
321.01318,-25.004504,20.058895,1.8212544,0
296.12343,-24.757688,19.057502,1.9263548,0
271.53293,-24.40602,18.056053,2.0315072,0
247.34652,-23.949509,17.054532,2.1367256,0
223.66906,-23.388079,16.052943,2.2420136,0
200.60556,-22.721558,15.051316,2.3473577,0
178.26124,-21.949689,14.04971,2.452721,0
156.74157,-21.072185,13.048199,2.5580451,0
136.15234,-20.088809,12.046861,2.6632566,0
116.59945,-18.999481,11.045747,2.7682898,0
98.188812,-17.804377,10.044858,2.873119,0
81.025978,-16.50397,9.0441165,2.9778045,0
65.215914,-15.09896,8.0433654,3.0825343,0
50.862867,-13.59003,7.0423954,3.1876364,0
38.070572,-11.977433,6.0410173,3.2935151,0
26.942946,-10.26048,5.0391858,3.4004225,0
17.585186,-8.4373113,4.0371264,3.5080055,0
10.104706,-6.5055913,3.0353745,3.614662,0
4.6106021,-4.4647926,2.0345915,3.7170291,0
1.2102331,-2.3194141,1.0353171,3.8087323,0
652.88607,-28.451408,30.742787,1.1790779,0
624.22599,-28.854005,29.741441,1.2684689,0
595.208,-29.167243,28.740103,1.3578699,0
565.92144,-29.391132,27.738765,1.4472833,0
536.45567,-29.525652,26.73743,1.5367088,0
506.90009,-29.570757,25.736108,1.6261432,0
477.34413,-29.526385,24.734815,1.7155809,0
447.87731,-29.392475,23.733567,1.8050152,0
418.58919,-29.168987,22.732376,1.8944402,0
389.56935,-28.85592,21.731246,1.9838535,0
360.90735,-28.453316,20.730164,2.0732581,0
332.69268,-27.961259,19.729108,2.1626639,0
305.01476,-27.379855,18.728049,2.2520866,0
277.96287,-26.709201,17.726951,2.341546,0
251.62623,-25.949356,16.72579,2.4310611,0
226.09404,-25.100303,15.724554,2.5206435,0
201.45555,-24.161942,14.723254,2.6102926,0
177.80014,-23.134089,13.721922,2.6999893,0
155.21742,-22.016521,12.720608,2.7896973,0
133.79722,-20.809029,11.719366,2.8793666,0
113.62953,-19.511498,10.718238,2.9689489,0
94.804378,-18.123965,9.7172375,3.0584167,0
77.411679,-16.646643,8.7163378,3.1477871,0
61.541055,-15.079879,7.7154694,3.237144,0
47.281765,-13.42402,6.7145368,3.3266403,0
34.722813,-11.679196,5.7134583,3.4164562,0
23.953275,-9.8450948,4.7122216,3.506682,0
15.062803,-7.9208988,3.7109405,3.5970898,0
8.1419629,-5.9057361,2.7098512,3.6868618,0
3.2817527,-3.7998482,1.7091955,3.7745045,0
0.57179612,-1.6059029,0.70908189,3.8576729,0
519.10214,-35.533203,24.481462,2.2310116,0
483.88339,-34.89287,23.480594,2.3002059,0
449.33958,-34.183355,22.479729,2.369406,0
415.53985,-33.404694,21.478857,2.4386178,0
382.55334,-32.556916,20.477966,2.5078477,0
350.44917,-31.640024,19.477051,2.5770999,0
319.29646,-30.653975,18.476117,2.6463727,0
289.16441,-29.598691,17.475179,2.7156577,0
260.12231,-28.47407,16.474263,2.7849399,0
232.23953,-27.280027,15.473392,2.854202,0
205.58552,-26.016525,14.47258,2.9234305,0
180.22973,-24.683611,13.471825,2.9926247,0
156.24151,-23.281407,12.471102,3.0618024,0
133.69008,-21.810077,11.470372,3.1310001,0
112.64447,-20.269757,10.46959,3.2002659,0
93.173664,-18.660471,9.4687338,3.269638,0
75.346678,-16.982075,8.4678101,3.3391177,0
59.232766,-15.234268,7.4668716,3.4086411,0
44.901509,-13.416715,6.4659996,3.4780731,0
32.422759,-11.529256,5.4652704,3.5472437,0
21.866331,-9.57216,4.4646921,3.6160829,0
13.301522,-7.5461635,3.4641508,3.6848632,0
6.7968264,-5.4520039,2.4634062,3.7545401,0
2.4204494,-3.289302,1.4621349,3.8274596,0
0.24209897,-1.0551223,0.45917076,3.9239186,0
524.60861,-35.774064,24.596848,2.2369788,0
489.15194,-35.127958,23.596005,2.3055952,0
454.37568,-34.413241,22.595168,2.3742164,0
420.34842,-33.629964,21.594321,2.44285,0
387.1387,-32.778167,20.59345,2.5115041,0
354.81504,-31.857857,19.592547,2.5801839,0
323.44595,-30.868994,18.591617,2.648889,0
293.10004,-29.81149,17.590676,2.7176105,0
263.84601,-28.685228,16.589753,2.7863319,0
235.75266,-27.490107,15.588873,2.8550339,0
208.88888,-26.226073,14.588057,2.9236995,0
183.32358,-24.893164,13.587304,2.9923257,0
159.12559,-23.491503,12.586591,3.060928,0
136.36355,-22.021269,11.585877,3.1295445,0
115.10597,-20.482618,10.585114,3.1982252,0
95.421214,-18.8756,9.5842722,3.2670154,0
77.37771,-17.200086,8.5833548,3.3359226,0
61.044088,-15.455774,7.5824109,3.4048896,0
46.489332,-13.6423,6.5815256,3.4737801,0
33.782731,-11.759458,5.5807831,3.5424137,0
22.993587,-9.8074673,4.5802046,3.6106911,0
14.190717,-7.7870625,3.5796868,3.6788405,0
7.442091,-5.6990758,2.5789886,3.7477664,0
2.8152437,-3.5433135,1.5777818,3.8196582,0
0.37900688,-1.3171095,0.57518203,3.9079462,0
1141.2987,-30.088564,43.073128,0.72523774,0
1110.7724,-30.951714,42.071957,0.79951589,0
1079.4201,-31.740646,41.070781,0.87380143,0
1047.316,-32.455339,40.069603,0.94809372,0
1014.5343,-33.095781,39.068424,1.0223926,0
981.14933,-33.661957,38.067249,1.0966977,0
947.2353,-34.153842,37.066081,1.1710079,0
912.86655,-34.571398,36.064932,1.2453209,0
878.11742,-34.914586,35.063813,1.3196338,0
843.0623,-35.18338,34.062732,1.3939447,0
807.77559,-35.377777,33.061688,1.4682527,0
772.33166,-35.497803,32.060675,1.5425595,0
736.80488,-35.543506,31.059678,1.616869,0
701.26953,-35.514944,30.058677,1.6911866,0
665.79985,-35.412161,29.057658,1.7655176,0
630.47006,-35.235181,28.056609,1.8398662,0
595.35435,-34.983993,27.055529,1.9142339,0
560.52695,-34.658553,26.054426,1.988619,0
526.06214,-34.258796,25.053313,2.0630171,0
492.03428,-33.784651,24.052208,2.1374221,0
458.51778,-33.236058,23.051125,2.2118276,0
425.58712,-32.612978,22.050076,2.2862286,0
393.31678,-31.915402,21.049063,2.3606229,0
361.78126,-31.143344,20.048083,2.4350106,0
331.05504,-30.29683,19.047132,2.5093942,0
301.21254,-29.375886,18.046201,2.5837766,0
272.32819,-28.380527,17.045288,2.6581601,0
244.47641,-27.310758,16.044389,2.7325454,0
217.73161,-26.166572,15.043508,2.8069316,0
192.1682,-24.94797,14.042641,2.881319,0
167.86059,-23.654965,13.041786,2.9557108,0
144.88318,-22.287588,12.040933,3.0301158,0
123.31032,-20.845875,11.040069,3.1045487,0
103.21633,-19.329837,10.039182,3.1790247,0
84.675557,-17.739435,9.0382703,3.2535504,0
67.762406,-16.074568,8.0373484,3.3281136,0
52.551417,-14.335086,7.0364468,3.4026697,0
39.117273,-12.520867,6.0356028,3.4771486,0
27.534719,-10.631922,5.0348386,3.5514873,0
17.878387,-8.6684785,4.0341336,3.6257121,0
10.222589,-6.6309172,3.0334055,3.700075,0
4.6413071,-4.5194381,2.0325155,3.7752832,0
1.2086395,-2.3335065,1.0311989,3.8539584,0
881.94764,-36.945661,34.552414,1.4666741,0
844.9344,-37.069057,33.551335,1.5378375,0
807.83342,-37.121123,32.550317,1.6089911,0
770.71603,-37.101906,31.549349,1.6801374,0
733.65346,-37.011476,30.54841,1.7512816,0
696.71691,-36.849902,29.547481,1.8224294,0
659.97748,-36.617234,28.546544,1.8935863,0
623.50625,-36.313489,27.545593,1.9647553,0
587.37431,-35.938654,26.544628,2.0359367,0
551.65277,-35.492694,25.543656,2.1071287,0
516.41277,-34.975569,24.542684,2.1783285,0
481.72548,-34.387246,23.54172,2.2495333,0
447.66213,-33.727712,22.540767,2.3207422,0
414.29392,-32.996968,21.539823,2.3919561,0
381.69205,-32.195024,20.538883,2.4631772,0
349.92772,-31.321887,19.537943,2.5344081,0
319.07213,-30.377541,18.537005,2.6056482,0
289.1965,-29.361951,17.536076,2.6768938,0
260.37211,-28.275065,16.535168,2.7481369,0
232.67027,-27.116835,15.534294,2.8193677,0
206.16235,-25.887242,14.533464,2.8905782,0
180.91968,-24.58632,13.532672,2.9617696,0
157.01358,-23.21415,12.531902,3.0329543,0
134.51521,-21.770845,11.531125,3.1041596,0
113.49568,-20.256498,10.530311,3.1754201,0
94.026011,-18.67112,9.5294399,3.2467642,0
76.177274,-17.014598,8.5285195,3.3181929,0
60.020725,-15.2867,7.5275894,3.3896583,0
45.627876,-13.48716,6.5267137,3.4610555,0
33.070451,-11.615849,5.5259517,3.5322536,0
22.420161,-9.6729591,4.5253138,3.6031902,0
13.748323,-7.6590585,3.5247142,3.674063,0
7.1256217,-5.5747495,2.5239657,3.7455982,0
2.6224611,-3.4198214,1.5228068,3.8196167,0
0.3103038,-1.1921323,0.52036619,3.9100432,0
790.40297,-34.42303,32.87493,1.4223268,0
755.89113,-34.588098,31.873903,1.4984539,0
721.25226,-34.677081,30.872873,1.574589,0
686.56244,-34.690028,29.871825,1.6507374,0
651.89767,-34.626969,28.870745,1.7269039,0
617.33396,-34.48791,27.869626,1.8030917,0
582.94732,-34.272818,26.868472,1.8793006,0
548.81381,-33.981632,25.867296,1.9555274,0
515.00957,-33.614271,24.866117,2.0317661,0
481.61082,-33.170651,23.864954,2.1080085,0
448.69384,-32.650705,22.863827,2.1842471,0
416.33499,-32.054392,21.862747,2.2604754,0
384.61064,-31.381709,20.861717,2.3366908,0
353.59715,-30.632683,19.860732,2.4128942,0
323.37084,-29.80736,18.859783,2.4890897,0
294.00797,-28.905792,17.858856,2.5652837,0
265.58478,-27.928018,16.857941,2.6414823,0
238.17746,-26.874058,15.857031,2.7176903,0
211.86219,-25.743913,14.856122,2.7939104,0
186.71516,-24.537569,13.855216,2.870143,0
162.81258,-23.255014,12.854311,2.9463893,0
140.23066,-21.89624,11.853406,3.0226518,0
119.04563,-20.461241,10.852498,3.0989348,0
99.333718,-18.95001,9.851584,3.1752447,0
81.171163,-17.362511,8.8506654,3.2515819,0
64.634265,-15.698683,7.8497511,3.3279369,0
49.799396,-13.958442,6.8488598,3.4042816,0
36.743,-12.14173,5.848011,3.4805763,0
25.541547,-10.248574,4.847214,3.5567907,0
16.271411,-8.2791277,3.8464495,3.6329611,0
9.0087727,-6.233613,2.8456608,3.7092813,0
3.8296362,-4.1121102,1.8447479,3.7863268,0
0.81012773,-1.9142256,0.84342312,3.8673278,0
763.88694,-36.844967,31.43585,1.6722825,0
727.07747,-36.762156,30.434905,1.7439347,0
690.38663,-36.607709,29.433965,1.8155923,0
653.88603,-36.381673,28.433013,1.8872605,0
617.64726,-36.084061,27.432044,1.958942,0
581.74189,-35.714856,26.431057,2.0306372,0
546.24154,-35.274018,25.430062,2.1023439,0
511.21787,-34.761503,24.429068,2.1740588,0
476.74256,-34.177273,23.428082,2.2457786,0
442.88735,-33.521307,22.42711,2.3175015,0
409.72398,-32.793604,21.42615,2.3892278,0
377.32418,-31.994171,20.4252,2.460959,0
345.75966,-31.123015,19.424256,2.5326972,0
315.10218,-30.180126,18.423318,2.6044421,0
285.42345,-29.165476,17.422392,2.6761906,0
256.79528,-28.079023,16.421489,2.7479357,0
229.28947,-26.92073,15.420619,2.8196696,0
202.97789,-25.690588,14.419787,2.8913866,0
177.93236,-24.388629,13.418989,2.9630885,0
154.22466,-23.014933,12.418207,3.0347891,0
131.92649,-21.569599,11.417415,3.1065138,0
111.10944,-20.052702,10.416586,3.1782943,0
91.845059,-18.464238,9.4157038,3.2501547,0
74.204974,-16.804087,8.4147802,3.3220912,0
58.260976,-15.072022,7.4138552,3.3940524,0
44.085104,-13.267803,6.4129897,3.4659358,0
31.749576,-11.391337,5.4122356,3.5376213,0
21.326561,-9.442847,4.4115937,3.6090689,0
12.887823,-7.4228912,3.4109724,3.6805063,0
6.5045355,-5.3319919,2.4101877,3.7526906,0
2.2476998,-3.1698091,1.408979,3.8275868,0
0.18951917,-0.93399182,0.40616186,3.927257,0
1122.2274,-30.940104,42.344761,0.7894883,0
1090.8817,-31.739125,41.343604,0.8635282,0
1058.7739,-32.46416,40.34244,0.93757529,0
1025.9782,-33.115202,39.341274,1.0116296,0
992.56832,-33.69224,38.340102,1.0856913,0
958.61847,-34.19525,37.338933,1.1597593,0
924.20263,-34.624193,36.337777,1.2338314,0
889.39491,-34.979022,35.336646,1.3079046,0
854.26943,-35.2597,34.335552,1.381976,0
818.90036,-35.466215,33.334498,1.4560442,0
783.36184,-35.598584,32.333479,1.53011,0
747.72801,-35.656849,31.332482,1.6041765,0
712.07295,-35.641068,30.33149,1.678249,0
676.47066,-35.551292,29.330484,1.7523328,0
640.99514,-35.387555,28.329452,1.8264329,0
605.72033,-35.149855,27.328389,1.9005515,0
570.72022,-34.838159,26.327301,1.974688,0
536.06882,-34.45241,25.326199,2.0488389,0
501.84023,-33.992536,24.3251,2.1229983,0
468.1086,-33.458477,23.324018,2.1971604,0
434.94814,-32.850188,22.322966,2.2713198,0
402.4331,-32.167652,21.321948,2.3454733,0
370.63771,-31.410879,20.320962,2.4196212,0
339.6362,-30.57989,19.320004,2.493765,0
309.50278,-29.674708,18.319069,2.5679072,0
280.31164,-28.69535,17.318151,2.6420502,0
252.13693,-27.641817,16.317249,2.7161942,0
225.05285,-26.514104,15.316365,2.7903383,0
199.13358,-25.312207,14.3155,2.8644814,0
174.45329,-24.03614,13.314649,2.9386261,0
151.08613,-22.685935,12.313803,3.0127808,0
129.10624,-21.261632,11.312949,3.086959,0
108.58768,-19.763257,10.312072,3.1611786,0
89.604544,-18.190788,9.3111687,3.2354506,0
72.230957,-16.544135,8.3102469,3.3097686,0
56.541176,-14.823148,7.3093352,3.3840953,0
42.609612,-13.027681,6.3084728,3.4583627,0
30.51078,-11.157693,5.3076909,3.5324948,0
20.319134,-9.2133602,4.306983,3.6064816,0
12.108838,-7.1950615,3.3062804,3.6805057,0
5.9536769,-5.103112,2.3054528,3.7551389,0
1.927372,-2.9372181,1.3042918,3.8320733,0
0.10456507,-0.69549699,0.30131585,3.9445439,0
1165.3449,-25.485058,45.206905,0.4556308,0
1139.2876,-26.61693,44.205559,0.53238011,0
1112.1367,-27.67212,43.204205,0.60913757,0
1083.969,-28.650676,42.202827,0.68590659,0
1054.8611,-29.552551,41.201436,0.76268547,0
1024.8896,-30.377661,40.200054,0.83947,0
994.13148,-31.125932,39.198709,0.91625567,0
962.66351,-31.797318,38.197412,0.99303945,0
930.56261,-32.391798,37.196171,1.0698194,0
897.90568,-32.90937,36.194985,1.1465948,0
864.76963,-33.350048,35.193851,1.2233657,0
831.23134,-33.713855,34.192762,1.3001334,0
797.36766,-34.000827,33.191706,1.3769,0
763.25541,-34.211012,32.190669,1.4536691,0
728.97134,-34.344464,31.189631,1.5304457,0
694.59217,-34.401232,30.188577,1.607235,0
660.19455,-34.381355,29.187489,1.6840423,0
625.85513,-34.28484,28.186363,1.760871,0
591.65055,-34.111663,27.185198,1.8377218,0
557.6575,-33.861769,26.184006,1.9145924,0
523.95274,-33.535074,25.182805,1.9914768,0
490.61311,-33.131492,24.181616,2.0683671,0
457.71554,-32.650944,23.180461,2.1452548,0
425.33702,-32.093379,22.179353,2.2221325,0
393.55459,-31.458782,21.1783,2.2989961,0
362.44526,-30.747173,20.177299,2.3758452,0
332.08603,-29.958602,19.176339,2.4526839,0
302.55382,-29.093127,18.175405,2.5295187,0
273.92552,-28.150801,17.174486,2.6063574,0
246.27795,-27.131656,16.173568,2.6832068,0
219.68794,-26.035701,15.172649,2.7600712,0
194.23229,-24.862922,14.171726,2.8369521,0
169.98784,-23.613295,13.170802,2.9138491,0
147.03145,-22.286796,12.169879,2.9907615,0
125.44,-20.883409,11.168957,3.0676908,0
105.29039,-19.403118,10.168035,3.1446387,0
86.659534,-17.845904,9.1671144,3.2216072,0
69.624366,-16.211727,8.1661989,3.2985919,0
54.26188,-14.500532,7.1652996,3.3755778,0
40.649122,-12.712265,6.1644314,3.4525373,0
28.863171,-10.846922,5.1636042,3.5294443,0
18.981071,-8.9045861,4.1628114,3.6063053,0
11.079738,-6.8854155,3.1620193,3.6832206,0
5.2359356,-4.7895335,2.1611606,3.7605172,0
1.5264035,-2.61682,1.1600747,3.8396138,0
0.028376184,-0.36588719,0.15619135,4.0132601,0
693.30968,-28.354913,31.981505,1.1013525,0
664.70711,-28.835655,30.980174,1.189701,0
635.66797,-29.22805,29.978861,1.2780563,0
606.28059,-29.532134,28.977549,1.3664224,0
576.63328,-29.747926,27.976232,1.4548027,0
546.81432,-29.875408,26.974908,1.5431973,0
516.91206,-29.914533,25.973589,1.6316034,0
487.01488,-29.865234,24.97229,1.7200154,0
457.21124,-29.727438,23.971033,1.8084257,0
427.58966,-29.501094,22.969831,1.8968275,0
398.23872,-29.186184,21.968691,1.9852164,0
369.24696,-28.782736,20.967608,2.0735933,0
340.70288,-28.290824,19.966562,2.1619658,0
312.69491,-27.71055,18.965526,2.2503478,0
285.31135,-27.04202,17.964465,2.338758,0
258.64041,-26.285309,16.96335,2.4272161,0
232.77027,-25.440429,15.962166,2.5157366,0
207.78911,-24.50731,14.960915,2.6043235,0
183.78526,-23.485797,13.959623,2.692964,0
160.8472,-22.375684,12.95833,2.7816282,0
139.06364,-21.176762,11.95709,2.870272,0
118.52348,-19.88889,10.955946,2.958848,0
99.315667,-18.512056,9.9549196,3.047323,0
81.529116,-17.046413,8.9539971,3.1356994,0
65.252495,-15.492252,7.9531251,3.224036,0
50.574151,-13.849908,6.9522199,3.312458,0
37.582152,-12.119572,5.9511996,3.4011302,0
26.364535,-10.301077,4.9500319,3.4901701,0
17.009742,-8.3937832,3.9487882,3.5794666,0
9.6070076,-6.3968409,2.9476604,3.6684291,0
4.2461633,-4.3101069,1.9468781,3.7558568,0
1.0162906,-2.1354077,0.946551,3.8401216,0
1110.9094,-27.83252,43.120542,0.61906257,0
1082.5862,-28.801184,42.119168,0.69575022,0
1053.3327,-29.693241,41.117784,0.77244724,0
1023.2254,-30.508608,40.116412,0.84914944,0
992.34119,-31.247216,39.115077,0.92585258,0
960.75674,-31.909022,38.11379,1.0025538,0
928.54888,-32.494007,37.112558,1.0792514,0
895.79446,-33.002172,36.111379,1.1559446,0
862.57027,-33.433528,35.110251,1.2326337,0
828.95313,-33.788099,34.109166,1.3093197,0
795.01979,-34.065921,33.108113,1.386005,0
760.84698,-34.26704,32.107077,1.462693,0
726.51138,-34.391511,31.10604,1.5393889,0
692.08962,-34.439383,30.104985,1.6160978,0
657.65826,-34.41069,29.103897,1.6928248,0
623.29388,-34.305441,28.10277,1.7695734,0
589.07304,-34.123608,27.101605,1.8463439,0
555.07234,-33.865133,26.100414,1.9231338,0
521.36848,-33.529933,25.099215,1.9999369,0
488.03821,-33.117921,24.098031,2.0767453,0
455.15839,-32.629021,23.096881,2.1535506,0
422.80594,-32.063185,22.095779,2.2303456,0
391.0578,-31.4204,21.094732,2.3071264,0
359.99091,-30.70069,20.093734,2.3838932,0
329.68217,-29.904105,19.092777,2.4606501,0
300.20843,-29.030701,18.091846,2.5374037,0
271.64649,-28.08053,17.090927,2.6141616,0
244.07308,-27.053622,16.09001,2.6909305,0
217.56495,-25.949983,15.089092,2.7677142,0
192.19882,-24.769598,14.08817,2.8445139,0
168.05147,-23.512444,13.087249,2.9213292,0
145.19966,-22.178499,12.086328,2.9981599,0
123.7202,-20.767749,11.085408,3.0750078,0
103.6899,-19.28018,10.084488,3.1518755,0
85.185581,-17.71577,9.0835678,3.2287649,0
68.284113,-16.074476,8.082653,3.3056703,0
53.062405,-14.356238,7.0817556,3.3825747,0
39.597431,-12.561003,6.0808912,3.4594489,0
27.966192,-10.688773,5.0800692,3.5362666,0
18.245647,-8.7396425,4.0792812,3.613039,0
10.512612,-6.7137805,3.0784889,3.6898832,0
4.8437493,-4.6113022,2.0776197,3.7671699,0
1.3157221,-2.4320428,1.0764904,3.8466118,0
1378.3111,-35.290658,46.598364,0.84281929,0
1342.6399,-36.040612,45.597108,0.90897446,0
1306.2523,-36.723744,44.596089,0.9750947,0
1269.2148,-37.340275,43.595236,1.0411894,0
1231.5939,-37.890533,42.59445,1.1072757,0
1193.4558,-38.374797,41.593643,1.1733697,0
1154.8664,-38.793224,40.592763,1.2394825,0
1115.8914,-39.14583,39.591798,1.3056173,0
1076.5968,-39.432526,38.590773,1.3717702,0
1037.0485,-39.653173,37.589724,1.4379335,0
997.31262,-39.807642,36.58869,1.504099,0
957.4554,-39.895854,35.587693,1.5702608,0
917.54311,-39.917797,34.586738,1.6364175,0
877.64199,-39.873514,33.585812,1.7025717,0
837.81824,-39.763079,32.584894,1.7687292,0
798.13798,-39.586556,31.583964,1.8348959,0
758.66726,-39.343975,30.583011,1.9010757,0
719.47216,-39.035314,29.582036,1.9672685,0
680.61879,-38.660505,28.581057,2.0334692,0
642.17334,-38.219451,27.580099,2.0996694,0
604.20211,-37.712064,26.579187,2.1658595,0
566.77146,-37.138292,25.578337,2.232032,0
529.94776,-36.498145,24.577551,2.2981848,0
493.79738,-35.791695,23.576814,2.364323,0
458.38654,-35.019064,22.576095,2.4304593,0
423.78138,-34.180383,21.575358,2.4966105,0
390.04787,-33.275754,20.574572,2.5627941,0
357.25195,-32.305209,19.573719,2.6290215,0
325.45955,-31.268689,18.572804,2.6952936,0
294.73672,-30.166053,17.571853,2.7615972,0
265.14966,-28.997115,16.570908,2.8279074,0
236.76476,-27.761704,15.570013,2.8941932,0
209.64855,-26.459725,14.569201,2.9604279,0
183.8676,-25.09121,13.568475,3.0266024,0
159.48837,-23.656323,12.567809,3.0927354,0
136.57711,-22.155307,11.567148,3.158875,0
115.19983,-20.588385,10.56643,3.2250883,0
95.422386,-18.955642,9.5656104,3.2914352,0
77.310645,-17.25693,8.5646921,3.3579297,0
60.930749,-15.491877,7.5637347,3.4245021,0
46.349271,-13.660023,6.5628441,3.490982,0
33.633174,-11.761106,5.562126,3.5571422,0
22.849443,-9.7953939,4.5616087,3.6228559,0
14.064458,-7.7638051,3.5611632,3.6884092,0
7.3435419,-5.6673713,2.5604899,3.7549324,0
2.7514977,-3.5058137,1.5591899,3.8251139,0
0.35479988,-1.2757386,0.55620871,3.9154114,0
501.13388,-31.198737,25.074508,1.8166281,0
470.0443,-30.96652,24.073242,1.9008377,0
439.2291,-30.649951,23.072031,1.9850379,0
408.77266,-30.248992,22.070888,2.0692217,0
378.75938,-29.763652,21.069814,2.1533866,0
349.27361,-29.19399,20.068798,2.2375366,0
320.39962,-28.5401,19.067814,2.3216823,0
292.22159,-27.802091,18.066833,2.4058395,0
264.82359,-26.980053,17.065826,2.4900262,0
238.28962,-26.074029,16.064774,2.5742578,0
212.70367,-25.083995,15.06367,2.6585419,0
188.1498,-24.009858,14.062526,2.7428748,0
164.71218,-22.851473,13.061368,2.8272388,0
142.47513,-21.608684,12.060232,2.9116063,0
121.52313,-20.281366,11.05915,2.9959438,0
101.94073,-18.869478,10.058142,3.0802258,0
83.812484,-17.373081,9.0572066,3.1644456,0
67.222825,-15.792337,8.0563158,3.2486317,0
52.256,-14.127444,7.0554238,3.3328502,0
38.996078,-12.37854,6.0544805,3.4171967,0
27.527077,-10.545572,5.05346,3.5017502,0
17.933204,-8.6282101,4.0523931,3.5864738,0
10.299094,-6.6259714,3.0513784,3.6710822,0
4.7097583,-4.5387032,2.050538,3.754987,0
1.2498799,-2.3673262,1.0498869,3.837824,0
612.40852,-33.95897,27.869268,1.7651647,0
578.53202,-33.781251,26.868071,1.8427475,0
544.87197,-33.526064,25.866852,1.9203484,0
511.50587,-33.193321,24.865632,1.9979608,0
478.51134,-32.782929,23.864435,2.0755753,0
445.96605,-32.294816,22.86328,2.1531835,0
413.94776,-31.72894,21.86218,2.2307784,0
382.53422,-31.085301,20.861138,2.308357,0
351.8032,-30.363934,19.860149,2.3859207,0
321.83237,-29.564899,18.859198,2.4634751,0
292.69939,-28.688264,17.858269,2.5410286,0
264.48182,-27.734083,16.857346,2.6185904,0
237.25719,-26.702386,15.856419,2.6961678,0
211.10302,-25.593174,14.855484,2.7737654,0
186.09682,-24.40642,13.854541,2.8513833,0
162.31617,-23.142087,12.853596,2.9290193,0
139.83865,-21.800138,11.852652,3.0066704,0
118.7419,-20.380545,10.851715,3.0843343,0
99.103577,-18.883289,9.8507857,3.1620101,0
81.001346,-17.308354,8.8498644,3.239698,0
64.512901,-15.655713,7.8489553,3.3173932,0
49.715961,-13.925336,6.8480645,3.3950863,0
36.688278,-12.117198,5.8472001,3.4727611,0
25.507613,-10.231307,4.846366,3.5504049,0
16.251689,-8.2677308,3.8455525,3.6280379,0
8.9981418,-6.2265709,2.8447313,3.7057618,0
3.8245154,-4.1078902,1.8438391,3.7839467,0
0.80836514,-1.9115629,0.84263204,3.8652693,0
553.5029,-24.053775,28.982148,0.98804842,0
529.14618,-24.642895,27.980265,1.0895939,0
504.25116,-25.130368,26.978442,1.1911418,0
478.91953,-25.516106,25.976707,1.292683,0
453.25304,-25.800073,24.975069,1.3942118,0
427.35348,-25.982276,23.973529,1.495726,0
401.32257,-26.062754,22.972076,1.5972269,0
375.26202,-26.041574,21.970691,1.6987196,0
349.27345,-25.91883,20.969347,1.800214,0
323.45835,-25.694625,19.968011,1.9017244,0
297.91815,-25.369063,18.966647,2.0032692,0
272.75416,-24.942216,17.965225,2.1048674,0
248.06764,-24.414097,16.963725,2.2065343,0
223.95991,-23.784636,15.962149,2.3082751,0
200.53238,-23.053661,14.960527,2.4100773,0
177.88668,-22.220918,13.958913,2.5119062,0
156.12473,-21.286121,12.95738,2.6137051,0
135.34871,-20.249025,11.956004,2.7154018,0
115.66098,-19.10954,10.954839,2.8169308,0
97.163884,-17.867816,9.9538879,2.9182636,0
79.959461,-16.524282,8.953085,3.0194502,0
64.149212,-15.07958,7.9522903,3.1206581,0
49.833978,-13.534339,6.9513171,3.2221814,0
37.114129,-11.888789,5.9500001,3.3243771,0
26.090197,-10.142315,4.9483042,3.427455,0
16.863854,-8.2932716,3.9464385,3.53106,0
9.5386964,-6.3396785,2.9448784,3.6337077,0
4.2196471,-4.281318,1.9441905,3.7323621,0
1.0097682,-2.1225414,0.94482945,3.8211076,0
1463.521,-35.415773,48.329582,0.79373961,0
1427.7008,-36.214015,47.328814,0.85846136,0
1391.1145,-36.947871,46.327941,0.92320338,0
1353.8268,-37.616865,45.327116,0.9879408,0
1315.9026,-38.220951,44.326357,1.0526704,0
1277.4066,-38.760279,43.325612,1.1174004,0
1238.4036,-39.235014,42.324831,1.1821407,0
1198.9582,-39.645235,41.323988,1.2468973,0
1159.1348,-39.990913,40.323083,1.3116702,0
1118.998,-40.271939,39.322149,1.3764538,0
1078.6126,-40.488176,38.321225,1.4412396,0
1038.0434,-40.639522,37.320342,1.5060207,0
997.35533,-40.725944,36.319511,1.5707938,0
956.61326,-40.747487,35.31872,1.6355615,0
915.88205,-40.70426,34.317936,1.7003314,0
875.2264,-40.596388,33.317123,1.765114,0
834.7109,-40.423975,32.316245,1.8299198,0
794.40006,-40.187058,31.315287,1.8947552,0
754.3584,-39.885595,30.314252,1.9596204,0
714.65053,-39.519461,29.31317,2.0245077,0
675.3412,-39.088484,28.312084,2.0894036,0
636.49535,-38.592485,27.311043,2.1542907,0
598.17806,-38.031329,26.310086,2.2191532,0
560.45453,-37.404962,25.309234,2.2839807,0
523.38997,-36.713432,24.308484,2.3487726,0
487.04945,-35.956878,23.307804,2.4135395,0
451.49793,-35.135493,22.307148,2.4783011,0
416.80012,-34.249469,21.306464,2.5430825,0
383.0206,-33.298938,20.305711,2.6079065,0
350.22384,-32.283931,19.304869,2.672787,0
318.47437,-31.204357,18.303948,2.7377223,0
287.83682,-30.060024,17.302985,2.8026934,0
258.37609,-28.850702,16.302034,2.8676674,0
230.15726,-27.576189,15.301147,2.9326059,0
203.24558,-26.236396,14.300358,2.9974798,0
177.70632,-24.831391,13.299666,3.0622832,0
153.60457,-23.36139,12.29903,3.127045,0
131.00521,-21.826681,11.298387,3.1918264,0
109.97281,-20.2275,10.297667,3.2567055,0
90.571793,-18.563892,9.2968278,3.3217427,0
72.866681,-16.835631,8.2958877,3.3869351,0
56.922342,-15.042258,7.2949276,3.4521777,0
42.804145,-13.183281,6.2940721,3.5172559,0
30.577824,-11.258523,5.2934261,3.5819211,0
20.308979,-9.2684748,4.2929832,3.6461102,0
12.062361,-7.2142866,3.2925485,3.7103357,0
5.901554,-5.0969055,2.2917531,3.7761863,0
1.8900226,-2.9153006,1.290124,3.847557,0
0.094117807,-0.66407999,0.28494799,3.9892067,0
978.40716,-34.012121,37.889287,1.123488,0
944.1563,-34.477401,36.888122,1.1974411,0
909.47714,-34.868713,35.886975,1.2713973,0
874.44367,-35.18601,34.885858,1.3453533,0
839.12992,-35.429262,33.884781,1.4193064,0
803.60995,-35.598469,32.883743,1.4932561,0
767.95778,-35.693659,31.882738,1.5672042,0
732.24741,-35.714885,30.881747,1.641155,0
696.55277,-35.662205,29.880753,1.7151139,0
660.94774,-35.535663,28.879741,1.7890862,0
625.50618,-35.33528,27.878699,1.8630759,0
590.30192,-35.06104,26.877629,1.9370841,0
555.40886,-34.712899,25.876538,2.0111088,0
520.90091,-34.290791,24.87544,2.0851454,0
486.85208,-33.794649,23.874352,2.1591879,0
453.33643,-33.22442,22.873286,2.2332306,0
420.42807,-32.580072,21.872252,2.3072694,0
388.20112,-31.8616,20.871251,2.3813024,0
356.72969,-31.069021,19.870279,2.4553308,0
326.08789,-30.202357,18.869332,2.5293566,0
296.34979,-29.261627,17.868405,2.6033823,0
267.58945,-28.246839,16.867494,2.6774088,0
239.88092,-27.157988,15.866601,2.7514356,0
213.29828,-25.995069,14.865727,2.8254612,0
187.9156,-24.758085,13.864871,2.8994857,0
163.80692,-23.447058,12.864027,2.9735139,0
141.04627,-22.062031,11.863182,3.0475575,0
119.70763,-20.603044,10.862322,3.1216335,0
99.864956,-19.070105,9.8614351,3.1957581,0
81.592213,-17.463163,8.860521,3.269937,0
64.963464,-15.782092,7.8595991,3.3441499,0
50.052917,-14.026731,6.8587044,3.418344,0
36.93493,-12.196962,5.8578769,3.49244,0
25.683906,-10.292833,4.8571353,3.5663775,0
16.37408,-8.3146322,3.8564464,3.640215,0
9.0793145,-6.2627738,2.8557096,3.7142875,0
3.8731582,-4.1373766,1.854766,3.7894919,0
0.82944652,-1.937636,0.85326229,3.8698581,0
1162.2898,-35.557221,41.774283,1.0304954,0
1126.4468,-36.117287,40.773273,1.0997614,0
1090.0784,-36.608311,39.772205,1.1690448,0
1053.2533,-37.030314,38.77106,1.2383494,0
1016.0409,-37.383222,37.769864,1.307672,0
978.51009,-37.66691,36.768645,1.377006,0
940.73029,-37.881239,35.767446,1.4463421,0
902.77088,-38.026104,34.766299,1.5156724,0
864.70137,-38.101454,33.765218,1.5849919,0
826.59126,-38.107295,32.764206,1.6542997,0
788.51005,-38.04368,31.763248,1.7235984,0
750.52714,-37.910681,30.762324,1.7928932,0
712.7119,-37.708365,29.761415,1.8621894,0
675.13362,-37.436774,28.760509,1.9314913,0
637.86156,-37.095917,27.7596,2.0008006,0
600.965,-36.68578,26.758692,2.0701167,0
564.51322,-36.206332,25.757789,2.1394375,0
528.57556,-35.657549,24.756899,2.2087607,0
493.22135,-35.039426,23.756021,2.2780862,0
458.51993,-34.351979,22.755151,2.3474162,0
424.54061,-33.595242,21.754277,2.4167559,0
391.35265,-32.769246,20.753387,2.4861116,0
359.02531,-31.874,19.752477,2.5554877,0
327.62786,-30.909478,18.751546,2.6248848,0
297.22959,-29.875612,17.750608,2.6942965,0
267.89989,-28.772308,16.749684,2.7637099,0
239.70826,-27.599473,15.748799,2.8331079,0
212.72426,-26.357059,14.74797,2.9024761,0
187.01745,-25.045085,13.747199,2.9718093,0
162.65736,-23.663654,12.746468,3.0411199,0
139.71336,-22.212922,11.745741,3.1104395,0
118.25468,-20.693037,10.744975,3.1798135,0
98.350427,-19.104059,9.7441378,3.2492845,0
80.069734,-17.445893,8.743229,3.3188664,0
63.481905,-15.718279,7.7422876,3.3885163,0
48.656557,-13.920876,6.7413891,3.4581181,0
35.663613,-12.053456,5.7406147,3.5275064,0
24.573064,-10.116148,4.7399976,3.5965647,0
15.454524,-8.1095731,3.7394613,3.6654405,0
8.3768423,-6.0345429,2.7387992,3.7348526,0
3.4083278,-3.8911181,1.7377158,3.8065742,0
0.61814594,-1.6773041,0.73560065,3.8885116,0
1450.8484,-36.224779,47.803123,0.8437277,0
1414.2443,-36.972863,46.802474,0.90809896,0
1376.9241,-37.656869,45.801733,0.97248814,0
1338.9521,-38.276519,44.800989,1.0368811,0
1300.3927,-38.831827,43.800237,1.1012788,0
1261.31,-39.32289,42.799441,1.1656878,0
1221.7684,-39.749765,41.798584,1.2301127,0
1181.832,-40.112416,40.79767,1.2945528,0
1141.5651,-40.410728,39.796733,1.3590021,0
1101.0321,-40.644561,38.795813,1.4234522,0
1060.2976,-40.813802,37.794947,1.4878948,0
1019.4262,-40.91841,36.794147,1.552326,0
978.48244,-40.958435,35.793399,1.6167483,0
937.53091,-40.933995,34.792671,1.6811696,0
896.63599,-40.845244,33.791917,1.7456021,0
855.86192,-40.692317,32.791094,1.8100583,0
815.27283,-40.475287,31.790174,1.8745479,0
774.93283,-40.194136,30.789156,1.9390737,0
734.90608,-39.848753,29.78806,2.0036306,0
695.2569,-39.438955,28.786932,2.0682052,0
656.04982,-38.964531,27.785828,2.132779,0
617.34955,-38.4253,26.784798,2.1973328,0
579.22097,-37.821153,25.783879,2.261851,0
541.72899,-37.152091,24.783078,2.3263277,0
504.93849,-36.418222,23.782376,2.3907683,0
468.91419,-35.619736,22.781728,2.4551898,0
433.7206,-34.756853,21.78108,2.5196175,0
399.422,-33.829757,20.780379,2.5840783,0
366.08256,-32.838542,19.779589,2.6485929,0
333.7664,-31.783175,18.778708,2.7131682,0
302.53775,-30.663505,17.777759,2.7777936,0
272.46101,-29.4793,16.776791,2.842441,0
243.60085,-28.230321,15.775864,2.907071,0
216.02212,-26.916411,14.775024,2.9716471,0
189.78979,-25.537554,13.77429,3.0361487,0
164.96872,-24.093905,12.773638,3.1005876,0
141.62359,-22.585738,11.773015,3.1650113,0
119.81876,-21.013342,10.772344,3.2294955,0
99.618367,-19.376876,9.7715673,3.2941166,0
81.0865,-17.676249,8.7706694,3.3589095,0
64.287486,-15.911088,7.7697031,3.4238203,0
49.286119,-14.08087,6.7687797,3.4886799,0
36.147677,-12.185206,5.7680274,3.5532316,0
24.937592,-10.224241,4.7675063,3.6172814,0
15.720774,-8.198876,3.7671145,3.6810136,0
8.560984,-6.1103606,2.7665487,3.7454621,0
3.5211194,-3.9588566,1.7653796,3.8131374,0
0.66529355,-1.7414426,0.76284376,3.8938056,0
507.92077,-22.771332,27.849979,0.96343101,0
484.83542,-23.381834,26.848333,1.0699173,0
461.19275,-23.88593,25.846687,1.1764235,0
437.09926,-24.28345,24.845087,1.2829345,0
412.66158,-24.574307,23.843561,1.3894407,0
387.98638,-24.75849,22.84211,1.4959392,0
363.18032,-24.836047,21.84072,1.6024339,0
338.34998,-24.807064,20.839364,1.7089346,0
313.60185,-24.671641,19.838009,1.8154558,0
289.04232,-24.429873,18.83662,1.9220157,0
264.77771,-24.081813,17.835171,2.0286314,0
240.91431,-23.627448,16.833649,2.1353145,0
217.55846,-23.066676,15.832066,2.2420642,0
194.81667,-22.399299,14.83046,2.3488609,0
172.79567,-21.625047,13.828896,2.4556616,0
151.60247,-20.743637,12.827451,2.5624026,0
131.34436,-19.754865,11.8262,2.66901,0
112.12872,-18.658715,10.825182,2.7754252,0
94.062819,-17.455448,9.8243769,2.8816428,0
77.253521,-16.145624,8.8236815,2.9877573,0
61.807016,-14.729989,7.8229134,3.0940032,0
47.828771,-13.209177,6.8218502,3.2007539,0
35.423866,-11.583243,5.8203187,3.3084235,0
24.697834,-9.8511512,4.8183297,3.4171772,0
15.757863,-8.0106923,3.8162027,3.5263986,0
8.7135539,-6.0595577,2.8145604,3.63401,0
3.6757741,-3.9981002,1.8140851,3.7359875,0
0.7522855,-1.8326215,0.81539223,3.823213,0
732.77335,-21.449501,35.416796,0.53940713,0
710.796,-22.48925,34.415087,0.63508695,0
687.82702,-23.432928,33.413543,0.73074622,0
663.96213,-24.281116,32.411965,0.82642662,0
639.29676,-25.033857,31.410331,0.92213436,0
613.92643,-25.691031,30.408673,1.0178629,0
587.94676,-26.25251,29.407028,1.1136038,0
561.45349,-26.718207,28.405418,1.2093506,0
534.54245,-27.088074,27.403859,1.3050989,0
507.30946,-27.362083,26.402354,1.4008458,0
479.8504,-27.540219,25.40091,1.4965891,0
452.26114,-27.62247,24.399528,1.5923263,0
424.63758,-27.608833,23.398211,1.6880553,0
397.07559,-27.499329,22.396952,1.7837769,0
369.67102,-27.294006,21.395739,1.8794953,0
342.51965,-26.99294,20.394548,1.9752197,0
315.71718,-26.596229,19.393349,2.0709652,0
289.3592,-26.103967,18.392108,2.1667509,0
263.54124,-25.516213,17.390797,2.2625957,0
238.35877,-24.832964,16.3894,2.3585144,0
213.90733,-24.054123,15.387926,2.4545088,0
190.28261,-23.179498,14.386409,2.5505618,0
167.58051,-22.208831,13.384903,2.6466352,0
145.89721,-21.141852,12.38348,2.7426709,0
125.32914,-19.978366,11.382202,2.8386026,0
105.97282,-18.718348,10.381106,2.9343796,0
87.924713,-17.362001,9.3801767,3.0299951,0
71.280944,-15.909759,8.379339,3.1255237,0
56.137138,-14.362164,7.3784641,3.2211412,0
42.588416,-12.719628,6.3774055,3.3171119,0
30.729702,-10.982079,5.3760718,3.4136859,0
20.656365,-9.1486664,4.3745192,3.5108528,0
12.464982,-7.2179111,3.3730129,3.6079461,0
6.2535203,-5.1887983,2.3719698,3.7032421,0
2.1198747,-3.0628511,1.371748,3.7937634,0
0.15836636,-0.84591209,0.37300178,3.8638456,0
859.27743,-28.031723,36.738155,0.8541734,0
830.87354,-28.762232,35.736693,0.93782069,0
801.78105,-29.408898,34.735314,1.0214597,0
772.08383,-29.971721,33.734019,1.105089,0
741.86568,-30.450763,32.73279,1.1887119,0
711.21034,-30.846115,31.731598,1.2723348,0
680.20145,-31.157869,30.730413,1.3559654,0
648.92258,-31.386095,29.729209,1.4396108,0
617.45723,-31.530827,28.727973,1.5232762,0
585.8889,-31.592057,27.726701,1.6069639,0
554.30111,-31.569735,26.725402,1.6906721,0
522.77745,-31.46378,25.724095,1.7743953,0
491.4016,-31.274095,24.722804,1.8581252,0
460.25734,-31.000587,23.721555,1.9418517,0
429.42853,-30.643189,22.720367,2.0255659,0
398.99907,-30.201877,21.719249,2.1092617,0
369.05288,-29.676678,20.718199,2.1929389,0
339.6738,-29.067662,19.717199,2.2766031,0
310.9456,-28.374932,18.716224,2.360267,0
282.95194,-27.598591,17.715244,2.4439469,0
255.7764,-26.738718,16.714234,2.5276603,0
229.50248,-25.795335,15.713176,2.6114201,0
204.21372,-24.768398,14.712072,2.6952306,0
179.99371,-23.6578,13.710936,2.7790845,0
156.92619,-22.463394,12.709797,2.8629612,0
135.09505,-21.185035,11.708689,2.9468316,0
114.58428,-19.822629,10.70764,3.0306664,0
95.477952,-18.376164,9.7066615,3.1144451,0
77.860083,-16.845731,8.7057451,3.1981719,0
61.814562,-15.231499,7.7048581,3.2818846,0
47.425099,-13.533642,6.7039552,3.3656553,0
34.775264,-11.75224,5.7029947,3.4495733,0
23.948648,-9.8871595,4.7019677,3.5336869,0
15.029102,-7.9380253,3.7009241,3.6178987,0
8.1008971,-5.9044318,2.6999691,3.7018488,0
3.2485006,-3.7865144,1.6991943,3.7849808,0
0.55569768,-1.5855543,0.69849843,3.8680393,0
931.64597,-22.655058,40.466765,0.44783274,0
908.41662,-23.789472,39.465656,0.53372403,0
884.0957,-24.838258,38.464471,0.61963653,0
858.76873,-25.801582,37.463146,0.70558369,0
832.52122,-26.679288,36.461725,0.79155899,0
805.43891,-27.471144,35.460279,0.8775493,0
777.60775,-28.176975,34.458865,0.96354336,0
749.11381,-28.796696,33.457507,1.0495348,0
720.04321,-29.330305,32.456206,1.1355229,0
690.48203,-29.777858,31.454944,1.2215114,0
660.5163,-30.139425,30.453697,1.3075063,0
630.23196,-30.415068,29.452443,1.3935137,0
599.71493,-30.60482,28.451167,1.4795385,0
569.0511,-30.70867,27.44987,1.5655821,0
538.32639,-30.726572,26.448558,1.6516426,0
507.62678,-30.658448,25.447251,1.7377142,0
477.03834,-30.504211,24.445971,1.8237889,0
446.64723,-30.263783,23.444739,1.9098577,0
416.53966,-29.937116,22.443572,1.9959132,0
386.80189,-29.524207,21.442471,2.081952,0
357.52012,-29.025103,20.441428,2.1679768,0
328.78053,-28.439892,19.44042,2.2539971,0
300.66915,-27.768684,18.439417,2.3400287,0
273.27193,-27.011578,17.438386,2.4260903,0
246.67475,-26.168631,16.437304,2.5121994,0
220.96343,-25.239833,15.436161,2.5983671,0
196.22387,-24.225093,14.434966,2.6845917,0
172.54209,-23.124258,13.433747,2.7708572,0
150.00426,-21.937141,12.432542,2.8571329,0
128.69676,-20.663579,11.431395,2.9433789,0
108.70609,-19.303491,10.430335,3.0295589,0
90.118755,-17.856921,9.4293698,3.1156566,0
73.021163,-16.324042,8.428473,3.2016923,0
57.499499,-14.70511,7.4275911,3.2877362,0
43.639693,-13.000352,6.4266563,3.3739048,0
31.527532,-11.209802,5.4256187,3.4603202,0
21.248929,-9.3331522,4.4244886,3.547007,0
12.890279,-7.3697833,3.4233682,3.6337201,0
6.5385866,-5.3192131,2.422428,3.7197834,0
2.2808932,-3.1820204,1.4217926,3.804214,0
0.20278811,-0.96056004,0.42135607,3.88752,0
975.44492,-23.317451,41.359445,0.45569704,0
951.55665,-24.445303,40.358238,0.53956136,0
926.58227,-25.489691,39.356907,0.62345526,0
900.60523,-26.450591,38.355452,0.70738059,0
873.70913,-27.327794,37.353938,0.79132702,0
845.97776,-28.121071,36.352436,0.87528104,0
817.49515,-28.830265,35.350997,0.95923201,0
788.34542,-29.455314,34.34964,1.0431746,0
758.61271,-29.996233,33.348362,1.1271085,0
728.38111,-30.453094,32.347139,1.2110382,0
697.73465,-30.825989,31.345944,1.2949703,0
666.75724,-31.115002,30.344748,1.3789125,0
635.53273,-31.320193,29.343528,1.4628714,0
604.14492,-31.441581,28.342274,1.5468512,0
572.67764,-31.479143,27.340988,1.6308527,0
541.21474,-31.432817,26.339682,1.7148728,0
509.84014,-31.302514,25.338377,1.7989048,0
478.63788,-31.088136,24.3371,1.8829394,0
447.69206,-30.7896,23.335872,1.9669671,0
417.08689,-30.406855,22.334711,2.0509796,0
386.90657,-29.939897,21.33362,2.1349733,0
357.23529,-29.388771,20.33259,2.21895,0
328.15719,-28.753564,19.331602,2.3029186,0
299.75629,-28.034384,18.330625,2.3868939,0
272.11652,-27.231327,17.329631,2.4708931,0
245.32172,-26.344453,16.328596,2.5549329,0
219.45569,-25.373757,15.32751,2.6390235,0
194.60231,-24.319166,14.326381,2.7231644,0
170.84551,-23.180549,13.32523,2.8073425,0
148.26941,-21.957749,12.32409,2.8915323,0
126.95826,-20.650632,11.322995,2.9757021,0
106.99642,-19.25913,10.321969,3.0598231,0
88.468259,-17.783277,9.3210159,3.1438835,0
71.458078,-16.223204,8.3201168,3.2278995,0
56.049999,-14.579105,7.3192297,3.3119268,0
42.327962,-12.851139,6.3183055,3.3960524,0
30.375811,-11.039315,5.31731,3.4803636,0
20.277505,-9.1433869,4.3162553,3.5648676,0
12.117367,-7.1628966,3.3152206,3.6493643,0
5.9801498,-5.0975445,2.3143267,3.733353,0
1.9505351,-2.9478911,1.3136304,3.8163047,0
0.11201035,-0.71570651,0.31275694,3.9049042,0
