45.104527,7.2120428,37.226224,-8.9129403,-1.2774469,-6.8639496,1275.4634
32.235279,-0.14612881,37.242716,-7.788865,-0.36798294,-7.8490579,1243.3403
44.411457,5.0227761,37.274517,-9.8286402,-0.99573701,-7.6634666,1195.6102
36.801778,-1.9462932,37.294396,-7.4639675,0.4809681,-6.8816748,1268.5831
33.893336,2.716954,37.297099,-8.4989597,-1.1702408,-8.1130378,1231.9688
53.04087,-0.71421276,37.302841,-11.106961,0.44493123,-7.4789356,1189.6419
30.125501,6.6663409,37.30898,-5.473168,-0.57279099,-7.1624803,1269.3071
51.789343,2.1762342,37.322763,-11.494953,-0.51584263,-7.8691513,1191.583
29.989058,4.7245335,37.352998,-5.7588638,-0.48439894,-7.1076322,1261.9892
32.674555,-2.1535796,37.418606,-6.5929676,0.51025863,-6.8476585,1249.9912
24.902259,-2.5221067,37.419008,-5.6973578,0.44761266,-7.5312638,1215.8879
42.658038,3.9514214,37.531773,-8.3250527,-0.48411292,-6.755346,1263.8745
29.691554,-2.7608704,37.557978,-6.8346074,0.39471737,-7.6078547,1243.2936
52.502694,1.1166446,37.563048,-11.506343,-0.3921568,-8.0011173,1190.3018
67.010454,-1.7349211,37.589126,-13.233451,0.47296568,-7.1542361,1230.7777
47.798128,-2.6633954,37.603555,-10.015519,0.7614768,-7.3059151,1194.074
46.427759,-3.671051,37.622716,-8.4864019,1.8001586,-6.1816272,1191.3114
26.947346,3.6763129,37.632104,-5.8684147,-0.42178717,-7.8016414,1259.9044
31.32295,-1.9981609,37.633792,-6.5597119,0.43338802,-7.1417858,1239.7979
63.847082,3.6635051,37.640555,-13.408562,-0.82825982,-7.6066477,1193.4819
32.556917,0.45630644,37.695286,-7.1075355,-0.1020671,-7.5104461,1272.2541
78.833434,9.118945,37.733467,-14.700031,-1.5281398,-6.5560111,1202.4459
39.05168,1.6168414,37.766357,-9.1062738,-0.7645495,-7.8339972,1240.6741
31.902989,1.4861245,37.771085,-7.1897426,-0.26126082,-8.0587799,1184.3532
45.59057,2.2045665,37.794132,-9.2328109,-0.27429147,-7.0229398,1273.3249
35.078165,0.8290489,37.839978,-7.4870436,0.11560951,-7.6038265,1219.982
31.422866,1.3863678,37.900358,-6.7113084,-0.33658132,-7.3154466,1251.7335
69.163733,11.916398,37.981271,-12.529983,-1.9318725,-6.1784573,1192.9187
41.653208,3.220333,37.99148,-8.9103286,-0.6834455,-7.4388155,1256.7831
44.719151,1.64156,38.114765,-8.7473715,0.11915339,-6.8997243,1241.8709
52.485368,2.83693,38.115946,-10.812094,-0.44452161,-7.349312,1217.709
72.899471,9.073982,38.163889,-13.844568,-1.2545369,-6.8170272,1213.59
52.205367,2.7939624,38.268092,-9.9201187,0.061047008,-6.6683368,1220.3217
37.862879,-3.1495287,38.308911,-7.5024399,0.82664297,-6.978126,1248.9657
39.017661,-0.73539213,38.309489,-9.0541877,0.0013499499,-8.1912116,1196.8158
36.619445,-2.9204879,38.344152,-6.7999671,1.1041124,-6.6950938,1243.8736
70.972358,-0.87465618,38.475634,-13.975036,0.045722971,-7.5796995,1240.1696
85.064085,4.669796,38.52275,-15.785912,-0.90602011,-7.0290037,1211.5895
30.314687,1.0944493,38.569807,-6.5215114,-0.0056898329,-7.8397657,1204.4
63.74921,7.2493921,38.609314,-12.311917,-1.2712012,-7.1060457,1252.8314
25.491164,-0.80471228,38.61648,-4.8363562,0.64903024,-7.5276805,1213.2488
31.0779,-2.6896886,38.623253,-6.1749547,0.83006344,-7.3247762,1210.417
39.531522,1.5225456,38.675416,-7.817422,-0.22344693,-7.0445773,1269.8088
40.287237,-1.0689195,38.67972,-8.4739144,0.331996,-7.4785903,1226.7507
25.089914,-3.7140451,38.68673,-6.4629593,0.27355476,-8.114786,1223.3788
43.027901,-2.7652592,38.772385,-7.5173482,1.2859893,-6.2747704,1262.2162
27.229788,-5.5900426,38.783056,-5.8180168,1.2595495,-7.6212672,1227.9473
42.720484,2.055521,38.855824,-9.2368044,-0.3530395,-7.8398443,1205.2218
56.337594,-4.8063341,38.868205,-11.46746,1.130093,-7.4059055,1232.6282
29.3153,8.9456069,38.889537,-5.3811702,-1.2122867,-7.3625478,1266.5078
45.951375,1.9245489,38.920588,-10.064842,-0.31855845,-8.0261308,1207.6876
49.27925,10.638918,38.933766,-9.955569,-1.6310276,-7.4719413,1219.5443
37.304805,3.043437,38.991875,-7.7119915,-0.59444434,-7.4614298,1232.9689
35.70234,-1.0264805,38.996623,-8.0900933,-0.063211126,-7.8294579,1239.7184
74.226426,-5.167163,39.148063,-14.966202,0.61060351,-7.726493,1216.8992
59.026961,9.1495482,39.264199,-11.602571,-1.209793,-7.1090363,1204.6756
46.290107,5.4326481,39.30136,-9.1556589,-0.80368224,-7.1884898,1260.6695
56.97836,4.6163099,39.426883,-11.193862,-0.54618851,-7.3787814,1215.8553
47.14346,-0.94150625,39.437209,-9.6642361,0.5621297,-7.6858779,1193.8362
30.39676,1.5362198,39.446771,-6.9762803,-0.37377566,-8.349478,1185.9687
35.411733,5.9795024,39.479041,-7.2678027,-1.0891855,-7.5007261,1260.7971
60.63951,4.7821529,39.47944,-11.5677,-0.52504578,-7.0630169,1259.621
67.445928,-3.3354103,39.485953,-13.439222,0.78823951,-7.6080939,1194.628
31.55737,-1.5615346,39.526248,-6.4917364,0.30989962,-7.365177,1258.056
40.007326,5.6179066,39.547668,-8.2447234,-0.88377727,-7.9632515,1193.6046
30.866495,-2.7800682,39.647109,-6.3531278,0.55675043,-7.3871424,1234.5713
25.771835,-3.1074715,39.652902,-5.9954053,0.49429612,-8.2827424,1271.608
89.310677,7.0408503,39.6803,-16.409461,-1.0524504,-6.9828881,1205.1569
35.324225,-0.81254866,39.764865,-6.8762029,0.52082315,-7.2728776,1267.8197
61.247742,5.3046972,39.780923,-11.064716,-0.21235079,-6.168405,1255.7736
45.391205,2.3289634,39.796091,-6.9907966,0.87710111,-5.6876409,1272.014
58.162844,-0.94262014,39.843287,-12.204413,-0.02494061,-8.1969376,1208.0091
75.117987,-4.6290741,39.921198,-13.284179,1.3311458,-5.9376005,1238.6513
44.567188,-2.2502327,39.941778,-8.385308,0.99352998,-7.1045273,1222.5515
41.961031,-0.52648895,39.957217,-6.5807643,1.1600751,-6.012569,1258.1573
41.484388,-3.4881837,39.965985,-8.87123,0.69402632,-7.8300065,1214.8264
46.519601,0.75667123,39.992536,-9.2747097,0.24133782,-7.5045285,1209.5318
62.764556,4.1813161,40.026569,-12.226703,-0.69929429,-7.2198796,1240.0893
39.115318,-1.8283258,40.074751,-6.2916496,1.3085976,-6.2546602,1250.9187
27.828869,8.9370049,40.247724,-5.9452712,-1.3929612,-8.4439653,1259.6999
56.074472,-5.6058469,40.304142,-10.837707,1.2962251,-6.7754916,1257.9095
39.680504,5.5386754,40.436224,-8.3434594,-1.1312721,-7.9153108,1229.8731
41.772255,-4.0823431,40.483979,-7.748988,1.1673716,-6.7962275,1265.4479
57.204938,-3.274938,40.523074,-11.650584,0.56023036,-7.9924882,1212.5743
37.137253,-4.242424,40.57402,-8.9501962,0.37271906,-8.7135641,1204.8403
24.564245,2.0564183,40.577015,-5.3563436,-0.10642035,-8.6649166,1198.941
39.726856,1.8387995,40.639431,-9.1468537,-0.56298074,-8.6766594,1209.4062
47.326873,4.2979951,40.639963,-8.8296525,-0.22839991,-7.0595492,1248.7025
34.352291,1.6234572,40.710363,-7.1441238,-0.28124462,-7.984961,1195.644
57.877122,7.722462,40.729226,-11.899789,-1.2635696,-7.8587793,1213.8009
52.968988,4.4728444,40.747752,-10.555652,-0.75291989,-7.5751564,1232.3718
49.697675,7.8727526,40.758997,-9.4600451,-1.3648082,-7.2667998,1276.3298
73.249923,3.9317504,40.766488,-13.871363,-0.47883931,-7.5260795,1219.8636
59.509224,2.0855673,40.787584,-11.837866,-0.26730321,-7.6358035,1211.6233
66.989795,4.0828816,40.812379,-12.710529,-0.22659954,-7.4196833,1207.8262
37.910508,4.5009942,40.812468,-8.3525136,-0.9846247,-8.4735243,1207.6134
50.836652,-4.5819775,40.826905,-9.1493405,1.8447767,-6.6349089,1192.1778
40.661626,-2.1837446,40.842288,-7.9755633,0.46939827,-7.3096411,1269.4496
52.355092,-5.1972308,40.88586,-10.899659,0.85773605,-7.6821271,1222.0263
36.098762,-2.4028579,40.955168,-7.1037936,0.48606273,-7.298442,1250.8576
51.575483,0.52910867,40.984416,-10.864691,-0.23580496,-8.1696962,1223.7501
32.957721,6.9615524,41.008235,-5.8539526,-0.60717458,-7.6347797,1270.1736
46.957536,4.2060467,41.013234,-8.8731189,-0.53383031,-7.1701887,1264.7409
32.979168,4.9780537,41.022841,-6.2006811,-0.52912754,-7.5718697,1262.8557
38.11591,-4.3287726,41.024056,-8.4376477,0.55406356,-7.9742906,1243.8738
86.378258,9.902749,41.10468,-15.477408,-1.6074084,-6.929784,1203.3124
45.107828,-1.4413698,41.114838,-9.4790372,0.42935036,-8.1208208,1191.2365
58.764086,-0.93840146,41.153673,-11.785673,0.45318448,-7.9243293,1190.5084
75.619215,12.910263,41.167653,-13.291321,-2.0432146,-6.5674005,1193.7851
49.482349,5.5356517,41.221286,-10.454936,-1.0555021,-8.1233718,1196.4766
38.561632,2.157996,41.26,-8.4387767,-0.40317754,-8.492638,1209.4342
73.800957,-1.9770183,41.262515,-13.927407,0.49632558,-7.5397653,1231.6442
36.259193,0.049508898,41.281331,-8.3070402,-0.41410052,-8.3050953,1244.2067
27.866428,-2.7475775,41.311931,-6.1600095,0.45405584,-8.0400932,1216.7544
34.730161,-2.2101775,41.320606,-7.0701216,0.41331946,-7.6049482,1240.6643
57.708082,2.4418936,41.366823,-12.17997,-0.54649046,-8.3069224,1192.4494
52.970006,-3.0458745,41.369055,-10.672209,0.7696797,-7.7558071,1194.9405
50.347651,2.3489982,41.404316,-9.7956989,-0.30290255,-7.4175005,1274.1914
38.277549,3.3223379,41.468057,-9.0380857,-1.251,-8.5705337,1232.8352
33.230346,-2.9585825,41.479105,-7.3221667,0.39442716,-8.0759257,1244.1601
70.733682,4.0876032,41.547753,-14.136694,-0.86791807,-8.0225927,1194.3483
36.229126,0.51288295,41.560735,-7.580738,-0.12322637,-7.9513789,1273.1206
29.982342,3.8946871,41.652452,-6.2710976,-0.45154909,-8.2797029,1260.7708
80.006261,9.7144267,41.668395,-14.580781,-1.3069177,-7.2019072,1214.4565
49.236532,1.5884341,41.671089,-9.3222221,0.09396777,-7.3253104,1242.7374
34.904078,1.5679416,41.671413,-7.2139314,-0.3889116,-7.768469,1252.5999
58.422022,1.3200317,41.675831,-12.170448,-0.42117812,-8.4500881,1191.1683
57.330442,2.7698993,41.705521,-10.580497,0.036074436,-7.0810862,1221.1882
38.954537,0.77744825,41.761471,-8.0186592,0.091545244,-8.0818384,1220.8484
43.742919,2.0147671,41.793653,-9.6588335,-0.82682658,-8.2749131,1241.5406
40.150545,-3.4743634,41.804385,-7.3246469,1.1105361,-7.1456486,1244.7401
46.244155,3.574411,41.817572,-9.4536171,-0.73228956,-7.8652594,1257.6496
58.055165,3.0694713,41.89525,-11.467216,-0.48522743,-7.7676615,1218.5754
41.746063,-3.5620165,41.908809,-8.0302506,0.82402966,-7.4213019,1249.8322
35.632786,1.6261214,41.930767,-7.7313266,-0.30009615,-8.5789073,1185.2197
46.923104,-3.4125743,42.014032,-8.0639137,1.3045095,-6.691477,1263.0827
93.143495,5.1370815,42.132611,-16.530239,-0.96370545,-7.4107262,1212.456
70.068046,7.9005933,42.256484,-12.962988,-1.3329674,-7.4826496,1253.6979
43.56805,1.644072,42.304564,-8.3288909,-0.26212646,-7.4717293,1270.6753
78.128296,-0.90029526,42.361439,-14.646303,0.05755696,-7.9646498,1241.036
34.288825,-3.1105852,42.411758,-6.6685452,0.85369024,-7.8292362,1211.2835
28.013117,-1.1334974,42.511665,-5.25182,0.66616511,-8.0527761,1214.1153
43.690132,-0.72836418,42.525645,-9.635761,-0.029111573,-8.6731552,1197.6823
44.664065,-1.2301972,42.532666,-9.0333253,0.31390456,-7.9330311,1227.6172
33.699623,1.1026057,42.617981,-7.0185277,-0.027566124,-8.3526309,1205.2664
62.233462,-5.3856833,42.673018,-12.115003,1.1877059,-7.8136385,1233.4947
32.093626,9.5706277,42.690367,-5.7310125,-1.2866823,-7.8409352,1267.3743
30.251613,-6.2314752,42.717976,-6.2698171,1.3061589,-8.1181102,1228.8138
49.024046,1.8903318,42.740557,-7.5410062,0.87889632,-6.0898579,1272.8805
54.409385,11.472154,42.779182,-10.564663,-1.7012182,-7.9096876,1220.4107
41.292997,3.3553305,42.838455,-8.240992,-0.65288733,-7.9246402,1233.8353
28.4378,-3.8513348,42.869009,-6.9294353,0.27513266,-8.613985,1224.2452
47.485316,2.2427035,42.892863,-9.8224979,-0.39555219,-8.3081063,1206.0882
65.003532,9.7675616,42.922255,-12.303506,-1.2617351,-7.5231219,1205.542
66.952344,5.4151228,42.954218,-11.75379,-0.22844497,-6.5245784,1256.6401
81.948284,-5.3073575,42.974544,-14.03565,1.3830334,-6.2763892,1239.5178
51.008204,5.8478121,42.998652,-9.7169641,-0.85639284,-7.6003568,1261.536
39.879841,-0.98639045,43.024999,-8.6201369,-0.096593587,-8.2837376,1240.5849
51.13373,2.0925738,43.047814,-10.664389,-0.35290073,-8.4826556,1208.554
45.382957,-1.1075272,43.071683,-7.1069927,1.1646874,-6.4450751,1259.0238
66.584346,5.049441,43.103997,-12.211354,-0.54314679,-7.435258,1260.4875
81.891092,-5.4801984,43.107754,-15.691501,0.64268456,-8.1125204,1217.7656
62.739734,4.8989313,43.221191,-11.851445,-0.58386911,-7.7983437,1216.7218
97.709568,7.5792797,43.2645,-17.185538,-1.1008101,-7.3537448,1206.0233
42.390422,-2.4850605,43.313557,-6.808704,1.3189365,-6.7004096,1251.7851
34.92347,-1.7110177,43.322422,-6.9731482,0.28762372,-7.8191542,1258.9225
39.168946,6.5444585,43.340359,-7.7614514,-1.1700057,-7.9442666,1261.6636
74.345872,-3.7380514,43.394748,-14.160037,0.82401735,-8.0270709,1195.4945
52.131464,-1.2220317,43.396656,-10.287721,0.56086527,-8.1517857,1194.7027
34.165284,-3.0581984,43.460232,-6.843619,0.55413876,-7.8646181,1235.4378
38.883058,-1.0727381,43.511721,-7.3588597,0.52078096,-7.7144549,1268.6861
48.902493,-2.7486933,43.607382,-8.9558598,1.0013538,-7.5577905,1223.4179
44.269472,6.0735712,43.65427,-8.8039649,-0.93845177,-8.4628871,1194.4711
69.046249,4.5411587,43.732208,-12.899877,-0.73939419,-7.6025921,1240.9558
34.014003,1.7326629,43.75379,-7.4944148,-0.41307379,-8.8777813,1186.8351
61.658674,-6.264177,43.784333,-11.4991,1.3376755,-7.1451299,1258.776
51.305712,0.64169172,43.858905,-9.8695308,0.21941491,-7.9608984,1210.3983
28.860727,-3.3624123,43.912429,-6.3603048,0.52512794,-8.7552535,1272.4744
45.781165,-4.6690716,43.986497,-8.287137,1.1799498,-7.2133755,1266.3143
46.063491,-3.8338124,43.996347,-9.4450714,0.68923112,-8.2912963,1215.6929
64.427558,-0.92846118,44.050288,-12.853794,-0.030921611,-8.6312231,1208.8755
55.577416,-5.5174798,44.25733,-9.8140062,1.8989056,-7.0864636,1193.0443
51.882905,4.4201417,44.275601,-9.3946429,-0.25951629,-7.4826878,1249.5689
54.565026,8.5759831,44.492645,-10.009796,-1.4472015,-7.6674114,1277.1963
43.985208,6.1222561,44.510035,-8.8755342,-1.2026319,-8.3797054,1230.7396
82.454241,13.959292,44.549083,-14.047843,-2.1526909,-6.9587511,1194.6516
30.893667,9.6484781,44.590716,-6.3146652,-1.451986,-8.9277895,1260.5664
44.777504,-2.41625,44.603774,-8.4880732,0.46114444,-7.7360587,1270.3161
73.519657,4.198749,44.625009,-13.408436,-0.2359402,-7.830883,1208.6927
63.189653,-3.5594522,44.627949,-12.287629,0.57853363,-8.4271488,1213.4408
80.359594,4.1756145,44.628897,-14.566088,-0.49588161,-7.9239301,1220.7301
58.400831,4.8634972,44.639735,-11.171852,-0.80937958,-7.992453,1233.2383
94.308082,10.727096,44.6648,-16.238884,-1.6908745,-7.3123259,1204.1788
51.531373,4.4846877,44.701635,-9.422461,-0.58022005,-7.5830958,1265.6074
65.5983,2.2261019,44.709075,-12.518548,-0.29414742,-8.0498998,1212.4898
39.778565,-2.6398881,44.716762,-7.6156925,0.46250746,-7.7476213,1251.7241
63.99535,8.3665645,44.762467,-12.573022,-1.3126577,-8.2740283,1214.6673
38.060869,1.7769968,44.828795,-7.6906853,-0.3326389,-8.4883187,1196.5105
57.968956,-5.6311894,44.830665,-11.555908,0.87882282,-8.0969404,1222.8928
36.188738,5.2529584,44.925011,-6.6366206,-0.56983804,-8.0369406,1263.7222
35.978178,7.2724888,44.943895,-6.2268873,-0.63565363,-8.1079314,1271.0401
27.341987,2.1122782,45.046565,-5.7548671,-0.11714848,-9.2130338,1199.8074
41.752352,-4.4252588,45.051581,-9.5103554,0.35890996,-9.1963886,1205.7068
44.438008,2.1305195,45.098417,-9.6978958,-0.60323825,-9.1590026,1210.2727
42.468863,-4.6040885,45.122528,-8.9742679,0.54794798,-8.4193548,1244.7403
80.936032,-2.2321821,45.12974,-14.610701,0.52518247,-7.9301829,1232.5106
42.222675,5.0077169,45.171559,-8.896434,-1.0419613,-8.9625083,1208.4799
57.157668,0.65363968,45.178154,-11.464043,-0.2615406,-8.6051107,1224.6166
55.386444,2.5069332,45.211343,-10.359632,-0.32835871,-7.8103247,1275.0579
64.826168,-1.1686899,45.227168,-12.462202,0.46911895,-8.3696831,1191.3748
38.39327,-2.4106636,45.238493,-7.5826907,0.38898721,-8.066238,1241.5308
49.998075,-1.6519855,45.294701,-10.082013,0.41390355,-8.5984327,1192.103
62.786131,2.7569899,45.348925,-11.242468,0.016376791,-7.4923033,1222.0546
58.470365,-3.4343887,45.359166,-11.329135,0.78559642,-8.2044931,1195.8069
87.477665,10.380698,45.367135,-15.302374,-1.3582706,-7.5941483,1215.3229
54.866421,6.0781418,45.397634,-11.081359,-1.114374,-8.5817868,1197.3431
54.041496,1.5469698,45.439782,-9.8977979,0.072449808,-7.7491602,1243.6038
31.063037,-2.9758825,45.458771,-6.6272369,0.45876838,-8.5469245,1217.6209
51.092226,-4.0714122,45.463564,-8.6130124,1.3322293,-7.1063239,1263.9492
43.944103,-4.0313549,45.489624,-7.849552,1.1182101,-7.5951356,1245.6065
40.542671,0.26734662,45.547449,-8.8272179,-0.45666109,-8.759017,1245.0732
42.915385,2.3692238,45.628644,-8.9764575,-0.44097518,-8.9816221,1210.3006
63.969207,2.7224752,45.629557,-12.864349,-0.57567279,-8.7439252,1193.3159
37.015454,-3.1533872,45.633105,-7.8188678,0.3843114,-8.5396581,1245.0265
40.137102,0.57849024,45.646686,-8.0507434,-0.13827687,-8.3923947,1273.9871
77.982748,4.5313585,45.663483,-14.858572,-0.90714771,-8.4406211,1195.2148
38.637179,1.7745517,45.668501,-7.7187396,-0.43705728,-8.219576,1253.4664
45.893145,-3.9742163,45.730015,-8.5581138,0.82530748,-7.8633082,1250.6986
51.107019,3.9520416,45.856426,-9.9980408,-0.77771727,-8.2898402,1258.5161
42.931658,3.9677801,45.867338,-9.5785519,-1.330675,-9.0263057,1233.7017
63.95285,3.3214506,45.883287,-12.123741,-0.52207277,-8.1841864,1219.4419
52.9329,1.4481622,45.885523,-8.0951023,0.89151784,-6.4896028,1273.7469
33.217678,4.127136,45.91184,-6.6695429,-0.47749293,-8.757869,1261.6373
43.097075,0.73673198,45.921489,-8.5517409,0.072019244,-8.5579062,1221.7149
101.59426,5.6330436,45.932978,-17.273001,-1.0191311,-7.7901968,1213.3224
