26.112512,-0.62376028,14.205881,-8.4400172,0.1341711,-4.5514731,1233.2379
25.966012,1.3309193,16.075631,-8.2394566,-0.48010442,-4.7050075,1187.4166
34.337913,1.8879082,16.286478,-9.5245226,-0.4727493,-4.1095533,1204.6578
30.506436,-0.68390152,16.576677,-9.1357094,0.10687904,-4.9315163,1234.1043
30.933535,-3.249152,16.759759,-9.7381439,0.50652546,-5.0773698,1210.8339
29.336793,-0.18497466,17.229345,-8.2865409,0.45900319,-4.475931,1224.7125
36.498468,3.5474265,17.516826,-9.9451078,-0.67228332,-4.1193977,1198.2252
23.44391,0.97162669,17.692389,-7.4155192,-0.27044092,-5.2040887,1186.3842
29.366893,-0.78294093,17.956431,-8.3016859,0.70257362,-4.6964412,1188.5628
16.692796,-0.095497686,18.264028,-5.7936707,-0.38407567,-5.1639207,1235.4753
24.445681,4.0166722,18.361556,-7.2165196,-0.81128201,-4.9097958,1207.7356
39.298368,2.139829,18.431908,-10.317527,-0.5343221,-4.4718617,1205.5243
20.552195,2.6650441,18.456819,-6.0837735,-0.5602907,-4.8709565,1190.4114
30.26949,1.5864081,18.533219,-8.9747376,-0.54084497,-5.12506,1188.2831
15.195167,-3.1809223,18.853411,-5.7103886,0.30193572,-5.746555,1199.6415
17.248178,0.54566218,18.976193,-5.8394532,-0.30895926,-5.7601206,1204.2075
35.247928,-0.73123301,19.137443,-9.8299679,0.082946204,-5.3115838,1234.9708
27.45759,-0.86424687,19.151306,-8.2549394,0.09445672,-5.5970386,1202.8103
22.147271,-2.3284417,19.155197,-6.3867879,0.76106816,-4.7131728,1215.9611
26.39462,1.5719971,19.185612,-7.0942717,-0.0035632581,-4.6945817,1205.5581
33.37851,2.5978396,19.256508,-8.8796309,-0.25654134,-4.775432,1213.7984
35.992679,-3.5058128,19.391777,-10.497876,0.51965365,-5.4510167,1211.7004
28.241075,2.3566394,19.46545,-7.4979553,-0.31762897,-4.5245915,1234.0241
33.656718,-0.41091179,19.563858,-8.9934014,0.44529467,-4.8617588,1225.5789
41.675648,3.8985231,19.665382,-10.763745,-0.7312229,-4.4745735,1199.0916
25.927068,1.9176487,19.865984,-6.9020069,-0.15182496,-4.8071255,1212.5102
16.011,0.31200146,19.889807,-5.8025157,-0.76827109,-5.80911,1227.6365
27.838099,-1.7978875,20.300222,-7.529866,0.900131,-4.96835,1227.4295
27.90766,0.35200297,20.371825,-8.169845,-0.20640755,-5.7468784,1185.9695
27.31988,1.1179484,20.407193,-8.0890564,-0.31540923,-5.6545042,1187.2507
33.702659,-1.1361067,20.408776,-9.0411505,0.70889506,-5.1128071,1189.4292
24.384206,0.14704261,20.414437,-7.2571111,-0.0083088537,-5.5388826,1218.5513
28.038302,-1.6365318,20.453821,-7.7875622,0.5552448,-5.3835478,1207.3755
24.893898,6.5082022,20.478511,-6.3051052,-1.0859119,-4.8247406,1214.3455
15.985333,-0.79784583,20.490932,-5.2320627,-0.17422297,-5.5402708,1239.0079
32.728972,4.0722123,20.676026,-8.3535704,-0.82509656,-4.8525078,1247.6326
44.655616,2.4216491,20.758059,-11.111547,-0.59247297,-4.8325123,1206.3907
20.016245,-0.56137375,20.860442,-6.152688,0.11798448,-5.7605378,1192.4835
28.219981,4.4432937,20.922916,-7.880911,-0.89399952,-5.3354995,1208.6021
19.728898,0.11126679,20.957357,-6.3505689,-0.44331782,-5.6093531,1236.3418
23.749353,2.9636466,21.009999,-6.7049561,-0.63470444,-5.3413683,1191.2779
22.104446,-0.02119753,21.078308,-5.85758,0.48153696,-5.2255618,1186.0377
29.330222,3.3699228,21.084692,-7.2410022,-0.26489921,-4.8415994,1210.6566
38.136702,5.8323301,21.113477,-9.313465,-0.8846986,-4.5548705,1208.3912
17.573507,-2.6615342,21.150138,-5.2870718,0.5222917,-5.2582357,1238.675
34.941046,1.8707975,21.200361,-9.7117928,-0.59594715,-5.5431229,1189.1496
41.876465,5.2717151,21.365006,-9.9218283,-1.0222696,-4.3601753,1197.2471
29.530072,0.4076102,21.392095,-7.7038661,0.46398632,-5.24516,1185.3096
25.499813,-2.7175078,21.619997,-7.0234343,0.79356333,-5.1456698,1216.8275
30.109829,1.5853468,21.639464,-7.7670327,-0.050070461,-5.1203948,1206.4245
31.722625,3.5092347,21.660558,-7.7193552,-0.28833352,-4.8066313,1254.4222
24.541264,1.3590011,21.723074,-7.060665,-0.13143085,-5.7273048,1203.3552
37.999233,2.7368658,21.741634,-9.6031332,-0.29890646,-5.1650413,1214.6648
26.849424,2.7483041,21.805016,-6.8573101,-0.38579583,-5.0461215,1227.173
32.15864,2.5318435,21.824805,-8.1729048,-0.38248807,-4.9123198,1234.8906
18.182573,-3.3370554,21.852256,-6.2397101,0.32259079,-6.2484181,1200.508
40.336232,-0.76739912,21.888197,-10.523266,0.062538579,-5.6912387,1235.8373
13.060294,-2.0714578,21.908104,-4.1679979,0.34090998,-5.9110843,1267.2756
20.304313,0.7086484,21.978927,-6.3862556,-0.34381888,-6.2501239,1205.0739
47.262234,4.2777738,21.991206,-11.582526,-0.78502727,-4.8285785,1199.9581
31.750432,-0.90515257,22.058447,-8.9164906,0.06860061,-6.0312808,1203.6768
22.761369,1.874912,22.080269,-6.2044805,-0.38000054,-5.2855089,1252.4508
38.330391,-0.63078858,22.090762,-9.7013732,0.43467505,-5.2455994,1226.4454
15.256487,5.8755015,22.172048,-4.1071703,-1.0563261,-6.0145,1255.3676
26.846688,-0.74937142,22.174591,-6.7531952,0.76500418,-5.0269458,1189.7417
23.291285,1.4534887,22.199723,-6.3014113,-0.12838991,-5.4818095,1200.8895
41.430588,-3.7680607,22.211262,-11.252774,0.52836608,-5.8274835,1212.5668
35.191761,3.5807024,22.255592,-8.4817776,-0.088370632,-4.9470642,1202.6275
18.778066,-0.97740793,22.281775,-5.4575098,0.084025386,-5.5360312,1235.3861
29.539934,2.0074241,22.376639,-7.5497766,-0.20748129,-5.2351654,1213.3767
26.226343,4.6131813,22.600502,-6.1865271,-0.78824275,-4.8355587,1271.1311
26.005273,1.7477212,22.730686,-6.4415902,-0.073763685,-5.0192783,1268.9926
22.605989,-0.10551905,22.835265,-5.6723818,0.42364629,-5.192696,1222.4184
31.767346,-2.2580778,22.886721,-8.1872906,0.93849472,-5.3772012,1228.2959
19.047623,0.71387687,22.910044,-6.3443933,-0.8399066,-6.2715043,1228.5029
28.198092,7.0779519,23.00195,-6.9118074,-1.1920912,-5.2688165,1215.212
38.407703,-1.4912992,23.069171,-9.7787209,0.71168271,-5.5286949,1190.2957
26.876264,0.51819927,23.150198,-6.5536268,0.5976378,-5.3356287,1189.5039
37.071941,4.50606,23.195946,-9.0183958,-0.90951031,-5.2270484,1248.4991
32.093308,-1.9137991,23.255078,-8.4328884,0.55231869,-5.8209105,1208.242
50.409788,2.7317592,23.264348,-11.904809,-0.64745634,-5.1926989,1207.2572
22.896688,-1.7496363,23.289419,-6.0025099,0.66732299,-5.5028791,1210.4941
28.163798,0.16086042,23.293993,-7.8610074,-0.047518878,-5.979234,1219.4178
29.485363,-2.0054712,23.338955,-6.9006159,1.1178483,-4.5230704,1252.7107
31.533465,1.2875323,23.346404,-8.7656833,-0.3628411,-6.1019443,1188.1171
32.159133,0.46585966,23.358785,-8.8363045,-0.24948299,-6.2005593,1186.8359
18.725601,-0.70348785,23.378442,-5.730225,-0.20348831,-6.0091238,1239.8744
42.983379,6.2928831,23.485003,-10.073415,-0.95675482,-4.9310067,1209.2577
22.139972,3.2091459,23.563678,-5.6857285,-0.72423957,-5.5805364,1225.5408
33.114881,3.5165193,23.612149,-7.8978642,-0.32081013,-5.2679764,1211.523
47.037285,5.8056415,23.636764,-10.721703,-1.1130534,-4.7265405,1198.1136
32.326782,4.9093601,23.696884,-8.5465914,-0.96918237,-5.7601202,1209.4685
27.257314,3.3003781,23.797777,-7.3272498,-0.71279158,-5.8093304,1192.1443
25.183396,-0.26344104,23.813282,-6.458553,0.48711538,-5.7139075,1186.9042
23.236579,-0.6171044,23.863392,-6.7289248,0.10441513,-6.2509476,1193.3499
23.042672,0.34813794,23.873529,-6.903846,-0.50449812,-6.0554749,1237.2083
20.344929,-2.9273509,23.894413,-5.7991993,0.54064762,-5.718443,1239.5415
26.890817,3.8095929,23.929718,-6.3679825,-0.47717126,-5.1022419,1256.3372
16.830862,2.9440655,23.945711,-4.2474101,-0.31112788,-5.8829267,1256.4385
39.981636,2.1816645,24.075909,-10.450903,-0.64702323,-5.958636,1190.016
34.412582,6.5050018,24.08683,-8.0935093,-0.88348046,-5.0262643,1200.3432
33.551023,0.17754622,24.127478,-8.3810948,0.45579226,-5.6955181,1186.1761
35.741467,3.6666795,24.159091,-8.3562569,-0.34113068,-5.1872064,1255.2887
29.170855,-3.1198825,24.30051,-7.6609436,0.81366465,-5.5759911,1217.694
34.162108,1.62156,24.305609,-8.4424542,-0.094100262,-5.5438309,1207.291
36.414381,2.7384331,24.377382,-8.8502112,-0.44318258,-5.2977648,1235.757
42.981324,2.8960268,24.421643,-10.324785,-0.33707635,-5.5551513,1215.5313
30.432027,2.9583653,24.434391,-7.4732534,-0.45364245,-5.4710491,1228.0395
20.2314,0.35059574,24.447051,-5.230403,-0.01501847,-5.7308926,1268.7883
13.995274,-3.1867151,24.469983,-4.6418055,0.25290201,-6.0963375,1219.9129
53.258024,4.6828345,24.493864,-12.400438,-0.83460065,-5.181964,1200.8245
22.22217,1.1428348,24.555142,-5.378885,0.18506823,-5.674871,1216.5161
28.222472,1.4341841,24.702211,-7.6636941,-0.16947541,-6.189137,1204.2217
30.385214,-1.1332328,24.803503,-7.4013618,0.76967308,-5.4882298,1190.6081
43.358255,-0.84658812,24.809196,-10.410262,0.42970286,-5.627871,1227.3119
45.771284,-0.79481121,24.828434,-11.216975,0.048078314,-6.069488,1236.7037
25.998978,2.0809133,24.831185,-6.7457524,-0.44447668,-5.7180657,1253.3173
39.609051,3.633113,24.832886,-9.187559,-0.12050929,-5.3618208,1203.4939
18.475284,0.92878528,24.881069,-4.9576034,-0.23583984,-6.2102576,1182.5028
15.236713,-2.2484078,24.982472,-4.5372391,0.36744369,-6.3863169,1268.1421
26.58971,1.5285923,25.058863,-6.8920754,-0.17220099,-5.9545795,1201.7559
19.990158,0.91825692,25.097926,-4.7400363,-0.14542541,-5.4765311,1248.2676
33.477139,2.124673,25.100858,-8.1992868,-0.26095437,-5.6614432,1214.2431
21.435338,-3.5034443,25.101429,-6.7716993,0.34284595,-6.7479308,1201.3745
29.456457,5.0334567,25.119787,-6.7337601,-0.89235016,-5.2415516,1271.9975
21.636586,-1.0145461,25.165632,-5.9776084,0.063840512,-5.9987953,1236.2526
36.374045,-0.93307949,25.182426,-9.5778376,0.043682232,-6.4645355,1204.5432
47.244377,-4.0334937,25.219764,-12.002272,0.53448493,-6.2063154,1213.4333
23.635684,0.89043614,25.225604,-6.9398153,-0.38406038,-6.7362464,1205.9404
17.402771,6.4203403,25.301022,-4.4777763,-1.1229547,-6.5013286,1256.2341
29.364872,1.7969824,25.341602,-6.9969989,-0.12252721,-5.4240694,1269.8591
15.435653,1.8899225,25.449587,-3.775898,-0.056315471,-6.4591259,1195.4751
25.581513,-0.31496874,25.546736,-6.230214,0.41368044,-5.6527374,1223.2848
25.748073,4.0912303,25.630932,-6.0123305,-0.63767893,-5.9520278,1190.1388
28.774087,3.9813379,25.659239,-6.014098,-0.0064152013,-4.9187586,1244.3702
36.024937,-2.7337735,25.677238,-8.8428009,0.96336419,-5.7846998,1229.1624
33.098006,-2.5718602,25.695822,-7.5505304,1.146088,-4.9038959,1253.5772
31.805848,7.6992497,25.747128,-7.519336,-1.2921307,-5.7117016,1216.0784
23.368111,2.7802855,25.834563,-6.1905039,-0.73485756,-6.5013933,1204.1476
41.747304,4.9809153,25.903035,-9.6827333,-0.98917408,-5.6014046,1249.3656
30.30793,0.2191337,25.936707,-7.1732327,0.59776127,-5.8100706,1190.3704
43.481383,-1.8481951,25.937262,-10.515979,0.71645828,-5.9435056,1191.1622
56.559802,3.0685568,25.950976,-12.694502,-0.6992725,-5.5540938,1208.1237
29.520581,2.0112118,26.02932,-6.45225,0.26193376,-5.1815612,1238.4051
48.210119,6.788244,26.044378,-10.833397,-1.023894,-5.3064798,1210.1242
52.59833,6.3842583,26.091271,-11.522545,-1.2009681,-5.0912606,1198.9801
26.040715,-2.0880216,26.158425,-6.5739436,0.68580987,-5.9727353,1211.3606
22.35511,1.1525682,26.16123,-6.885155,-0.91564416,-6.7331824,1229.3694
23.834062,1.5193352,26.24001,-6.288326,-0.24055743,-6.5248486,1205.9683
22.836919,4.156829,26.261999,-5.3088995,-0.72564084,-5.713534,1257.3313
36.4713,-2.1878258,26.274325,-9.0788995,0.54365076,-6.2559297,1209.1085
25.937037,1.2576893,26.305783,-5.7775084,-0.03231284,-5.3220016,1266.343
37.228289,3.690046,26.352419,-8.555967,-0.37264162,-5.6928388,1212.3895
32.244965,0.19509138,26.393579,-8.4635141,-0.089388695,-6.4189741,1220.2843
25.11662,3.5910279,26.470899,-6.220419,-0.8041979,-6.0482985,1226.4073
21.71703,-0.59389681,26.499304,-6.2369766,-0.23561114,-6.4735623,1240.7409
36.086026,1.4801695,26.508718,-9.4450006,-0.40702189,-6.5468899,1188.9836
36.744166,0.60104829,26.572069,-9.5039392,-0.29059927,-6.6523321,1187.7024
30.213881,4.0665607,26.58585,-6.9242296,-0.55024314,-5.5221658,1257.2036
34.988759,3.047265,26.59857,-7.3018721,0.20030391,-4.9958342,1216.8559
37.870022,4.9563018,26.608716,-7.6479843,-0.040094274,-4.360955,1251.4413
20.447945,-0.90416626,26.637393,-4.636315,0.33802488,-5.514917,1254.5902
36.766861,5.411329,26.682788,-9.2140014,-1.0376457,-6.1832365,1210.335
38.633698,6.9660916,26.705224,-8.7915063,-0.95990932,-5.4468632,1201.2097
28.563399,-0.50776742,26.791739,-7.0618705,0.4894764,-6.1994306,1187.7706
30.35543,1.3551954,26.814923,-6.8878141,0.36021967,-5.6705432,1206.066
31.076952,3.676623,26.818937,-7.95146,-0.79138746,-6.2750627,1193.0108
40.079256,3.8497633,26.847392,-8.9953555,-0.39038022,-5.5655781,1256.1551
23.373462,-3.201634,26.868089,-6.3157835,0.55578415,-6.1757256,1240.408
22.308516,1.1689828,26.868453,-5.6096303,-0.1629785,-6.4745706,1181.7538
19.055769,3.1065527,27.007397,-4.652308,-0.3387469,-6.3636995,1257.305
26.632256,0.61627124,27.012873,-7.454261,-0.56863567,-6.5018002,1238.0747
37.912081,-0.048097313,27.086947,-9.0632177,0.44748951,-6.1421551,1187.0425
26.745525,-0.66509575,27.11103,-7.3074366,0.086735202,-6.7391085,1194.2164
41.00877,2.9742951,27.122526,-9.5271973,-0.49974229,-5.6827981,1236.6235
45.39235,2.5174792,27.158491,-11.192339,-0.6959337,-6.3711746,1190.8825
59.662257,5.1116808,27.173216,-13.215769,-0.8801061,-5.5357343,1201.691
47.166497,8.5138634,27.173456,-9.4694515,-1.4632744,-4.6270453,1189.4528
46.663933,-1.5199321,27.18079,-9.4705708,1.1755106,-4.2528878,1234.319
38.552608,1.6787702,27.182961,-9.1197994,-0.13414622,-5.9652793,1208.1574
33.161467,-3.5294803,27.195299,-8.3023991,0.82326095,-6.0023809,1218.5605
20.510559,-2.1937462,27.211437,-5.4135589,0.35670721,-6.1840751,1240.6942
17.383412,-1.8674399,27.274295,-4.3321691,0.42660486,-5.9921636,1213.2886
34.32277,3.2011507,27.275772,-8.0897593,-0.51691242,-5.8942334,1228.906
48.323453,3.0732947,27.297004,-11.043154,-0.37142783,-5.9464838,1216.3977
22.961634,0.36164214,27.424894,-5.691534,-0.029580277,-6.1799866,1269.6548
25.04149,1.0528241,27.514255,-5.8991503,0.17454604,-6.1611162,1217.3826
30.087537,-0.26966809,27.548327,-6.0882653,0.97655957,-5.2886412,1219.0856
44.379456,3.7004522,27.617142,-9.8941321,-0.14818262,-5.7749635,1204.3604
22.810064,5.8962401,27.622612,-4.2757501,-0.45453663,-5.7523172,1266.7078
16.428622,-3.3143191,27.645132,-5.0919293,0.25781104,-6.6039802,1220.7794
34.248554,-1.5180609,27.662283,-8.0524093,0.76873494,-5.9463593,1191.4746
48.740785,-1.061713,27.71839,-11.119915,0.43191414,-6.0086985,1228.1783
22.346247,4.1024287,27.738626,-4.4412905,-0.34965707,-5.7067415,1259.3898
29.506969,2.3195131,27.79824,-7.2860857,-0.50990509,-6.1500512,1254.1838
32.959905,5.5050212,27.84204,-7.2798164,-0.99345714,-5.6474529,1272.864
32.204516,1.5286283,27.912074,-8.2643156,-0.20835033,-6.6501114,1205.0882
26.755198,-1.1905113,27.939321,-5.9311717,0.52370043,-5.5904687,1265.9837
22.479793,1.0008957,27.95297,-5.2201037,-0.18569022,-5.9428859,1249.1341
51.553183,-0.81646966,27.957489,-11.910528,0.039452304,-6.4465706,1237.5702
21.63938,1.1287202,27.97022,-5.0506333,0.051179913,-6.2904085,1201.8006
37.739512,2.2677886,28.037782,-8.8504889,-0.31096485,-6.0859463,1215.1096
21.078316,1.0552149,28.120862,-5.4552937,-0.26973554,-6.748483,1183.3693
30.182913,1.6259412,28.154212,-7.4802066,-0.21751503,-6.426826,1202.6224
33.002491,1.8694666,28.154421,-7.5536933,-0.16669219,-5.8268772,1270.7256
23.9263,-1.3556309,28.167055,-5.0796931,0.54559892,-5.4833494,1247.3918
31.921802,3.9978543,28.226413,-6.5767112,-0.059268576,-5.3497663,1245.2366
37.036444,-3.150983,28.24243,-8.2038832,1.1703677,-5.2820707,1254.4437
24.756803,-1.0403987,28.279945,-6.5038497,0.038919878,-6.4581241,1237.1191
17.597124,-2.4393964,28.294344,-4.9040686,0.39688377,-6.8610811,1269.0086
31.400227,3.3500018,28.338187,-6.6867712,-0.31108683,-5.5003093,1261.2751
53.432592,-4.3036535,28.417448,-12.750133,0.54700275,-6.5844101,1214.2998
19.509971,-3.8041252,28.474807,-4.4781309,1.1233445,-6.1207637,1225.3479
28.836761,-0.51853035,28.487572,-6.7912933,0.39976351,-6.1102993,1224.1513
41.328075,-0.94938412,28.522915,-10.238024,0.021992961,-6.897382,1205.4097
28.41137,-1.788891,28.576415,-5.6192402,1.1178586,-5.1057672,1261.982
24.954693,-3.6796953,28.599811,-7.3061608,0.36188726,-7.2452133,1202.2409
40.610363,-3.2225337,28.671173,-9.4991684,0.99302528,-6.1907949,1230.0289
19.733971,6.9984598,28.673317,-4.8467324,-1.1896132,-6.9877816,1257.1005
35.717553,8.3690713,28.713458,-8.1275867,-1.386222,-6.1534296,1216.9449
27.244417,1.0934061,28.715015,-7.4949981,-0.4282651,-7.2213595,1206.8069
58.559801,7.0061881,28.727855,-12.323084,-1.2863125,-5.4550668,1199.8465
32.89001,1.8909228,28.72812,-7.025475,0.21976207,-5.6134191,1239.2715
28.894654,4.425836,28.732641,-6.5732944,-0.7008809,-6.4549572,1191.0052
53.816531,7.3159837,28.791522,-11.591924,-1.086368,-5.6821719,1210.9906
46.754205,5.4944833,28.797517,-10.344283,-1.0644154,-5.9767251,1250.232
17.421959,1.9218805,28.817505,-4.1693006,-0.07111788,-7.0123997,1196.3416
63.103416,3.4307013,28.818795,-13.479088,-0.74924165,-5.9175189,1208.9901
27.797721,-1.9048339,28.841428,-5.9200302,0.82553183,-5.6435013,1246.3663
26.921851,2.2889682,28.847317,-6.1326933,-0.40918258,-6.0629321,1230.3695
41.863474,4.988275,28.880627,-8.3260273,-0.087144137,-4.7265134,1252.3078
22.074279,7.3173204,28.914469,-4.2590961,-0.95435803,-5.9395298,1263.9084
34.049826,-0.078461571,28.959816,-7.7946641,0.59148828,-6.2819093,1191.2368
48.923415,-2.2084382,29.012664,-11.251746,0.72515051,-6.3581663,1192.0286
28.953337,1.2867515,29.074857,-6.2874101,-0.084793424,-5.7542293,1267.2094
