11.661067,-0.68218715,5.8792942,-5.6103954,0.36276362,-2.9938314,1238.8972,0.49358855,-0.0074293585,0.86966381,1,0
14.488711,0.79923439,6.4184584,-6.4402877,-0.040926945,-3.1848298,1196.6893,0.53308177,1.3207565e-05,0.84606372,1,0
14.746763,0.38628112,6.1364232,-6.4694492,0.19183569,-3.1264505,1215.7686,0.40321642,-0.12887899,0.90598384,1,0.24279744
13.022305,-0.28207501,6.9126872,-5.9403774,0.29050701,-3.3172201,1203.7043,0.50426641,-0.0002816808,0.86354809,1,0
13.779539,0.19358012,7.1642087,-6.0629753,0.16101766,-3.2874901,1195.7123,0.4133533,-0.10157185,0.90488795,0,0
15.746798,-0.062551727,7.1643209,-6.6272588,0.27876378,-3.2445919,1213.1748,0.43037715,-0.10262758,0.89679601,0,0
14.639976,-0.87658576,7.4707708,-6.3056011,0.41472147,-3.3716793,1239.7636,0.49553985,-0.0084792322,0.86854381,1,0
