52.677388,-0.75841264,48.672023,-10.142576,0.09256412,-9.2898561,1269.2355
98.135771,-3.7817912,48.705548,-16.628956,0.73181311,-8.7076282,1225.3053
59.748133,8.9613824,48.74875,-11.786768,-1.7314208,-9.5530616,1221.2263
50.740954,-4.4458066,48.793629,-10.197329,0.70639467,-9.9261686,1187.4646
62.781593,-8.2623853,48.89135,-12.163876,1.3673564,-9.7561147,1201.3065
67.992007,-1.6214547,48.919002,-12.68977,0.41591273,-9.3884948,1202.945
59.031821,-3.6875154,48.948202,-11.400459,0.66867702,-9.6278784,1217.2857
66.38921,-2.1253843,48.955337,-12.730691,0.44402906,-9.5097486,1190.9292
57.766998,11.235881,48.98928,-12.121667,-1.6929815,-11.399687,1188.7202
80.02923,-5.0652416,49.042782,-13.580486,1.0578939,-9.1880324,1244.5659
70.407012,-6.4607311,49.078997,-10.463553,1.0796935,-9.6235977,1262.691
83.277655,-1.5319155,49.090421,-14.301882,0.27345431,-8.5614825,1281.7471
68.924549,13.251354,49.128163,-12.455603,-2.1721159,-8.8185282,1282.5911
87.85615,0.79530876,49.312929,-14.99596,-0.11227541,-8.4848523,1277.5825
86.812824,4.3009352,49.339395,-15.772621,-0.63819775,-9.1582606,1190.4706
94.973694,4.2900057,49.366935,-16.67658,-0.75261607,-8.7700124,1219.2189
92.178733,-3.6521245,49.376181,-16.207454,0.73681121,-9.017281,1208.2208
98.071171,-3.7676291,49.417822,-15.3591,0.94951363,-9.0312346,1246.8324
42.312554,0.43914752,49.438196,-8.3431276,-0.10230689,-9.6195195,1270.4596
49.091826,2.9966676,49.482218,-10.891382,-0.28521013,-10.82293,1209.1896
58.369432,-1.3158141,49.509052,-10.604022,0.11843427,-9.4748926,1239.1301
91.860903,-5.7092096,49.664372,-15.503602,0.89186366,-8.7655521,1251.8941
58.047201,6.3291667,49.791073,-11.013432,-1.1284102,-9.3653585,1254.6478
87.527798,-5.1926012,49.822108,-14.596717,0.85846311,-8.8238594,1269.1849
32.605605,-1.5691791,49.901163,-9.3341107,1.6520635,-11.424892,1207.0309
76.818705,-1.7351434,49.912704,-13.856514,0.29049356,-9.2443205,1223.4879
37.382237,-8.4184187,49.922834,-7.9860099,1.5903587,-9.8722431,1251.4794
89.557783,-3.7987049,50.06469,-15.725013,0.63304901,-9.0661762,1215.8347
102.48363,-4.5198431,50.113014,-15.946733,1.0224372,-9.0046079,1247.1786
64.417572,-4.88064,50.132134,-12.496222,0.8803509,-9.8335277,1199.5473
92.297337,-1.5011901,50.283839,-16.156367,0.26554417,-9.07245,1207.8428
55.210275,-7.6433343,50.360254,-11.081665,1.3553404,-9.8465824,1220.8546
75.390764,-9.2153608,50.452103,-13.772882,1.5379975,-9.4777263,1215.4737
72.527515,0.13612767,50.458434,-13.561087,-0.054406228,-9.5804197,1199.7921
71.246204,0.09246588,50.462454,-13.109043,-0.0961904,-9.2372018,1244.2549
56.93136,-5.39176,50.482409,-9.2196392,0.86168541,-9.7868117,1250.9022
66.594169,1.1173097,50.490512,-12.12114,-0.17837764,-9.1871498,1267.9319
102.64765,-5.0046966,50.500522,-14.181898,1.0160363,-9.2588895,1279.0028
53.508795,0.96292419,50.530594,-11.183585,-0.22786741,-10.459677,1203.9131
84.657838,13.405529,50.625221,-15.481609,-2.1813869,-9.7725995,1202.7926
65.691187,1.7161283,50.638484,-12.339033,-0.36717756,-9.4121313,1240.9666
104.85825,-6.02083,50.733937,-17.39418,1.1252228,-8.946994,1214.3093
53.42969,-7.495701,50.736584,-9.891683,1.1160446,-10.130554,1203.9834
80.036926,0.59478003,50.802212,-13.98398,-0.11106464,-8.8822929,1271.3686
59.699259,5.3454341,50.958394,-11.132431,-0.96898415,-9.3917945,1267.0534
79.735656,-0.10108235,50.97833,-14.217469,0.14520648,-9.329154,1224.5091
61.489881,-3.5551546,51.059947,-10.261956,0.57105787,-9.6719911,1243.8341
75.544778,-3.3473395,51.129917,-13.463035,0.52206863,-9.40478,1231.2766
107.28443,7.7241329,51.211581,-17.837304,-1.0930212,-8.7627625,1217.3719
51.002951,-4.9767933,51.289659,-9.6621471,0.7680646,-10.164642,1205.0712
81.180341,9.3610647,51.348153,-14.078717,-1.4298084,-8.9338455,1270.3278
75.825054,1.4714917,51.378325,-13.544606,-0.21085612,-9.2779555,1243.2915
96.096651,-3.6470713,51.38247,-16.430172,0.48512499,-9.0293141,1221.1347
66.044419,-3.8596624,51.481586,-12.053463,0.67665818,-9.742016,1224.8726
131.04924,-2.4023385,51.536792,-16.37039,0.96602852,-9.2873653,1283.994
81.824365,7.591451,51.564756,-15.134153,-1.3570157,-9.6287876,1195.2402
66.054964,1.5909715,51.566117,-12.684152,-0.3885271,-9.7728001,1201.1118
102.89465,-4.2833917,51.626761,-16.928348,0.84856005,-9.0282455,1225.2623
81.074803,-2.3450337,51.656321,-14.347972,0.27079838,-9.1309558,1248.1859
69.708112,-7.4208066,51.714438,-12.748793,1.2378862,-9.8869171,1197.7577
67.781332,-8.4881004,51.800298,-12.856938,1.4522661,-10.037318,1186.2908
73.188335,3.1240242,51.80083,-13.59639,-0.6145135,-9.5367131,1223.9984
57.726857,6.7072645,51.815119,-10.726548,-1.1633525,-9.5394101,1264.9546
61.183091,3.4259562,51.825545,-11.513406,-0.6716194,-9.6523206,1240.7537
98.152375,-9.5578046,51.843486,-16.249775,1.7738941,-9.4425173,1201.0861
72.440148,2.8138773,51.884108,-13.056244,-0.44849056,-9.3192437,1253.1575
74.149187,-2.4896558,51.937618,-13.016423,0.40843752,-9.2952878,1262.2593
63.926767,-3.8096278,52.049229,-10.994411,0.62017574,-9.671273,1261.7874
65.141313,-2.0040623,52.139439,-11.445465,0.23827125,-9.6853587,1234.8413
66.576793,8.2150507,52.185443,-13.188593,-1.0339583,-10.940676,1203.3518
68.558624,-1.5033159,52.233674,-12.420756,0.1411092,-9.6217496,1221.5024
96.950924,-2.6818629,52.309266,-16.435243,0.56064983,-9.2399872,1216.5527
45.20996,-1.9958888,52.321607,-8.3388402,0.20654949,-10.16399,1232.1464
58.776961,-0.2672935,52.36273,-10.974369,-0.012330019,-9.8985339,1221.1825
72.042893,4.4449253,52.479204,-12.756422,-0.70653529,-9.2512299,1272.282
106.83982,-4.1314956,52.515002,-17.070035,0.91542633,-9.1369995,1229.0531
105.13505,0.14330434,52.523827,-17.477399,0.23698491,-9.1823894,1209.6862
42.305536,-6.9725431,52.598987,-9.7554032,1.4426726,-10.928321,1198.9595
62.183626,-1.3150987,52.601279,-11.417565,0.1665067,-9.5308193,1267.6961
51.426278,1.4786607,52.678017,-11.155683,0.42596476,-12.176612,1186.2487
62.652549,5.3106177,52.733519,-11.738905,-1.0590308,-9.7327046,1229.3715
45.18007,-5.2385857,52.790498,-9.4013156,0.95589916,-10.63496,1214.1758
84.159384,-5.6257443,52.823127,-14.501322,0.79651222,-9.2237449,1252.487
54.114046,1.4420607,52.838375,-10.086509,-0.24899478,-9.7426207,1268.6252
58.904469,1.6235472,52.931186,-10.806291,-0.30546211,-9.5745592,1276.2766
79.310168,1.1767813,53.045614,-13.797528,-0.22389018,-9.1838652,1268.366
106.61255,-4.1543778,53.162886,-17.277101,0.75869657,-9.1221685,1226.1717
66.547255,-5.17165,53.203059,-11.784485,0.82197114,-9.7155965,1255.9151
47.570528,2.7609789,53.240563,-8.8641724,-0.53519869,-9.9585552,1265.1689
98.249661,-6.0960787,53.275646,-13.088895,1.1400205,-9.7927987,1269.9667
39.469995,3.4408886,53.413978,-7.6746472,-0.74829842,-10.313799,1246.6569
67.931435,-4.3675779,53.418431,-10.999258,0.72029073,-9.9157243,1244.2975
57.87026,-0.80363866,53.425854,-10.629026,0.08825519,-9.7252954,1270.1019
38.915346,-11.041277,53.464942,-7.8207691,1.9729398,-10.216008,1256.0255
90.57415,-1.6716922,53.465581,-14.883467,0.28580535,-8.9393434,1282.6135
75.2893,14.353033,53.63524,-13.003136,-2.2342377,-9.2098409,1283.4576
65.78292,9.8419638,53.637791,-12.35238,-1.7910644,-10.003221,1222.0927
95.507241,0.85170407,53.646956,-15.607949,-0.11319263,-8.85136,1278.4489
74.487769,-1.8279102,53.734704,-13.292085,0.41026882,-9.8743296,1203.8115
86.943005,-5.606434,53.753926,-14.071991,1.1073115,-9.6574853,1245.4324
72.910139,-2.3462646,53.832726,-13.352078,0.43981702,-9.999745,1191.7956
103.48449,4.67144,53.850732,-17.366166,-0.77327143,-9.1654755,1220.0854
64.867944,-4.0246454,53.882652,-11.943423,0.67993113,-10.109983,1218.1521
55.97281,-4.7958704,53.891468,-10.729646,0.69401826,-10.464886,1188.331
69.000698,-8.9537388,53.892621,-12.711461,1.3980008,-10.249396,1202.1729
100.44816,-4.0285898,53.991998,-16.8692,0.76926757,-9.4464661,1209.0872
75.707481,-7.0029694,54.026779,-10.733566,1.0890968,-10.168951,1263.5575
94.872191,4.6247518,54.029875,-16.463853,-0.65684703,-9.6039509,1191.337
105.87193,-4.2560644,54.050978,-15.840821,1.0048796,-9.5025369,1247.6988
99.761878,-6.1611856,54.149012,-16.099182,0.91611461,-9.1734447,1252.7606
94.960409,-5.6294344,54.337839,-15.132131,0.88904518,-9.2396934,1270.0514
46.589325,0.49199445,54.362489,-8.7644863,-0.10904659,-10.077326,1271.326
63.798122,-1.367074,54.368524,-11.109795,0.086720493,-9.962946,1239.9965
63.686005,6.9021342,54.5838,-11.541537,-1.1631498,-9.8054197,1255.5143
83.898046,-1.8791293,54.646679,-14.459801,0.28556224,-9.6918504,1224.3544
97.582081,-4.1185832,54.704992,-16.371189,0.6465393,-9.4954326,1216.7012
110.58417,-5.0451699,54.729683,-16.452816,1.0794744,-9.463058,1248.0451
63.941843,12.098005,54.763045,-12.58057,-1.7568502,-11.700612,1189.5867
100.54238,-1.6338936,54.927465,-16.822836,0.26531864,-9.5024508,1208.7092
41.486533,-9.2268682,54.975966,-8.4321779,1.6430427,-10.339835,1252.3459
54.65386,3.1365082,54.993765,-11.358409,-0.27568537,-11.224845,1210.0561
70.811308,-5.3276902,55.168456,-13.078123,0.9079616,-10.311971,1200.4137
77.948477,0.14354342,55.186436,-13.699659,-0.108135,-9.6587381,1245.1213
72.789695,1.2075236,55.18793,-12.660615,-0.18235499,-9.6025358,1268.7983
109.82216,-5.5259754,55.2518,-14.513229,1.0697074,-9.7469377,1279.8693
82.424299,-9.9952452,55.305457,-14.360068,1.5816112,-9.9361155,1216.3401
113.71993,-6.5948116,55.312802,-18.051418,1.1709302,-9.3689458,1215.1757
87.175561,0.65141758,55.340258,-14.570091,-0.11543829,-9.2699969,1272.2351
79.461696,0.1672381,55.367212,-14.17446,-0.069864699,-10.055032,1200.6585
60.888191,-8.3315544,55.40036,-11.62991,1.3974193,-10.313866,1221.721
72.004572,1.9042475,55.452981,-12.91425,-0.38526443,-9.8457863,1241.8331
61.634812,-5.820962,55.506308,-9.5928618,0.85506058,-10.308687,1251.7686
92.558372,14.507269,55.60672,-16.121512,-2.226466,-10.154754,1203.6591
116.38029,8.277785,55.692582,-18.545495,-1.1214677,-9.1614418,1218.2384
37.392369,-2.397904,55.704402,-9.8135734,1.6630671,-11.790831,1207.8974
86.996935,-0.17560002,55.75324,-14.826676,0.15308898,-9.7707335,1225.3755
65.394073,5.8388076,55.760945,-11.64663,-1.0044363,-9.818359,1267.9199
59.229325,1.0754589,55.872704,-11.699429,-0.22311542,-10.909439,1204.7796
88.366667,10.083368,55.912014,-14.66614,-1.4591038,-9.3217174,1271.1943
58.488356,-8.0502863,55.939693,-10.341954,1.102291,-10.681873,1204.8499
82.420565,-3.6085152,55.944694,-14.039139,0.52268985,-9.8545735,1232.1431
104.47593,-3.8895206,56.001178,-17.08611,0.48462329,-9.4458635,1222.0011
66.733729,-3.8361422,56.022628,-10.712419,0.55304452,-10.178543,1244.7005
82.744988,1.5784254,56.123734,-14.134471,-0.21672403,-9.7037704,1244.1579
111.51795,-4.7168441,56.246127,-17.563744,0.88552443,-9.4496665,1226.1288
139.30334,-2.9120851,56.308348,-16.641841,1.0747041,-9.8006137,1284.8604
88.401848,-2.4794373,56.322966,-14.959796,0.26673449,-9.5356867,1249.0524
72.205013,-4.2001826,56.472323,-12.587909,0.68556141,-10.221119,1225.7391
89.556756,8.2787474,56.48625,-15.795373,-1.3925256,-10.057644,1196.1066
55.952138,-5.3580078,56.508148,-10.133893,0.75705303,-10.709121,1205.9377
72.5513,1.7920103,56.57068,-13.300833,-0.41536177,-10.245303,1201.9782
79.112729,3.0405785,56.647813,-13.63373,-0.45816091,-9.7355615,1254.0239
80.139986,3.4362707,56.677263,-14.209934,-0.63451109,-9.9690724,1224.8648
106.42302,-10.462307,56.682506,-16.830324,1.8445516,-9.9144004,1201.9526
80.792725,-2.6964605,56.690838,-13.556926,0.41882214,-9.7178187,1263.1258
63.21605,7.2975534,56.693971,-11.230073,-1.1974783,-9.9758805,1265.821
67.077274,3.7690497,56.764071,-12.063111,-0.70062717,-10.101598,1241.6201
76.223578,-8.0435067,56.782273,-13.312052,1.2529614,-10.384577,1198.6242
74.357795,-9.2228124,56.942395,-13.448241,1.4865951,-10.531162,1187.1572
69.535644,-4.1215761,57.001638,-11.440007,0.6275617,-10.138533,1262.6538
105.33062,-2.9683006,57.036109,-17.082541,0.5853266,-9.6677958,1217.4192
70.994637,-2.1157751,57.103772,-11.966815,0.20876164,-10.171951,1235.7078
74.915895,-1.5660348,57.162352,-13.007717,0.11003632,-10.092764,1222.3688
115.52649,-4.6012595,57.191491,-17.675132,0.96407917,-9.5695788,1229.9196
78.559096,4.8023204,57.205843,-13.30804,-0.72285356,-9.6553538,1273.1485
114.04456,0.018372463,57.219872,-18.159965,0.2630931,-9.6020805,1210.5527
64.399505,-0.25541823,57.435797,-11.515231,-0.034779804,-10.393476,1222.0489
68.022549,-1.3976605,57.472453,-11.938217,0.16365525,-9.9537172,1268.5626
49.487239,-2.0927233,57.536411,-8.7699521,0.18103673,-10.694784,1233.0129
91.558404,-6.0268001,57.537373,-15.094169,0.80761964,-9.6333947,1253.3535
68.665281,5.8521582,57.715912,-12.311586,-1.1068018,-10.196505,1230.238
86.353899,1.2911934,57.736188,-14.377025,-0.23375265,-9.5784873,1269.2325
73.301245,8.7333346,57.747739,-13.7109,-1.0406936,-11.310849,1204.2183
59.276538,1.5684225,57.819959,-10.563666,-0.25631698,-10.183493,1269.4916
64.431421,1.779653,57.824439,-11.301618,-0.31893523,-9.9982932,1277.143
115.41183,-4.5406778,57.828158,-17.919126,0.78669428,-9.5392887,1227.0382
98.160488,-1.8178996,58.029956,-15.461318,0.2992069,-9.3183167,1283.48
103.46367,0.90837439,58.16439,-16.217395,-0.11336311,-9.2184476,1279.3154
72.563594,-5.5864709,58.17367,-12.280072,0.83720552,-10.167019,1256.7816
47.312024,-7.7098167,58.17934,-10.271578,1.5057376,-11.393564,1199.826
49.994998,-5.724669,58.231993,-9.8585658,0.98806645,-11.131154,1215.0423
104.86474,-6.6761149,58.302079,-13.367887,1.1805719,-10.313666,1270.8332
52.111988,3.0341349,58.335945,-9.3019801,-0.5571847,-10.422624,1266.0354
81.927416,15.485234,58.338067,-13.54908,-2.2942531,-9.6015062,1284.324
63.30654,-0.84658506,58.397143,-11.116211,0.083458378,-10.159689,1270.9684
73.539824,-4.7263201,58.503013,-11.432768,0.71486206,-10.422699,1245.164
112.33944,5.0634423,58.532698,-18.053289,-0.79489681,-9.5626114,1220.9519
42.930372,-12.042788,58.691271,-8.2402869,2.0326664,-10.688799,1256.8919
43.40966,3.8250664,58.695597,-8.0845596,-0.78828721,-10.812167,1247.5233
94.098395,-6.1730566,58.701281,-14.546861,1.1596861,-10.132884,1246.2988
72.100484,10.752669,58.752087,-12.917817,-1.8520103,-10.454047,1222.9592
51.99198,12.234556,58.776632,-10.750852,0.15212763,-13.602885,1202.4029
81.282865,-2.032145,58.793366,-13.887172,0.40709858,-10.360346,1204.678
109.04685,-4.4216433,58.823134,-17.524571,0.80319732,-9.8784968,1209.9537
107.95896,-6.6254166,58.83826,-16.688127,0.94090572,-9.5839273,1253.627
57.115304,1.2724018,58.85095,-11.602094,0.39897034,-12.518861,1187.1151
113.90871,-4.7732414,58.921557,-16.303227,1.0645501,-9.9808664,1248.5653
103.27568,4.9575569,58.94364,-17.149189,-0.67416895,-10.051353,1192.2035
79.740328,-2.5655811,58.95503,-13.967809,0.43783351,-10.489413,1192.6621
70.974584,-4.3675755,59.058267,-12.482492,0.69193879,-10.592547,1219.0186
102.65826,-6.081853,59.062463,-15.657718,0.92083911,-9.659404,1270.9178
75.491882,-9.6603727,59.141203,-13.252138,1.4285593,-10.745349,1203.0394
81.135213,-7.5496574,59.249595,-10.971972,1.0974873,-10.723994,1264.424
61.470154,-5.1400586,59.258212,-11.259331,0.68300849,-11.001802,1189.1975
69.478184,-1.402673,59.47199,-11.609424,0.055815559,-10.450938,1240.863
51.077611,0.54815221,59.515182,-9.1891959,-0.11554045,-10.533119,1272.1925
105.92798,-4.4453386,59.560527,-17.011532,0.66058129,-9.9270505,1217.5677
118.93372,-5.5999874,59.577093,-16.942848,1.140446,-9.9274975,1248.9115
69.588472,7.4920148,59.596373,-12.068073,-1.1961132,-10.244755,1256.3808
91.277423,-2.0208428,59.604845,-15.056707,0.28143452,-10.141071,1225.2208
109.1192,-1.7665714,59.786688,-17.483554,0.26545915,-9.9347772,1209.5757
94.606545,0.71016386,60.072321,-15.15342,-0.11949182,-9.6583446,1273.1016
79.254416,1.2995288,60.093072,-13.197918,-0.18553312,-10.018043,1269.6648
122.90853,-7.192005,60.103359,-18.701981,1.2180725,-9.7936865,1216.0422
84.94547,0.20061845,60.121209,-14.287953,-0.12018401,-10.080358,1245.9878
117.15789,-6.0750899,60.248143,-14.827009,1.1274063,-10.238991,1280.7358
45.815473,-10.061071,60.262207,-8.884558,1.6934265,-10.804696,1253.2123
125.8293,8.8454705,60.373208,-19.250022,-1.1491458,-9.5611922,1219.1049
89.749564,-10.797073,60.388671,-14.939786,1.6258118,-10.397148,1217.2066
77.495043,-5.7887564,60.444334,-13.656177,0.936477,-10.79174,1201.2802
78.605169,2.1013664,60.484203,-13.48788,-0.40319658,-10.27903,1242.6996
86.700725,0.20580877,60.513841,-14.780472,-0.084245686,-10.531832,1201.525
95.846028,10.819864,60.66999,-15.250894,-1.4866052,-9.7102799,1272.0608
66.840029,-9.0406588,60.674175,-12.177227,1.4389343,-10.781457,1222.5875
70.350363,12.994083,60.695107,-13.055913,-1.828665,-12.032213,1190.4531
60.451861,3.2738827,60.708661,-11.834995,-0.27516156,-11.636146,1210.9225
94.561326,-0.25442471,60.749329,-15.429957,0.16246026,-10.213856,1226.242
71.345675,6.3498154,60.776712,-12.159567,-1.039564,-10.244663,1268.7863
100.78031,15.632885,60.781241,-16.767074,-2.2767804,-10.544352,1204.5255
66.522835,-6.2467896,60.791012,-9.9579179,0.84824813,-10.830054,1252.6351
113.18195,-4.131648,60.828669,-17.737255,0.48384462,-9.8643731,1222.8676
89.582903,-3.8701081,60.984752,-14.609271,0.52377036,-10.305889,1233.0095
120.45729,-5.1692212,61.076873,-18.192646,0.92427907,-9.873692,1226.9953
89.958846,1.6880492,61.082194,-14.720334,-0.22161255,-10.130149,1245.0244
96.034199,-2.6116847,61.192066,-15.569261,0.26217752,-9.9407457,1249.9189
72.201242,-4.1084044,61.238309,-11.156652,0.53623282,-10.684011,1245.567
147.6865,-3.4789211,61.339447,-16.88627,1.194414,-10.325913,1285.7269
63.770581,-8.5980656,61.418438,-10.785955,1.0889595,-11.233064,1205.7163
65.209076,1.1868938,61.440722,-12.220284,-0.22338979,-11.363236,1205.646
86.073525,3.2718788,61.619659,-14.209133,-0.46689289,-10.1518,1254.8904
97.619684,8.9843633,61.622829,-16.456268,-1.4303079,-10.489006,1196.9731
87.705264,-2.9085353,61.655684,-14.092428,0.4295423,-10.141787,1263.9922
42.419707,-3.2324144,61.694827,-10.296135,1.6750653,-12.173424,1208.7638
78.631245,-4.5453996,61.702924,-13.115975,0.69549377,-10.701487,1226.6055
114.98009,-11.402839,61.758754,-17.395506,1.9180397,-10.391369,1202.8191
87.397982,3.7585946,61.769959,-14.82178,-0.65485651,-10.401747,1225.7313
68.956768,7.9044189,61.790889,-11.73264,-1.2296978,-10.411685,1266.6875
79.355431,2.006069,61.811269,-13.915352,-0.4406437,-10.716899,1202.8447
73.245967,4.1264708,61.926964,-12.611426,-0.72897239,-10.549806,1242.4866
114.03247,-3.2674445,61.977478,-17.723973,0.61150013,-10.098034,1218.2857
61.136088,-5.7341783,61.998593,-10.601175,0.74798449,-11.252484,1206.8041
124.51337,-5.0960708,62.085218,-18.270923,1.0156448,-10.005892,1230.786
83.019127,-8.6738619,62.099166,-13.869202,1.2685811,-10.883107,1199.4907
123.29437,-0.12018428,62.126186,-18.838738,0.2915259,-10.023398,1211.4191
85.350573,5.1675821,62.134591,-13.857534,-0.73801375,-10.05966,1274.0149
75.365615,-4.4371468,62.187955,-11.878773,0.63469373,-10.606914,1263.5203
77.107032,-2.2130387,62.311403,-12.481706,0.18050976,-10.6586,1236.5743
81.565721,-1.6136533,62.326237,-13.591021,0.080729306,-10.562579,1223.2353
81.228875,-9.9747441,62.331555,-14.035434,1.5212022,-11.025545,1188.0237
99.25296,-6.4332737,62.45668,-15.683521,0.81819326,-10.04396,1254.2199
74.121946,-1.478669,62.554831,-12.459467,0.16030302,-10.375629,1269.429
93.686825,1.4105287,62.62416,-14.954345,-0.24358451,-9.9734368,1270.0989
124.53078,-4.9412819,62.702534,-18.555877,0.81592292,-9.9585089,1227.9047
70.291559,-0.23292786,62.755964,-12.052356,-0.054798179,-10.886978,1222.9154
106.0349,-1.9711065,62.784061,-16.035801,0.31382741,-9.6982337,1284.3465
111.72429,0.96492791,62.865467,-16.824815,-0.1127147,-9.5858913,1280.1819
70.206196,1.9424576,62.929319,-11.797582,-0.3322626,-10.421067,1278.0095
74.96368,6.4171224,62.929667,-12.881586,-1.152823,-10.658183,1231.1044
53.979502,-2.1771868,63.015986,-9.1986346,0.157053,-11.223179,1233.8793
64.67793,1.698231,63.021639,-11.0421,-0.26277703,-10.623007,1270.3581
88.838131,16.64697,63.236782,-14.093551,-2.3524083,-9.9933689,1285.1905
78.826464,-6.0087546,63.370276,-12.77057,0.85184286,-10.61959,1257.648
121.53744,5.4665077,63.413552,-18.738403,-0.8175267,-9.9609556,1221.8183
80.289313,9.2572436,63.498611,-14.242735,-1.0562498,-11.694658,1205.0848
68.986593,-0.8870247,63.585367,-11.604112,0.07823493,-10.593038,1271.8349
111.61385,-7.2771383,63.590054,-13.625141,1.2239857,-10.838885,1271.6997
56.87283,3.3179127,63.662836,-9.7416782,-0.57769483,-10.884613,1266.9018
116.44898,-7.102198,63.733326,-17.271028,0.96632085,-9.9966686,1254.4935
79.362579,-5.0826721,63.841241,-11.85672,0.71079329,-10.930314,1246.0304
117.97174,-4.8320638,63.870922,-18.174056,0.83875036,-10.313023,1210.8201
101.48694,-6.7666869,63.887832,-15.004515,1.2153897,-10.614272,1247.1653
55.038734,-6.2262934,63.921822,-10.31638,1.018118,-11.628328,1215.9088
52.578063,-8.4775903,63.993069,-10.793324,1.5647342,-11.861838,1200.6924
110.6165,-6.5505091,63.997869,-16.173709,0.95401496,-10.082785,1271.7843
122.17187,-5.3214073,64.032979,-16.746348,1.1288775,-10.465849,1249.4318
112.02048,5.2987088,64.08147,-17.829227,-0.69024191,-10.500157,1193.07
78.700649,11.694288,64.091922,-13.482736,-1.9147984,-10.905346,1223.8257
88.373784,-2.2354885,64.095085,-14.475443,0.40674563,-10.846551,1205.5444
47.156663,-13.073501,64.15321,-8.6658549,2.0897875,-11.15845,1257.7584
47.555107,4.2290745,64.225639,-8.4977083,-0.82768075,-11.307543,1248.3898
86.877065,-2.7845261,64.322088,-14.578341,0.4383625,-10.978759,1193.5286
77.34973,-4.716764,64.475294,-13.017401,0.70499875,-11.075647,1219.885
114.59273,-4.7792745,64.632383,-17.646694,0.67526659,-10.360656,1218.4341
82.251599,-10.382352,64.638417,-13.785527,1.4594266,-11.243913,1203.9058
127.52436,-6.1863188,64.65812,-17.417239,1.2055455,-10.397444,1249.778
86.673283,-8.1002508,64.752749,-11.174023,1.1046524,-11.290671,1265.2904
98.953719,-2.1607245,64.788022,-15.647523,0.278249,-10.591875,1226.0873
75.406394,-1.4230386,64.819538,-12.102263,0.02578214,-10.939362,1241.7295
75.753803,8.0979951,64.828447,-12.592983,-1.2275903,-10.683436,1257.2472
118.02509,-1.899428,64.862571,-18.13925,0.26604042,-10.369022,1210.4421
67.231736,-5.4792113,64.89298,-11.786624,0.67394566,-11.536993,1190.064
55.77909,0.60748473,64.895274,-9.6172447,-0.1217399,-10.98693,1273.059
102.32856,0.77084768,64.998695,-15.734243,-0.12318257,-10.047218,1273.968
132.42089,-7.8131181,65.106888,-19.34653,1.2665864,-10.220762,1216.9087
63.030058,1.0798403,65.200634,-12.058411,0.37110489,-12.883195,1187.9816
85.98725,1.3929113,65.205997,-13.733077,-0.18785622,-10.433672,1270.5313
135.6298,9.4267845,65.253885,-19.951521,-1.1759609,-9.9615817,1219.9713
92.236062,0.26375192,65.266799,-14.874077,-0.13237798,-10.501992,1246.8543
124.64649,-6.6540797,65.491303,-15.12504,1.1892037,-10.734039,1281.6022
57.466849,12.254864,65.608585,-11.145767,-0.21566632,-13.737668,1203.2694
103.61716,11.569689,65.622387,-15.833259,-1.5124321,-10.099372,1272.9272
97.362793,-11.621184,65.703043,-15.511895,1.6707516,-10.860741,1218.0731
85.492182,2.3074402,65.731944,-14.059917,-0.42110582,-10.711862,1243.566
50.372098,-10.919952,65.780232,-9.3428499,1.741787,-11.26701,1254.0788
122.2125,-4.3733188,65.865811,-18.384377,0.48279007,-10.284398,1223.7341
94.240915,0.2513057,65.899425,-15.379103,-0.097581282,-11.010854,1202.3915
84.466788,-6.2643721,65.960416,-14.230118,0.96619164,-11.272782,1202.1467
102.42593,-0.33833662,65.967344,-16.027564,0.17345525,-10.658422,1227.1084
43.250023,-0.70850783,65.999883,-11.407167,4.2500572,-14.497098,1194.2818
77.55341,6.8783596,66.00557,-12.671146,-1.0746199,-10.670727,1269.6528
129.7096,-5.6414387,66.120195,-18.815695,0.96488552,-10.299911,1227.8617
109.32627,16.784821,66.15201,-17.417456,-2.3316331,-10.939454,1205.392
73.065112,-9.7704388,66.181919,-12.722732,1.4801496,-11.249635,1223.4539
97.028852,-4.1323892,66.25083,-15.173608,0.52545639,-10.758643,1233.876
97.464681,1.7998677,66.253974,-15.302413,-0.22549954,-10.55704,1245.8909
103.97078,-2.74153,66.263736,-16.17676,0.25711961,-10.345933,1250.7853
71.591321,-6.6692272,66.336309,-10.314674,0.84153047,-11.351094,1253.5016
66.490218,3.4130108,66.63133,-12.3196,-0.28252926,-12.055783,1211.789
156.18445,-4.1083644,66.636887,-17.100186,1.3250752,-10.866734,1286.5934
77.889343,-4.3726454,66.706477,-11.594772,0.52100606,-11.18851,1246.4335
93.321543,3.5073162,66.79959,-14.782649,-0.47471135,-10.567888,1255.7569
77.000073,13.92787,66.799809,-13.544887,-1.9075395,-12.390583,1191.3196
94.884301,-3.1260814,66.832871,-14.622913,0.44072305,-10.567188,1264.8587
106.01294,9.7094524,66.975563,-17.116688,-1.4704238,-10.922156,1197.8396
123.81595,-12.38084,67.074677,-17.945542,1.9944231,-10.873038,1203.6855
94.961486,4.0912201,67.07904,-15.431974,-0.67574707,-10.834582,1226.5978
74.948514,8.5269655,67.105554,-12.234173,-1.2602351,-10.846873,1267.5539
123.05368,-3.5800752,67.134506,-18.360024,0.63928483,-10.530388,1219.1521
69.273271,-9.1394362,67.172705,-11.223824,1.0767374,-11.78393,1206.5828
85.31986,-4.8958902,67.174045,-13.637396,0.70667884,-11.18322,1227.472
133.7959,-5.6174195,67.197962,-18.857777,1.070236,-10.445598,1231.6525
71.45027,1.2996253,67.236557,-12.745021,-0.22823447,-11.820645,1206.5125
132.88275,-0.27358839,67.243488,-19.514258,0.32251493,-10.445981,1212.2856
92.416286,5.5401477,67.26553,-14.405002,-0.75207654,-10.464109,1274.8814
86.466309,2.2324343,67.287421,-14.527842,-0.46463448,-11.187544,1203.7112
79.688445,4.4979535,67.313714,-13.158238,-0.75691303,-10.997038,1243.3531
107.24139,-6.8449052,67.581462,-16.269694,0.82824519,-10.455272,1255.0864
81.413235,-4.7562495,67.608752,-12.310582,0.64170339,-11.076457,1264.3868
90.091828,-9.3122398,67.665483,-14.420743,1.2850872,-11.382226,1200.3571
101.30791,1.5347749,67.709667,-15.529701,-0.2533985,-10.368614,1270.9654
88.506346,-1.6470723,67.724727,-14.17096,0.053230856,-11.031175,1224.1017
114.19578,-2.1319575,67.728324,-16.607261,0.32980243,-10.078924,1285.2129
120.28822,1.0209396,67.750307,-17.430693,-0.11118723,-9.9534717,1281.0483
66.55251,-6.1063988,67.760468,-11.06372,0.74129758,-11.794867,1207.6706
83.475188,-2.2965215,67.76244,-12.989789,0.15364436,-11.145629,1237.4407
133.96693,-5.3568118,67.786955,-19.188044,0.8463896,-10.379406,1228.7711
80.482127,-1.5578856,67.847911,-12.981361,0.15649076,-10.796521,1270.2955
47.688736,-4.0730013,67.880456,-10.78005,1.6872541,-12.571473,1209.6303
88.39256,-10.744104,67.96801,-14.618683,1.5563289,-11.520318,1188.8902
76.229104,2.1118976,68.245346,-12.294138,-0.34548413,-10.842883,1278.876
76.45117,-0.20101264,68.322588,-12.585399,-0.072511135,-11.37936,1223.7818
96.020737,17.837352,68.331444,-14.636662,-2.4088522,-10.385268,1286.0569
81.546425,7.0047828,68.373763,-13.448982,-1.1976735,-11.117891,1231.9709
70.318841,1.8310497,68.442745,-11.521721,-0.26835596,-11.061205,1271.2245
131.07757,5.8811404,68.49379,-19.42185,-0.84116382,-10.360091,1222.6848
58.685278,-2.2500024,68.759304,-9.6237962,0.13439164,-11.749881,1234.7458
85.333253,-6.438225,68.793474,-13.255701,0.86595504,-11.073399,1258.5145
125.22905,-7.5918408,68.835263,-17.848393,0.99234009,-10.411366,1255.36
74.910763,-0.92475158,68.99001,-12.092661,0.072607941,-11.025364,1272.7013
127.21997,-5.260676,69.136534,-18.817998,0.87596037,-10.749752,1211.6866
118.48627,-7.9005883,69.141627,-13.86118,1.2702613,-11.367989,1272.5661
118.83037,-7.0361157,69.145838,-16.680314,0.98864481,-10.509619,1272.6508
61.853964,3.61159,69.22023,-10.183115,-0.59679462,-11.344656,1267.7683
109.09987,-7.3890502,69.316579,-15.44427,1.2746398,-11.101678,1248.0318
130.65178,-5.9029403,69.388468,-17.170185,1.1980287,-10.957066,1250.2982
85.394915,-5.4373979,69.43345,-12.27108,0.70839304,-11.438629,1246.8969
121.1041,5.6475908,69.44398,-18.504523,-0.70508937,-10.950019,1193.9364
87.545273,9.7908675,69.4444,-14.782177,-1.0793558,-12.090242,1205.9512
95.75722,-2.4394011,69.639943,-15.057303,0.40939133,-11.332888,1206.4109
85.583089,12.667853,69.657484,-14.046882,-1.9798517,-11.356926,1224.6921
51.59727,-14.132164,69.849197,-9.0975516,2.1444838,-11.625003,1258.6248
60.311285,-6.7424727,69.860524,-10.773634,1.0463153,-12.126683,1216.7752
123.57389,-5.1207116,69.921465,-18.277228,0.6905747,-10.795905,1219.3006
94.317863,-3.0043909,69.933728,-15.184122,0.44151775,-11.46773,1194.395
136.34836,-6.806235,69.975391,-17.876375,1.2747673,-10.872396,1250.6445
51.907833,4.6527144,70.0027,-8.91358,-0.86688219,-11.800313,1249.2562
58.105988,-9.2739086,70.041717,-11.318824,1.6199452,-12.333268,1201.5589
110.34041,0.83327944,70.119611,-16.312818,-0.1264796,-10.436496,1274.8345
83.99122,-5.072776,70.134025,-13.547801,0.71924019,-11.559384,1220.7515
127.25771,-2.0326875,70.155972,-18.790566,0.2670648,-10.80479,1211.3086
106.92396,-2.2992597,70.196971,-16.232514,0.27604867,-11.044137,1226.9538
82.181176,8.7193918,70.279709,-13.11624,-1.2578101,-11.121512,1258.1137
142.25412,-8.4587896,70.324458,-19.985536,1.3162612,-10.649806,1217.7751
145.78039,10.021257,70.334838,-20.650444,-1.2017489,-10.36224,1220.8378
89.276091,-11.119881,70.385557,-14.311155,1.4907677,-11.745054,1204.7723
81.57915,-1.4285841,70.411526,-12.587459,-0.0034978575,-11.428791,1242.5959
60.695407,0.66983803,70.501788,-10.048524,-0.12762197,-11.43882,1273.9254
92.987134,1.4872316,70.526766,-14.266116,-0.18927733,-10.849415,1271.3977
92.301931,-8.6539913,70.54271,-11.333015,1.1099237,-11.871743,1266.1569
99.819205,0.33303342,70.623194,-15.458179,-0.14479021,-10.923567,1247.7207
111.67893,12.332019,70.769426,-16.413519,-1.5366262,-10.488819,1273.7937
73.256388,-5.8143863,70.794931,-12.311611,0.66712166,-12.070557,1190.9304
132.2806,-7.2649684,70.982518,-15.409359,1.2549626,-11.231044,1282.4687
131.56575,-4.6143771,71.113259,-19.028118,0.48137457,-10.705536,1224.6005
92.664817,2.522492,71.195997,-14.630369,-0.43913114,-11.144274,1244.4325
105.26013,-12.467944,71.249843,-16.076175,1.7163856,-11.326851,1218.9395
139.27207,-6.134412,71.377103,-19.433352,1.0072833,-10.727991,1228.7282
110.58797,-0.42817037,71.407981,-16.61972,0.18615676,-11.104324,1227.9749
84.016582,7.4244609,71.447401,-13.181311,-1.1098245,-11.096549,1270.5193
102.07857,0.30323031,71.525077,-15.970319,-0.10997897,-11.492103,1203.2579
55.159237,-11.80254,71.528836,-9.8065039,1.7882737,-11.72707,1254.9453
112.21069,-2.8687077,71.537993,-16.78264,0.25149191,-10.751065,1251.6518
105.26065,1.9133752,71.639313,-15.880928,-0.22836597,-10.984375,1246.7573
91.724408,-6.7551718,71.71733,-14.799623,0.99721677,-11.755067,1203.0131
118.19849,17.965166,71.721346,-18.072062,-2.3902971,-11.338372,1206.2585
69.175197,0.90149564,71.737477,-12.523436,0.34207738,-13.267123,1188.848
104.75555,-4.3956728,71.743628,-15.732282,0.52777619,-11.212753,1234.7425
79.562271,-10.520773,71.923976,-13.265341,1.5211527,-11.718774,1224.3204
76.836041,-7.0883531,72.142096,-10.662779,0.83500116,-11.872057,1254.368
100.85589,3.7464356,72.18751,-15.35449,-0.48162008,-10.983738,1256.6233
164.78016,-4.80574,72.209911,-17.275521,1.4659628,-11.429623,1287.4598
102.32732,-3.3493485,72.223118,-15.148327,0.45243252,-10.994025,1265.7252
83.794975,-4.6297146,72.426681,-12.026769,0.5075633,-11.692179,1247.2999
132.39164,-3.9070074,72.508186,-18.99101,0.66870212,-10.964613,1220.0186
63.136484,12.435482,72.525913,-11.532824,-0.49592481,-13.941128,1204.1358
143.36966,-6.1668175,72.531349,-19.435888,1.1278266,-10.888425,1232.519
114.73628,10.455185,72.545178,-17.776566,-1.5128752,-11.356423,1198.706
142.80813,-0.44316338,72.572344,-20.186804,0.35623197,-10.869593,1213.152
99.755252,5.9194781,72.598718,-14.950565,-0.76507604,-10.868645,1275.7479
102.82969,4.4344638,72.604544,-16.040586,-0.69735511,-11.267416,1227.4642
132.9231,-13.397733,72.632525,-18.480697,2.0735745,-11.359001,1204.552
81.190758,9.1643986,72.637666,-12.734624,-1.289268,-11.281477,1268.4204
72.772587,3.5575808,72.765711,-12.810829,-0.29677558,-12.482858,1212.6554
129.15479,1.0759578,72.818931,-18.035439,-0.10873486,-10.320992,1281.9148
122.6417,-2.3011563,72.863092,-17.175996,0.34723153,-10.460228,1286.0794
92.267452,-5.2523033,72.886398,-14.151817,0.71918166,-11.666433,1228.3385
115.52215,-7.2614172,72.912059,-16.852915,0.83769612,-10.867198,1255.9529
86.403935,4.8833551,72.923853,-13.703458,-0.78468332,-11.443374,1244.2195
109.21623,1.6639276,72.992798,-16.103299,-0.26321444,-10.763918,1271.8319
93.882953,2.4705355,72.998644,-15.138441,-0.48763753,-11.657175,1204.5776
143.71813,-5.7878661,73.082171,-19.81612,0.87799736,-10.801648,1229.6376
83.897127,14.902665,73.089647,-14.044906,-1.9925465,-12.772226,1192.1861
74.993355,-9.6750491,73.20229,-11.655506,1.0659525,-12.334316,1207.4492
49.05116,-2.6627529,73.245138,-11.805697,3.6176083,-14.513721,1195.1483
77.954578,1.4158398,73.261924,-13.272582,-0.23726692,-12.281316,1207.379
87.674986,-5.0788366,73.264619,-12.735267,0.64863052,-11.5472,1265.2532
87.103419,-1.6350814,73.351178,-13.503909,0.1522163,-11.216373,1271.162
95.736156,-1.667172,73.357202,-14.747802,0.02742189,-11.498517,1224.9682
90.095582,-2.3669109,73.457162,-13.490569,0.12811462,-11.633404,1238.3072
97.439,-9.9591181,73.481445,-14.967161,1.3025797,-11.881636,1201.2236
103.47458,19.055539,73.622033,-15.178515,-2.4636242,-10.777049,1286.9234
82.500425,2.2879325,73.772042,-12.791221,-0.35865104,-11.263745,1279.7424
140.95904,6.3078397,73.773722,-20.103821,-0.86578949,-10.759678,1223.5513
72.198916,-6.4759035,73.79333,-11.521009,0.73711718,-12.336472,1208.537
95.84691,-11.531165,73.851921,-15.198111,1.5919895,-12.015351,1189.7566
88.412239,7.6146817,74.047249,-14.013881,-1.2418484,-11.575761,1232.8374
76.199834,1.9664361,74.082632,-12.002407,-0.2730474,-11.498139,1272.091
82.876189,-0.16076471,74.135196,-13.113912,-0.088180141,-11.870974,1224.6483
134.2965,-8.0946215,74.144984,-18.42062,1.018847,-10.827765,1256.2264
53.199671,-4.9195798,74.268757,-11.263447,1.6989221,-12.983963,1210.4968
92.081194,-6.8746146,74.443908,-13.735115,0.87950449,-11.528556,1259.3809
127.29525,-7.5393966,74.508041,-17.177724,1.0246986,-10.939686,1273.5172
81.079347,-0.95956162,74.610566,-12.581746,0.066562112,-11.456702,1273.5678
136.78882,-5.7082935,74.621016,-19.456537,0.91475102,-11.188477,1212.5531
63.602451,-2.3117264,74.765727,-10.043954,0.11259358,-12.275745,1235.6123
125.47149,-8.5478517,74.958648,-14.07639,1.3191889,-11.90064,1273.4326
116.92804,-8.0419394,74.990539,-15.86536,1.3374879,-11.595121,1248.8982
139.33878,-6.5202502,74.991031,-17.574729,1.2719609,-11.454064,1251.1647
67.056207,3.9144802,75.007189,-10.62608,-0.61455846,-11.8029,1268.6348
130.52428,6.0035853,75.031614,-19.175555,-0.71868296,-11.400599,1194.8029
91.632008,-5.7913729,75.280003,-12.675722,0.70779823,-11.947705,1247.7634
103.43006,-2.6453963,75.427983,-15.633128,0.41507092,-11.819263,1207.2774
132.86925,-5.4699347,75.428522,-18.90354,0.70638293,-11.232519,1220.167
118.64103,0.89725702,75.435244,-16.889368,-0.12936363,-10.82607,1275.701
92.747377,13.674575,75.448866,-14.610115,-2.0474599,-11.808593,1225.5586
145.39821,-7.4617507,75.531283,-18.320641,1.3478905,-11.351846,1251.5109
95.072499,10.337679,75.590588,-15.327555,-1.1088122,-12.496019,1206.8177
156.27985,10.628322,75.616126,-21.347024,-1.2262943,-10.762894,1221.7042
136.815,-2.1665573,75.667564,-19.438009,0.26846674,-11.241732,1212.1751
152.40553,-9.1295193,75.756986,-20.619265,1.3667554,-11.080558,1218.6416
56.255254,-15.217583,75.777705,-9.5353536,2.1968097,-12.088549,1259.4913
102.06045,-3.226484,75.789743,-15.785567,0.44725772,-11.956241,1195.2615
115.18528,-2.4369337,75.83239,-16.811894,0.2747905,-11.49774,1227.8202
88.869765,9.3556185,75.949864,-13.637856,-1.2869289,-11.559008,1258.9802
56.469032,5.0959995,76.025587,-9.3314739,-0.90633596,-12.290919,1250.1227
90.896692,-5.4362005,76.03481,-14.073255,0.73463142,-12.043885,1221.618
65.812061,-7.2723121,76.048752,-11.229071,1.0727629,-12.626475,1217.6417
100.25301,1.5820288,76.055434,-14.797051,-0.18975818,-11.265266,1272.2642
120.03037,13.106032,76.111238,-16.991961,-1.559153,-10.878438,1274.6601
107.69392,0.40859617,76.190346,-16.040395,-0.15752076,-11.345007,1248.5872
87.992372,-1.4196203,76.248615,-13.063937,-0.032314482,-11.919887,1243.4624
63.897198,-10.096907,76.326912,-11.846145,1.6714523,-12.808065,1202.4254
65.828131,0.73505318,76.333785,-10.482837,-0.13318993,-11.888875,1274.7919
96.56134,-11.873192,76.383912,-14.828458,1.5225286,-12.248772,1205.6388
98.007726,-9.2096627,76.550345,-11.52272,1.1128997,-12.224698,1266.901
141.24013,-4.8546052,76.571484,-19.668946,0.47943902,-11.127463,1225.467
140.05391,-7.9096561,76.722506,-15.68225,1.3243241,-11.72897,1283.3351
149.14208,-6.6489977,76.848465,-20.045867,1.0512997,-11.157699,1229.5946
100.12229,2.7466147,76.876146,-15.199255,-0.45741098,-11.576247,1245.299
79.542946,-6.1467176,76.963284,-12.834224,0.66255258,-12.602619,1191.7969
120.75319,-2.9929045,77.014769,-17.38717,0.24517239,-11.155988,1252.5183
113.43759,-13.337651,77.030325,-16.63233,1.7624931,-11.795479,1219.806
119.04475,-0.5247893,77.071882,-17.20659,0.20059738,-11.551464,1228.8414
90.734479,7.9882398,77.102077,-13.69005,-1.1453547,-11.522104,1271.3857
113.34504,2.0280571,77.238414,-16.456091,-0.23019404,-11.412078,1247.6238
110.20996,0.36115382,77.391907,-16.554061,-0.12160828,-11.975565,1204.1244
112.76018,-4.6602602,77.463806,-16.28536,0.53065098,-11.668157,1235.6089
127.39898,19.175634,77.49079,-18.730474,-2.4519954,-11.73968,1207.1249
60.179377,-12.707911,77.50699,-10.274704,1.8329076,-12.185285,1255.8117
99.265591,-7.2618021,77.715697,-15.3643,1.0294913,-12.238597,1203.8796
108.67579,3.9887787,77.783274,-15.924881,-0.48760121,-11.399252,1257.4898
110.03175,-3.5786063,77.827144,-15.668578,0.46468326,-11.422306,1266.5916
86.329747,-11.291544,77.900938,-13.803786,1.5618705,-12.189337,1225.1869
138.32352,1.129512,78.071265,-18.639366,-0.10532766,-10.688297,1282.7813
173.45074,-5.5757873,78.07218,-17.396115,1.6153896,-12.026092,1288.3263
153.2303,-6.7457292,78.086887,-20.005265,1.1882547,-11.334181,1233.3854
142.04385,-4.2490444,78.099414,-19.617044,0.69968761,-11.400561,1220.885
153.06904,-0.63030336,78.113244,-20.856325,0.39278795,-11.294158,1214.0185
