26.112512,-0.62376028,14.205881,-8.4400172,0.1341711,-4.5514731,1233.2379,0.51137598,-8.4501267e-05,0.85935709,1,0
25.966012,1.3309193,16.075631,-8.2394566,-0.48010442,-4.7050075,1187.4166,0.49451668,0.045178778,0.86799316,1,0
30.506436,-0.68390152,16.576677,-9.1357094,0.10687904,-4.9315163,1234.1043,0.50995918,-3.6149454e-05,0.8601986,1,0
36.498468,3.5474265,17.516826,-9.9451078,-0.67228332,-4.1193977,1198.2252,0.52288417,-0.04918417,0.85098359,1,0
23.44391,0.97162669,17.692389,-7.4155192,-0.27044092,-5.2040887,1186.3842,0.44314788,0.0056261871,0.89643087,1,0
16.692796,-0.095497686,18.264028,-5.7936707,-0.38407567,-5.1639207,1235.4753,0.51508259,0.1521945,0.84352046,1,0
20.552195,2.6650441,18.456819,-6.0837735,-0.5602907,-4.8709565,1190.4114,0.33050011,-0.058017321,0.94202105,1,0
30.26949,1.5864081,18.533219,-8.9747376,-0.54084497,-5.12506,1188.2831,0.49746082,0.047916858,0.86616205,1,0
15.195167,-3.1809223,18.853411,-5.7103886,0.30193572,-5.746555,1199.6415,0.52322334,0.18418432,0.83205377,1,0
17.248178,0.54566218,18.976193,-5.8394532,-0.30895926,-5.7601206,1204.2075,0.42605294,0.056208683,0.90295043,1,0
35.247928,-0.73123301,19.137443,-9.8299679,0.082946204,-5.3115838,1234.9708,0.50898287,-2.4756772e-05,0.86077665,1,0
27.45759,-0.86424687,19.151306,-8.2549394,0.09445672,-5.5970386,1202.8103,0.46992775,-2.3208891e-05,0.88270488,1,0
22.147271,-2.3284417,19.155197,-6.3867879,0.76106816,-4.7131728,1215.9611,0.38930376,-0.080387457,0.91759492,1,0
35.992679,-3.5058128,19.391777,-10.497876,0.51965365,-5.4510167,1211.7004,0.54240174,0.0018511531,0.84011721,1,0
28.241075,2.3566394,19.46545,-7.4979553,-0.31762897,-4.5245915,1234.0241,0.37634514,-0.09304918,0.92179509,1,0
25.927068,1.9176487,19.865984,-6.9020069,-0.15182496,-4.8071255,1212.5102,0.29413952,-0.12549839,0.94748725,1,0
16.011,0.31200146,19.889807,-5.8025157,-0.76827109,-5.80911,1227.6365,0.52155344,0.21646714,0.82530236,1,0
27.90766,0.35200297,20.371825,-8.169845,-0.20640755,-5.7468784,1185.9695,0.4243177,0.036798426,0.90476536,1,0
27.31988,1.1179484,20.407193,-8.0890564,-0.31540923,-5.6545042,1187.2507,0.45061351,0.013562099,0.89261612,1,0
24.384206,0.14704261,20.414437,-7.2571111,-0.0083088537,-5.5388826,1218.5513,0.44017589,-0.0090469416,0.89786599,1,0
24.893898,6.5082022,20.478511,-6.3051052,-1.0859119,-4.8247406,1214.3455,0.19338525,-0.18343421,0.96382262,1,0
15.985333,-0.79784583,20.490932,-5.2320627,-0.17422297,-5.5402708,1239.0079,0.44385513,0.13979839,0.88512656,1,0
44.655616,2.4216491,20.758059,-11.111547,-0.59247297,-4.8325123,1206.3907,0.47070633,0.022811703,0.881995,1,0
19.728898,0.11126679,20.957357,-6.3505689,-0.44331782,-5.6093531,1236.3418,0.50556188,0.14028171,0.85130971,1,0
23.749353,2.9636466,21.009999,-6.7049561,-0.63470444,-5.3413683,1191.2779,0.35620172,-0.034966608,0.93375461,1,0
22.104446,-0.02119753,21.078308,-5.85758,0.48153696,-5.2255618,1186.0377,0.18875056,-0.20275821,0.96086541,1,0
29.330222,3.3699228,21.084692,-7.2410022,-0.26489921,-4.8415994,1210.6566,0.2260376,-0.19699506,0.95399159,1,0
38.136702,5.8323301,21.113477,-9.313465,-0.8846986,-4.5548705,1208.3912,0.40279143,-0.12961626,0.90606771,1,0
17.573507,-2.6615342,21.150138,-5.2870718,0.5222917,-5.2582357,1238.675,0.41172277,0.055720165,0.9096041,1,0
34.941046,1.8707975,21.200361,-9.7117928,-0.59594715,-5.5431229,1189.1496,0.50025461,0.048269055,0.86453191,1,0
41.876465,5.2717151,21.365006,-9.9218283,-1.0222696,-4.3601753,1197.2471,0.41856535,-0.028940987,0.90772544,1,0
29.530072,0.4076102,21.392095,-7.7038661,0.46398632,-5.24516,1185.3096,0.29878498,-0.20392586,0.93227774,1,0
25.499813,-2.7175078,21.619997,-7.0234343,0.79356333,-5.1456698,1216.8275,0.41104928,-0.061520998,0.90953486,1,0
30.109829,1.5853468,21.639464,-7.7670327,-0.050070461,-5.1203948,1206.4245,0.33485906,-0.11532424,0.93518433,1,0
31.722625,3.5092347,21.660558,-7.7193552,-0.28833352,-4.8066313,1254.4222,0.30950945,-0.17442416,0.93476206,1,0
26.849424,2.7483041,21.805016,-6.8573101,-0.38579583,-5.0461215,1227.173,0.29122794,-0.095891446,0.95183566,1,0
32.15864,2.5318435,21.824805,-8.1729048,-0.38248807,-4.9123198,1234.8906,0.40059137,-0.063751815,0.91403625,1,0
18.182573,-3.3370554,21.852256,-6.2397101,0.32259079,-6.2484181,1200.508,0.50537501,0.15540644,0.84879028,1,0
40.336232,-0.76739912,21.888197,-10.523266,0.062538579,-5.6912387,1235.8373,0.49333233,0.023721106,0.86951741,1,0
13.060294,-2.0714578,21.908104,-4.1679979,0.34090998,-5.9110843,1267.2756,0.35004628,0.059497643,0.93484097,1,0
20.304313,0.7086484,21.978927,-6.3862556,-0.34381888,-6.2501239,1205.0739,0.42612362,0.052744932,0.90312603,1,0
31.750432,-0.90515257,22.058447,-8.9164906,0.06860061,-6.0312808,1203.6768,0.46973414,-2.1055811e-05,0.88280793,1,0
38.330391,-0.63078858,22.090762,-9.7013732,0.43467505,-5.2455994,1226.4454,0.45070826,-0.088090635,0.88831419,1,0
15.256487,5.8755015,22.172048,-4.1071703,-1.0563261,-6.0145,1255.3676,0.15293582,-0.12525586,0.98026609,1,0
26.846688,-0.74937142,22.174591,-6.7531952,0.76500418,-5.0269458,1189.7417,0.22080752,-0.25759514,0.94068527,1,0
23.291285,1.4534887,22.199723,-6.3014113,-0.12838991,-5.4818095,1200.8895,0.29650513,-0.086420109,0.95111318,1,0
41.430588,-3.7680607,22.211262,-11.252774,0.52836608,-5.8274835,1212.5668,0.54210741,0.0010378256,0.84030856,1,0
35.191761,3.5807024,22.255592,-8.4817776,-0.088370632,-4.9470642,1202.6275,0.29880157,-0.24364777,0.92268813,1,0
18.778066,-0.97740793,22.281775,-5.4575098,0.084025386,-5.5360312,1235.3861,0.34709939,0.055394963,0.93619091,1,0
29.539934,2.0074241,22.376639,-7.5497766,-0.20748129,-5.2351654,1213.3767,0.32831596,-0.091000683,0.94017419,1,0
26.226343,4.6131813,22.600502,-6.1865271,-0.78824275,-4.8355587,1271.1311,0.20286136,-0.089167119,0.97513922,1,0
26.005273,1.7477212,22.730686,-6.4415902,-0.073763685,-5.0192783,1268.9926,0.28849307,-0.12412582,0.94940219,1,0
22.605989,-0.10551905,22.835265,-5.6723818,0.42364629,-5.192696,1222.4184,0.199004,-0.17232338,0.96472901,1,0
19.047623,0.71387687,22.910044,-6.3443933,-0.8399066,-6.2715043,1228.5029,0.51237138,0.19399906,0.83656436,1,0
28.198092,7.0779519,23.00195,-6.9118074,-1.1920912,-5.2688165,1215.212,0.2392024,-0.14471363,0.96012509,1,0
26.876264,0.51819927,23.150198,-6.5536268,0.5976378,-5.3356287,1189.5039,0.16209383,-0.2810692,0.94589941,1,0
32.093308,-1.9137991,23.255078,-8.4328884,0.55231869,-5.8209105,1208.242,0.39428936,-0.038509147,0.91817915,1,0
50.409788,2.7317592,23.264348,-11.904809,-0.64745634,-5.1926989,1207.2572,0.50586133,0.028015878,0.86215975,1,0
22.896688,-1.7496363,23.289419,-6.0025099,0.66732299,-5.5028791,1210.4941,0.27504195,-0.10574159,0.95559963,1,0
28.163798,0.16086042,23.293993,-7.8610074,-0.047518878,-5.979234,1219.4178,0.44169653,0.0033129872,0.8971584,1,0
29.485363,-2.0054712,23.338955,-6.9006159,1.1178483,-4.5230704,1252.7107,0.27601661,-0.31327088,0.90866726,1,0
31.533465,1.2875323,23.346404,-8.7656833,-0.3628411,-6.1019443,1188.1171,0.45697981,0.020068767,0.88925064,1,0
32.159133,0.46585966,23.358785,-8.8363045,-0.24948299,-6.2005593,1186.8359,0.43172714,0.040152441,0.90111013,1,0
18.725601,-0.70348785,23.378442,-5.730225,-0.20348831,-6.0091238,1239.8744,0.44027685,0.12466824,0.88916485,1,0
42.983379,6.2928831,23.485003,-10.073415,-0.95675482,-4.9310067,1209.2577,0.42499936,-0.10467495,0.89912107,1,0
22.139972,3.2091459,23.563678,-5.6857285,-0.72423957,-5.5805364,1225.5408,0.23595863,-0.0058164818,0.97174569,1,0
33.114881,3.5165193,23.612149,-7.8978642,-0.32081013,-5.2679764,1211.523,0.26920159,-0.15676663,0.9502393,1,0
47.037285,5.8056415,23.636764,-10.721703,-1.1130534,-4.7265405,1198.1136,0.44084286,-0.013910918,0.89747649,1,0
25.183396,-0.26344104,23.813282,-6.458553,0.48711538,-5.7139075,1186.9042,0.2393885,-0.16343949,0.9570688,1,0
23.236579,-0.6171044,23.863392,-6.7289248,0.10441513,-6.2509476,1193.3499,0.40114019,0.013552254,0.91591642,1,0
23.042672,0.34813794,23.873529,-6.903846,-0.50449812,-6.0554749,1237.2083,0.49630306,0.13103365,0.85820362,1,0
26.890817,3.8095929,23.929718,-6.3679825,-0.47717126,-5.1022419,1256.3372,0.23235104,-0.13812167,0.96277484,1,0
39.981636,2.1816645,24.075909,-10.450903,-0.64702323,-5.958636,1190.016,0.50304983,0.04742979,0.86295497,1,0
34.412582,6.5050018,24.08683,-8.0935093,-0.88348046,-5.0262643,1200.3432,0.29977959,-0.1863349,0.93563428,1,0
33.551023,0.17754622,24.127478,-8.3810948,0.45579226,-5.6955181,1186.1761,0.32210029,-0.16059777,0.93298433,1,0
35.741467,3.6666795,24.159091,-8.3562569,-0.34113068,-5.1872064,1255.2887,0.31585541,-0.13000917,0.93985795,1,0
29.170855,-3.1198825,24.30051,-7.6609436,0.81366465,-5.5759911,1217.694,0.39378998,-0.040264168,0.91831816,1,0
34.162108,1.62156,24.305609,-8.4424542,-0.094100262,-5.5438309,1207.291,0.35490585,-0.0841988,0.93110279,1,0
42.981324,2.8960268,24.421643,-10.324785,-0.33707635,-5.5551513,1215.5313,0.44192794,-0.069767948,0.89433334,1,0
53.258024,4.6828345,24.493864,-12.400438,-0.83460065,-5.181964,1200.8245,0.54555206,-0.017687124,0.83789028,1,0
22.22217,1.1428348,24.555142,-5.378885,0.18506823,-5.674871,1216.5161,0.13435481,-0.17853987,0.97471652,1,0
28.222472,1.4341841,24.702211,-7.6636941,-0.16947541,-6.189137,1204.2217,0.40637782,-0.047025774,0.91249419,1,0
30.385214,-1.1332328,24.803503,-7.4013618,0.76967308,-5.4882298,1190.6081,0.27571147,-0.1963826,0.94096602,1,0
18.475284,0.92878528,24.881069,-4.9576034,-0.23583984,-6.2102576,1182.5028,0.21503519,0.0054939194,0.97659085,1,0
15.236713,-2.2484078,24.982472,-4.5372391,0.36744369,-6.3863169,1268.1421,0.34495776,0.048416633,0.93736864,1,0
26.58971,1.5285923,25.058863,-6.8920754,-0.17220099,-5.9545795,1201.7559,0.32417004,-0.061648275,0.94398796,1,0
19.990158,0.91825692,25.097926,-4.7400363,-0.14542541,-5.4765311,1248.2676,0.13543302,-0.025172302,0.99046668,1,0
33.477139,2.124673,25.100858,-8.1992868,-0.26095437,-5.6614432,1214.2431,0.33732313,-0.061600607,0.93937132,1,0
21.435338,-3.5034443,25.101429,-6.7716993,0.34284595,-6.7479308,1201.3745,0.49123756,0.13241423,0.86090193,1,0
29.456457,5.0334567,25.119787,-6.7337601,-0.89235016,-5.2415516,1271.9975,0.24085989,-0.056754303,0.9688991,1,0
36.374045,-0.93307949,25.182426,-9.5778376,0.043682232,-6.4645355,1204.5432,0.45510653,0.038458427,0.88960609,1,0
47.244377,-4.0334937,25.219764,-12.002272,0.53448493,-6.2063154,1213.4333,0.55930709,0.0058590175,0.86887104,1,0
23.635684,0.89043614,25.225604,-6.9398153,-0.38406038,-6.7362464,1205.9404,0.42607839,0.050662062,0.90326661,1,0
17.402771,6.4203403,25.301022,-4.4777763,-1.1229547,-6.5013286,1256.2341,0.17684661,-0.10507961,0.97861308,1,0
29.364872,1.7969824,25.341602,-6.9969989,-0.12252721,-5.4240694,1269.8591,0.31440609,-0.092275475,0.94479312,1,0
15.435653,1.8899225,25.449587,-3.775898,-0.056315471,-6.4591259,1195.4751,0.038091494,-0.15121427,0.98776682,1,0
25.581513,-0.31496874,25.546736,-6.230214,0.41368044,-5.6527374,1223.2848,0.24475072,-0.13439421,0.96022668,1,0
25.748073,4.0912303,25.630932,-6.0123305,-0.63767893,-5.9520278,1190.1388,0.10195714,-0.10289439,0.98945313,1,0
28.774087,3.9813379,25.659239,-6.014098,-0.0064152013,-4.9187586,1244.3702,0.033827354,-0.34540305,0.93784457,1,0
33.098006,-2.5718602,25.695822,-7.5505304,1.146088,-4.9038959,1253.5772,0.33045601,-0.24597199,0.91120613,1,0
31.805848,7.6992497,25.747128,-7.519336,-1.2921307,-5.7117016,1216.0784,0.27404289,-0.1154772,0.9547594,1,0
41.747304,4.9809153,25.903035,-9.6827333,-0.98917408,-5.6014046,1249.3656,0.38453349,0.0020211017,0.92310883,1,0
30.30793,0.2191337,25.936707,-7.1732327,0.59776127,-5.8100706,1190.3704,0.21339234,-0.23129513,0.94919243,1,0
43.481383,-1.8481951,25.937262,-10.515979,0.71645828,-5.9435056,1191.1622,0.44969228,-0.091832857,0.8884501,1,0
56.559802,3.0685568,25.950976,-12.694502,-0.6992725,-5.5540938,1208.1237,0.51057815,0.030234057,0.85929963,1,0
29.520581,2.0112118,26.02932,-6.45225,0.26193376,-5.1815612,1238.4051,0.12444418,-0.28464061,0.95052268,1,0
26.040715,-2.0880216,26.158425,-6.5739436,0.68580987,-5.9727353,1211.3606,0.30755157,-0.08288042,0.94791501,1,0
22.35511,1.1525682,26.16123,-6.885155,-0.91564416,-6.7331824,1229.3694,0.50384014,0.17686039,0.8454972,1,0
22.836919,4.156829,26.261999,-5.3088995,-0.72564084,-5.713534,1257.3313,0.16470715,-0.064458968,0.98423401,1,0
36.4713,-2.1878258,26.274325,-9.0788995,0.54365076,-6.2559297,1209.1085,0.40488742,-0.024017879,0.91405105,1,0
25.937037,1.2576893,26.305783,-5.7775084,-0.03231284,-5.3220016,1266.343,0.16208133,-0.093959763,0.98229385,1,0
37.228289,3.690046,26.352419,-8.555967,-0.37264162,-5.6928388,1212.3895,0.30252955,-0.12584661,0.94479548,1,0
32.244965,0.19509138,26.393579,-8.4635141,-0.089388695,-6.4189741,1220.2843,0.44232644,0.01328517,0.89675572,1,0
25.11662,3.5910279,26.470899,-6.220419,-0.8041979,-6.0482985,1226.4073,0.26993676,0.0076501954,0.96284766,1,0
21.71703,-0.59389681,26.499304,-6.2369766,-0.23561114,-6.4735623,1240.7409,0.43900552,0.11330152,0.89131191,1,0
36.086026,1.4801695,26.508718,-9.4450006,-0.40702189,-6.5468899,1188.9836,0.4624786,0.02413632,0.88630186,1,0
36.744166,0.60104829,26.572069,-9.5039392,-0.29059927,-6.6523321,1187.7024,0.4378611,0.042009408,0.89806062,1,0
34.988759,3.047265,26.59857,-7.3018721,0.20030391,-4.9958342,1216.8559,0.10864555,-0.32448444,0.93963077,1,0
37.870022,4.9563018,26.608716,-7.6479843,-0.040094274,-4.360955,1251.4413,0.1853308,-0.37851253,0.90685212,1,0
20.447945,-0.90416626,26.637393,-4.636315,0.33802488,-5.514917,1254.5902,0.11404085,-0.063174632,0.99146541,1,0
36.766861,5.411329,26.682788,-9.2140014,-1.0376457,-6.1832365,1210.335,0.44695456,-0.023329139,0.89425241,1,0
38.633698,6.9660916,26.705224,-8.7915063,-0.95990932,-5.4468632,1201.2097,0.33574722,-0.15294345,0.92945258,1,0
28.563399,-0.50776742,26.791739,-7.0618705,0.4894764,-6.1994306,1187.7706,0.27772354,-0.1317663,0.95158146,1,0
30.35543,1.3551954,26.814923,-6.8878141,0.36021967,-5.6705432,1206.066,0.181474,-0.2403614,0.95356887,1,0
22.308516,1.1689828,26.868453,-5.6096303,-0.1629785,-6.4745706,1181.7538,0.19494832,-0.037922703,0.98008011,1,0
26.632256,0.61627124,27.012873,-7.454261,-0.56863567,-6.5018002,1238.0747,0.48766494,0.12406083,0.86417118,1,0
26.745525,-0.66509575,27.11103,-7.3074366,0.086735202,-6.7391085,1194.2164,0.40825261,0.018061949,0.91269029,1,0
45.39235,2.5174792,27.158491,-11.192339,-0.6959337,-6.3711746,1190.8825,0.50591846,0.046204735,0.86134293,1,0
59.662257,5.1116808,27.173216,-13.215769,-0.8801061,-5.5357343,1201.691,0.54935214,-0.012922699,0.83549101,1,0
47.166497,8.5138634,27.173456,-9.4694515,-1.4632744,-4.6270453,1189.4528,0.23526856,-0.052448461,0.97051423,1,0
46.663933,-1.5199321,27.18079,-9.4705708,1.1755106,-4.2528878,1234.319,0.34171207,-0.35337957,0.87083623,1,0
20.510559,-2.1937462,27.211437,-5.4135589,0.35670721,-6.1840751,1240.6942,0.3032637,0.040691315,0.95203747,1,0
17.383412,-1.8674399,27.274295,-4.3321691,0.42660486,-5.9921636,1213.2886,0.1961617,-0.004334011,0.98056198,1,0
48.323453,3.0732947,27.297004,-11.043154,-0.37142783,-5.9464838,1216.3977,0.45139033,-0.056190928,0.89055564,1,0
25.04149,1.0528241,27.514255,-5.8991503,0.17454604,-6.1611162,1217.3826,0.18302841,-0.14701623,0.97205289,1,0
30.087537,-0.26966809,27.548327,-6.0882653,0.97655957,-5.2886412,1219.0856,-0.020846336,-0.37184248,0.92806174,1,0
44.379456,3.7004522,27.617142,-9.8941321,-0.14818262,-5.7749635,1204.3604,0.33957816,-0.16349148,0.9262598,1,0
22.810064,5.8962401,27.622612,-4.2757501,-0.45453663,-5.7523172,1266.7078,-0.14923281,-0.2753287,0.94969662,1,0
34.248554,-1.5180609,27.662283,-8.0524093,0.76873494,-5.9463593,1191.4746,0.31116066,-0.15492548,0.93764446,1,0
48.740785,-1.061713,27.71839,-11.119915,0.43191414,-6.0086985,1228.1783,0.4666089,-0.057641553,0.88258347,1,0
22.346247,4.1024287,27.738626,-4.4412905,-0.34965707,-5.7067415,1259.3898,-0.073233012,-0.19615739,0.97783394,1,0
32.959905,5.5050212,27.84204,-7.2798164,-0.99345714,-5.6474529,1272.864,0.26941047,-0.032295832,0.96248376,1,0
26.755198,-1.1905113,27.939321,-5.9311717,0.52370043,-5.5904687,1265.9837,0.19512963,-0.11071549,0.97450834,1,0
22.479793,1.0008957,27.95297,-5.2201037,-0.18569022,-5.9428859,1249.1341,0.18702197,-0.010039338,0.98230443,1,0
51.553183,-0.81646966,27.957489,-11.910528,0.039452304,-6.4465706,1237.5702,0.50841218,-3.0040608e-05,0.86111384,1,0
21.63938,1.1287202,27.97022,-5.0506333,0.051179913,-6.2904085,1201.8006,0.11603717,-0.11542578,0.98651521,1,0
21.078316,1.0552149,28.120862,-5.4552937,-0.26973554,-6.748483,1183.3693,0.24914341,0.011266024,0.96840107,1,0
23.9263,-1.3556309,28.167055,-5.0796931,0.54559892,-5.4833494,1247.3918,0.059145718,-0.12089816,0.99090132,1,0
31.921802,3.9978543,28.226413,-6.5767112,-0.059268576,-5.3497663,1245.2366,0.093382982,-0.29309636,0.95151151,1,0
37.036444,-3.150983,28.24243,-8.2038832,1.1703677,-5.2820707,1254.4437,0.36821096,-0.20107039,0.90773971,1,0
17.597124,-2.4393964,28.294344,-4.9040686,0.39688377,-6.8610811,1269.0086,0.33974261,0.038703305,0.93972177,1,0
31.400227,3.3500018,28.338187,-6.6867712,-0.31108683,-5.5003093,1261.2751,0.18534863,-0.13202921,0.97376289,1,0
53.432592,-4.3036535,28.417448,-12.750133,0.54700275,-6.5844101,1214.2998,0.54051216,-0.00064860493,0.84133595,1,0
19.509971,-3.8041252,28.474807,-4.4781309,1.1233445,-6.1207637,1225.3479,0.11378737,-0.12362157,0.98578402,1,0
28.836761,-0.51853035,28.487572,-6.7912933,0.39976351,-6.1102993,1224.1513,0.27975942,-0.10360895,0.95446312,1,0
41.328075,-0.94938412,28.522915,-10.238024,0.021992961,-6.897382,1205.4097,0.46971938,-1.9319937e-06,0.88281578,1,0
28.41137,-1.788891,28.576415,-5.6192402,1.1178586,-5.1057672,1261.982,0.01196172,-0.33417712,0.94243438,1,0
24.954693,-3.6796953,28.599811,-7.3061608,0.36188726,-7.2452133,1202.2409,0.39302156,-0.0001009045,0.91952925,1,0
40.610363,-3.2225337,28.671173,-9.4991684,0.99302528,-6.1907949,1230.0289,0.42662578,-0.099927138,0.89889099,1,0
19.733971,6.9984598,28.673317,-4.8467324,-1.1896132,-6.9877816,1257.1005,0.19496772,-0.088368599,0.97682065,1,0
35.717553,8.3690713,28.713458,-8.1275867,-1.386222,-6.1534296,1216.9449,0.28242728,-0.086362469,0.9553933,1,0
27.244417,1.0934061,28.715015,-7.4949981,-0.4282651,-7.2213595,1206.8069,0.427083,0.050357711,0.90280907,1,0
58.559801,7.0061881,28.727855,-12.323084,-1.2863125,-5.4550668,1199.8465,0.44130785,0.0051850157,0.89734079,1,0
32.89001,1.8909228,28.72812,-7.025475,0.21976207,-5.6134191,1239.2715,0.18711349,-0.21836736,0.95776001,1,0
28.894654,4.425836,28.732641,-6.5732944,-0.7008809,-6.4549572,1191.0052,0.15495466,-0.081119854,0.98458551,1,0
46.754205,5.4944833,28.797517,-10.344283,-1.0644154,-5.9767251,1250.232,0.42958999,0.010653198,0.90296121,1,0
63.103416,3.4307013,28.818795,-13.479088,-0.74924165,-5.9175189,1208.9901,0.51353734,0.031590737,0.85748553,1,0
27.797721,-1.9048339,28.841428,-5.9200302,0.82553183,-5.6435013,1246.3663,0.1269942,-0.17498622,0.9763464,1,0
26.921851,2.2889682,28.847317,-6.1326933,-0.40918258,-6.0629321,1230.3695,0.20837404,-0.024090051,0.97775249,1,0
41.863474,4.988275,28.880627,-8.3260273,-0.087144137,-4.7265134,1252.3078,0.24256106,-0.32600853,0.91371909,1,0
22.074279,7.3173204,28.914469,-4.2590961,-0.95435803,-5.9395298,1263.9084,-0.083840767,-0.1979624,0.97661743,1,0
34.049826,-0.078461571,28.959816,-7.7946641,0.59148828,-6.2819093,1191.2368,0.25347312,-0.18920616,0.94865821,1,0
48.923415,-2.2084382,29.012664,-11.251746,0.72515051,-6.3581663,1192.0286,0.45885838,-0.07485165,0.8853509,1,0
28.953337,1.2867515,29.074857,-6.2874101,-0.084793424,-5.7542293,1267.2094,0.20399333,-0.06383837,0.97688862,1,0
38.802469,2.9571077,29.201863,-7.9533433,0.16089602,-5.416987,1217.7223,0.16623016,-0.27415793,0.94720904,1,0
26.598668,3.1629139,29.20888,-6.7317447,-0.79611473,-6.995722,1205.014,0.31197307,0.035796092,0.94941637,1,0
25.613796,4.5426915,29.230867,-5.7979811,-0.81933963,-6.1618753,1258.1978,0.2072177,-0.038375341,0.9775419,1,0
51.590817,-2.1136254,29.391813,-10.236862,1.1996399,-4.5910304,1235.1855,0.38279059,-0.30124693,0.87333937,1,0
33.814989,4.3593505,29.451774,-7.480131,-0.62039607,-5.9414037,1258.0701,0.29247494,-0.078183059,0.95307178,1,0
41.172017,-2.4579821,29.510926,-9.7238319,0.53806951,-6.6903949,1209.9749,0.41295686,-0.013719305,0.91064725,1,0
22.879508,-1.0723265,29.51172,-5.0903848,0.33472884,-5.9821286,1255.4566,0.16349075,-0.045712791,0.98548522,1,0
43.204682,7.4639331,29.533205,-9.4929845,-1.0305772,-5.8645836,1202.0762,0.36396247,-0.12749779,0.922646,1,0
52.091843,9.2760321,29.584468,-10.232393,-1.5848462,-5.0166992,1190.3193,0.27873866,-0.034308338,0.95975398,1,0
27.112016,1.6483103,29.62607,-6.8248948,-0.27662013,-7.0186392,1206.8348,0.32021372,-0.021492281,0.9471015,1,0
25.932417,1.6308586,29.643092,-7.4234736,-0.99958511,-7.1941657,1230.2359,0.49569951,0.16474115,0.85272642,1,0
22.415519,-1.9592719,29.652465,-4.9209586,0.53645231,-5.9357893,1231.972,0.11101899,-0.056933499,0.99218615,1,0
36.627188,0.25001094,29.712817,-9.065235,-0.13008579,-6.8578387,1221.1507,0.44252746,0.020598068,0.89651836,1,0
33.948929,1.1825542,29.765156,-7.485711,0.32987011,-6.1303799,1206.9325,0.22552409,-0.19392466,0.95474191,1,0
24.964123,-0.46659617,29.851234,-6.7527192,-0.27484752,-6.9334966,1241.6073,0.43951596,0.10584042,0.89197731,1,0
26.088926,-0.029116012,29.85507,-5.4463913,0.51563401,-5.9358052,1265.2203,0.096081529,-0.19116242,0.97684455,1,0
41.54112,5.9459518,29.879824,-9.8833244,-1.0999716,-6.6046242,1211.2015,0.45435505,-0.016316929,0.89067123,1,0
24.841362,1.3081867,29.880465,-5.5517934,-0.1449877,-6.447156,1193.0446,0.11076261,-0.049544156,0.99261121,1,0
40.97888,1.693832,29.892897,-10.126736,-0.44694548,-6.9894917,1189.8501,0.46730109,0.026249964,0.88370846,1,0
41.663142,0.75577776,30.010897,-10.171989,-0.32771971,-7.1027858,1188.5689,0.4431725,0.041850423,0.89545892,1,0
66.472901,5.5623524,30.029993,-14.025912,-0.92228096,-5.8917686,1202.5575,0.5500866,-0.0095826285,0.83505264,1,0
26.661927,-3.4821645,30.069453,-6.8393571,0.5652372,-6.6290195,1241.2744,0.40059487,0.044029218,0.9151968,1,0
25.24381,1.2584498,30.238381,-6.1320877,-0.19495554,-7.0048335,1182.6203,0.21587839,-0.023548601,0.97613625,1,0
32.975429,-0.86148605,30.304083,-5.8858961,1.2533876,-5.0146189,1259.6168,-0.10383091,-0.43513929,0.89435616,1,0
33.275919,-0.76117296,30.306342,-6.6655275,0.98872466,-5.7430238,1219.9521,0.047161501,-0.31999543,0.94624453,1,0
54.023764,3.2668831,30.368381,-11.75728,-0.40243435,-6.339322,1217.2642,0.45760901,-0.045864346,0.88796985,1,0
30.49682,0.91704326,30.375199,-8.0040771,-0.63440868,-6.9472994,1238.9412,0.47800446,0.11654835,0.87059073,1,0
19.662501,-2.0821174,30.399167,-4.7844762,0.43247241,-6.5070564,1214.155,0.23575947,0.0037893142,0.97180405,1,0
51.17407,2.8772152,30.44681,-11.934331,-0.74261772,-6.7820516,1191.749,0.50849303,0.044463595,0.85991734,1,0
30.544774,-0.70277644,30.601906,-7.8903256,0.062798322,-7.2238225,1195.0829,0.41451761,0.022898997,0.90975315,1,0
25.048537,6.1331125,30.616388,-4.6774074,-0.4930671,-6.2227993,1267.5742,-0.085459977,-0.24403384,0.96599383,1,0
24.674779,4.2876577,30.709663,-4.8735209,-0.39150236,-6.1770282,1260.2563,-0.0065791848,-0.16690724,0.98595065,1,0
28.122288,0.96893712,30.715703,-6.425112,0.16019416,-6.6440712,1218.249,0.22211101,-0.12051005,0.96754536,1,0
38.437946,-1.9015587,30.749361,-8.7054672,0.76496433,-6.4014708,1192.3411,0.33858483,-0.12165428,0.93303834,1,0
54.477979,-1.2796227,30.817861,-11.828389,0.44062078,-6.3893056,1229.0448,0.47209386,-0.049062754,0.88018193,1,0
29.848573,-1.4497268,30.842379,-6.4425235,0.51251647,-6.0215969,1266.8502,0.23314634,-0.083062381,0.96888773,1,0
25.263795,-1.5543105,30.96002,-5.563541,0.44988416,-6.2032791,1238.0649,0.18247507,-0.052274884,0.98181983,1,0
41.302521,-3.7422064,30.977414,-8.8606426,1.1950994,-5.6576012,1255.3101,0.39717796,-0.16534836,0.90272343,1,0
33.285099,2.5904348,30.981063,-7.8265522,-0.57302391,-6.5810259,1255.0502,0.38791491,0.019767645,0.92148319,1,0
35.350787,4.0400429,31.008804,-7.1392765,-0.10868884,-5.7795567,1246.1031,0.1571618,-0.23201519,0.95993183,1,0
26.590603,-1.6269156,31.023309,-5.5783551,0.53897832,-5.9411866,1248.2582,0.13320255,-0.086082272,0.98734337,1,0
25.212104,1.1046682,31.039949,-5.7108566,-0.23017533,-6.4041863,1250.0005,0.22934081,0.0028569847,0.97334199,1,0
19.087662,-3.4447253,31.073655,-5.5447523,0.26388675,-7.1097928,1221.6458,0.45172026,0.14203392,0.880781,1,0
34.879848,3.5213552,31.193393,-7.2319024,-0.37340211,-5.9202728,1262.1416,0.22342598,-0.10108585,0.96946505,1,0
31.35266,-2.3525586,31.235895,-6.1465952,1.1362069,-5.5317563,1262.8485,0.077014917,-0.28291838,0.95604701,1,0
24.286362,1.1079389,31.245028,-5.5377091,0.032110163,-6.8085569,1202.667,0.16427013,-0.092758325,0.98204441,1,0
46.19653,5.042389,31.334889,-9.0067469,-0.12815634,-5.0901402,1253.1742,0.28809719,-0.28192616,0.9151599,1,0
36.486706,1.6422024,31.352143,-8.8644454,-0.24575137,-7.1099729,1205.9546,0.41646777,-0.021265703,0.90890174,1,0
21.068056,-0.17207508,31.615811,-4.0107129,0.61692085,-6.4726694,1211.5159,-0.12078201,-0.22014709,0.96796021,1,0
28.14088,-1.0527604,31.623523,-7.0328163,0.0097429364,-6.9159895,1237.9855,0.40385838,0.059086654,0.91291137,1,0
36.546111,1.7906849,31.642485,-7.5989972,0.18190783,-6.0437813,1240.138,0.22709478,-0.1764672,0.95775116,1,0
32.373142,-0.71373165,31.656801,-7.3538945,0.37999909,-6.5666214,1225.0178,0.30656054,-0.077709034,0.94867378,1,0
21.860151,-4.3767746,31.660666,-4.9228158,1.1675265,-6.6224438,1226.2144,0.16215657,-0.099556745,0.98172995,1,0
56.900589,-2.7199729,31.771627,-11.001869,1.2258942,-4.9281668,1236.0519,0.41341284,-0.25773186,0.87330642,1,0
30.889007,-2.3190965,31.77478,-6.4455199,0.830867,-6.0896551,1247.2328,0.17729006,-0.13914465,0.97427255,1,0
25.39655,-1.8824657,31.803722,-5.1893068,0.78469238,-6.3130808,1208.6841,0.011125527,-0.16354314,0.98647345,1,0
20.140305,-2.6457178,31.843505,-5.2681383,0.42882497,-7.3355467,1269.875,0.33445609,0.030165789,0.94192842,1,0
45.524346,-3.7281964,31.867806,-10.156893,1.0309132,-6.5955649,1230.8953,0.4362964,-0.086655659,0.89562059,1,0
70.037864,3.8178566,31.86892,-14.25761,-0.79953369,-6.2834334,1209.8566,0.51500056,0.032742031,0.85656429,1,0
52.091075,6.0447154,31.879896,-11.002805,-1.1360341,-6.3528388,1251.0985,0.43653224,0.016166608,0.89954335,1,0
38.604961,-1.9179282,31.895291,-7.1600225,1.6998193,-5.2717931,1189.5784,-0.021167934,-0.45058204,0.89248403,1,0
30.119845,2.5092437,31.995592,-6.6588244,-0.47239631,-6.5301624,1231.2359,0.24296806,-0.0077857067,0.97000304,1,0
24.299254,7.816088,32.002689,-4.6412905,-1.0420172,-6.4129612,1264.7749,-0.029095751,-0.16576111,0.98573662,1,0
42.942481,2.8858092,32.015207,-8.6070266,0.1247796,-5.8360642,1218.5888,0.22506298,-0.21930107,0.94934382,1,0
32.224445,1.3419523,32.059862,-6.7970822,-0.13519697,-6.1856062,1268.0759,0.23601915,-0.040995008,0.97088329,1,0
46.611719,-0.95548911,32.079812,-10.896139,0.0027523023,-7.3302373,1206.2762,0.45917209,0.038415132,0.88751635,1,0
32.320564,4.7923171,32.086077,-7.1298005,-0.76504966,-6.9588652,1191.8717,0.19480697,-0.06310317,0.9788096,1,0
30.340823,-1.8294927,32.101472,-5.7590817,1.0749631,-5.7892029,1242.1407,-0.017751884,-0.28940315,0.95704268,1,0
57.399313,10.098154,32.189867,-10.99781,-1.7031516,-5.4046434,1191.1857,0.31322763,-0.02049763,0.94945685,1,0
38.102801,-0.37157265,32.218216,-8.4173241,0.58040471,-6.7513565,1192.1033,0.28502883,-0.15393856,0.94607689,1,0
22.249197,7.6101568,32.288731,-5.2139355,-1.2575335,-7.4737662,1257.967,0.20882852,-0.074066405,0.97514349,1,0
54.732631,-2.5740957,32.295554,-11.984617,0.73866126,-6.7735498,1192.8951,0.46553525,-0.062420049,0.88282539,1,0
28.742302,-3.8644583,32.346114,-7.8454472,0.37573076,-7.7393243,1203.1074,0.39022168,-0.00012272177,0.92072092,1,0
31.130051,1.3190428,32.447096,-8.0468528,-0.47466285,-7.7071072,1207.6733,0.38832834,0.00015175614,0.92152107,1,0
48.127082,7.9956788,32.569423,-10.196634,-1.0954284,-6.280124,1202.9426,0.38626911,-0.10809419,0.91603047,1,0
25.539266,-1.2387748,32.619067,-5.5497659,0.33078063,-6.4467294,1256.3231,0.20258057,-0.032075029,0.97874016,1,0
24.994329,-2.2292085,32.741879,-5.3947726,0.5434014,-6.4215437,1232.8384,0.17149969,-0.038832723,0.98441855,1,0
30.099494,3.5769895,32.830238,-7.2710731,-0.8608261,-7.4896942,1205.8805,0.32928218,0.038238861,0.94345696,1,0
36.054424,-1.4911996,32.916691,-6.4299306,1.2646597,-5.4356934,1260.4833,-0.032740882,-0.38015634,0.92434257,1,0
28.929415,-0.28903063,32.935296,-5.9165816,0.52320083,-6.3845963,1266.0867,0.14208146,-0.16214085,0.97648513,1,0
37.840903,1.0254983,32.945196,-8.0822296,0.29852544,-6.5895584,1207.7989,0.25931704,-0.15598451,0.95311254,1,0
46.194982,-2.7270621,32.964653,-10.367838,0.53930954,-7.1244625,1210.8414,0.41921645,-0.0073112501,0.90785688,1,0
73.687121,6.0338702,33.065481,-14.829837,-0.96382756,-6.2507273,1203.4239,0.5496352,-0.006813238,0.835377,1,0
51.211888,3.5274426,33.190189,-10.878466,-0.60530671,-6.4523094,1238.3564,0.45250468,-0.0052544189,0.89174655,1,0
27.747459,1.3908969,33.233483,-6.0736224,-0.18647994,-6.964431,1193.9111,0.16297082,-0.032273012,0.98610292,1,0
41.310028,0.32497316,33.251293,-9.6659429,-0.16936433,-7.295934,1222.0172,0.44240523,0.025914653,0.89644076,1,0
30.65958,1.7968892,33.258271,-7.3649548,-0.31813319,-7.5101781,1207.7012,0.33624109,-0.011254725,0.94170869,1,0
46.650442,6.5106007,33.287138,-10.554193,-1.1580226,-7.0243583,1212.0679,0.46047507,-0.011432847,0.88759901,1,0
36.753,-1.2573108,33.291188,-7.2420987,0.99437552,-6.1964546,1220.8185,0.11905804,-0.25886568,0.95854773,1,0
29.778439,2.1525847,33.355236,-7.9607629,-1.0867053,-7.6542123,1231.1023,0.48838026,0.15526922,0.85870611,1,0
28.470225,-0.31812745,33.43251,-7.2713393,-0.31981206,-7.3915845,1242.4738,0.43987245,0.10090053,0.89237397,1,0
30.213693,-3.7658306,33.496647,-7.3683681,0.56840181,-7.0794208,1242.1409,0.42287445,0.045866743,0.90502676,1,0
46.213071,1.9264386,33.497879,-10.810265,-0.48291715,-7.4301405,1190.7165,0.47129166,0.026896199,0.88156722,1,0
39.653683,4.5405278,33.558055,-9.2024868,-0.93257217,-7.2021478,1194.7437,0.40957737,0.014948649,0.9121529,1,0
42.108977,-4.3550486,33.620652,-9.5946306,0.83007391,-6.8468086,1220.2934,0.45596062,-0.0041932048,0.88999007,1,0
60.079821,3.4752939,33.636661,-12.466224,-0.43094257,-6.7339886,1218.1307,0.46169989,-0.037879962,0.88622701,1,0
46.916107,0.92817504,33.67469,-10.839744,-0.36135351,-7.5522504,1189.4353,0.4689328,8.1443834e-05,0.88323384,1,0
22.168293,-2.3001887,33.781055,-5.2391604,0.43996053,-7.020187,1215.0215,0.26517004,0.0089628751,0.96416001,1,0
27.487169,6.3896041,33.845317,-5.077753,-0.53337627,-6.6925801,1268.4407,-0.032059694,-0.21542545,0.97599388,1,0
24.114105,3.4725906,33.850937,-5.4643026,-0.39336747,-7.3229196,1259.0379,0.22211744,-0.082811542,0.97149683,1,0
45.897151,-4.3468881,33.899854,-9.5180014,1.2243785,-6.0319463,1256.1766,0.41899624,-0.13796436,0.89744525,1,0
27.221062,4.4943547,33.915074,-5.313005,-0.43601705,-6.6439667,1261.1228,0.04982243,-0.14111255,0.98873908,1,0
57.326262,3.2596683,33.940626,-12.673813,-0.78672872,-7.1934292,1192.6154,0.5101859,0.042714628,0.8590028,1,0
34.636479,1.250627,33.959937,-8.5546962,-0.69990751,-7.3914133,1239.8076,0.47194865,0.11157382,0.87453745,1,0
33.197524,-1.7021412,33.960863,-6.9531533,0.49627373,-6.4522252,1267.7167,0.26207241,-0.059687254,0.96320065,1,0
50.870733,5.115293,33.970388,-9.6904943,-0.16244272,-5.4515052,1254.0407,0.33210417,-0.23071364,0.91459173,1,0
39.061144,4.1057113,34.005715,-7.7022178,-0.15321599,-6.2078314,1246.9696,0.19847464,-0.19392243,0.96072988,1,0
29.121846,0.41176951,34.05038,-6.6328923,-0.075303383,-7.068937,1271.3877,0.32056031,-0.00076290984,0.9472278,1,0
29.505698,-1.8938178,34.107679,-6.0831009,0.52770548,-6.395722,1249.1247,0.18393321,-0.061289921,0.98102605,1,0
34.558772,-2.9242779,34.10773,-6.6787019,1.1497162,-5.9551212,1263.715,0.1461566,-0.2235268,0.96367734,1,0
60.568561,-1.5032149,34.107886,-12.533273,0.45452933,-6.7710014,1229.9112,0.47587765,-0.043156907,0.87845202,1,0
28.168888,-1.7782665,34.179577,-6.0578797,0.44499804,-6.6744058,1238.9314,0.22231399,-0.035841645,0.9743161,1,0
38.632303,3.7225553,34.258196,-7.77804,-0.43074057,-6.3386702,1263.008,0.25349938,-0.077604195,0.96421764,1,0
62.592292,-3.3397489,34.31997,-11.764848,1.2539611,-5.2649948,1236.9184,0.44151099,-0.21106272,0.87207831,1,0
34.635829,-0.72686162,34.334719,-8.4732477,0.032930701,-7.7075905,1195.9493,0.41908165,0.02785749,0.90752109,1,0
28.192376,1.2320691,34.356273,-6.2108395,-0.28060031,-6.8606358,1250.867,0.25915641,0.014285362,0.96572971,1,0
37.333677,2.8916099,34.379043,-8.3679257,-0.6307818,-7.0106677,1255.9167,0.3926576,0.025776525,0.91932344,1,0
47.243027,2.6251961,34.546142,-10.157338,-0.40215548,-6.929687,1216.8425,0.37120553,-0.017950999,0.9283772,1,0
42.350508,-2.7819107,34.6453,-7.822499,1.7550521,-5.7278579,1190.4449,0.057971759,-0.44647058,0.89291841,1,0
21.974026,-3.578153,34.754567,-6.0014041,0.26964632,-7.6134836,1222.5123,0.4449698,0.12570742,0.88667893,1,0
40.489084,1.7082773,34.771633,-8.1729651,0.14839532,-6.4725459,1241.0044,0.25856407,-0.14351805,0.95527336,1,0
34.243724,-2.734874,34.930819,-6.9738509,0.8313891,-6.5342352,1248.0992,0.2171376,-0.10895186,0.97004163,1,0
23.176423,-0.48436991,34.984265,-4.4228868,0.63246302,-7.0009192,1212.3824,-0.048217238,-0.18873004,0.98084457,1,0
63.089917,10.978702,34.988887,-11.764699,-1.818626,-5.7913041,1192.0522,0.34873407,-0.0056673198,0.93720458,1,0
41.068986,1.7742726,35.021846,-9.4646784,-0.2824566,-7.5686462,1206.8211,0.41980421,-0.01257944,0.90752751,1,0
47.409814,2.8318679,35.037602,-9.2625704,0.091368437,-6.2532139,1219.4552,0.26538809,-0.18285656,0.94664283,1,0
38.248514,1.8898567,35.053236,-8.6510834,-0.30939412,-7.3702818,1204.3553,0.35099265,-0.012825485,0.93629037,1,0
28.113968,-2.2803927,35.087046,-5.6808909,0.80714153,-6.8198594,1209.5505,0.087641803,-0.12996597,0.98763746,1,0
77.359734,4.2305096,35.102781,-15.028519,-0.85144381,-6.6525846,1210.7231,0.5150495,0.033980681,0.85648662,1,0
33.350034,-2.3713089,35.109574,-6.2781549,1.0917446,-6.2429497,1243.0071,0.045559089,-0.24629815,0.96812271,1,0
57.756526,6.630101,35.15044,-11.658502,-1.205266,-6.7294169,1251.965,0.44164978,0.020203143,0.89696003,1,0
31.789512,-1.0489838,35.195857,-7.5614278,-0.026195126,-7.3733059,1238.852,0.40885536,0.061070217,0.91055352,1,0
35.750452,1.4212234,35.260262,-7.306983,-0.18124894,-6.6157887,1268.9423,0.26100984,-0.02429304,0.96503042,1,0
50.767088,-4.2548252,35.266737,-10.81375,1.0768767,-7.000239,1231.7618,0.44364712,-0.077807361,0.89281759,1,0
26.714766,8.3595661,35.327415,-5.0185074,-1.130726,-6.8863803,1265.6414,0.014565099,-0.13783258,0.99034844,1,0
33.580693,2.7611088,35.377318,-7.1847455,-0.53461193,-6.9965202,1232.1024,0.26948891,0.0045743709,0.96299263,1,0
66.926178,-4.8684709,35.380737,-14.233637,0.58516712,-7.3432873,1216.0327,0.53843122,-0.0035978602,0.84266178,1,0
22.865174,-2.868385,35.629802,-5.6314024,0.4618541,-7.809524,1270.7415,0.3276984,0.02176422,0.94453167,1,0
39.405262,-2.1255963,35.739643,-6.9734267,1.2733867,-5.855917,1261.3498,0.02820675,-0.32828739,0.94415664,1,0
60.90744,-2.9485199,35.786436,-12.713995,0.76024863,-7.1901886,1193.7615,0.47024134,-0.054072029,0.88087984,1,0
52.223735,-0.952528,35.853218,-11.551547,-0.013822518,-7.7634159,1207.1426,0.46004961,0.037407684,0.88710485,1,0
28.430563,-1.4026672,35.957852,-6.0167253,0.32405543,-6.9078049,1257.1895,0.23488926,-0.020627392,0.97180324,1,0
55.016801,4.5254315,36.041005,-10.923187,-0.50086372,-6.6905545,1258.7545,0.40744433,-0.063228465,0.91103857,1,0
27.810716,-2.5028398,36.073752,-5.8711918,0.55121551,-6.9057076,1233.7049,0.21050676,-0.026829978,0.97722416,1,0
24.947728,8.2565318,36.146942,-5.5797063,-1.3278698,-7.9590353,1258.8335,0.21960127,-0.0614288,0.97365383,1,0
32.006738,-0.55124798,36.239088,-6.3939952,0.5244703,-6.8299718,1266.9532,0.18085858,-0.13626478,0.97402366,1,0
81.301377,6.5263472,36.281397,-15.625679,-1.0063826,-6.6136938,1204.2904,0.54796176,-0.0041944629,0.83649287,1,0
32.801585,-4.053824,36.338349,-8.3933566,0.37996542,-8.2287194,1203.9739,0.46607246,0.090621872,0.88009325,1,0
42.031179,0.88387807,36.3545,-8.6788341,0.26820173,-7.047475,1208.6654,0.28587311,-0.12546806,0.95001807,1,0
40.517224,-1.7540374,36.502959,-7.8144247,0.9922026,-6.6506535,1221.685,0.16600434,-0.21432657,0.96255217,1,0
56.819685,3.8426284,36.512434,-11.5527,-0.65470243,-6.8365277,1239.2229,0.45887652,0.001203883,0.88849923,1,0
51.539601,-2.9983717,36.635367,-11.010336,0.54689927,-7.5583894,1211.7079,0.4240213,-0.0036730892,0.90564477,1,0
33.869822,4.0235228,36.698373,-7.81061,-0.92466459,-7.9825444,1206.747,0.34274413,0.039907288,0.93858077,1,0
55.887446,5.2037614,36.786049,-10.3767,-0.19043876,-5.8108302,1254.9071,0.3631146,-0.19974086,0.91008317,1,0
30.916138,1.4953575,36.844317,-6.6025771,-0.2319008,-7.4780741,1194.7776,0.20535869,-0.017599679,0.97852852,1,0
46.292944,0.41870823,37.008623,-10.265529,-0.20493257,-7.7332749,1222.8837,0.44169273,0.028810495,0.89670368,1,0
68.665187,-3.974784,37.036531,-12.526313,1.2875791,-5.6011961,1237.7849,0.45997515,-0.18234123,0.86900779,1,0
42.032907,2.7683297,37.053314,-6.4427232,0.88107886,-5.2830711,1271.1476,-0.16292801,-0.46732424,0.86894334,1,0
38.802137,0.05323903,37.059333,-6.0548532,1.1595268,-5.578756,1257.2909,-0.18236826,-0.41703503,0.89040643,1,0
47.845099,4.110908,37.064855,-9.939844,-0.69468112,-7.1562626,1231.5054,0.36312914,-0.0065568319,0.93171575,1,0
53.760261,1.9594821,37.073565,-11.158018,-0.23670934,-7.2200523,1210.7568,0.42738785,-0.024816198,0.90372772,1,0
66.48922,3.697522,37.102565,-13.170755,-0.45730912,-7.1297263,1218.9971,0.46438087,-0.03164199,0.88507016,1,0
34.476427,1.9667504,37.136304,-7.9021175,-0.36135328,-8.0019021,1208.5677,0.34792466,-0.0027661998,0.93751842,1,0
34.031057,-4.0492964,37.148509,-7.9018557,0.56409054,-7.5276613,1243.0073,0.42625379,0.047488111,0.90335629,1,0
47.068902,-4.7726683,37.148843,-10.245582,0.84129393,-7.2655858,1221.1598,0.46291613,0.001613134,0.88640062,1,0
38.031747,-3.5012152,37.190705,-7.2132833,1.1576366,-6.376549,1264.5814,0.19218237,-0.1828025,0.96418317,1,0
43.053085,4.19246,37.21637,-8.2656263,-0.1930443,-6.6345277,1247.836,0.23157013,-0.16343723,0.9589909,1,0
32.235279,-0.14612881,37.242716,-7.788865,-0.36798294,-7.8490579,1243.3403,0.43937237,0.097281274,0.89302199,1,0
33.893336,2.716954,37.297099,-8.4989597,-1.1702408,-8.1130378,1231.9688,0.48221317,0.1464807,0.86372094,1,0
53.04087,-0.71421276,37.302841,-11.106961,0.44493123,-7.4789356,1189.6419,0.40344694,-0.074904594,0.91193194,1,0
51.789343,2.1762342,37.322763,-11.494953,-0.51584263,-7.8691513,1191.583,0.47494264,0.026859016,0.87960678,1,0
29.989058,4.7245335,37.352998,-5.7588638,-0.48439894,-7.1076322,1261.9892,0.097501428,-0.11810735,0.98820247,1,0
32.674555,-2.1535796,37.418606,-6.5929676,0.51025863,-6.8476585,1249.9912,0.22459101,-0.03991099,0.97363545,1,0
42.658038,3.9514214,37.531773,-8.3250527,-0.48411292,-6.755346,1263.8745,0.27760043,-0.05958682,0.95884692,1,0
29.691554,-2.7608704,37.557978,-6.8346074,0.39471737,-7.6078547,1243.2936,0.36229318,0.032775829,0.93148773,1,0
52.502694,1.1166446,37.563048,-11.506343,-0.3921568,-8.0011173,1190.3018,0.46868999,0.00012078618,0.88336271,1,0
67.010454,-1.7349211,37.589126,-13.233451,0.47296568,-7.1542361,1230.7777,0.47817848,-0.039167579,0.87738888,1,0
46.427759,-3.671051,37.622716,-8.4864019,1.8001586,-6.1816272,1191.3114,0.12069544,-0.39119657,0.9123584,1,0
26.947346,3.6763129,37.632104,-5.8684147,-0.42178717,-7.8016414,1259.9044,0.23823809,-0.070107688,0.96867308,1,0
31.32295,-1.9981609,37.633792,-6.5597119,0.43338802,-7.1417858,1239.7979,0.25541785,-0.021038819,0.96660183,1,0
63.847082,3.6635051,37.640555,-13.408562,-0.82825982,-7.6066477,1193.4819,0.51076012,0.040787382,0.8587552,1,0
32.556917,0.45630644,37.695286,-7.1075355,-0.1020671,-7.5104461,1272.2541,0.3322672,0.0053089499,0.94317036,1,0
39.05168,1.6168414,37.766357,-9.1062738,-0.7645495,-7.8339972,1240.6741,0.46699892,0.10705703,0.87775327,1,0
45.59057,2.2045665,37.794132,-9.2328109,-0.27429147,-7.0229398,1273.3249,0.37527756,-0.026162132,0.9265432,1,0
69.163733,11.916398,37.981271,-12.529983,-1.9318725,-6.1784573,1192.9187,0.37294089,0.0035467637,0.92784833,1,0
41.653208,3.220333,37.99148,-8.9103286,-0.6834455,-7.4388155,1256.7831,0.39657592,0.029306299,0.91753402,1,0
44.719151,1.64156,38.114765,-8.7473715,0.11915339,-6.8997243,1241.8709,0.28363848,-0.11766478,0.95168493,1,0
52.205367,2.7939624,38.268092,-9.9201187,0.061047008,-6.6683368,1220.3217,0.29791368,-0.15342654,0.94218243,1,0
37.862879,-3.1495287,38.308911,-7.5024399,0.82664297,-6.978126,1248.9657,0.24835113,-0.083215434,0.96508907,1,0
39.017661,-0.73539213,38.309489,-9.0541877,0.0013499499,-8.1912116,1196.8158,0.42203763,0.031943845,0.90601536,1,0
36.619445,-2.9204879,38.344152,-6.7999671,1.1041124,-6.6950938,1243.8736,0.11681108,-0.19537034,0.97374822,1,0
70.972358,-0.87465618,38.475634,-13.975036,0.045722971,-7.5796995,1240.1696,0.49393772,0.016642711,0.86933799,1,0
85.064085,4.669796,38.52275,-15.785912,-0.90602011,-7.0290037,1211.5895,0.51290813,0.035464771,0.85771062,1,0
63.74921,7.2493921,38.609314,-12.311917,-1.2712012,-7.1060457,1252.8314,0.44551771,0.02291032,0.89497994,1,0
25.491164,-0.80471228,38.61648,-4.8363562,0.64903024,-7.5276805,1213.2488,0.011190629,-0.16230685,0.98667688,1,0
31.0779,-2.6896886,38.623253,-6.1749547,0.83006344,-7.3247762,1210.417,0.13743068,-0.10838627,0.98456347,1,0
25.089914,-3.7140451,38.68673,-6.4629593,0.27355476,-8.114786,1223.3788,0.43976959,0.11254908,0.89103053,1,0
43.027901,-2.7652592,38.772385,-7.5173482,1.2859893,-6.2747704,1262.2162,0.096998458,-0.26884561,0.95828667,1,0
27.229788,-5.5900426,38.783056,-5.8180168,1.2595495,-7.6212672,1227.9473,0.20731539,-0.060769932,0.97638483,1,0
42.720484,2.055521,38.855824,-9.2368044,-0.3530395,-7.8398443,1205.2218,0.37912616,-0.0044314584,0.92533438,1,0
56.337594,-4.8063341,38.868205,-11.46746,1.130093,-7.4059055,1232.6282,0.44882167,-0.072118446,0.89070648,1,0
45.951375,1.9245489,38.920588,-10.064842,-0.31855845,-8.0261308,1207.6876,0.42243191,-0.0057044637,0.90637671,1,0
35.70234,-1.0264805,38.996623,-8.0900933,-0.063211126,-7.8294579,1239.7184,0.4124314,0.062502089,0.90884203,1,0
74.226426,-5.167163,39.148063,-14.966202,0.61060351,-7.726493,1216.8992,0.53689014,-0.0053078812,0.84363547,1,0
30.39676,1.5362198,39.446771,-6.9762803,-0.37377566,-8.349478,1185.9687,0.31446997,0.021535859,0.9490231,1,0
60.63951,4.7821529,39.47944,-11.5677,-0.52504578,-7.0630169,1259.621,0.41768754,-0.055345383,0.90690353,1,0
67.445928,-3.3354103,39.485953,-13.439222,0.78823951,-7.6080939,1194.628,0.47339488,-0.048498465,0.87951418,1,0
30.866495,-2.7800682,39.647109,-6.3531278,0.55675043,-7.3871424,1234.5713,0.24207164,-0.016891712,0.97011133,1,0
25.771835,-3.1074715,39.652902,-5.9954053,0.49429612,-8.2827424,1271.608,0.32380133,0.015972472,0.94599026,1,0
89.310677,7.0408503,39.6803,-16.409461,-1.0524504,-6.9828881,1205.1569,0.54468485,-0.0012675655,0.83863985,1,0
61.247742,5.3046972,39.780923,-11.064716,-0.21235079,-6.168405,1255.7736,0.38787101,-0.17517367,0.90491451,1,0
45.391205,2.3289634,39.796091,-6.9907966,0.87710111,-5.6876409,1272.014,-0.095591755,-0.42470798,0.9002696,1,0
58.162844,-0.94262014,39.843287,-12.204413,-0.02494061,-8.1969376,1208.0091,0.46909659,1.8280921e-05,0.88314687,1,0
75.117987,-4.6290741,39.921198,-13.284179,1.3311458,-5.9376005,1238.6513,0.47339484,-0.16101707,0.86600856,1,0
44.567188,-2.2502327,39.941778,-8.385308,0.99352998,-7.1045273,1222.5515,0.20328782,-0.17824589,0.96275774,1,0
41.961031,-0.52648895,39.957217,-6.5807643,1.1600751,-6.012569,1258.1573,-0.11362299,-0.37067381,0.92178671,1,0
41.484388,-3.4881837,39.965985,-8.87123,0.69402632,-7.8300065,1214.8264,0.37738916,-0.018556598,0.92586882,1,0
62.764556,4.1813161,40.026569,-12.226703,-0.69929429,-7.2198796,1240.0893,0.46401745,0.0054857047,0.88580907,1,0
39.115318,-1.8283258,40.074751,-6.2916496,1.3085976,-6.2546602,1250.9187,-0.099230545,-0.34984985,0.9315355,1,0
27.828869,8.9370049,40.247724,-5.9452712,-1.3929612,-8.4439653,1259.6999,0.22827945,-0.051927007,0.97220989,1,0
39.680504,5.5386754,40.436224,-8.3434594,-1.1312721,-7.9153108,1229.8731,0.33980288,0.039022472,0.93968678,1,0
41.772255,-4.0823431,40.483979,-7.748988,1.1673716,-6.7962275,1265.4479,0.22899878,-0.1498038,0.96183074,1,0
57.204938,-3.274938,40.523074,-11.650584,0.56023036,-7.9924882,1212.5743,0.42758542,-0.0019889776,0.90397276,1,0
37.137253,-4.242424,40.57402,-8.9501962,0.37271906,-8.7135641,1204.8403,0.46291492,0.084802448,0.88233685,1,0
24.564245,2.0564183,40.577015,-5.3563436,-0.10642035,-8.6649166,1198.941,0.18399411,-0.075637185,0.98001285,1,0
39.726856,1.8387995,40.639431,-9.1468537,-0.56298074,-8.6766594,1209.4062,0.42517835,0.049315297,0.90376511,1,0
47.326873,4.2979951,40.639963,-8.8296525,-0.22839991,-7.0595492,1248.7025,0.25839177,-0.13908014,0.95597615,1,0
34.352291,1.6234572,40.710363,-7.1441238,-0.28124462,-7.984961,1195.644,0.23684142,-0.0048192829,0.97153637,1,0
57.877122,7.722462,40.729226,-11.899789,-1.2635696,-7.8587793,1213.8009,0.47002327,-0.0056847855,0.88263572,1,0
52.968988,4.4728444,40.747752,-10.555652,-0.75291989,-7.5751564,1232.3718,0.40014408,0.0011842007,0.91645148,1,0
73.249923,3.9317504,40.766488,-13.871363,-0.47883931,-7.5260795,1219.8636,0.46608478,-0.027280606,0.88431937,1,0
59.509224,2.0855673,40.787584,-11.837866,-0.26730321,-7.6358035,1211.6233,0.43639276,-0.017477853,0.89958651,1,0
66.989795,4.0828816,40.812379,-12.710529,-0.22659954,-7.4196833,1207.8262,0.41671762,-0.094037829,0.9041589,1,0
37.910508,4.5009942,40.812468,-8.3525136,-0.9846247,-8.4735243,1207.6134,0.35387291,0.040349023,0.93442277,1,0
50.836652,-4.5819775,40.826905,-9.1493405,1.8447767,-6.6349089,1192.1778,0.17227803,-0.34117624,0.92407741,1,0
52.355092,-5.1972308,40.88586,-10.899659,0.85773605,-7.6821271,1222.0263,0.46892852,0.0048764982,0.88322266,1,0
36.098762,-2.4028579,40.955168,-7.1037936,0.48606273,-7.298442,1250.8576,0.25645714,-0.021122117,0.96632479,1,0
51.575483,0.52910867,40.984416,-10.864691,-0.23580496,-8.1696962,1223.7501,0.44144024,0.03041741,0.89677494,1,0
38.11591,-4.3287726,41.024056,-8.4376477,0.55406356,-7.9742906,1243.8738,0.42899835,0.049678292,0.90193818,1,0
86.378258,9.902749,41.10468,-15.477408,-1.6074084,-6.929784,1203.3124,0.49826727,0.02379833,0.86669681,1,0
45.107828,-1.4413698,41.114838,-9.4790372,0.42935036,-8.1208208,1191.2365,0.36307918,-0.042510669,0.93078803,1,0
58.764086,-0.93840146,41.153673,-11.785673,0.45318448,-7.9243293,1190.5084,0.41287134,-0.064796603,0.90848151,1,0
75.619215,12.910263,41.167653,-13.291321,-2.0432146,-6.5674005,1193.7851,0.39140308,0.010774204,0.92015626,1,0
49.482349,5.5356517,41.221286,-10.454936,-1.0555021,-8.1233718,1196.4766,0.42216656,0.021214905,0.90627001,1,0
38.561632,2.157996,41.26,-8.4387767,-0.40317754,-8.492638,1209.4342,0.35701023,0.003694411,0.93409317,1,0
73.800957,-1.9770183,41.262515,-13.927407,0.49632558,-7.5397653,1231.6442,0.4794769,-0.03640367,0.87679911,1,0
36.259193,0.049508898,41.281331,-8.3070402,-0.41410052,-8.3050953,1244.2067,0.43647481,0.091703931,0.8950308,1,0
57.708082,2.4418936,41.366823,-12.17997,-0.54649046,-8.3069224,1192.4494,0.47797114,0.026377254,0.8779794,1,0
50.347651,2.3489982,41.404316,-9.7956989,-0.30290255,-7.4175005,1274.1914,0.38437913,-0.019174257,0.92297618,1,0
38.277549,3.3223379,41.468057,-9.0380857,-1.251,-8.5705337,1232.8352,0.47699245,0.13844373,0.86793521,1,0
33.230346,-2.9585825,41.479105,-7.3221667,0.39442716,-8.0759257,1244.1601,0.36974923,0.033059028,0.92854327,1,0
70.733682,4.0876032,41.547753,-14.136694,-0.86791807,-8.0225927,1194.3483,0.51016684,0.038860239,0.85919711,1,0
36.229126,0.51288295,41.560735,-7.580738,-0.12322637,-7.9513789,1273.1206,0.3410947,0.008781731,0.93998792,1,0
29.982342,3.8946871,41.652452,-6.2710976,-0.45154909,-8.2797029,1260.7708,0.25074169,-0.059227163,0.96624052,1,0
80.006261,9.7144267,41.668395,-14.580781,-1.3069177,-7.2019072,1214.4565,0.4810287,-0.034551385,0.87602374,1,0
57.330442,2.7698993,41.705521,-10.580497,0.036074436,-7.0810862,1221.1882,0.32466903,-0.13024377,0.93681726,1,0
43.742919,2.0147671,41.793653,-9.6588335,-0.82682658,-8.2749131,1241.5406,0.46296495,0.10263611,0.88041427,1,0
40.150545,-3.4743634,41.804385,-7.3246469,1.1105361,-7.1456486,1244.7401,0.16215347,-0.16090893,0.97355769,1,0
46.244155,3.574411,41.817572,-9.4536171,-0.73228956,-7.8652594,1257.6496,0.39988907,0.031277164,0.91602973,1,0
58.055165,3.0694713,41.89525,-11.467216,-0.48522743,-7.7676615,1218.5754,0.42486271,-0.0045395867,0.90524642,1,0
41.746063,-3.5620165,41.908809,-8.0302506,0.82402966,-7.4213019,1249.8322,0.25858687,-0.059600176,0.96414763,1,0
35.632786,1.6261214,41.930767,-7.7313266,-0.30009615,-8.5789073,1185.2197,0.30602047,0.00063430101,0.95202472,1,0
46.923104,-3.4125743,42.014032,-8.0639137,1.3045095,-6.691477,1263.0827,0.1433431,-0.23011906,0.96254765,1,0
93.143495,5.1370815,42.132611,-16.530239,-0.96370545,-7.4107262,1212.456,0.51010248,0.037146185,0.85931113,1,0
70.068046,7.9005933,42.256484,-12.962988,-1.3329674,-7.4826496,1253.6979,0.44841976,0.024419123,0.89348947,1,0
34.288825,-3.1105852,42.411758,-6.6685452,0.85369024,-7.8292362,1211.2835,0.17649757,-0.091056174,0.98008029,1,0
28.013117,-1.1334974,42.511665,-5.25182,0.66616511,-8.0527761,1214.1153,0.059965051,-0.14019697,0.98830613,1,0
43.690132,-0.72836418,42.525645,-9.635761,-0.029111573,-8.6731552,1197.6823,0.42441411,0.034799006,0.90479926,1,0
62.233462,-5.3856833,42.673018,-12.115003,1.1877059,-7.8136385,1233.4947,0.45182067,-0.068279108,0.88949202,1,0
49.024046,1.8903318,42.740557,-7.5410062,0.87889632,-6.0898579,1272.8805,-0.034772404,-0.38482352,0.92233494,1,0
54.409385,11.472154,42.779182,-10.564663,-1.7012182,-7.9096876,1220.4107,0.36767182,-0.042839751,0.92896835,1,0
28.4378,-3.8513348,42.869009,-6.9294353,0.27513266,-8.613985,1224.2452,0.43583662,0.10196749,0.89423099,1,0
66.952344,5.4151228,42.954218,-11.75379,-0.22844497,-6.5245784,1256.6401,0.40774843,-0.15569695,0.899722,1,0
81.948284,-5.3073575,42.974544,-14.03565,1.3830334,-6.2763892,1239.5178,0.4824793,-0.14508679,0.86380759,1,0
51.008204,5.8478121,42.998652,-9.7169641,-0.85639284,-7.6003568,1261.536,0.32246972,-0.020274363,0.94636263,1,0
39.879841,-0.98639045,43.024999,-8.6201369,-0.096593587,-8.2837376,1240.5849,0.41533385,0.062522495,0.9075179,1,0
51.13373,2.0925738,43.047814,-10.664389,-0.35290073,-8.4826556,1208.554,0.42442992,-0.00045924559,0.90546067,1,0
45.382957,-1.1075272,43.071683,-7.1069927,1.1646874,-6.4450751,1259.0238,-0.052359788,-0.32781257,0.94329072,1,0
66.584346,5.049441,43.103997,-12.211354,-0.54314679,-7.435258,1260.4875,0.42593919,-0.049849179,0.90337748,1,0
81.891092,-5.4801984,43.107754,-15.691501,0.64268456,-8.1125204,1217.7656,0.53502641,-0.0073139369,0.84480367,1,0
62.739734,4.8989313,43.221191,-11.851445,-0.58386911,-7.7983437,1216.7218,0.39451089,-0.04443016,0.91781649,1,0
97.709568,7.5792797,43.2645,-17.185538,-1.1008101,-7.3537448,1206.0233,0.54103377,0.0016618825,0.84099923,1,0
42.390422,-2.4850605,43.313557,-6.808704,1.3189365,-6.7004096,1251.7851,-0.036330852,-0.3061697,0.95128344,1,0
39.168946,6.5444585,43.340359,-7.7614514,-1.1700057,-7.9442666,1261.6636,0.28267055,0.016920229,0.95906781,1,0
74.345872,-3.7380514,43.394748,-14.160037,0.82401735,-8.0270709,1195.4945,0.47534613,-0.045325991,0.87863053,1,0
34.165284,-3.0581984,43.460232,-6.843619,0.55413876,-7.8646181,1235.4378,0.26901711,-0.0068904551,0.96311075,1,0
48.902493,-2.7486933,43.607382,-8.9558598,1.0013538,-7.5577905,1223.4179,0.23327749,-0.14996542,0.96077676,1,0
69.046249,4.5411587,43.732208,-12.899877,-0.73939419,-7.6025921,1240.9558,0.46811751,0.0081612392,0.88362854,1,0
34.014003,1.7326629,43.75379,-7.4944148,-0.41307379,-8.8777813,1186.8351,0.32927105,0.024490032,0.9439178,1,0
28.860727,-3.3624123,43.912429,-6.3603048,0.52512794,-8.7552535,1272.4744,0.32057799,0.011497137,0.94715235,1,0
45.781165,-4.6690716,43.986497,-8.287137,1.1799498,-7.2133755,1266.3143,0.25909796,-0.1234133,0.95793393,1,0
46.063491,-3.8338124,43.996347,-9.4450714,0.68923112,-8.2912963,1215.6929,0.38612886,-0.0092289216,0.92239868,1,0
64.427558,-0.92846118,44.050288,-12.853794,-0.030921611,-8.6312231,1208.8755,0.46015462,0.032823668,0.88723184,1,0
54.565026,8.5759831,44.492645,-10.009796,-1.4472015,-7.6674114,1277.1963,0.34775706,0.025330657,0.93724244,1,0
43.985208,6.1222561,44.510035,-8.8755342,-1.2026319,-8.3797054,1230.7396,0.34921843,0.040898601,0.93614838,1,0
82.454241,13.959292,44.549083,-14.047843,-2.1526909,-6.9587511,1194.6516,0.40537374,0.016476378,0.91400255,1,0
30.893667,9.6484781,44.590716,-6.3146652,-1.451986,-8.9277895,1260.5664,0.2367038,-0.042414569,0.97065561,1,0
73.519657,4.198749,44.625009,-13.408436,-0.2359402,-7.830883,1208.6927,0.42460211,-0.084176237,0.90145849,1,0
63.189653,-3.5594522,44.627949,-12.287629,0.57853363,-8.4271488,1213.4408,0.43036776,-0.0020061555,0.90265141,1,0
80.359594,4.1756145,44.628897,-14.566088,-0.49588161,-7.9239301,1220.7301,0.46668871,-0.024331782,0.88408688,1,0
58.400831,4.8634972,44.639735,-11.171852,-0.80937958,-7.992453,1233.2383,0.40766611,0.0072340294,0.91310241,1,0
94.308082,10.727096,44.6648,-16.238884,-1.6908745,-7.3123259,1204.1788,0.4979235,0.027317135,0.86679061,1,0
65.5983,2.2261019,44.709075,-12.518548,-0.29414742,-8.0498998,1212.4898,0.44396673,-0.012180854,0.89596047,1,0
39.778565,-2.6398881,44.716762,-7.6156925,0.46250746,-7.7476213,1251.7241,0.27067871,-0.0062626473,0.96264937,1,0
63.99535,8.3665645,44.762467,-12.573022,-1.3126577,-8.2740283,1214.6673,0.47360674,-0.0039460423,0.88072759,1,0
57.968956,-5.6311894,44.830665,-11.555908,0.87882282,-8.0969404,1222.8928,0.47405098,0.0063640659,0.8804744,1,0
27.341987,2.1122782,45.046565,-5.7548671,-0.11714848,-9.2130338,1199.8074,0.20346828,-0.065378526,0.97689626,1,0
41.752352,-4.4252588,45.051581,-9.5103554,0.35890996,-9.1963886,1205.7068,0.46057728,0.080913992,0.88392392,1,0
44.438008,2.1305195,45.098417,-9.6978958,-0.60323825,-9.1590026,1210.2727,0.38744912,0.00023024973,0.92189106,1,0
42.468863,-4.6040885,45.122528,-8.9742679,0.54794798,-8.4193548,1244.7403,0.43108685,0.050227853,0.90091136,1,0
80.936032,-2.2321821,45.12974,-14.610701,0.52518247,-7.9301829,1232.5106,0.51468164,-5.4259067e-05,0.85738137,1,0
42.222675,5.0077169,45.171559,-8.896434,-1.0419613,-8.9625083,1208.4799,0.36319025,0.040156824,0.93084922,1,0
57.157668,0.65363968,45.178154,-11.464043,-0.2615406,-8.6051107,1224.6166,0.44045262,5.7331933e-05,0.89777586,1,0
64.826168,-1.1686899,45.227168,-12.462202,0.46911895,-8.3696831,1191.3748,0.42021089,-0.05795014,0.90557418,1,0
49.998075,-1.6519855,45.294701,-10.082013,0.41390355,-8.5984327,1192.103,0.37405692,-0.030773406,0.92689504,1,0
62.786131,2.7569899,45.348925,-11.242468,0.016376791,-7.4923033,1222.0546,0.33753396,-0.10868766,0.93501755,1,0
58.470365,-3.4343887,45.359166,-11.329135,0.78559642,-8.2044931,1195.8069,0.37648818,-0.047619924,0.92519673,1,0
87.477665,10.380698,45.367135,-15.302374,-1.3582706,-7.5941483,1215.3229,0.4806053,-0.029442624,0.87644263,1,0
54.866421,6.0781418,45.397634,-11.081359,-1.114374,-8.5817868,1197.3431,0.4267391,0.023080272,0.90408022,1,0
51.092226,-4.0714122,45.463564,-8.6130124,1.3322293,-7.1063239,1263.9492,0.18201703,-0.19958666,0.96282655,1,0
43.944103,-4.0313549,45.489624,-7.849552,1.1182101,-7.5951356,1245.6065,0.19879088,-0.13265683,0.97102232,1,0
40.542671,0.26734662,45.547449,-8.8272179,-0.45666109,-8.759017,1245.0732,0.43608465,0.08762582,0.89562933,1,0
42.915385,2.3692238,45.628644,-8.9764575,-0.44097518,-8.9816221,1210.3006,0.36449867,0.0080646649,0.93116899,1,0
63.969207,2.7224752,45.629557,-12.864349,-0.57567279,-8.7439252,1193.3159,0.48035328,0.025705999,0.87669831,1,0
37.015454,-3.1533872,45.633105,-7.8188678,0.3843114,-8.5396581,1245.0265,0.37741731,0.035258878,0.92537181,1,0
40.137102,0.57849024,45.646686,-8.0507434,-0.13827687,-8.3923947,1273.9871,0.34739213,0.010192698,0.93766455,1,0
77.982748,4.5313585,45.663483,-14.858572,-0.90714771,-8.4406211,1195.2148,0.50876238,0.037185478,0.86010353,1,0
51.107019,3.9520416,45.856426,-9.9980408,-0.77771727,-8.2898402,1258.5161,0.40281197,0.032153472,0.91471781,1,0
42.931658,3.9677801,45.867338,-9.5785519,-1.330675,-9.0263057,1233.7017,0.47262798,0.13135845,0.87141709,1,0
63.95285,3.3214506,45.883287,-12.123741,-0.52207277,-8.1841864,1219.4419,0.4323688,-8.9157304e-05,0.90169685,1,0
52.9329,1.4481622,45.885523,-8.0951023,0.89151784,-6.4896028,1273.7469,0.019772904,-0.3499906,0.93654451,1,0
33.217678,4.127136,45.91184,-6.6695429,-0.47749293,-8.757869,1261.6373,0.25986118,-0.050973278,0.96429969,1,0
101.59426,5.6330436,45.932978,-17.273001,-1.0191311,-7.7901968,1213.3224,0.50740876,0.038231814,0.86085694,1,0
64.672498,1.5376761,46.013266,-12.830752,-0.44934318,-8.8998042,1192.0347,0.45401279,0.037364743,0.89021136,1,0
48.710737,2.4432438,46.040961,-10.212813,-0.88655397,-8.7139394,1242.407,0.45975917,0.098290725,0.88258736,1,0
76.711663,8.5817236,46.092013,-13.610839,-1.3910302,-7.8595656,1254.5643,0.45041043,0.025074391,0.89246945,1,0
89.151947,-6.0125968,46.198409,-14.777382,1.4376028,-6.6198799,1240.3843,0.45177876,-0.12179062,0.88377769,1,0
73.001538,5.5322114,46.305353,-12.442684,-0.23910041,-6.8800009,1257.5065,0.42363822,-0.1402297,0.89491133,1,0
39.63521,1.7867595,46.349424,-8.2780713,-0.34200043,-9.095711,1186.0861,0.32366789,0.0072600678,0.9461429,1,0
49.068083,-1.6917811,46.40207,-7.6334479,1.1728976,-6.8762987,1259.8903,0.0013012146,-0.28918494,0.95727236,1,0
37.746609,-3.5429351,46.452372,-7.1634573,0.87460532,-8.3328063,1212.1499,0.20793399,-0.076191591,0.97517091,1,0
49.320475,-1.3836465,46.612599,-9.5922159,0.30064573,-8.3865556,1228.4836,0.364422,-0.017581239,0.93106794,1,0
30.743267,-1.471028,46.669044,-5.6689737,0.68415346,-8.576574,1214.9818,0.10006835,-0.12183532,0.98749303,1,0
68.451609,-5.9945031,46.682065,-12.756664,1.2481524,-8.2227209,1234.3612,0.4532738,-0.065596286,0.88895444,1,0
45.923849,-3.1482091,46.775049,-7.3247472,1.3345813,-7.1454765,1252.6516,0.036582784,-0.25475946,0.96631223,1,0
71.33018,10.41079,46.787291,-13.00274,-1.3107782,-7.9370182,1206.4085,0.40551276,-0.056701085,0.9123291,1,0
59.843539,12.339423,46.843454,-11.171563,-1.767297,-8.3473997,1221.2772,0.37666853,-0.037409537,0.92559243,1,0
56.007353,6.2884573,46.901373,-10.279921,-0.90567103,-8.0101819,1262.4024,0.3666082,-0.01530371,0.93024955,1,0
72.850438,5.3243221,46.914814,-12.852294,-0.5555819,-7.8082788,1261.3539,0.43227569,-0.046154777,0.90055953,1,0
48.653446,-0.70688625,46.982404,-10.217497,-0.056228064,-9.1536544,1198.5487,0.4254622,0.035593717,0.90427595,1,0
106.49562,8.1408257,47.033988,-17.957867,-1.1441143,-7.7243872,1206.8898,0.53814726,0.0039250907,0.8428417,1,0
52.54293,2.4508923,47.163744,-10.407835,-0.43673271,-8.7752719,1206.9547,0.39188674,0.0077112556,0.91998115,1,0
68.829726,5.1994628,47.225057,-12.508399,-0.61766557,-8.2169467,1217.5883,0.4036895,-0.037261945,0.91413694,1,0
44.322734,-0.9304475,47.280034,-9.1516826,-0.12667948,-8.7360782,1241.4514,0.41778776,0.061585047,0.906455,1,0
32.020336,-3.9885203,47.300337,-7.4014651,0.2728555,-9.1109925,1225.1117,0.43307413,0.093746572,0.89646995,1,0
56.615523,2.2766204,47.403144,-11.262487,-0.38247031,-8.9386393,1209.4205,0.42553352,0.0031649382,0.90493713,1,0
43.173618,7.1488571,47.423012,-8.2576432,-1.2469976,-8.386053,1262.5301,0.31860092,0.024082066,0.94758298,1,0
53.523009,-3.2526655,47.499481,-9.5262533,1.0154538,-8.0104834,1224.2844,0.25623744,-0.12715801,0.95821356,1,0
81.605039,-4.1608425,47.513171,-14.875191,0.86817308,-8.4471245,1196.3609,0.47661656,-0.0438795,0.87801551,1,0
57.431084,-1.5032786,47.588883,-10.910627,0.56494006,-8.6170159,1195.5691,0.36192769,-0.071205124,0.92948275,1,0
75.664142,4.9200472,47.629119,-13.57114,-0.77570665,-7.9851528,1241.8223,0.47121875,0.0097217043,0.8819628,1,0
50.05996,-5.263019,47.696875,-8.8288924,1.1968148,-7.6276025,1267.1808,0.28429769,-0.10272066,0.95321734,1,0
60.650647,-6.4826829,47.913157,-10.478737,1.9635531,-7.5367167,1193.9107,0.26230179,-0.25393541,0.93097507,1,0
48.811221,6.5561375,48.010377,-9.3629201,-0.99167749,-8.961387,1195.3376,0.29410542,-0.020907678,0.95554428,1,0
89.665747,15.062972,48.126961,-14.796282,-2.2623468,-7.3536415,1195.5181,0.40590604,0.021056046,0.91367222,1,0
50.929324,-4.1781833,48.257156,-10.018117,0.68896958,-8.7518273,1216.5594,0.39291085,-0.0028052019,0.91957229,1,0
37.893036,1.9501137,48.323607,-8.0215585,-0.45637214,-9.4014001,1187.7016,0.34280597,0.02764283,0.93899944,1,0
32.132327,-3.6321233,48.408044,-6.7262961,0.55315459,-9.2270898,1273.3409,0.27176742,-6.0927278e-05,0.96236296,1,0
102.6155,11.593815,48.417507,-16.989944,-1.7753993,-7.6984278,1205.0453,0.49623615,0.030515144,0.86765115,1,0
59.707798,9.3190985,48.42606,-10.561546,-1.5245338,-8.0659319,1278.0628,0.35713066,0.028609445,0.93361619,1,0
71.015829,-0.91247248,48.474736,-13.498209,-0.0322603,-9.0669051,1209.742,0.45922378,0.029776982,0.88782141,1,0
80.397187,4.317808,48.643641,-14.100326,-0.23932706,-8.2441583,1209.5592,0.43016098,-0.076816662,0.89947803,1,0
87.815218,4.4270056,48.69042,-15.255683,-0.50917895,-8.3220729,1221.5965,0.46732503,-0.021694459,0.88381936,1,0
64.141006,5.2819011,48.739863,-11.789118,-0.86385085,-8.4076836,1234.1047,0.41414055,0.011865492,0.9101356,1,0
48.55621,6.740914,48.815698,-9.4086149,-1.2716461,-8.8427255,1231.6061,0.35705227,0.041947694,0.93314204,1,0
72.027758,2.3790234,48.837265,-13.199023,-0.31683548,-8.4627916,1213.3562,0.45024228,-0.008544166,0.89286555,1,0
69.491622,-3.8541233,48.950478,-12.919059,0.60083022,-8.8633024,1214.3073,0.4316372,-0.0025347694,0.90204374,1,0
63.911024,-6.076763,48.982698,-12.212293,0.90408975,-8.5111271,1223.7592,0.47811152,0.0066009328,0.87827433,1,0
70.449957,9.0350035,49.003119,-13.245155,-1.3611031,-8.6884288,1215.5338,0.47613677,-0.0014687353,0.87937001,1,0
55.536545,-4.7458208,49.120014,-9.1645403,1.3658756,-7.5191845,1264.8156,0.2154062,-0.17357301,0.96097481,1,0
34.144421,10.387969,49.175276,-6.6892714,-1.5049961,-9.4101986,1261.4328,0.24426435,-0.037572268,0.96898052,1,0
88.409472,-2.5031949,49.193647,-15.280998,0.5598043,-8.3262273,1233.3771,0.47597432,-0.035303277,0.87875032,1,0
60.707557,2.6767991,49.214276,-10.925127,-0.35062718,-8.2010142,1275.9243,0.39868619,-0.010410669,0.91702832,1,0
57.119603,0.99748881,49.229856,-8.6520717,0.91214714,-6.8874421,1274.6134,0.085071107,-0.30320281,0.94912115,1,0
95.307861,11.07344,49.262319,-16.018143,-1.4132567,-7.9859737,1216.1894,0.47968836,-0.024326987,0.87710163,1,0
47.999784,-4.5935061,49.399454,-8.3727193,1.131287,-8.044169,1246.473,0.22804063,-0.1105743,0.96735247,1,0
47.090056,-4.8776393,49.443264,-9.5102893,0.54707851,-8.8634675,1245.6067,0.43242585,0.049292309,0.90032114,1,0
71.225645,-1.4087152,49.52348,-13.134661,0.49212238,-8.8159101,1192.2413,0.4256018,-0.053518683,0.90332655,1,0
64.29904,-3.8325222,49.573419,-11.985437,0.80776627,-8.6524004,1196.6734,0.41278762,-0.044315313,0.90974861,1,0
63.039417,0.78986914,49.589427,-12.06274,-0.28268936,-9.0399253,1225.483,0.43958024,7.3376701e-05,0.89820332,1,0
55.189891,-1.856071,49.713076,-10.685336,0.4031852,-9.0748565,1192.9694,0.38299916,-0.022243019,0.92348086,1,0
46.647832,-4.601812,49.770075,-10.071781,0.34772369,-9.6772588,1206.5732,0.45867203,0.076924851,0.88526975,1,0
46.80722,5.5425327,49.774634,-9.4419385,-1.0970106,-9.4494873,1209.3463,0.37105053,0.03955606,0.92776981,1,0
30.319529,2.1738081,49.789757,-6.155834,-0.12929654,-9.7594109,1200.6739,0.21965857,-0.056518317,0.97393829,1,0
49.424908,2.4412966,49.798137,-10.249859,-0.63919249,-9.6395844,1211.1392,0.42427196,0.046106355,0.90436028,1,0
60.563662,6.6499145,49.802885,-11.707536,-1.172533,-9.039065,1198.2096,0.43044464,0.024541507,0.90228329,1,0
42.622836,2.00455,49.890791,-8.2235195,-0.4823535,-8.6695545,1254.3328,0.34387316,0.038777602,0.93821508,1,0
53.015945,-2.2811329,49.947946,-8.1573735,1.185227,-7.3072413,1260.7567,0.067009167,-0.24150962,0.96808206,1,0
41.048979,-3.3437164,50.018659,-8.3148829,0.37790048,-9.0024971,1245.893,0.38319009,0.035986029,0.92296823,1,0
45.086803,0.50556285,50.039963,-9.3496924,-0.49565072,-9.21066,1245.9397,0.43597736,0.083359672,0.89608867,1,0
70.179086,3.5910314,50.079119,-12.781331,-0.55588904,-8.598808,1220.3084,0.4388346,0.0030585493,0.89856265,1,0
56.242439,4.3516169,50.107069,-10.543887,-0.82013772,-8.7123867,1259.3825,0.40550174,0.032271406,0.91352444,1,0
70.572158,3.0174675,50.110705,-13.547147,-0.60418096,-9.1806383,1194.1824,0.48207643,0.025025384,0.87577168,1,0
83.67777,9.2913219,50.116386,-14.252252,-1.4471926,-8.2383627,1255.4308,0.4511107,0.025371187,0.89210731,1,0
52.410236,1.9412354,50.201225,-9.3567797,-0.33030035,-8.3201957,1272.4082,0.31386431,0.0079703318,0.94943439,1,0
47.538319,2.5981713,50.241299,-9.5152513,-0.47394004,-9.4687933,1211.1671,0.3707936,0.01068029,0.92865388,1,0
47.506566,0.70471687,50.31903,-9.0865097,0.056681113,-9.0319157,1222.5813,0.33040669,-0.038107989,0.94306903,1,0
36.651203,4.3714152,50.41033,-7.0639615,-0.49893649,-9.2360755,1262.5037,0.26644966,-0.04491985,0.96280153,1,0
49.714962,-3.820426,50.458911,-7.8396272,1.3548653,-7.5897923,1253.5181,0.084913494,-0.22100493,0.9715691,1,0
47.856303,4.6528995,50.494079,-10.120216,-1.4095573,-9.4804001,1234.5682,0.46895038,0.12510805,0.87431889,1,0
53.956208,2.9007864,50.507159,-10.769556,-0.94315027,-9.1504059,1243.2735,0.45747553,0.093932754,0.88424701,1,0
71.252043,1.7692362,50.5758,-13.48685,-0.47630199,-9.3504305,1192.9012,0.45445906,0.035984281,0.8900405,1,0
78.005821,11.07799,50.859312,-13.699317,-1.3577812,-8.3511165,1207.2749,0.44553409,-0.053441372,0.8936685,1,0
74.989393,-6.6345964,50.89581,-13.39377,1.3129297,-8.6323217,1235.2276,0.45377446,-0.064098292,0.88880828,1,0
79.435406,5.6043275,50.912806,-13.486231,-0.56366935,-8.1842381,1262.2204,0.43631512,-0.043653984,0.89873436,1,0
54.256316,-1.5314527,50.918998,-10.151252,0.29103176,-8.8387813,1229.3501,0.37226966,-0.011492219,0.92805346,1,0
61.288405,6.7529582,51.008496,-10.844496,-0.9518556,-8.4180136,1263.2689,0.37516863,-0.010669039,0.92689518,1,0
43.910192,1.9676259,51.026581,-8.8211262,-0.38096454,-9.6130301,1186.9526,0.33692939,0.011951978,0.94145406,1,0
65.580544,13.239114,51.126579,-11.776035,-1.8312411,-8.7851281,1222.1437,0.38372242,-0.032958513,0.92286014,1,0
73.818267,-7.6491932,51.298573,-12.819349,1.4363897,-7.8830645,1260.5089,0.47468858,-0.071792543,0.87722094,1,0
75.247845,5.5160652,51.438026,-13.163442,-0.64826294,-8.6350233,1218.4547,0.4110884,-0.031742363,0.91104267,1,0
41.221758,1.1563812,51.479613,-8.0259825,-0.07755547,-9.3697151,1206.9994,0.29700595,-0.025839093,0.95452596,1,0
98.300917,-6.1594893,51.608142,-17.123299,0.71606022,-8.8907586,1219.4985,0.53068985,-0.011073848,0.84749375,1,0
57.892959,2.6787219,51.66803,-10.992054,-0.47380844,-9.2417961,1207.8212,0.39633204,0.011237508,0.91803847,1,0
53.907627,-0.6727074,51.679075,-10.799213,-0.079985058,-9.6328149,1199.4152,0.42697372,0.036009099,0.90354678,1,0
82.616565,5.3165299,51.717576,-14.237847,-0.80986778,-8.3687729,1242.6887,0.47308395,0.010695981,0.88095243,1,0
47.427016,7.7908588,51.726111,-8.7562298,-1.3205143,-8.8260961,1263.3965,0.3305909,0.027918015,0.94336114,1,0
49.031794,-0.86024427,51.760744,-9.6847911,-0.15348314,-9.1864579,1242.3178,0.41993406,0.05994353,0.90557283,1,0
66.055904,-7.4821455,51.79396,-11.141736,2.0348169,-7.9865847,1194.7772,0.29161208,-0.2263308,0.92937439,1,0
89.219383,-4.6069267,51.842614,-15.58074,0.91621724,-8.8711685,1197.2274,0.47608261,-0.043467037,0.87832566,1,0
35.840583,-4.1228232,51.979379,-7.8816383,0.26252369,-9.604237,1225.9781,0.43183163,0.088263143,0.89762523,1,0
62.395834,2.4741987,51.986519,-11.858357,-0.40706445,-9.3949385,1210.287,0.42633742,0.0050797671,0.90454994,1,0
61.769463,0.43704051,52.275821,-11.057968,0.19364966,-8.8725752,1212.1312,0.32149878,-0.052140498,0.94547337,1,0
111.29728,12.501917,52.363156,-17.736714,-1.8564936,-8.0839751,1205.9118,0.49451896,0.032728228,0.86855044,1,0
65.126849,10.099726,52.55825,-11.11489,-1.5971671,-8.4625405,1278.9292,0.36534813,0.030485417,0.93037164,1,0
53.632279,7.0651281,52.615502,-9.9212033,-1.044193,-9.4589581,1196.204,0.30821039,-0.015361188,0.95119419,1,0
56.081662,-4.5237162,52.748032,-10.591458,0.69405185,-9.2114889,1217.4258,0.39841931,0.001241715,0.91720254,1,0
53.779103,-2.8725249,52.76446,-9.5163267,0.45271416,-8.5839918,1272.049,0.34114564,-0.0057312057,0.93999298,1,0
61.585463,0.53527778,52.772575,-9.2119674,0.93714036,-7.2829422,1275.4799,0.12963943,-0.27451506,0.95280381,1,0
87.618395,4.4369402,52.869742,-14.782903,-0.23594182,-8.6607671,1210.4256,0.43335513,-0.071604068,0.89837419,1,0
60.25706,-5.4377356,52.982446,-9.7176941,1.4021821,-7.9303019,1265.6821,0.24176376,-0.15481006,0.95790612,1,0
70.19033,5.7269405,53.046991,-12.408541,-0.91597479,-8.820408,1234.9712,0.41999908,0.0153139,0.90739532,1,0
77.924138,-0.89721378,53.117705,-14.133897,-0.027992623,-9.5050979,1210.6085,0.45720016,0.02625579,0.88897618,1,0
35.587266,-3.9148446,53.139405,-7.0937097,0.57692782,-9.6982367,1274.2073,0.31585144,0.0063841866,0.94878718,1,0
42.034835,2.1885222,53.155296,-8.5449733,-0.49689385,-9.9254197,1188.5681,0.35273083,0.02954554,0.93525826,1,0
78.79657,2.5421422,53.172118,-13.875177,-0.33489771,-8.8770325,1214.2227,0.4547304,-0.0062956015,0.89060689,1,0
70.180814,-6.5361069,53.341857,-12.866348,0.93413413,-8.9255702,1224.6257,0.4809423,0.005769533,0.87673327,1,0
103.49553,11.793752,53.352533,-16.73253,-1.4675369,-8.3745405,1217.0559,0.47910658,-0.019957956,0.87752981,1,0
53.393989,7.393346,53.352557,-9.9426603,-1.3375337,-9.3045115,1232.4725,0.36365706,0.042205916,0.93057627,1,0
66.312041,2.8570693,53.411894,-11.493497,-0.36978177,-8.5889385,1276.7908,0.40482108,-0.0079144978,0.91436167,1,0
77.240306,9.7276511,53.450724,-13.916107,-1.4090471,-9.1018657,1216.4002,0.47742526,0.000134958,0.87867235,1,0
96.215285,-2.7920232,53.456468,-15.940901,0.59508165,-8.7253401,1234.2436,0.47233972,-0.035359525,0.88070704,1,0
76.107363,-4.161084,53.49171,-13.54281,0.62772127,-9.3019012,1215.1737,0.43153778,-0.0038115953,0.90208681,1,0
42.570809,7.9302888,53.525495,-6.9541072,-0.67677258,-9.0555677,1272.773,0.11543858,-0.11977677,0.98606666,1,0
57.224738,-2.8777634,53.709383,-8.6773803,1.2018741,-7.7384595,1261.6232,0.10725447,-0.2117736,0.97141568,1,0
51.97934,-5.1516801,53.985684,-10.047176,0.54942137,-9.3058397,1246.4732,0.43351108,0.047642201,0.89988798,1,0
70.455523,-4.2430031,54.011529,-12.639902,0.83506101,-9.1001933,1197.5399,0.41994346,-0.03995364,0.90667039,1,0
77.959614,-1.6619621,54.04346,-13.800606,0.52168523,-9.2639649,1193.1078,0.42907462,-0.050891472,0.90183426,1,0
69.220169,0.93567657,54.218049,-12.660012,-0.30002409,-9.4745358,1226.3495,0.44060233,0.028755391,0.89724173,1,0
90.962085,10.02873,54.331036,-14.88303,-1.5023087,-8.620947,1256.2973,0.45058815,0.025964738,0.89235428,1,0
46.860322,2.2562641,54.338023,-8.7262702,-0.52380311,-9.1192408,1255.1993,0.35444022,0.040076595,0.93421946,1,0
53.763185,-4.5037396,54.364731,-8.3527993,1.3790555,-8.0334419,1254.3845,0.12494972,-0.19275761,0.97325848,1,0
60.683509,-2.0559365,54.369335,-11.289196,0.39696405,-9.5499684,1193.8359,0.39043176,-0.016140552,0.92049037,1,0
66.573854,7.2505427,54.436556,-12.333124,-1.2299228,-9.4954793,1199.076,0.43341339,0.025673075,0.90082947,1,0
57.217879,2.1140513,54.46662,-9.8742505,-0.36069065,-8.7409688,1273.2747,0.33513892,0.011481447,0.94209876,1,0
48.654999,0.72563597,54.479871,-8.9838428,-0.15322233,-9.2737122,1275.72,0.35521283,0.00929395,0.93473925,1,0
76.734114,3.8769631,54.481882,-13.43822,-0.58727668,-9.0123623,1221.1748,0.44416156,0.005285111,0.89593112,1,0
38.16377,-3.4349963,54.50993,-7.5780475,0.45531998,-9.5535498,1219.3538,0.34260671,0.021338179,0.93923657,1,0
61.651201,4.7717462,54.568438,-11.091463,-0.86001142,-9.1327111,1260.249,0.40807494,0.03188723,0.91239139,1,0
51.664334,6.104409,54.620971,-9.9857795,-1.1500155,-9.9360004,1210.2128,0.37662738,0.038729074,0.9255549,1,0
45.329953,-3.5322121,54.635553,-8.8086352,0.37693409,-9.4650305,1246.7595,0.38723773,0.035268027,0.92130511,1,0
51.824356,-4.773383,54.728504,-10.634491,0.33889353,-10.156141,1207.4397,0.45713371,0.072939138,0.88640208,1,0
54.688045,2.7690203,54.737694,-10.802863,-0.67107864,-10.118339,1212.0056,0.42409617,0.043755051,0.90455952,1,0
49.892746,0.76240731,54.757724,-9.8742454,-0.53108038,-9.6600986,1246.8061,0.43607413,0.078979659,0.89643827,1,0
33.498592,2.2420548,54.805636,-6.5614018,-0.14430914,-10.303794,1201.5404,0.23375717,-0.048481209,0.97108556,1,0
77.516224,3.3260424,54.810053,-14.228934,-0.62927182,-9.6165902,1195.0488,0.4833945,0.02389201,0.87507653,1,0
52.183715,0.67932676,54.95313,-9.6217491,0.045720487,-9.5044289,1223.4478,0.34149664,-0.03167173,0.93934922,1,0
52.430265,2.8421333,55.097391,-10.052133,-0.50096725,-9.9555422,1212.0336,0.37510163,0.011853906,0.9269079,1,0
86.335026,5.8871087,55.099718,-14.110497,-0.56666485,-8.5640997,1263.0869,0.43809324,-0.042252591,0.89793599,1,0
85.028825,11.768444,55.138523,-14.391877,-1.404124,-8.7658564,1208.1414,0.45064752,-0.047797947,0.89142143,1,0
40.28123,4.6253807,55.147855,-7.4559767,-0.51617292,-9.7138987,1263.3702,0.27141449,-0.040549684,0.96160798,1,0
59.480881,3.3859627,55.19086,-11.329817,-0.99727205,-9.5838375,1244.14,0.4560736,0.089706779,0.88540926,1,0
81.844297,-7.3080079,55.314733,-14.024263,1.3812099,-9.0439935,1236.0941,0.45320409,-0.063027604,0.88917578,1,0
66.852087,7.2398408,55.319075,-11.410473,-0.99522005,-8.8239827,1264.1353,0.38261081,-0.0072210125,0.92388139,1,0
80.392675,-8.381601,55.332148,-13.478162,1.4941169,-8.2510869,1261.3754,0.47991741,-0.067596761,0.87470564,1,0
78.158783,2.0131365,55.363735,-14.139627,-0.49819023,-9.8011917,1193.7676,0.45442841,0.033966376,0.89013544,1,0
59.471849,-1.6751052,55.451108,-10.710998,0.28392763,-9.2893874,1230.2166,0.37886701,-0.0070112236,0.92542457,1,0
71.619052,14.170472,55.628674,-12.377427,-1.894059,-9.2233763,1223.0101,0.38912105,-0.029127087,0.92072603,1,0
54.846708,4.4608396,55.763141,-9.8316926,-0.81709745,-9.3061148,1236.4347,0.34446594,0.031733946,0.93826232,1,0
81.991896,5.8470449,55.86052,-13.811477,-0.67487864,-9.0554235,1219.3212,0.41614212,-0.027679731,0.90887819,1,0
71.791574,-8.5180339,55.899947,-11.799863,2.1091672,-8.4377372,1195.6437,0.31441441,-0.20349673,0.9272177,1,0
48.455794,2.1669873,55.962472,-9.3610671,-0.41577959,-10.130408,1187.8191,0.34702166,0.014929676,0.93773828,1,0
89.901175,5.7296052,55.998025,-14.899717,-0.84221582,-8.7531811,1243.5552,0.47395673,0.011259212,0.88047615,1,0
40.685466,-8.2935024,56.006598,-7.6460356,1.4423452,-9.5978963,1231.4132,0.30126595,-0.035188933,0.95289064,1,0
46.463255,-2.1057359,56.069935,-8.4102245,0.24663957,-9.1769261,1261.5219,0.32846692,0.015309267,0.9443914,1,0
50.99292,-1.8763572,56.078625,-8.7793151,0.56100861,-9.0427631,1271.2855,0.28899855,-0.063419445,0.95522658,1,0
51.929535,8.4689478,56.249098,-9.2533209,-1.3912759,-9.2659167,1264.263,0.34009004,0.030590238,0.93989521,1,0
45.360357,1.1996967,56.291312,-8.528177,-0.094834282,-9.8769641,1207.8658,0.31034933,-0.020156292,0.95040887,1,0
97.18457,-5.0767231,56.384563,-16.278871,0.96254284,-9.2967707,1198.0939,0.47474894,-0.042827752,0.87907862,1,0
63.534785,2.9239652,56.405445,-11.575175,-0.50664483,-9.7077021,1208.6876,0.3998363,0.013376188,0.91648896,1,0
54.00765,-0.77786053,56.466238,-10.218707,-0.17520573,-9.6352816,1243.1843,0.42171867,0.057437818,0.90490567,1,0
66.332192,0.060084726,56.512247,-9.775333,0.96389786,-7.6753588,1276.3463,0.16827156,-0.24936462,0.95367813,1,0
59.452643,-0.62739455,56.615005,-11.380828,-0.10084104,-10.110695,1200.2816,0.42816298,0.035736468,0.90299467,1,0
68.963958,-2.0797612,56.670137,-12.154711,0.592576,-9.5448894,1197.3021,0.38137369,-0.055696258,0.92274159,1,0
