1.354374389648437500e+03,-3.345141983032226562e+01
1.804837812467768643e+01,-1.041181185297954848e+01
9.008945545139685152e+00,-7.631603668633694326e+00
2.865383238085762230e+00,-4.612509665768489420e+00
5.588115234375000000e+02,-2.694830894470214844e+01
1.469281570800325909e+01,-9.167995977997243529e+00
6.819164243363006861e+00,-6.535491588500415894e+00
1.716585575701179422e+00,-3.619406144816109894e+00
1.116131469726562500e+03,-2.982490921020507812e+01
1.985853600765863192e+01,-1.075227738219004614e+01
1.042697440403661524e+01,-8.075168486049790317e+00
3.788681040697886804e+00,-5.158371322995999542e+00
8.505783691406250000e+02,-3.797440719604492188e+01
2.195704697950469253e+01,-1.130086771226274500e+01
1.197545192795578295e+01,-8.629094489759140174e+00
4.774792602075862646e+00,-5.730993317095064654e+00
7.498560180664062500e+02,-2.925820541381835938e+01
2.257237983326371378e+01,-1.120572121005527677e+01
1.261264275219263808e+01,-8.677575372354759509e+00
5.298253236553303047e+00,-5.907825887711481982e+00
1.222392089843750000e+03,-3.550817108154296875e+01
2.462582112213233643e+01,-1.193884126624570818e+01
1.399866006882731284e+01,-9.284759734342648230e+00
6.127117682386543862e+00,-6.419237224355597959e+00
1.113592041015625000e+03,-3.421373367309570312e+01
2.542760140509562206e+01,-1.205304102688631573e+01
1.466461086052946072e+01,-9.441925167269378250e+00
6.614825513210065289e+00,-6.618501571507636072e+00
7.294240112304687500e+02,-2.790727043151855469e+01
2.121649815964994801e+01,-1.087040809703234601e+01
1.159432181570513087e+01,-8.336326699898723547e+00
4.627627065499547498e+00,-5.552557289452757949e+00
1.447200927734375000e+03,-3.176496887207031250e+01
2.276965372730979453e+01,-1.155802722348182954e+01
1.254557963528842102e+01,-8.858556727369446548e+00
5.125395480286208283e+00,-5.941829948103036330e+00
1.116938598632812500e+03,-3.096138572692871094e+01
1.609491138209511618e+01,-9.807829355168886210e+00
7.651279916258884484e+00,-7.040934819825482194e+00
2.098424569484695468e+00,-4.019181919746454668e+00
5.280977172851562500e+02,-3.792304229736328125e+01
2.522270316127304213e+01,-1.206598031159694351e+01
1.446392171038542074e+01,-9.421229003844819871e+00
6.450207447109273851e+00,-6.567499354725976346e+00
1.322969970703125000e+03,-2.910000991821289062e+01
1.660475759153520414e+01,-9.989204398138777918e+00
7.988685386433644453e+00,-7.205573096089612051e+00
2.277077137207332846e+00,-4.173015434125515455e+00
6.225211791992187500e+02,-3.137809181213378906e+01
2.035518904126977091e+01,-1.071311875585794837e+01
1.091041985976893081e+01,-8.138760951284709222e+00
4.161586889590179084e+00,-5.314390101889472362e+00
7.105942993164062500e+02,-2.535909461975097656e+01
1.434420456660891752e+01,-9.114128233185088135e+00
6.544018984013195706e+00,-6.442901950366457520e+00
1.552326210542959606e+00,-3.490165000651431093e+00
6.383621826171875000e+02,-2.492392730712890625e+01
1.506530947996042968e+01,-9.270003959378085412e+00
7.084799668505091574e+00,-6.647478585340034662e+00
1.864593561092266594e+00,-3.743191774047718745e+00
1.143212402343750000e+03,-2.860622215270996094e+01
2.006968613346236552e+01,-1.079979937619524755e+01
1.058769734995657785e+01,-8.128618573603258568e+00
3.892708632536611368e+00,-5.218398575347947599e+00
1.306468750000000000e+03,-2.792144584655761719e+01
1.735236789881784603e+01,-1.017326131055251182e+01
8.539823109793529099e+00,-7.414871215905952440e+00
2.605390478217663119e+00,-4.409864920095767360e+00
5.489304809570312500e+02,-3.374466705322265625e+01
2.198485778673073199e+01,-1.115300729892881648e+01
1.210552503472769814e+01,-8.570183792890862406e+00
4.924355762841427619e+00,-5.749290399451272293e+00
6.806890869140625000e+02,-2.366309165954589844e+01
2.155201954847911594e+01,-1.083549067152353196e+01
1.192918247732858283e+01,-8.371225071069686052e+00
4.895751010042542539e+00,-5.650058820324378672e+00
6.380801391601562500e+02,-3.073153305053710938e+01
1.667665368829760908e+01,-9.805588352019471543e+00
8.176754865466707045e+00,-7.153657592249794916e+00
2.458302517276150123e+00,-4.236445629746240726e+00
1.127902954101562500e+03,-2.683369064331054688e+01
2.314277451170032762e+01,-1.147442011390316630e+01
1.295102794162260373e+01,-8.875338023783518437e+00
5.468659152141372992e+00,-6.047901767568310660e+00
5.870539550781250000e+02,-3.150181579589843750e+01
1.954117427912285976e+01,-1.051856847756964264e+01
1.029793159256164081e+01,-7.929599333712640252e+00
3.767096929974418806e+00,-5.087079762577434217e+00
1.393270141601562500e+03,-2.897067260742187500e+01
2.169298757341206141e+01,-1.127106228020331002e+01
1.175254015865049873e+01,-8.576870282949773383e+00
4.614778262959896793e+00,-5.657589148852690819e+00
6.023306274414062500e+02,-3.328167724609375000e+01
1.889817984666370165e+01,-1.042159474252860996e+01
9.776313779715573915e+00,-7.784208855712406283e+00
3.414201710292525060e+00,-4.895333190661381728e+00
7.060272827148437500e+02,-3.626689529418945312e+01
1.945579348202704040e+01,-1.065281109696954154e+01
1.012685320469794625e+01,-7.969043194236154370e+00
3.598820923568501584e+00,-5.043720786094793240e+00
1.292395629882812500e+03,-2.729437065124511719e+01
1.663960107865500149e+01,-9.976720413141469734e+00
8.028447821960348563e+00,-7.207899190290584457e+00
2.307805738248088545e+00,-4.188565720016159233e+00
7.792042846679687500e+02,-2.441967964172363281e+01
1.612863776940999827e+01,-9.616995896656520770e+00
7.808902318175265478e+00,-6.980772758968442737e+00
2.258068411735762560e+00,-4.073080106880262008e+00
6.206710815429687500e+02,-2.356983184814453125e+01
1.436083293370601588e+01,-9.048154468011937013e+00
6.601792246680665777e+00,-6.425391241808410925e+00
1.606143268553695602e+00,-3.514775394089161953e+00
5.862962036132812500e+02,-3.078957366943359375e+01
2.152659527410742513e+01,-1.094955384517366781e+01
1.182518306683210874e+01,-8.416010222358400128e+00
4.777684543187089794e+00,-5.634755328157597276e+00
9.252116699218750000e+02,-2.551698112487792969e+01
1.987205285170236735e+01,-1.062703116636722100e+01
1.052628671793345205e+01,-8.026886584571393257e+00
3.902145327834444899e+00,-5.176929348793812835e+00
