0.0045109384,-0.14474127,0.06252187,3.958246,0
0.0065398075,-0.17356387,0.075435324,3.929806,0
0.025257529,-0.33863515,0.14878391,3.8801856,0
0.01749135,-0.28215935,0.12373713,3.8887709,0
0.017935409,-0.28555716,0.12533325,3.8849118,0
0.003392552,-0.12579303,0.054161671,3.9732397,0
0.0060894583,-0.16754091,0.072778673,3.9322668,0
0.0057094671,-0.162258,0.070465107,3.9334888,0
0.0050966137,-0.15353503,0.066525361,3.9439801,0
0.020328401,-0.30397342,0.13344088,3.8840721,0
0.00400376,-0.13650468,0.058871364,3.9655337,0
0.019220586,-0.29555967,0.12975725,3.8837241,0
0.0083786754,-0.19603076,0.085477231,3.914882,0
0.014898442,-0.26053623,0.11416991,3.8921544,0
0.010579765,-0.21991412,0.096130502,3.9034702,0
0.022865418,-0.32225791,0.14155054,3.8814014,0
0.0069953184,-0.17942864,0.078035202,3.9268046,0
0.010868957,-0.22296482,0.09742122,3.9054814,0
0.017880019,-0.28512735,0.12513706,3.8851864,0
0.0037808982,-0.13245835,0.057251246,3.9554108,0
0.023048481,-0.32354116,0.14211697,3.8813129,0
0.012589046,-0.23979386,0.10488327,3.9007309,0
0.0057290698,-0.16267915,0.070554905,3.9395656,0
0.013035969,-0.24391667,0.10674984,3.8980198,0
0.017211015,-0.27982961,0.12275456,3.887318,0
0.025182629,-0.33806838,0.14857721,3.8788891,0
0.0040302889,-0.13692929,0.059071912,3.9641657,0
0.0073246417,-0.18354527,0.079863639,3.9246121,0
0.017473884,-0.28205886,0.1236665,3.8897505,0
0.0069442527,-0.17871351,0.077762704,3.9245266,0
