epoch,c_acc,c_loss,loss,lr,val_c_acc,val_c_loss,val_loss,val_x_loss,val_x_mean_squared_error,val_y_loss,val_y_mean_squared_error,val_z_loss,val_z_mean_squared_error,x_loss,x_mean_squared_error,y_loss,y_mean_squared_error,z_loss,z_mean_squared_error
0,0.9394945345125373,0.12165895075292125,0.1691021213399394,0.001,0.9649833748960931,0.07584291467454533,0.09874486673549003,0.013337208710785827,0.013337208710785827,0.005273183266491361,0.005273183266491361,0.004276822601244317,0.004276822601244317,0.017067589071044574,0.017067589071044574,0.015225733111618785,0.015225733111618785,0.015138574083315183,0.015138574083315183
1,0.9652263223534591,0.07904725021552672,0.0992037781550644,0.001,0.9704904405652536,0.06481153393881929,0.08600523416494837,0.01235462017056392,0.01235462017056392,0.004762024424441975,0.004762024424441975,0.004058918119119813,0.004058918119119813,0.012996658529589838,0.012996658529589838,0.0030176565167015852,0.0030176565167015852,0.00412553293279484,0.00412553293279484
2,0.9666018633952311,0.07251913985048014,0.09189095907917641,0.001,0.9726724854530341,0.06261578828216458,0.0847567118054406,0.01370590611940431,0.01370590611940431,0.003927886850129563,0.003927886850129563,0.004485399328835668,0.004485399328835668,0.012469295010301489,0.012469295010301489,0.0029423742259824543,0.0029423742259824543,0.003940420152209486,0.003940420152209486
3,0.9714621084293156,0.06574777149549516,0.08381993846660564,0.001,0.9770365752285952,0.05689961449127971,0.0739603030250709,0.011804679974053111,0.011804679974053111,0.0013850461804476959,0.0013850461804476959,0.003845345552621006,0.003845345552621006,0.011861110831624591,0.011861110831624591,0.002360336078042266,0.002360336078042266,0.0038267797310631386,0.0038267797310631386
4,0.9738463795759665,0.058771057493571824,0.0760402457626864,0.001,0.975997506234414,0.052569383489986674,0.07051459206395928,0.01146112887749289,0.01146112887749289,0.0027952487450563336,0.0027952487450563336,0.00365851919483136,0.00365851919483136,0.011547745651463074,0.011547745651463074,0.0019383001518765096,0.0019383001518765096,0.0037549601794302,0.0037549601794302
5,0.9765791211209742,0.05512823343019986,0.07252977513330343,0.001,0.9816084788029925,0.046899695725369686,0.06371985388200123,0.011309679228943484,0.011309679228943484,0.0018173123740509627,0.0018173123740509627,0.0036589448193423677,0.0036589448193423677,0.01155484782267111,0.01155484782267111,0.0019808873207866457,0.0019808873207866457,0.003833707598109997,0.003833707598109997
6,0.9786149218692686,0.05158876820724521,0.06872946186961777,0.001,0.9830631753948462,0.04113387788090773,0.05757664022456269,0.011352215627350025,0.011352215627350025,0.0012456445758246854,0.0012456445758246854,0.0038067046147124265,0.0038067046147124265,0.011311928484663574,0.011311928484663574,0.0020262769812858404,0.0020262769812858404,0.0037660858334009183,0.0037660858334009183
7,0.9802655711246424,0.04762263586009747,0.0644558700311841,0.001,0.9873233582709892,0.03185128478901532,0.051097729719547416,0.012411354445439709,0.012411354445439709,0.002232955487270616,0.002232955487270616,0.004560203315090882,0.004560203315090882,0.011138052317170131,0.011138052317170131,0.0020305942301982608,0.0020305942301982608,0.0036250337944547266,0.0036250337944547266
8,0.9825581395348837,0.04189356712195699,0.05833075475627513,0.001,0.987115544472153,0.031336151281309683,0.047787444480808634,0.01145209332887708,0.01145209332887708,0.001066239643307323,0.001066239643307323,0.0038876825568989284,0.0038876825568989284,0.011110385158177806,0.011110385158177806,0.0016800684089148161,0.0016800684089148161,0.003602523649355513,0.003602523649355513
9,0.9827782261022668,0.04318136878742649,0.05957457964731416,0.001,0.9396300914380715,0.12475462962242528,0.14080821877327637,0.010538666553267743,0.010538666553267743,0.0019056128991980855,0.0019056128991980855,0.003561143610259794,0.003561143610259794,0.010710937402192136,0.010710937402192136,0.0022259026417252095,0.0022259026417252095,0.00340951603133631,0.00340951603133631
10,0.9832917614261609,0.04096103258623833,0.05676864254429362,0.001,0.983790523690773,0.034734485463012034,0.051625922757354954,0.011453685609239416,0.011453685609239416,0.002042836159697431,0.002042836159697431,0.0033429035285881823,0.0033429035285881823,0.010437999417476845,0.010437999417476845,0.0020306865010559488,0.0020306865010559488,0.003288496559790159,0.003288496559790159
11,0.9846306213777419,0.03842696298571446,0.05377612426512787,0.001,0.9900249376558603,0.02640585292346556,0.04103416818889293,0.009605462866916971,0.009605462866916971,0.0009002854607620999,0.0009002854607620999,0.004066486989901032,0.004066486989901032,0.010196883577905914,0.010196883577905914,0.001951396541001151,0.001951396541001151,0.003146305603003877,0.003146305603003877
12,0.9849974323233806,0.037132398471550226,0.052303100402215044,0.001,0.993142144638404,0.02274303735570763,0.03637318583122119,0.009008383504043435,0.009008383504043435,0.001723353452550372,0.001723353452550372,0.002839921799929931,0.002839921799929931,0.010118105810839134,0.010118105810839134,0.0018027145001864872,0.0018027145001864872,0.0031929221643649595,0.0031929221643649595
13,0.9850524539608536,0.03813155094723562,0.0536986431718082,0.001,0.9807772236076475,0.0425205269501819,0.058531792400287136,0.011137738608865877,0.011137738608865877,0.0010803915757996727,0.0010803915757996727,0.0037330037112216076,0.0037330037112216076,0.010134357307359055,0.010134357307359055,0.0021173209531208325,0.0021173209531208325,0.003255798736990474,0.003255798736990474
14,0.9860428435184506,0.03633467864977167,0.052033655781619455,0.001,0.9929343308395677,0.023713273134886165,0.03970325430615163,0.011421947131233007,0.011421947131233007,0.001718947593212137,0.001718947593212137,0.00278687232830763,0.00278687232830763,0.010487804126082103,0.010487804126082103,0.0018453918468647828,0.0018453918468647828,0.003303938982893524,0.003303938982893524
15,0.9870882547135207,0.03386183689304433,0.04897677770309988,0.001,0.9916874480465503,0.021519061624099188,0.037880679965445016,0.011566986237098684,0.011566986237098684,0.0010068448198154486,0.0010068448198154486,0.0037221905222153506,0.0037221905222153506,0.010192639660406205,0.010192639660406205,0.0016284741059028806,0.0016284741059028806,0.003230040508276077,0.003230040508276077
16,0.9867214437678821,0.03385962000480663,0.04856328476312538,0.001,0.9834788029925187,0.036972240617137365,0.05075983465254363,0.00989800125567772,0.00989800125567772,0.0009643342233577848,0.0009643342233577848,0.002856806725558892,0.002856806725558892,0.00979950456911479,0.00979950456911479,0.001848976286767333,0.001848976286767333,0.0029886093885976212,0.0029886093885976212
17,0.9861345462548603,0.03619797100158645,0.052230710988654824,0.001,0.9935577722360764,0.02432349092185628,0.03971071469563455,0.01025319413171852,0.01025319413171852,0.0020755655830677643,0.0020755655830677643,0.002988733698637941,0.002988733698637941,0.010533601785760927,0.010533601785760927,0.0019117219123868615,0.0019117219123868615,0.0035182809137212626,0.0035182809137212626
18,0.9880236226248992,0.03236064062721725,0.04603747687242132,0.00090000004,0.9921030756442227,0.02100354631525045,0.03379280323730526,0.00876875120429562,0.00876875120429562,0.0016566608577725924,0.0016566608577725924,0.002291471494395096,0.002291471494395096,0.00909741926305121,0.00909741926305121,0.001721067814197305,0.001721067814197305,0.002786857591763418,0.002786857591763418
19,0.9882070280977184,0.030999067039413995,0.045781775724810174,0.00090000004,0.9865960099750624,0.02955585765317991,0.043269580749776264,0.008994373391722642,0.008994373391722642,0.0013267490113991992,0.0013267490113991992,0.00331887836346791,0.00331887836346791,0.009893195556763535,0.009893195556763535,0.0017279936928329312,0.0017279936928329312,0.0030884692262114345,0.0030884692262114345
20,0.9879869415303353,0.031138237616128012,0.043900272408915725,0.00090000004,0.9870116375727348,0.0322355318596316,0.04594300841546446,0.008439018125969032,0.008439018125969032,0.003044760157131603,0.003044760157131603,0.0021488607456248716,0.0021488607456248716,0.008453344828282992,0.008453344828282992,0.0017960211847151322,0.0017960211847151322,0.002438345100631861,0.002438345100631861
21,0.9884271146651016,0.031450145459219384,0.0440685073730646,0.00090000004,0.9825436408977556,0.0394471458511137,0.0515702433331292,0.00883721213928402,0.00883721213928402,0.0008803528837410808,0.0008803528837410808,0.0023291166738393563,0.0023291166738393563,0.008439635199746057,0.008439635199746057,0.0016795355512183466,0.0016795355512183466,0.0024235048316828154,0.0024235048316828154
22,0.9877668549585794,0.032137278999576385,0.04510765855759683,0.00090000004,0.9912718204488778,0.02192023795871843,0.0336403269959414,0.007908885412358277,0.007908885412358277,0.0017601953867198907,0.0017601953867198907,0.0019724758443747667,0.0019724758443747667,0.008529924635357535,0.008529924635357535,0.001861395567776787,0.001861395567776787,0.002501483914316939,0.002501483914316939
23,0.9883537524759739,0.031738614948322565,0.04533865630084392,0.00090000004,0.9943890274314214,0.019040158614915377,0.0326216901717932,0.009528942654297958,0.009528942654297958,0.0017414626058950518,0.0017414626058950518,0.00223064656073729,0.00223064656073729,0.009112346642772665,0.009112346642772665,0.0016831392416980656,0.0016831392416980656,0.002724645942021226,0.002724645942021226
24,0.9882437091879096,0.03141900356164922,0.04395455180624434,0.00090000004,0.9818162926018288,0.0478027874118211,0.06309429826083301,0.008915726457409335,0.008915726457409335,0.0029743964956970366,0.0029743964956970366,0.0033193771534119672,0.0033193771534119672,0.008218366000264129,0.008218366000264129,0.0018395726776323533,0.0018395726776323533,0.0023959234733896603,0.0023959234733896603
25,0.9884637957596655,0.03082522163241359,0.04343406178758743,0.00090000004,0.9935577722360764,0.019302773027850186,0.034225088019208115,0.008311981542154191,0.008311981542154191,0.0020695086633430444,0.0020695086633430444,0.004456029610574038,0.004456029610574038,0.008336899782039954,0.008336899782039954,0.0016954270421500799,0.0016954270421500799,0.002493364691324832,0.002493364691324832
26,0.987785195510234,0.033400964082310185,0.04597699742518405,0.00090000004,0.9941812136325852,0.020416452266984342,0.032973788198662715,0.00872461806090722,0.00872461806090722,0.0014706789501638833,0.0014706789501638833,0.002277071503133419,0.002277071503133419,0.0081464767877472,0.0081464767877472,0.0019026779509351218,0.0019026779509351218,0.0024418180232665095,0.0024418180232665095
27,0.9887572445161764,0.029593382046596967,0.04179411507349298,0.00090000004,0.9942851205320034,0.020281766020000706,0.030441315477312925,0.00675480853361604,0.00675480853361604,0.0014961426623795778,0.0014961426623795778,0.0018203510379872392,0.0018203510379872392,0.007862783515613021,0.007862783515613021,0.0019525295768751173,0.0019525295768751173,0.0022984705311676957,0.0022984705311676957
28,0.9891790771036608,0.029161953757024472,0.04187153996319313,0.00090000004,0.9741271820448878,0.05423243651492434,0.0665309876561589,0.008385540042852508,0.008385540042852508,0.0015078404257150447,0.0015078404257150447,0.00231432724708615,0.00231432724708615,0.008239326528907569,0.008239326528907569,0.001925166237042375,0.001925166237042375,0.002455226777816031,0.002455226777816031
29,0.9891607365563788,0.029248311045640428,0.04211873236317712,0.00090000004,0.9902327514546966,0.023030002118788057,0.03550250641682285,0.008584211961417912,0.008584211961417912,0.0015236588407208963,0.0015236588407208963,0.0022717468418190718,0.0022717468418190718,0.008323279803135193,0.008323279803135193,0.00195543633549573,0.00195543633549573,0.0025000704268045913,0.0025000704268045913
30,0.988848947252586,0.0301143750508065,0.04368698860979957,0.00090000004,0.9412926018287614,0.1351530524304768,0.14730681072636442,0.008081498891827422,0.008081498891827422,0.0016057096084568987,0.0016057096084568987,0.002372097815629846,0.002372097815629846,0.008886700694776142,0.008886700694776142,0.0019145128390593421,0.0019145128390593421,0.00267807211588563,0.00267807211588563
31,0.9890323527254054,0.029535467809873036,0.041494146686184785,0.00090000004,0.9936616791354946,0.018560007015233047,0.029737597068091228,0.007815125175039125,0.007815125175039125,0.0011663061653212385,0.0011663061653212385,0.0020987767372872596,0.0020987767372872596,0.007832625473289868,0.007832625473289868,0.0018100201141453887,0.0018100201141453887,0.0022203967882508157,0.0022203967882508157
32,0.9890506932683145,0.02910805253479275,0.041018575778205814,0.00090000004,0.9894014962593516,0.029258638533623794,0.04142574272416563,0.008014238412428688,0.008014238412428688,0.001868665160121418,0.001868665160121418,0.0021844233593985543,0.0021844233593985543,0.007724055169947675,0.007724055169947675,0.001864196831089615,0.001864196831089615,0.002223267273904514,0.002223267273904514
33,0.9894725258601716,0.02946859444689682,0.04083445862004076,0.00090000004,0.9943890274314214,0.020595194570917026,0.030496613038041888,0.006742010686556435,0.006742010686556435,0.0011331900432687977,0.0011331900432687977,0.0019232844965801832,0.0019232844965801832,0.007196050583022029,0.007196050583022029,0.001983839741104192,0.001983839741104192,0.002084486483354467,0.002084486483354467
34,0.9895825691438632,0.027781928989931925,0.03963876040284129,0.00090000004,0.9937655860349127,0.01927669977825189,0.03179560114344286,0.0085978448302996,0.0085978448302996,0.001044203767520481,0.001044203767520481,0.0027708583455950354,0.0027708583455950354,0.007789103542561212,0.007789103542561212,0.0017001296697433522,0.0017001296697433522,0.0022629298973083074,0.0022629298973083074
35,0.9895275475020174,0.02848670493060121,0.04043624292089322,0.00090000004,0.9906483790523691,0.03154591006773538,0.04299959566514608,0.0079551126465069,0.0079551126465069,0.0013598540330075671,0.0013598540330075671,0.0020298048478669464,0.0020298048478669464,0.007800461232981137,0.007800461232981137,0.0017441393255061513,0.0017441393255061513,0.0022974360845781174,0.0022974360845781174
36,0.9887572445161764,0.029387582795819805,0.04029616860154561,0.00090000004,0.9943890274314214,0.016820548250639576,0.026784808170851646,0.006668720481805395,0.006668720481805395,0.001311050387166786,0.001311050387166786,0.0018735403894108188,0.0018735403894108188,0.006844109862245287,0.006844109862245287,0.0020188061917692205,0.0020188061917692205,0.0019358401288855037,0.0019358401288855037
37,0.9897659746166826,0.027593905069176417,0.038577158409624474,0.00090000004,0.9926226101413134,0.02032906092758145,0.0325414566628957,0.007748300094580927,0.007748300094580927,0.002273977608999612,0.002273977608999612,0.002075638119502443,0.002075638119502443,0.0071184481788092125,0.0071184481788092125,0.0017492810492454962,0.0017492810492454962,0.002002326111085316,0.002002326111085316
38,0.9886838823270486,0.02927619560253384,0.03948217948593641,0.00090000004,0.9825436408977556,0.04302004951547036,0.05516412613119122,0.00701755915553323,0.00701755915553323,0.0031503351654544633,0.0031503351654544633,0.0018603751028627904,0.0018603751028627904,0.006194783811690081,0.006194783811690081,0.0021090638427257676,0.0021090638427257676,0.0017866563755969446,0.0017866563755969446
39,0.9902061477470762,0.027066590557776878,0.03722409895937511,0.00090000004,0.9940773067331671,0.017260477491880415,0.02772490999967956,0.006478818204551579,0.006478818204551579,0.00219155511846793,0.00219155511846793,0.0016767378749026317,0.0016767378749026317,0.006236521331354944,0.006236521331354944,0.0020235921575327298,0.0020235921575327298,0.001780441907068117,0.001780441907068117
40,0.988867287799868,0.029775068927543325,0.03941160836245084,0.00090000004,0.983790523690773,0.03598224872933444,0.043962754925027034,0.004504039817252982,0.004504039817252982,0.0019962839966562265,0.0019962839966562265,0.0013617189475267682,0.0013617189475267682,0.005775438896035244,0.005775438896035244,0.0020097137360413,0.0020097137360413,0.001733950360777065,0.001733950360777065
41,0.9899677206367838,0.027538243025460395,0.03641935243668697,0.00090000004,0.9912718204488778,0.02280381895096158,0.03091466189185018,0.00412944279574241,0.00412944279574241,0.0026444185395554367,0.0026444185395554367,0.001216258365374319,0.001216258365374319,0.005310496488791654,0.005310496488791654,0.0018649712019344203,0.0018649712019344203,0.001585523330157833,0.001585523330157833
42,0.9900594233731934,0.025385984256780608,0.03476697430272362,0.00081000006,0.9712177888611804,0.05258140892957519,0.06373913276560081,0.007364733401059459,0.007364733401059459,0.0013141671563790924,0.0013141671563790924,0.002357674134225164,0.002357674134225164,0.005544372132786267,0.005544372132786267,0.002032043723804514,0.002032043723804514,0.0016836676603275106,0.0016836676603275106
43,0.9912882400410828,0.022494971730451035,0.030712412137678738,0.00081000006,0.9952202826267664,0.014521624452641218,0.02102670885639146,0.003876653479736671,0.003876653479736671,0.0014977246819965731,0.0014977246819965731,0.0010077495927533796,0.0010077495927533796,0.004874833444177453,0.004874833444177453,0.0017938608831653711,0.0017938608831653711,0.001426560945149276,0.001426560945149276
44,0.9901327855623212,0.026093833666380347,0.03512799876570777,0.00081000006,0.9824397339983375,0.03985059696896649,0.0520134238223913,0.004909184734564056,0.004909184734564056,0.005710498054666388,0.005710498054666388,0.0014206364710750608,0.0014206364710750608,0.005029097539285031,0.005029097539285031,0.0024442235978433266,0.0024442235978433266,0.0014381032299694823,0.0014381032299694823
45,0.9908480669063164,0.023938052301641224,0.032077600675147956,0.00081000006,0.9891936824605154,0.02790505582831738,0.03492368504785138,0.004226961268025163,0.004226961268025163,0.001460598240005927,0.001460598240005927,0.0012073122020187638,0.0012073122020187638,0.004802280770240909,0.004802280770240909,0.0018515716246979349,0.0018515716246979349,0.0013626670531063124,0.0013626670531063124
46,0.990719683075343,0.026672891796466435,0.03442468560917322,0.00081000006,0.9956359102244389,0.014023511821425824,0.020214369026820174,0.003814012027525204,0.003814012027525204,0.0011929903374134246,0.0011929903374134246,0.0010593412804224933,0.0010593412804224933,0.00431656599932267,0.00431656599932267,0.0020215582257606703,0.0020215582257606703,0.0012895580076578976,0.0012895580076578976
47,0.9906096397916514,0.025617510060393364,0.03300018742703507,0.00081000006,0.9964671654197839,0.01606080803401964,0.023137841542934225,0.00396720775876195,0.00396720775876195,0.001960453271870393,0.001960453271870393,0.0010253112931190849,0.0010253112931190849,0.003863648410857138,0.003863648410857138,0.002210192775684682,0.002210192775684682,0.0011842610167758646,0.0011842610167758646
48,0.9911965373046732,0.024799594135548126,0.03276340185881727,0.00081000006,0.9947007481296758,0.015093047448690996,0.02204646708852908,0.0043188006597919834,0.0043188006597919834,0.0013550580501703875,0.0013550580501703875,0.0011554526529790525,0.0011554526529790525,0.0042485171000668405,0.0042485171000668405,0.002301304728019891,0.002301304728019891,0.0012899219849672125,0.0012899219849672125
49,0.9911781967573913,0.024726007773569675,0.03129142304921113,0.00081000006,0.9935577722360764,0.02139849208903925,0.026692026519760062,0.0028502384843927956,0.0028502384843927956,0.0014274774529034054,0.0014274774529034054,0.0008912567854827727,0.0008912567854827727,0.0034949548447563536,0.0034949548447563536,0.0018505467277143849,0.0018505467277143849,0.0010953511120390302,0.0010953511120390302
50,0.9909947912845719,0.025447728023628376,0.03178179613075435,0.00081000006,0.9950124688279302,0.016520364282557466,0.021440062712156465,0.002597524409959875,0.002597524409959875,0.0014317236896585913,0.0014317236896585913,0.0007663963962118324,0.0007663963962118324,0.003188320964888557,0.003188320964888557,0.0020273612258007944,0.0020273612258007944,0.0009940896826664022,0.0009940896826664022
51,0.9899126989949381,0.0272500165263464,0.033183725110457626,0.00081000006,0.9950124688279302,0.015923155298462742,0.026565260970628266,0.004763539397361528,0.004763539397361528,0.004287048561846123,0.004287048561846123,0.0014686205096121688,0.0014686205096121688,0.00277676567185353,0.00277676567185353,0.0021264075641287423,0.0021264075641287423,0.0009073745554293669,0.0009073745554293669
52,0.9907747047171888,0.024953970329319113,0.030969287636886614,0.0007290001,0.9908561928512053,0.027270155036441517,0.031639556276224126,0.0022339943420393153,0.0022339943420393153,0.0012819002877948156,0.0012819002877948156,0.0007312003185405301,0.0007312003185405301,0.0031388084977625507,0.0031388084977625507,0.0017868420148321584,0.0017868420148321584,0.0009667976750300946,0.0009667976750300946
53,0.9916000293448757,0.02196635298787368,0.026875613013261718,0.0007290001,0.9950124688279302,0.014794620477213746,0.01850782178471241,0.0015727918726466217,0.0015727918726466217,0.0014880785779598426,0.0014880785779598426,0.0005301028121163986,0.0005301028121163986,0.002419925972548646,0.002419925972548646,0.0016138559750586733,0.0016138559750586733,0.0007534165545575125,0.0007534165545575125
54,0.9915816887975937,0.021717021578129127,0.026271327579656074,0.0007290001,0.9935577722360764,0.017010533501254557,0.020283485448414868,0.0016789556567895782,0.0016789556567895782,0.0009409726536354702,0.0009409726536354702,0.0005295547623198941,0.0005295547623198941,0.0021664206695343434,0.0021664206695343434,0.0015920626263547677,0.0015920626263547677,0.0006729950912871213,0.0006729950912871213
55,0.9922052674051793,0.021209980054031907,0.02567956428828312,0.0007290001,0.9964671654197839,0.014210898800079495,0.017892775822164534,0.0018968488187623982,0.0018968488187623982,0.00103847864713682,0.00103847864713682,0.0006226153966714734,0.0006226153966714734,0.002240898734858026,0.002240898734858026,0.0013976765764363763,0.0013976765764363763,0.000707445737963376,0.000707445737963376
56,0.9917834348176949,0.02338161058869503,0.02777383390294941,0.0007290001,0.9835827098919369,0.035754200595142276,0.03865722317024268,0.0014086050566128887,0.0014086050566128887,0.0009305701955876344,0.0009305701955876344,0.0004381632232370681,0.0004381632232370681,0.0020828481309068266,0.0020828481309068266,0.0015347945460799507,0.0015347945460799507,0.0006496889522254008,0.0006496889522254008
57,0.9927188027290734,0.02110002991742406,0.025725384941230646,0.0007290001,0.994804655029094,0.015627349050802562,0.021903089103745707,0.00344511018900498,0.00344511018900498,0.0017338968793194237,0.0017338968793194237,0.0009705246462538843,0.0009705246462538843,0.0022534938913728823,0.0022534938913728823,0.0015715271561787902,0.0015715271561787902,0.000674602791202235,0.000674602791202235
58,0.9919851808377962,0.022875877594216727,0.027228173204319087,0.0007290001,0.9954280964256027,0.01350460104175329,0.016638906244531116,0.001502155524372539,0.001502155524372539,0.0010228650352052673,0.0010228650352052673,0.0004835338938436547,0.0004835338938436547,0.0019637340866314515,0.0019637340866314515,0.0016231098819083289,0.0016231098819083289,0.0006392896843167545,0.0006392896843167545
59,0.9920952241214878,0.02138031438702414,0.025574524772557623,0.0007290001,0.9954280964256027,0.013241653798021218,0.01666443646074128,0.0018533216179950442,0.0018533216179950442,0.0009348604797200994,0.0009348604797200994,0.0005079914583546455,0.0005079914583546455,0.0018805389753604673,0.0018805389753604673,0.0015960636789334594,0.0015960636789334594,0.0005917869679526083,0.0005917869679526083
60,0.9922419484997432,0.022803979324875094,0.026967960082540238,0.0007290001,0.9927265170407316,0.019895524638928828,0.022620833337776123,0.0012921716540978125,0.0012921716540978125,0.0009542105012645009,0.0009542105012645009,0.00035098072037307687,0.00035098072037307687,0.001877619478814645,0.001877619478814645,0.001552676428434928,0.001552676428434928,0.0006065546213263269,0.0006065546213263269
61,0.9909030885481622,0.02531010586493248,0.029838575023579946,0.0007290001,0.9952202826267664,0.01502268141933443,0.0193486954320682,0.0018432736650087227,0.0018432736650087227,0.0017833639201820391,0.0017833639201820391,0.0005714605739485585,0.0005714605739485585,0.002055745447591975,0.002055745447591975,0.0017204125205127739,0.0017204125205127739,0.0006245228377336273,0.0006245228377336273
62,0.9919851808377962,0.02219547638075528,0.0262088318635236,0.0007290001,0.9891936824605154,0.026390782378460795,0.03093406274454693,0.0018059115448410142,0.0018059115448410142,0.0019623654229013504,0.0019623654229013504,0.0006460891788128304,0.0006460891788128304,0.001835094174471007,0.001835094174471007,0.00148149406577793,0.00148149406577793,0.0005683342512058042,0.0005683342512058042
63,0.9919118186486685,0.022331318172743315,0.02656151172755896,0.0007290001,0.9832709891936825,0.04725757517335387,0.050599959075872045,0.0015477097883391064,0.0015477097883391064,0.0012135988879388648,0.0012135988879388648,0.0004512173301982171,0.0004512173301982171,0.0018731654730141923,0.0018731654730141923,0.0016328299370812727,0.0016328299370812727,0.0005948951225243754,0.0005948951225243754
64,0.9932506786002494,0.019270809452303205,0.022913096918852655,0.00065610005,0.9941812136325852,0.015674938970878065,0.020531093785814098,0.0023534332258055486,0.0023534332258055486,0.001733824994884335,0.001733824994884335,0.0006378183509878301,0.0006378183509878301,0.001619619254064591,0.001619619254064591,0.001406169779316625,0.001406169779316625,0.00048572940127273174,0.00048572940127273174
65,0.9916733915340034,0.021056396764619015,0.024871348938694606,0.00065610005,0.9969866999168745,0.01429299519933825,0.016919451462387873,0.0011982791972543435,0.0011982791972543435,0.0008211210425555811,0.0008211210425555811,0.00047526138859138307,0.00047526138859138307,0.0017392109033889964,0.0017392109033889964,0.001406962094705008,0.001406962094705008,0.0005375429035569108,0.0005375429035569108
66,0.9921869268578974,0.020675147196161498,0.024589676084037886,0.00065610005,0.9956359102244389,0.013361786521821606,0.01642953410279393,0.0014611734745416099,0.0014611734745416099,0.0009930754722828,0.0009930754722828,0.0004824384632108376,0.0004824384632108376,0.0017966429640882454,0.0017966429640882454,0.0014424388934167922,0.0014424388934167922,0.0005439140873764172,0.0005439140873764172
67,0.9932690191475314,0.01994691026578517,0.023481825056323426,0.00065610005,0.9966749792186201,0.009217338185320832,0.01346167386383676,0.001839676924587513,0.001839676924587513,0.0016488131189264794,0.0016488131189264794,0.0006235677490437568,0.0006235677490437568,0.0016039523606917875,0.0016039523606917875,0.0013074003716208402,0.0013074003716208402,0.0004921599590869953,0.0004921599590869953
68,0.9929022082018928,0.019430390382457998,0.023227716753679562,0.00065610005,0.9927265170407316,0.018406532488570777,0.02236798989286736,0.0015361553991939416,0.0015361553991939416,0.001573489501768764,0.001573489501768764,0.0007192907667578413,0.0007192907667578413,0.0017576946269424404,0.0017576946269424404,0.0013594876733667746,0.0013594876733667746,0.0005477482973423764,0.0005477482973423764
69,0.9929388892964566,0.020082169803274486,0.023854238248935993,0.00065610005,0.9960515378221114,0.013097394326715726,0.015627299272716555,0.0010862265064809564,0.0010862265064809564,0.0009707191375604171,0.0009707191375604171,0.00034036148691368745,0.00034036148691368745,0.0016810909608152187,0.0016810909608152187,0.0014311679298694999,0.0014311679298694999,0.0005271655402222495,0.0005271655402222495
70,0.9925537378035361,0.020810962099088233,0.024526880678134418,0.00065610005,0.9887780548628429,0.03029735521470851,0.03325951199011656,0.001403428721809214,0.001403428721809214,0.0010202205377024716,0.0010202205377024716,0.00040430872974207865,0.00040430872974207865,0.0016316856419722244,0.0016316856419722244,0.0014513269679695942,0.0014513269679695942,0.0004997548492932539,0.0004997548492932539
71,0.9926637810872276,0.020395964714480668,0.024060764105995447,0.00065610005,0.9960515378221114,0.010222538019312916,0.013546280273339298,0.001538521030881765,0.001538521030881765,0.001160733602562759,0.001160733602562759,0.000489735821245938,0.000489735821245938,0.0017239184249090247,0.0017239184249090247,0.0012940226369825912,0.0012940226369825912,0.0005121504339721169,0.0005121504339721169
72,0.9929939109383024,0.01910038432720046,0.02262410102467618,0.00065610005,0.992310889443059,0.019869761468982502,0.022544830495169182,0.0011691465620132448,0.0011691465620132448,0.0010155734029072922,0.0010155734029072922,0.0003541273011191452,0.0003541273011191452,0.0015607107944442828,0.0015607107944442828,0.001349446511622378,0.001349446511622378,0.0004778892286568961,0.0004778892286568961
73,0.9935074462621964,0.01773235719328754,0.02109865380245292,0.00059049006,0.9600997506234414,0.08156334473263163,0.08471778079252675,0.001466152357346965,0.001466152357346965,0.0011122546079185352,0.0011122546079185352,0.0004388715387783122,0.0004388715387783122,0.001530764395463385,0.001530764395463385,0.0012320835332788717,0.0012320835332788717,0.0004664438300513812,0.0004664438300513812
74,0.9936174895415153,0.018028731497757272,0.02152742571233491,0.00059049006,0.9916874480465503,0.02174860814566288,0.02512574892931216,0.0015621868757202412,0.0015621868757202412,0.0012420926489517927,0.0012420926489517927,0.00043675308496694576,0.00043675308496694576,0.0015480223973743721,0.0015480223973743721,0.0013416304415638659,0.0013416304415638659,0.0004721933665636645,0.0004721933665636645
75,0.9941860465116279,0.017795273460502414,0.021106280500147356,0.00059049006,0.9960515378221114,0.014963691037590113,0.01772895687687848,0.001288893996412844,0.001288893996412844,0.0009561895133864273,0.0009561895133864273,0.00038304248397617505,0.00038304248397617505,0.001495786489242661,0.001495786489242661,0.001233195590246427,0.001233195590246427,0.0004454423567595398,0.0004454423567595398
76,0.9936541706404519,0.018572163148842347,0.021856589741289793,0.00059049006,0.9960515378221114,0.01178998289364621,0.01490566279328446,0.0012939363130246748,0.0012939363130246748,0.0013081398402336453,0.0013081398402336453,0.0003765008212663295,0.0003765008212663295,0.0014677268483839704,0.0014677268483839704,0.001249137464045744,0.001249137464045744,0.0004305122933045091,0.0004305122933045091
77,0.9936725111877338,0.01801152397128708,0.021301175193887707,0.00059049006,0.9975062344139651,0.007997831125564486,0.010990409287937599,0.0016011608607905622,0.0016011608607905622,0.0007739434789474578,0.0007739434789474578,0.00048036639746683026,0.00048036639746683026,0.0015884122875879402,0.0015884122875879402,0.0011148526563047744,0.0011148526563047744,0.00044919546933055684,0.00044919546933055684
78,0.9935441273567603,0.02002121682933892,0.023321726143822486,0.00059049006,0.9951163757273483,0.015607305870949634,0.01943987633987289,0.001677841764100783,0.001677841764100783,0.0014127728599905081,0.0014127728599905081,0.0006046252543510355,0.0006046252543510355,0.0015108150240796463,0.0015108150240796463,0.0012112541288900652,0.0012112541288900652,0.0004414016671222739,0.0004414016671222739
79,0.9939843004915266,0.017003198727081968,0.02007869108404358,0.00059049006,0.9970906068162926,0.009308412458143614,0.012690682416465923,0.001588565592829882,0.001588565592829882,0.0012418403275236867,0.0012418403275236867,0.00041422169163578493,0.00041422169163578493,0.0013827983697865453,0.0013827983697865453,0.001159832585882375,0.001159832585882375,0.0003956093975284709,0.0003956093975284709
80,0.9937458733768616,0.01754346705787149,0.020811267230679126,0.00059049006,0.9964671654197839,0.009605839634857049,0.012420210105311653,0.00124465332540883,0.00124465332540883,0.0010413255148949698,0.0010413255148949698,0.00038983502662550616,0.00038983502662550616,0.001505533903403262,0.001505533903403262,0.00118287973933698,0.00118287973933698,0.0004409157663040444,0.0004409157663040444
81,0.9938008950187074,0.018305171645730364,0.02160355349281727,0.00059049006,0.984621778886118,0.04184972758457888,0.053680796033361386,0.006637031841338578,0.006637031841338578,0.0019546081601950383,0.0019546081601950383,0.003100280705506504,0.003100280705506504,0.0013994118125784654,0.0013994118125784654,0.0013329678911710161,0.0013329678911710161,0.00042695299105846525,0.00042695299105846525
82,0.9928105054654831,0.01996133594557543,0.023206040355626692,0.00059049006,0.9964671654197839,0.009697023153354939,0.012015724854066918,0.0010966632584032388,0.0010966632584032388,0.0007000453291205493,0.0007000453291205493,0.00038144407095230327,0.00038144407095230327,0.0014188157095022195,0.0014188157095022195,0.0012483786598029287,0.0012483786598029287,0.00043779736639249395,0.00043779736639249395
83,0.994167705964346,0.01569275635456318,0.018533377255882305,0.00053144107,0.9929343308395677,0.01850978018466333,0.021066307845422478,0.0011827538673652154,0.0011827538673652154,0.0008701074383546136,0.0008701074383546136,0.0003614065330654595,0.0003614065330654595,0.0013211249450862741,0.0013211249450862741,0.0009877944503373626,0.0009877944503373626,0.0003902998573878693,0.0003902998573878693
84,0.9951397549659156,0.014314591665612305,0.017127699225147,0.00053144107,0.9968827930174564,0.013410280739687187,0.016014618779736218,0.0009937131132512758,0.0009937131132512758,0.001175266328290591,0.001175266328290591,0.00029222308638043946,0.00029222308638043946,0.001269856564479153,0.001269856564479153,0.0010295186280059943,0.0010295186280059943,0.0003710142568662572,0.0003710142568662572
85,0.994424473626293,0.015904345085022357,0.019146746192950426,0.00053144107,0.9954280964256027,0.012929471904448948,0.014994975246205702,0.0009010909810225446,0.0009010909810225446,0.0007784270940617335,0.0007784270940617335,0.0002416174983827372,0.0002416174983827372,0.0014847496432544758,0.0014847496432544758,0.0011944526618121922,0.0011944526618121922,0.00041942674522350615,0.00041942674522350615
86,0.994406133079011,0.01614785814246943,0.018961117926979014,0.00053144107,0.9970906068162926,0.00821840305119953,0.010802783173555779,0.0011474799550919741,0.0011474799550919741,0.0009211694922792498,0.0009211694922792498,0.0003710699689284215,0.0003710699689284215,0.0012878307332597843,0.0012878307332597843,0.0010153730171384666,0.0010153730171384666,0.0003656773013315787,0.0003656773013315787
87,0.9946078790991123,0.016615362467979105,0.019563836481238873,0.00053144107,0.9958437240232751,0.010408003717156401,0.012560039783068503,0.0009629820274966765,0.0009629820274966765,0.000776660925056137,0.000776660925056137,0.0002673946899204269,0.0002673946899204269,0.0013124280364221659,0.0013124280364221659,0.001108396224348801,0.001108396224348801,0.0003827373447496893,0.0003827373447496893
88,0.9944978358154207,0.015988484283013183,0.01902444578353847,0.00053144107,0.9908561928512053,0.026693249671078594,0.029627776873109867,0.0013849356492284758,0.0013849356492284758,0.0009922650253553298,0.0009922650253553298,0.00041172940821563675,0.00041172940821563675,0.0013364508243901261,0.0013364508243901261,0.001166933095136467,0.001166933095136467,0.0003872440277898881,0.0003872440277898881
89,0.9939659599442447,0.017263944068441433,0.020425412736333103,0.00053144107,0.9968827930174564,0.01014138439752932,0.01512804043396815,0.001741311558369773,0.001741311558369773,0.002473763638470546,0.002473763638470546,0.0006260183597946809,0.0006260183597946809,0.0013822289459956415,0.0013822289459956415,0.0012394220782133948,0.0012394220782133948,0.0003945621215597904,0.0003945621215597904
90,0.9940209815860905,0.01715848679517412,0.020179884206397318,0.00053144107,0.9958437240232751,0.012752927303623627,0.015028521561502004,0.0010899793541815936,0.0010899793541815936,0.0007624773827495815,0.0007624773827495815,0.0002781787636001535,0.0002781787636001535,0.0013534321558163285,0.0013534321558163285,0.0011281756686931975,0.0011281756686931975,0.00039438724184453057,0.00039438724184453057
91,0.9938008950187074,0.017075994317778592,0.020168017140627846,0.00053144107,0.9956359102244389,0.012908497558715318,0.015083938407872711,0.0009727198494003516,0.0009727198494003516,0.0007904470593842514,0.0007904470593842514,0.0002668556286199908,0.0002668556286199908,0.0013118792445119662,0.0013118792445119662,0.0012564767725666908,0.0012564767725666908,0.00037874915607219976,0.00037874915607219976
92,0.9945345169099846,0.015199657441121252,0.018037542795327745,0.00047829695,0.9964671654197839,0.008274418511715077,0.010749392301288952,0.001028046683078912,0.001028046683078912,0.0010297810723134892,0.0010297810723134892,0.00027138829961192567,0.00027138829961192567,0.0011952940842654754,0.0011952940842654754,0.0011583394688454885,0.0011583394688454885,0.0003388284694062173,0.0003388284694062173
93,0.9948279656664955,0.014272870894743085,0.017062049748725626,0.00047829695,0.9972984206151289,0.00792131348788336,0.010465999822651369,0.001052788386621891,0.001052788386621891,0.001076549842732754,0.001076549842732754,0.0002695995022390409,0.0002695995022390409,0.0011798243387215813,0.0011798243387215813,0.0011129040819314487,0.0011129040819314487,0.00035040650765348006,0.00035040650765348006
94,0.9943877925317292,0.014925324810854183,0.01781816137324476,0.00047829695,0.9966749792186201,0.012615485499092359,0.01679727891981656,0.0012214978630503068,0.0012214978630503068,0.002451081802456056,0.002451081802456056,0.000362764740225373,0.000362764740225373,0.0013219618799278942,0.0013219618799278942,0.001042348348007125,0.001042348348007125,0.0003827064846522027,0.0003827064846522027
95,0.9949746900447509,0.015212277513364332,0.018095410513082087,0.00047829695,0.9950124688279302,0.015861019453990266,0.017976449603024802,0.0009301811087523732,0.0009301811087523732,0.0007635072713188192,0.0007635072713188192,0.00027513450820687796,0.00027513450820687796,0.0012318000371136816,0.0012318000371136816,0.00115605147199185,0.00115605147199185,0.0003485432657201278,0.0003485432657201278
96,0.9951214144230064,0.01366306242730713,0.016595662740471806,0.00047829695,0.9742310889443059,0.04838850431614305,0.050939475676555386,0.0011948020577119414,0.0011948020577119414,0.0008989587402754968,0.0008989587402754968,0.0003105949094217433,0.0003105949094217433,0.0013018071165225565,0.0013018071165225565,0.001116377523035058,0.001116377523035058,0.00036766586480058074,0.00036766586480058074
97,0.9948646467610593,0.01474297094523077,0.01770956570661571,0.00047829695,0.9956359102244389,0.014281557230612769,0.016452171877272357,0.0010554277882205804,0.0010554277882205804,0.0006888455809273521,0.0006888455809273521,0.00027966094136702886,0.00027966094136702886,0.0013055671633397962,0.0013055671633397962,0.0011459526425518962,0.0011459526425518962,0.00036847344765306877,0.00036847344765306877
98,0.9946629007409581,0.013811435186735967,0.016483166598845456,0.00047829695,0.9985453034081463,0.005406450470402163,0.00861386377652774,0.0009863410958318572,0.0009863410958318572,0.0017925287748303564,0.0017925287748303564,0.0002823439872742997,0.0002823439872742997,0.001148392910263497,0.001148392910263497,0.0010428570067274223,0.0010428570067274223,0.0003343037949153066,0.0003343037949153066
99,0.9950297116865967,0.014198996796910227,0.017171034253965285,0.00047829695,0.9970906068162926,0.007817982464595755,0.011535373050525958,0.0020046010274380635,0.0020046010274380635,0.0011067396312739533,0.0011067396312739533,0.00046049887048258526,0.00046049887048258526,0.0012740173279427692,0.0012740173279427692,0.001190799720775718,0.001190799720775718,0.00036136742447135013,0.00036136742447135013
100,0.9955799281050547,0.014093144550626355,0.01678322355196012,0.00047829695,0.9985453034081463,0.010135889974584233,0.012595022994489197,0.0012095360246273871,0.0012095360246273871,0.0007685717868712826,0.0007685717868712826,0.00033551703326174554,0.00033551703326174554,0.0011907351029107414,0.0011907351029107414,0.0010123954142811067,0.0010123954142811067,0.0003415417108488599,0.0003415417108488599
101,0.9951214144230064,0.015603909299669353,0.018446792653258187,0.00047829695,0.994804655029094,0.01263637814241317,0.015078118183794845,0.001244469370590101,0.001244469370590101,0.0006354059896346028,0.0006354059896346028,0.00041671017866023503,0.00041671017866023503,0.0012520155791044061,0.0012520155791044061,0.0010781408508606072,0.0010781408508606072,0.00036737532819280054,0.00036737532819280054
102,0.9954332037267992,0.014009492183557914,0.016742975513811927,0.00047829695,0.9958437240232751,0.011134025580424504,0.013201620768161889,0.001088317284980926,0.001088317284980926,0.0005472616532615644,0.0005472616532615644,0.0002862373465673321,0.0002862373465673321,0.0012565882513965486,0.0012565882513965486,0.0009774297466038102,0.0009774297466038102,0.00035394220519496946,0.00035394220519496946
103,0.994424473626293,0.015705123660184665,0.01828668393261052,0.00047829695,0.9977140482128013,0.013065458931575532,0.015416703964966789,0.001199513076633681,0.001199513076633681,0.0006907400926722156,0.0006907400926722156,0.0003152299999577643,0.0003152299999577643,0.0011481160571212702,0.0011481160571212702,0.0009564804933108101,0.0009564804933108101,0.000331324594913724,0.000331324594913724
104,0.9950480522338787,0.013951865048535388,0.016416305650378705,0.00043046725,0.9979218620116376,0.00774692202486945,0.009806850441862735,0.0008992331864210004,0.0008992331864210004,0.0007556861919684879,0.0007556861919684879,0.00025880385943742546,0.00025880385943742546,0.0011393853961838717,0.0011393853961838717,0.0008686676705724165,0.0008686676705724165,0.0003103318567850466,0.0003103318567850466
105,0.9948463062137775,0.014062572603898461,0.01666523171022203,0.00043046725,0.9977140482128013,0.005931131823535491,0.010465147130691438,0.0012925329442831385,0.0012925329442831385,0.0027036094907996362,0.0027036094907996362,0.0003915178000617837,0.0003915178000617837,0.0011572963536658103,0.0011572963536658103,0.0009846241969812925,0.0009846241969812925,0.000314383961173983,0.000314383961173983
106,0.9954332037267992,0.01248140282399947,0.015031331972382754,0.00043046725,0.9906483790523691,0.023451870361850636,0.025950692832785026,0.0012342974111417089,0.0012342974111417089,0.0008570869996232551,0.0008570869996232551,0.0002606276150921833,0.0002606276150921833,0.001149785719356448,0.001149785719356448,0.0009276861839709574,0.0009276861839709574,0.0003261481356283581,0.0003261481356283581
107,0.9952681388012619,0.01283899969047679,0.015260493312429428,0.00043046725,0.9985453034081463,0.006664905072507481,0.009343398058837696,0.0009174604673810103,0.0009174604673810103,0.0013313045070353928,0.0013313045070353928,0.0002826327218779289,0.0002826327218779289,0.0010746361177077768,0.0010746361177077768,0.0008893655305356506,0.0008893655305356506,0.00031059215282943953,0.00031059215282943953
108,0.9955799281050547,0.013324209428601717,0.015745606288794112,0.00043046725,0.996571072319202,0.008030456442378611,0.009982906673579683,0.0008814720064870966,0.0008814720064870966,0.0006898447769852831,0.0006898447769852831,0.00023443202952636504,0.00023443202952636504,0.0010692947545854925,0.0010692947545854925,0.0009083320780232949,0.0009083320780232949,0.0002968525203341213,0.0002968525203341213
109,0.9961484850707946,0.012414496492871309,0.014719586751043758,0.00038742053,0.9786990856192851,0.04549179456452991,0.05108984556706763,0.0038008731283896416,0.0038008731283896416,0.0007809365121050156,0.0007809365121050156,0.0008690651605805064,0.0008690651605805064,0.0010720723925773073,0.0010720723925773073,0.0007868389788516146,0.0007868389788516146,0.0002990751149357467,0.0002990751149357467
110,0.9954332037267992,0.01380911609758249,0.016249362272838314,0.00038742053,0.9958437240232751,0.008693425908914544,0.011023683823875042,0.0011235457921456987,0.0011235457921456987,0.0007971505991988403,0.0007971505991988403,0.00026272312759145777,0.00026272312759145777,0.0010888203501776734,0.0010888203501776734,0.000907690235790891,0.000907690235790891,0.00029646275178903353,0.00029646275178903353
111,0.9960384417871029,0.012089345927752796,0.014500523519595465,0.00038742053,0.9943890274314214,0.012355135146569341,0.014526873119924441,0.0009491045237976089,0.0009491045237976089,0.0007429571063644595,0.0007429571063644595,0.0003332675141088596,0.0003332675141088596,0.0011156768092473058,0.0011156768092473058,0.0008475421548127426,0.0008475421548127426,0.0003013075224825167,0.0003013075224825167
112,0.9960384417871029,0.011943938467784066,0.014317553986764637,0.00038742053,0.9907522859517872,0.02239961899900098,0.02670281056358447,0.0023351214250780183,0.0023351214250780183,0.0014022424049595725,0.0014022424049595725,0.00041962151105507625,0.00041962151105507625,0.001101156565376892,0.001101156565376892,0.0008303658177074293,0.0008303658177074293,0.00029552377075539913,0.00029552377075539913
113,0.995488225368645,0.012583402601883403,0.014922170644725535,0.00038742053,0.9975062344139651,0.006829097271612791,0.008465065318333947,0.0007628625696594652,0.0007628625696594652,0.0004927341699115301,0.0004927341699115301,0.0002345445743925596,0.0002345445743925596,0.001046027629075588,0.001046027629075588,0.0008556928570414384,0.0008556928570414384,0.00029109502306588953,0.00029109502306588953
114,0.9965886582055609,0.010743914995263023,0.012905221223965707,0.00038742053,0.9927265170407316,0.022750845127844446,0.02488759652058635,0.0008593225318544443,0.0008593225318544443,0.0008896588088167678,0.0008896588088167678,0.0002417474632568362,0.0002417474632568362,0.0009999301460675593,0.0009999301460675593,0.0007525738998461314,0.0007525738998461314,0.0002626196084661584,0.0002626196084661584
115,0.9961118039762307,0.011550407784967019,0.01385064846943299,0.00038742053,0.9952202826267664,0.011859565577673212,0.013879310620131152,0.0010231983505371541,0.0010231983505371541,0.0005644987443854081,0.0005644987443854081,0.00028590270867289634,0.00028590270867289634,0.001027456981060903,0.001027456981060903,0.0008434816328828009,0.0008434816328828009,0.0002832453762594253,0.0002832453762594253
116,0.9956349497469005,0.014238899220577476,0.016634922354278783,0.00038742053,0.9958437240232751,0.01485437312775966,0.019755633511032416,0.0014360680514539175,0.0014360680514539175,0.002870259512620742,0.002870259512620742,0.0004490569598067216,0.0004490569598067216,0.0010827885138142077,0.0010827885138142077,0.0008663185537944449,0.0008663185537944449,0.00030109913674637934,0.00030109913674637934
117,0.9967720636783801,0.010621933869738058,0.012811445932215712,0.00038742053,0.9962593516209476,0.009939813973513442,0.011915216558974418,0.0008997828815410499,0.0008997828815410499,0.0006888596143081249,0.0006888596143081249,0.00024058403504570826,0.00024058403504570826,0.0009937619260143445,0.0009937619260143445,0.0007706393076668152,0.0007706393076668152,0.00027912703327007403,0.00027912703327007403
118,0.9959650795979752,0.012408360881834226,0.01463311727327451,0.00038742053,0.9979218620116376,0.009114556731936724,0.010979201885134583,0.0008472333530204372,0.0008472333530204372,0.0006627311487769257,0.0006627311487769257,0.00020814960947986914,0.00020814960947986914,0.0010386181802485115,0.0010386181802485115,0.000752499042003594,0.000752499042003594,0.0002871791777138177,0.0002871791777138177
119,0.9961668256180765,0.011351379940090172,0.013499036794996212,0.00034867847,0.9972984206151289,0.007346077028056161,0.009497272765189595,0.0009652097117940989,0.0009652097117940989,0.0007591468813448911,0.0007591468813448911,0.000280683960010957,0.000280683960010957,0.0009461686526627148,0.0009461686526627148,0.0007958066940585388,0.0007958066940585388,0.0002592470765897055,0.0002592470765897055
120,0.9961301445235126,0.011057591531429083,0.013169886613618665,0.00034867847,0.9615544472152951,0.08084802389977763,0.08862934826266683,0.0013785309928851799,0.0013785309928851799,0.005728773409608133,0.005728773409608133,0.000527317534728587,0.000527317534728587,0.0009722883131522748,0.0009722883131522748,0.0007270534652675603,0.0007270534652675603,0.0002666559959000393,0.0002666559959000393
121,0.9964786149218693,0.011019840894503667,0.013079450607989056,0.00034867847,0.9972984206151289,0.005676568334412835,0.007578865071435026,0.000955950311066332,0.000955950311066332,0.0005448538793345947,0.0005448538793345947,0.000254625897918774,0.000254625897918774,0.0009701079173297257,0.0009701079173297257,0.0006821971047732396,0.0006821971047732396,0.0002603304443070629,0.0002603304443070629
122,0.9969187880566356,0.010081395086585567,0.012099356574497832,0.00034867847,0.9775561097256857,0.04146901882510595,0.04320486700265836,0.0007986645434413288,0.0007986645434413288,0.0005416344432606614,0.0005416344432606614,0.00024830637730149815,0.00024830637730149815,0.0009291010483126952,0.0009291010483126952,0.0006809641166216115,0.0006809641166216115,0.0002608308584247275,0.0002608308584247275
123,0.9966253393001248,0.011217770795284281,0.013435134535968165,0.00034867847,0.9985453034081463,0.00753779918539896,0.009539140106766413,0.0010075292834400584,0.0010075292834400584,0.0005888818915888759,0.0005888818915888759,0.000257944048542667,0.000257944048542667,0.0009998315707570025,0.0009998315707570025,0.000787299606206449,0.000787299606206449,0.0002831059500469454,0.0002831059500469454
124,0.9964786149218693,0.01105206185595453,0.013174188636472843,0.00034867847,0.9968827930174564,0.007225716610353142,0.008825486507772871,0.0007754541947906999,0.0007754541947906999,0.00047465708016372247,0.00047465708016372247,0.00020286328910692204,0.00020286328910692204,0.0009598469467007586,0.0009598469467007586,0.0007508619866140306,0.0007508619866140306,0.0002644467604476713,0.0002644467604476713
125,0.9964052527327415,0.010993594980106904,0.013233636668290555,0.00034867847,0.9964671654197839,0.011440215344296541,0.013547776072326326,0.0009767806599664107,0.0009767806599664107,0.0006874542156893297,0.0006874542156893297,0.0002960892366795894,0.0002960892366795894,0.0010218774225100574,0.0010218774225100574,0.0007938690011098844,0.0007938690011098844,0.0002771703619078214,0.0002771703619078214
126,0.9964602743745873,0.010916141874231636,0.013174460714282013,0.00034867847,0.999168744804655,0.004161604308102079,0.00623390767059474,0.0010125815674787617,0.0010125815674787617,0.0006720324999485679,0.0006720324999485679,0.0002404898745375784,0.0002404898745375784,0.001033606492424181,0.001033606492424181,0.0007969692975960519,0.0007969692975960519,0.0002805845624877399,0.0002805845624877399
127,0.9961484850707946,0.01136315121706035,0.01357277951647016,0.00034867847,0.9975062344139651,0.00599421661360475,0.008009702545929009,0.0009504280559783348,0.0009504280559783348,0.0006381764040433656,0.0006381764040433656,0.0002801448786623243,0.0002801448786623243,0.0009932291808408716,0.0009932291808408716,0.0007917869188224844,0.0007917869188224844,0.00027783374179998744,0.00027783374179998744
128,0.9963318905436138,0.010664885096778582,0.012896154684618055,0.00034867847,0.9987531172069826,0.004163866082372872,0.006224010913580167,0.0010637147669749704,0.0010637147669749704,0.0005773661640035403,0.0005773661640035403,0.00027214475018218573,0.00027214475018218573,0.000986929370396405,0.000986929370396405,0.0008162403840768082,0.0008162403840768082,0.00028110348560737587,0.00028110348560737587
129,0.9965336365637151,0.010371654664848415,0.012524748818865032,0.00034867847,0.9941812136325852,0.016906601273399567,0.018619770744946303,0.0008615688960087669,0.0008615688960087669,0.000468189909119207,0.000468189909119207,0.0002365961244823777,0.0002365961244823777,0.0009821201075386524,0.0009821201075386524,0.0007470714114965294,0.0007470714114965294,0.0002768506895094963,0.0002768506895094963
130,0.9961851661653583,0.011721533716543256,0.013945236632768981,0.00034867847,0.9972984206151289,0.00874903532249526,0.010732670586390911,0.0009249014055922203,0.0009249014055922203,0.0006489520535204788,0.0006489520535204788,0.0002625972169332581,0.0002625972169332581,0.0010119062064891657,0.0010119062064891657,0.0007790094757537227,0.0007790094757537227,0.00028575947507004224,0.00028575947507004224
131,0.9963318905436138,0.011169741963415396,0.013296885876559698,0.00034867847,0.9970906068162926,0.008553965976554449,0.01046432480924389,0.0009977249513546287,0.0009977249513546287,0.000497879608649458,0.000497879608649458,0.0002677033168757458,0.0002677033168757458,0.0009278433163287773,0.0009278433163287773,0.0007951018188519235,0.0007951018188519235,0.0002569890251514427,0.0002569890251514427
132,0.9969921502457634,0.009476646566093767,0.011467275596745425,0.00031381063,0.9989609310058188,0.0047005481009374135,0.006656242897166969,0.0007322905780163037,0.0007322905780163037,0.0008776182455727493,0.0008776182455727493,0.00019796478811163307,0.00019796478811163307,0.0008870383478777313,0.0008870383478777313,0.0007139362842279782,0.0007139362842279782,0.00024201235981001398,0.00024201235981001398
133,0.9967353825838163,0.009255790969338283,0.011292808685444845,0.00031381063,0.9950124688279302,0.01606056083598971,0.017956094352891538,0.000858932245387355,0.000858932245387355,0.0006560249245543256,0.0006560249245543256,0.00023269820649873514,0.00023269820649873514,0.0009244384210575773,0.0009244384210575773,0.0007153717620608923,0.0007153717620608923,0.0002492446204016247,0.0002492446204016247
134,0.9964969554691512,0.009705555932860412,0.01173523664059249,0.00031381063,0.9981296758104738,0.005837435637416622,0.007484070243747829,0.0007660131918522181,0.0007660131918522181,0.0004907377227807068,0.0004907377227807068,0.00024211427987369218,0.00024211427987369218,0.0009264801011186555,0.0009264801011186555,0.000707460650940061,0.000707460650940061,0.0002479897763127938,0.0002479897763127938
135,0.9966803609419705,0.010111179153654275,0.012109408791785193,0.00031381063,0.9982335827098919,0.004839475671168436,0.006302938801321609,0.0006583783014368573,0.0006583783014368573,0.0004689637416649189,0.0004689637416649189,0.00018807036816125805,0.00018807036816125805,0.0009101186074679233,0.0009101186074679233,0.0006925309236029391,0.0006925309236029391,0.00024769819374487206,0.00024769819374487206
136,0.9965886582055609,0.009764050716641087,0.01178851423206524,0.00031381063,0.9989609310058188,0.004227289002617327,0.005912904901337498,0.0006901729862521254,0.0006901729862521254,0.0006528785966160314,0.0006528785966160314,0.00019448265379216561,0.00019448265379216561,0.0008762620749786624,0.0008762620749786624,0.0007555533920459229,0.0007555533920459229,0.0002445598043414493,0.0002445598043414493
137,0.9967170420365343,0.00908856977982529,0.01114017743798252,0.00031381063,0.9975062344139651,0.005972821750575445,0.007697266780785637,0.000743692191033776,0.000743692191033776,0.0006242557599910403,0.0006242557599910403,0.00020837301631743433,0.00020837301631743433,0.000936384866809353,0.000936384866809353,0.0007148159086408664,0.0007148159086408664,0.00025231513927855936,0.00025231513927855936
138,0.9966987014892524,0.00967201761381744,0.011648718427360623,0.00031381063,0.9964671654197839,0.013461786615383263,0.01738262374821318,0.0008645165721657094,0.0008645165721657094,0.002555167098399577,0.002555167098399577,0.00035291682018828073,0.00035291682018828073,0.0008970188320044645,0.0008970188320044645,0.0006886093724799758,0.0006886093724799758,0.00024296662559889496,0.00024296662559889496
139,0.9972122368131465,0.00903037699425975,0.010922030249612798,0.00031381063,0.9933499584372403,0.01871434224194495,0.021297569328114694,0.0012445450624074023,0.0012445450624074023,0.000797367608847239,0.000797367608847239,0.00039276480118916133,0.00039276480118916133,0.0008739520723683356,0.0008739520723683356,0.000630780150862436,0.000630780150862436,0.0002385898832414552,0.0002385898832414552
140,0.9968821069620718,0.009094890404069753,0.01101292389344639,0.00031381063,0.9902327514546966,0.02415563422027627,0.026009524171801898,0.0008285611427524758,0.0008285611427524758,0.0006044365389406768,0.0006044365389406768,0.0002719772720114012,0.0002719772720114012,0.0008867534868216787,0.0008867534868216787,0.0006331354025410715,0.0006331354025410715,0.0002494046196913825,0.0002494046196913825
141,0.9970104907930453,0.009764865753834453,0.011649739083343222,0.00031381063,0.9972984206151289,0.005470372866138467,0.00732779737707291,0.0007715018582046465,0.0007715018582046465,0.0007395545231151888,0.0007395545231151888,0.000197440647154186,0.000197440647154186,0.0008508004198820954,0.0008508004198820954,0.0006490675096846613,0.0006490675096846613,0.00023630712155434984,0.00023630712155434984
142,0.9966987014892524,0.008932022886000066,0.010809909275051882,0.00028242957,0.9979218620116376,0.008397745439943784,0.010535673987633663,0.0010422425550974384,0.0010422425550974384,0.0006823648273150754,0.0006823648273150754,0.00026450778071375984,0.00026450778071375984,0.0008232739628264693,0.0008232739628264693,0.0006760340074911346,0.0006760340074911346,0.00022960403327064677,0.00022960403327064677
143,0.9973222800968381,0.009042302447775473,0.010885090536353241,0.00028242957,0.999168744804655,0.00445232707540331,0.0061118715673612305,0.0007307318718618143,0.0007307318718618143,0.0005662143713566657,0.0005662143713566657,0.00021349467841434594,0.00021349467841434594,0.0008222568548705748,0.0008222568548705748,0.0006480074517146732,0.0006480074517146732,0.0002235862782594188,0.0002235862782594188
144,0.9966253393001248,0.009374700606192285,0.011319764102497916,0.00028242957,0.9993765586034913,0.0037571830119653175,0.005623266522489846,0.00077013468589463,0.00077013468589463,0.0006821621205300491,0.0006821621205300491,0.0002644672365437472,0.0002644672365437472,0.0008870309143727623,0.0008870309143727623,0.0006693095224002485,0.0006693095224002485,0.00023962667944997797,0.00023962667944997797
145,0.9969921502457634,0.008503906991045071,0.010418981384130267,0.00028242957,0.9966749792186201,0.008163272485283523,0.00974382886615468,0.000745620936797297,0.000745620936797297,0.00048432988856464,0.00048432988856464,0.00020098258073971068,0.00020098258073971068,0.0008452347560846126,0.0008452347560846126,0.0006836989734001082,0.0006836989734001082,0.00023657261102339895,0.00023657261102339895
146,0.9972855990022742,0.008174739727909823,0.010029470728186659,0.00028242957,0.9962593516209476,0.012980478159879367,0.014511934437094982,0.0006853665339046604,0.0006853665339046604,0.0005115964081003281,0.0005115964081003281,0.00018458448609612088,0.00018458448609612088,0.0008373809425102743,0.0008373809425102743,0.0006382424167022675,0.0006382424167022675,0.00022941293103583986,0.00022941293103583986
147,0.9969738096984814,0.009395611983245067,0.01136444194097375,0.00028242957,0.9966749792186201,0.00855362831891656,0.009985408454474235,0.0006194068917652193,0.0006194068917652193,0.0004875085698740419,0.0004875085698740419,0.00017531840232417107,0.00017531840232417107,0.000873308972185793,0.000873308972185793,0.000694020804352488,0.000694020804352488,0.00025187859163445625,0.00025187859163445625
148,0.9973222800968381,0.008806803869402318,0.010611333981088093,0.00028242957,0.9958437240232751,0.014016555588236652,0.01726836706363617,0.0008738147926373416,0.0008738147926373416,0.0019380354841378325,0.0019380354841378325,0.000289695253299712,0.000289695253299712,0.0008314512134050102,0.0008314512134050102,0.0005967269936429692,0.0005967269936429692,0.00022642315284817052,0.00022642315284817052
149,0.9973222800968381,0.008501455709910908,0.010390897788862272,0.00028242957,0.9962593516209476,0.01208078027790852,0.014031866639013521,0.0007191881862914066,0.0007191881862914066,0.0008579767334773511,0.0008579767334773511,0.00022295135883390154,0.00022295135883390154,0.0008619283644279306,0.0008619283644279306,0.0006447719350471684,0.0006447719350471684,0.00023209192910560953,0.00023209192910560953
150,0.997065512434891,0.008649262847053975,0.01048562333588728,0.0002541866,0.9966749792186201,0.00771100308018272,0.009535620079469865,0.0008075192821516361,0.0008075192821516361,0.0006106495468703843,0.0006106495468703843,0.00025545824804309026,0.00025545824804309026,0.0008401768106159272,0.0008401768106159272,0.0006098995377440222,0.0006098995377440222,0.00023535919658331292,0.00023535919658331292
151,0.9975423666642212,0.0076412091917211255,0.009501158154983131,0.0002541866,0.9987531172069826,0.004155400097311473,0.005578692276003683,0.0006624613697257869,0.0006624613697257869,0.0004366867362654842,0.0004366867362654842,0.00017289269977309663,0.00017289269977309663,0.0008650258268237196,0.0008650258268237196,0.000611426674032629,0.000611426674032629,0.00023241213374602563,0.00023241213374602563
152,0.9973222800968381,0.008122764492509475,0.009961797181015149,0.0002541866,0.9989609310058188,0.0034384821857628817,0.006092943338904118,0.0008777663471940356,0.0008777663471940356,0.0013999114215814978,0.0013999114215814978,0.00022553626391680077,0.00022553626391680077,0.0008258586073108296,0.0008258586073108296,0.0006323717735472956,0.0006323717735472956,0.0002297125758192452,0.0002297125758192452
153,0.9969554691511995,0.008850029775530854,0.010780729626484204,0.0002541866,0.9979218620116376,0.007091728131319723,0.00857124755971702,0.0006031590270875295,0.0006031590270875295,0.0005553186214787356,0.0005553186214787356,0.00016968978535688913,0.00016968978535688913,0.0008688309239871779,0.0008688309239871779,0.0006667062347490696,0.0006667062347490696,0.0002440114291207409,0.0002440114291207409
154,0.9975056855696574,0.00738792083681746,0.009123774284633415,0.0002541866,0.9985453034081463,0.004517814253485979,0.006326535142753397,0.0008286369847218334,0.0008286369847218334,0.0005954318503283559,0.0005954318503283559,0.00023305242204835352,0.00023305242204835352,0.0007769665090624967,0.0007769665090624967,0.0005962371877439326,0.0005962371877439326,0.00021110085027905613,0.00021110085027905613
155,0.9976890910424767,0.007018126202805235,0.008756860858102747,0.00022876794,0.9981296758104738,0.0058683093858904875,0.007410259329011712,0.0006684562280299553,0.0006684562280299553,0.000535135899801982,0.000535135899801982,0.00018641774302504972,0.00018641774302504972,0.0007668033366455511,0.0007668033366455511,0.0006049593932683555,0.0006049593932683555,0.00021510437505957723,0.00021510437505957723
156,0.9975240261169394,0.007467044081462691,0.009253061029478071,0.00022876794,0.9985453034081463,0.0033313761102289536,0.004726861996302522,0.0006193069730775395,0.0006193069730775395,0.000453071590837512,0.000453071590837512,0.00017127870928459544,0.00017127870928459544,0.0007599483285385486,0.0007599483285385486,0.0006599565814567735,0.0006599565814567735,0.00021418836503267434,0.00021418836503267434
157,0.9975056855696574,0.007297265758179848,0.008993546175327211,0.00022876794,0.9995843724023276,0.0028331892920746464,0.004409022852850045,0.0006878637965504971,0.0006878637965504971,0.0005495904296641807,0.0005495904296641807,0.0001862088764199019,0.0001862088764199019,0.0007517861795892866,0.0007517861795892866,0.0005898540344199535,0.0005898540344199535,0.00020275197689852647,0.00020275197689852647
158,0.997597388306067,0.007367190628220344,0.009050332361489413,0.00022876794,0.9990648379052369,0.0022783494275000604,0.003818250397355346,0.0007240750515789079,0.0007240750515789079,0.00044855388618344447,0.00044855388618344447,0.0002149614776804653,0.0002149614776804653,0.0007508424458504704,0.0007508424458504704,0.0005706725282995136,0.0005706725282995136,0.00020934599315251807,0.00020934599315251807
159,0.997615728853349,0.006819244306534107,0.008477533376303838,0.00022876794,0.9997921862011637,0.001732844667169844,0.0037797982677707414,0.0006782820717290222,0.0006782820717290222,0.0009990102408299667,0.0009990102408299667,0.0002168542522639876,0.0002168542522639876,0.0007532068908768983,0.0007532068908768983,0.0005501371722371977,0.0005501371722371977,0.00020225102874486914,0.00020225102874486914
160,0.9975790477587851,0.007449771927843589,0.009109051120083846,0.00022876794,0.9975062344139651,0.00491810062615833,0.006273697323052806,0.0005921487643087615,0.0005921487643087615,0.00045457676518926204,0.00045457676518926204,0.0001562446960026593,0.0001562446960026593,0.0007370379610016109,0.0007370379610016109,0.0005702785258594241,0.0005702785258594241,0.0001994188846056016,0.0001994188846056016
161,0.9974873450223755,0.00737250108475358,0.009039081617419186,0.00022876794,0.9968827930174564,0.007677685925437663,0.009718341022581426,0.0008408714491516992,0.0008408714491516992,0.0008097414762158712,0.0008097414762158712,0.00023712792910225356,0.00023712792910225356,0.0007512200968902558,0.0007512200968902558,0.0005587729261530204,0.0005587729261530204,0.0002038195155224202,0.0002038195155224202
162,0.9980925830826792,0.0063622826732766214,0.008077886914540247,0.00022876794,0.9995843724023276,0.002277951519485987,0.004419565389895888,0.0008560525632660034,0.0008560525632660034,0.0008713693166228479,0.0008713693166228479,0.00026134778341938025,0.00026134778341938025,0.0007551094249021751,0.0007551094249021751,0.0006062939489522291,0.0006062939489522291,0.00020150447234112948,0.00020150447234112948
163,0.9978358154207322,0.007417228444800765,0.00912952501165965,0.00022876794,0.9977140482128013,0.005064586471935827,0.006404668865612176,0.0005877309381673542,0.0005877309381673542,0.0004393579854186312,0.0004393579854186312,0.00016029316489798848,0.00016029316489798848,0.0007584865477892499,0.0007584865477892499,0.0005879550591642418,0.0005879550591642418,0.00021300197150910143,0.00021300197150910143
164,0.9979825397989877,0.006891730003801665,0.008539768919103708,0.00020589115,0.9989609310058188,0.004217301976375408,0.005783536788012293,0.0006771966966888744,0.0006771966966888744,0.000541435649558823,0.000541435649558823,0.00019471319716626775,0.00019471319716626775,0.0007543912252001123,0.0007543912252001123,0.0005286939321366493,0.0005286939321366493,0.00021213741977272162,0.00021213741977272162
165,0.9979091776098599,0.006746928830904409,0.008359574829437465,0.00020589115,0.9993765586034913,0.00251790172026832,0.004002035693505489,0.000701947677573762,0.000701947677573762,0.0004335037142697645,0.0004335037142697645,0.0001957200402042417,0.0001957200402042417,0.0007346352730967902,0.0007346352730967902,0.0005239331917797719,0.0005239331917797719,0.0002012210956548925,0.0002012210956548925
166,0.9977257721370406,0.007508119216241987,0.009181727710634064,0.00020589115,0.9997921862011637,0.002536747189155013,0.004089016368626582,0.0007227996872839226,0.0007227996872839226,0.0004756792249397387,0.0004756792249397387,0.00020055199826991878,0.00020055199826991878,0.0007463363660710148,0.0007463363660710148,0.0005727416989728362,0.0005727416989728362,0.0002014468573254058,0.0002014468573254058
167,0.9978174748734502,0.006507923112296032,0.00815200722576267,0.00020589115,0.9979218620116376,0.006364216433380682,0.008062556686177107,0.0008573349049140282,0.0008573349049140282,0.0004819224264862419,0.0004819224264862419,0.00020561696977483242,0.00020561696977483242,0.0007691210247541989,0.0007691210247541989,0.0005152089089222108,0.0005152089089222108,0.00020635026001075742,0.00020635026001075742
168,0.9976524099479128,0.007026250877910171,0.008711544824177487,0.00020589115,0.9952202826267664,0.016200599342243466,0.017860411024888154,0.0007653258281627535,0.0007653258281627535,0.0005178118192023261,0.0005178118192023261,0.000223458880929581,0.000223458880929581,0.0007521686228701506,0.0007521686228701506,0.0005757450025026886,0.0005757450025026886,0.00020404840854375871,0.00020404840854375871
169,0.9980559019881153,0.00549755648723444,0.007016212435230636,0.00018530204,0.9987531172069826,0.004074679751859313,0.005923402855500419,0.0008320847186418145,0.0008320847186418145,0.0006224019506667555,0.0006224019506667555,0.00024060584953090978,0.00024060584953090978,0.0006686663858779513,0.0006686663858779513,0.0005095110135068171,0.0005095110135068171,0.00018703469405861436,0.00018703469405861436
170,0.9980192208935514,0.005992697361877658,0.007563690400162308,0.00018530204,0.9989609310058188,0.0037012312646871543,0.005113537186078947,0.0006597178381961961,0.0006597178381961961,0.00041741454293009814,0.00041741454293009814,0.0001814189299550036,0.0001814189299550036,0.0006937744056321433,0.0006937744056321433,0.0005288030327062525,0.0005288030327062525,0.0001947174606686169,0.0001947174606686169
171,0.998147604724525,0.005967726059609535,0.007552495669848139,0.00018530204,0.9997921862011637,0.00204618305712148,0.0034577060673840294,0.0006010380676704252,0.0006010380676704252,0.00048537172584846284,0.00048537172584846284,0.0001712754310181251,0.0001712754310181251,0.0007110672442282182,0.0007110672442282182,0.0005235406926795118,0.0005235406926795118,0.00019650393474529492,0.00019650393474529492
172,0.997872496515296,0.006274776838038058,0.00784323238594141,0.00018530204,0.9985453034081463,0.00304409142381904,0.00452644231692243,0.0005941865099624964,0.0005941865099624964,0.0005487120422456357,0.0005487120422456357,0.00018583610916897382,0.00018583610916897382,0.0007088325223808697,0.0007088325223808697,0.0005106089351075839,0.0005106089351075839,0.00019528793719213186,0.00019528793719213186
173,0.9977624532316044,0.00579264671303136,0.007295074259329241,0.00018530204,0.999168744804655,0.0032977842781860716,0.004656219307518257,0.0006602510977324028,0.0006602510977324028,0.00036733279022855707,0.00036733279022855707,0.00017728553543071055,0.00017728553543071055,0.0006828005749786027,0.0006828005749786027,0.00048323148118479815,0.00048323148118479815,0.0001827272511696779,0.0001827272511696779
174,0.9982209669136527,0.005634516014359103,0.0071599884182201754,0.00018530204,0.9993765586034913,0.002442487091909703,0.003734068606981306,0.00055883284142405,0.00055883284142405,0.0004180466807918406,0.0004180466807918406,0.0001609187442777651,0.0001609187442777651,0.0006966003729604623,0.0006966003729604623,0.0004838556858367267,0.0004838556858367267,0.00019136355322983714,0.00019136355322983714
175,0.9982393074609346,0.005716941133734117,0.007218077769366179,0.00018530204,0.9989609310058188,0.0026262209327149256,0.003921022967022014,0.0005483336009105307,0.0005483336009105307,0.0004402812640093161,0.0004402812640093161,0.00015231286030568166,0.00015231286030568166,0.0006740954701801696,0.0006740954701801696,0.00048751256699774455,0.00048751256699774455,0.00018563335707201152,0.00018563335707201152
176,0.9981109236299611,0.005839706344169205,0.007352812390321638,0.00018530204,0.9987531172069826,0.0033649382064021454,0.004912594203182658,0.0006793698001211101,0.0006793698001211101,0.0005449442757321985,0.0005449442757321985,0.00016946712508973043,0.00016946712508973043,0.0006944852619115813,0.0006944852619115813,0.0004771437927467591,0.0004771437927467591,0.00018752246481716674,0.00018752246481716674
177,0.9981659452718069,0.005747952169150731,0.007235781058053356,0.00016677183,0.99833748960931,0.003909135820495202,0.005411324245508386,0.0007766123656537179,0.0007766123656537179,0.0003799809085392739,0.0003799809085392739,0.0001916729316423304,0.0001916729316423304,0.0006600564284932679,0.0006600564284932679,0.0004924828197391144,0.0004924828197391144,0.00018132792250791097,0.00018132792250791097
178,0.9980008803462695,0.005497422755578306,0.00699832396792958,0.00016677183,0.9993765586034913,0.002093219178729515,0.0036280537394288827,0.0007479515431198858,0.0007479515431198858,0.0004311651264605759,0.0004311651264605759,0.00020174012684661451,0.00020174012684661451,0.0006880529194518646,0.0006880529194518646,0.0004754927844244624,0.0004754927844244624,0.0001833718161601937,0.0001833718161601937
179,0.9984960751228816,0.00462116994777026,0.0061405230221370614,0.00016677183,0.999168744804655,0.0026174356955450655,0.0038648352391959006,0.0005625350103712943,0.0005625350103712943,0.0003776147956765878,0.0003776147956765878,0.0001529905013546521,0.0001529905013546521,0.0006972728669906449,0.0006972728669906449,0.00047928378738972926,0.00047928378738972926,0.00018862649451922942,0.00018862649451922942
180,0.9982576480082166,0.005113383002762783,0.006572163622284973,0.00016677183,0.9975062344139651,0.006345000591558054,0.00777408449338859,0.0005603893497857266,0.0005603893497857266,0.0005408957750310154,0.0005408957750310154,0.0001733654883454977,0.0001733654883454977,0.0006565997611544715,0.0006565997611544715,0.00046353364280081444,0.00046353364280081444,0.0001844197398940735,0.0001844197398940735
181,0.9982759885554985,0.005342567850673357,0.006864071131984203,0.00016677183,0.99833748960931,0.005087705018955796,0.006494623148137028,0.0005863352966621532,0.0005863352966621532,0.00048763084246271175,0.00048763084246271175,0.0001784170521279032,0.0001784170521279032,0.0006524640986300914,0.0006524640986300914,0.0005313082965234675,0.0005313082965234675,0.00018338325745581832,0.00018338325745581832
182,0.9983493507446263,0.005480152218253675,0.0069218808379365275,0.00015009465,0.9989609310058188,0.002723900460450435,0.0039552358247996605,0.0005224442036355229,0.0005224442036355229,0.0004055284058564077,0.0004055284058564077,0.00014879745302599637,0.00014879745302599637,0.0006262271550458628,0.0006262271550458628,0.00048571938465401845,0.00048571938465401845,0.00017519707673862626,0.00017519707673862626
183,0.9980925830826792,0.004676376416707432,0.006106903789236825,0.00015009465,0.9987531172069826,0.0034980438846170074,0.004638840366533864,0.0004828262836061016,0.0004828262836061016,0.0003673666205714311,0.0003673666205714311,0.00013599081863119612,0.00013599081863119612,0.000635371810292013,0.000635371810292013,0.0004660215170264874,0.0004660215170264874,0.00017453460712488477,0.00017453460712488477
184,0.9984593940283178,0.004966628383390817,0.0064398280687410995,0.00015009465,0.9989609310058188,0.002876839622641263,0.0041324168701622485,0.0005231058562681229,0.0005231058562681229,0.00041438581963180397,0.00041438581963180397,0.00016323028052410928,0.00016323028052410928,0.0006500621952529584,0.0006500621952529584,0.00048318254327296836,0.00048318254327296836,0.0001852505613376969,0.0001852505613376969
185,0.9983860318391901,0.004842324630577634,0.00629142282813048,0.00015009465,0.9985453034081463,0.004491143917099852,0.005717952268657601,0.0005270529568258921,0.0005270529568258921,0.00038280680731115713,0.00038280680731115713,0.00016198345804024043,0.00016198345804024043,0.0006577928436522752,0.0006577928436522752,0.00045761704012252147,0.00045761704012252147,0.000178849418178892,0.000178849418178892
186,0.9981659452718069,0.004691105166812966,0.006104875514829001,0.00015009465,0.9968827930174564,0.008118027946671123,0.009366027119730894,0.0005279310577362175,0.0005279310577362175,0.0004107624233361589,0.0004107624233361589,0.00015449330919211588,0.00015449330919211588,0.0006252789446378771,0.0006252789446378771,0.0004591740377896205,0.0004591740377896205,0.0001744759169727284,0.0001744759169727284
