epoch,c_acc,c_loss,loss,lr,val_c_acc,val_c_loss,val_loss,val_x_loss,val_x_mean_squared_error,val_y_loss,val_y_mean_squared_error,val_z_loss,val_z_mean_squared_error,x_loss,x_mean_squared_error,y_loss,y_mean_squared_error,z_loss,z_mean_squared_error
0,0.9496946890088043,0.10422827609572098,0.15425938001530468,0.001,0.9608730637698653,0.0785412266340408,0.11734652337420516,0.014869986941318136,0.014869986941318136,0.01752705136377734,0.01752705136377734,0.006382363109662604,0.006382363109662604,0.01636416234064914,0.01636416234064914,0.019858691500809416,0.019858691500809416,0.013785950898144583,0.013785950898144583
1,0.9673033229196251,0.07332668429829445,0.10784973583423031,0.001,0.9673104003218669,0.07499719905951945,0.10701278797301175,0.012314062865842168,0.012314062865842168,0.01606475930321904,0.01606475930321904,0.0035969871792790905,0.0035969871792790905,0.012262743120314156,0.012262743120314156,0.01788025491232689,0.01788025491232689,0.004346674502897916,0.004346674502897916
2,0.9698771655779608,0.06562096218903142,0.09728679041074945,0.001,0.971836652584993,0.0586420225577615,0.08839373908778853,0.011293076066670479,0.011293076066670479,0.014403781443364053,0.014403781443364053,0.0040068835118553464,0.0040068835118553464,0.011303292005149292,0.011303292005149292,0.016412234378656524,0.016412234378656524,0.003906384641970711,0.003906384641970711
3,0.9747585913092871,0.058058997693546305,0.07808584781092885,0.001,0.98018507342587,0.049242565261688215,0.06727222961268149,0.011527261774319264,0.011527261774319264,0.0022918032391049835,0.0022918032391049835,0.004154200208586199,0.004154200208586199,0.011309295685607935,0.011309295685607935,0.004879680086828119,0.004879680086828119,0.0037862111068345354,0.0037862111068345354
4,0.9777406986651519,0.05087896879784599,0.06821007869629313,0.001,0.9796821565077449,0.04952598246183712,0.06756182078660296,0.01177078912464508,0.01177078912464508,0.0027155603994415845,0.0027155603994415845,0.003484528503314253,0.003484528503314253,0.011018061673622154,0.011018061673622154,0.002498435579331477,0.002498435579331477,0.003753665532114821,0.003753665532114821
5,0.978095711445612,0.0513362722004013,0.06863289429459075,0.001,0.9673104003218669,0.06614540831822496,0.0867960735171167,0.011760383894445206,0.011760383894445206,0.005198314091926705,0.005198314091926705,0.0036216715984321865,0.0036216715984321865,0.010865561843414145,0.010865561843414145,0.00265092828523837,0.00265092828523837,0.0037120086364965466,0.0037120086364965466
6,0.9796577676796364,0.049929941971713125,0.06717439684617799,0.001,0.9470931402252273,0.13501318795872064,0.15802653262298386,0.010568904886039072,0.010568904886039072,0.008406745546869859,0.008406745546869859,0.003960089326358048,0.003960089326358048,0.010965723372265555,0.010965723372265555,0.0024867780987115444,0.0024867780987115444,0.003716933891095164,0.003716933891095164
7,0.9806695541039477,0.04633785653929264,0.06353071624371738,0.001,0.9832025749346208,0.0391813619957199,0.057462562040825456,0.0112909299493461,0.0112909299493461,0.0032754415185124227,0.0032754415185124227,0.003632529896286198,0.003632529896286198,0.010783219492147634,0.010783219492147634,0.0026582843699195506,0.0026582843699195506,0.0036715330600581427,0.0036715330600581427
8,0.9819298494745811,0.04347243798188204,0.060122014720929755,0.001,0.9864212432106216,0.03694287057811851,0.05690370121038888,0.01066212447763806,0.01066212447763806,0.005764046163399172,0.005764046163399172,0.003446912783601051,0.003446912783601051,0.010584672525810692,0.010584672525810692,0.0023708251594303435,0.0023708251594303435,0.003608487964388914,0.003608487964388914
9,0.9819298494745811,0.04428131642662464,0.060925960263900736,0.001,0.9846107423053712,0.03735508464368218,0.05444199439268196,0.011341110037529575,0.011341110037529575,0.0022562012315297426,0.0022562012315297426,0.00339786767893975,0.00339786767893975,0.010502064989781398,0.010502064989781398,0.002450966891625451,0.002450966891625451,0.003601076998168908,0.003601076998168908
10,0.9831191422891224,0.041987453561674534,0.05854460157386102,0.001,0.9843089921544961,0.04337079710092385,0.05970211107697127,0.010519951911388537,0.010519951911388537,0.002552065194696465,0.002552065194696465,0.003164159596049991,0.003164159596049991,0.010422111722176388,0.010422111722176388,0.0025316166272890293,0.0025316166272890293,0.0035095335876489378,0.0035095335876489378
11,0.9829593865379154,0.04016024282784978,0.05608358404984514,0.001,0.9525246429409786,0.08929619597426247,0.10437042930505734,0.010029249860648628,0.010029249860648628,0.001917632730738894,0.001917632730738894,0.003028263997345246,0.003028263997345246,0.010087520804293926,0.010087520804293926,0.002318534129545709,0.002318534129545709,0.0034196696331112502,0.0034196696331112502
12,0.9824801192842942,0.04249963462028765,0.05840012850221688,0.001,0.9585596459584801,0.08356643025851739,0.09894814561573619,0.010076049594509296,0.010076049594509296,0.0017865505432955481,0.0017865505432955481,0.0034170400353885433,0.0034170400353885433,0.009997957109949622,0.009997957109949622,0.002468789864047934,0.002468789864047934,0.003333352448326069,0.003333352448326069
13,0.9827286282306164,0.041050277070592556,0.0566836728431915,0.001,0.9824984912492456,0.04691510629868696,0.06250675290514228,0.010053980892042257,0.010053980892042257,0.0023269797030823604,0.0023269797030823604,0.003104471103701108,0.003104471103701108,0.009829967761431621,0.009829967761431621,0.0024796013520165185,0.0024796013520165185,0.003220690790149082,0.003220690790149082
14,0.9835984095427436,0.039706515591536345,0.055570505715056104,0.001,0.9841078253872461,0.03951447216461791,0.05408918729772875,0.009479918472535924,0.009479918472535924,0.001972671552435511,0.001972671552435511,0.0030137337253551616,0.0030137337253551616,0.009767320199461624,0.009767320199461624,0.0028004048696566243,0.0028004048696566243,0.0031890885145066036,0.0031890885145066036
15,0.9845569440499858,0.03753956511090048,0.053142722670640345,0.001,0.9826996580164957,0.04208101399565567,0.05760484869273207,0.010134308007327505,0.010134308007327505,0.0024522286736271682,0.0024522286736271682,0.0028270027509878694,0.0028270027509878694,0.00940077677702105,0.00940077677702105,0.0030819714087224684,0.0030819714087224684,0.003011216917630657,0.003011216917630657
16,0.985178216415791,0.03668186728240953,0.05177840560343242,0.001,0.9858177429088715,0.04449047523983259,0.06273326485467806,0.011138673153263933,0.011138673153263933,0.0034068360361215336,0.0034068360361215336,0.0035836690847285448,0.0035836690847285448,0.009227510587217819,0.009227510587217819,0.0028522533116794,0.0028522533116794,0.002904981487389824,0.002904981487389824
17,0.9856042317523431,0.03659822731167794,0.051781964966891685,0.001,0.9890364111848723,0.02867021816958178,0.0435619033699594,0.009722240824446088,0.009722240824446088,0.002471357356485079,0.002471357356485079,0.0025802687542755445,0.0025802687542755445,0.009085722931122312,0.009085722931122312,0.0031462996681538733,0.0031462996681538733,0.0028359867024682324,0.0028359867024682324
18,0.9849829593865379,0.038171800576986006,0.05281847505458268,0.001,0.9896399114866224,0.029109459140717296,0.042341065156441975,0.008486953449095115,0.008486953449095115,0.002106740099109175,0.002106740099109175,0.0025180069525543285,0.0025180069525543285,0.008634762591645839,0.008634762591645839,0.0031736546969873924,0.0031736546969873924,0.0027194320304802463,0.0027194320304802463
19,0.9857639875035501,0.03724714284446047,0.05076012452277089,0.001,0.9897404948702474,0.02820125819507055,0.04086322028212754,0.007614914119150696,0.007614914119150696,0.002633130080529496,0.002633130080529496,0.0022931581495597743,0.0022931581495597743,0.008050215308013326,0.008050215308013326,0.0028810172955165843,0.0028810172955165843,0.002461297249511318,0.002461297249511318
20,0.9859592445328031,0.03603919172241117,0.047551768816236774,0.001,0.9776704888352444,0.05002194321637147,0.058958659699631454,0.0056584002724109584,0.0056584002724109584,0.0018908368937555588,0.0018908368937555588,0.0012637558283726314,0.0012637558283726314,0.006793423851702363,0.006793423851702363,0.0027078594201211865,0.0027078594201211865,0.001889468272293093,0.001889468272293093
21,0.985337972166998,0.03711502197955185,0.04659968840136653,0.001,0.9821967410983705,0.044202431237074936,0.050779393872984684,0.003998117844913821,0.003998117844913821,0.0016405593045402465,0.0016405593045402465,0.0008126094811442114,0.0008126094811442114,0.005397212407524512,0.005397212407524512,0.0024711372162804406,0.0024711372162804406,0.0014918004593298326,0.0014918004593298326
22,0.9865627662595854,0.03574502482892695,0.043515062904072935,0.001,0.987829410581372,0.03091338567056566,0.03753073080576802,0.0037121334118520146,0.0037121334118520146,0.0019101463670204793,0.0019101463670204793,0.0008682308008993059,0.0008682308008993059,0.004048220431822852,0.004048220431822852,0.0024552982086741937,0.0024552982086741937,0.0011402079462809168,0.0011402079462809168
23,0.9856574836694121,0.034565629670580876,0.04121381655107026,0.001,0.9594648964111053,0.0811092171595313,0.08527617601239748,0.0022030255785000213,0.0022030255785000213,0.0013531552444148813,0.0013531552444148813,0.00048064771652760034,0.00048064771652760034,0.003453219587018403,0.003453219587018403,0.002123391702109428,0.002123391702109428,0.0009429527937823981,0.0009429527937823981
24,0.9869177790400454,0.033040511621578464,0.03958501554457222,0.001,0.9805874069603702,0.04334536628947373,0.05297686298700243,0.006162186856361923,0.006162186856361923,0.0015746916536103317,0.0015746916536103317,0.0017630423216334781,0.0017630423216334781,0.0033377194149344677,0.0033377194149344677,0.0021195589295641814,0.0021195589295641814,0.0009565436704031372,0.0009565436704031372
25,0.9875213007668276,0.03274857295016479,0.03883797102102582,0.001,0.9910480788573728,0.02444786382686978,0.03030699286426284,0.002746545528407351,0.002746545528407351,0.0023358562794993432,0.0023358562794993432,0.0006457666020977267,0.0006457666020977267,0.0031591109766178054,0.0031591109766178054,0.001961615810676338,0.001961615810676338,0.0008372075594979498,0.0008372075594979498
26,0.9878230616302187,0.0347526326159629,0.04173459212942889,0.001,0.9739489036411185,0.05534264011500305,0.06183804903802163,0.0034391527696969963,0.0034391527696969963,0.002145227809026133,0.002145227809026133,0.000778034649316459,0.000778034649316459,0.003555513068284445,0.003555513068284445,0.002345376305708184,0.002345376305708184,0.000949022340777244,0.000949022340777244
27,0.9869177790400454,0.033446435474168104,0.03952246024513374,0.001,0.9773687386843694,0.0540130563991821,0.0595216385971847,0.0028717195284216576,0.0028717195284216576,0.0015022061703297803,0.0015022061703297803,0.0010020653584493248,0.0010020653584493248,0.003088137396239668,0.003088137396239668,0.002043159690596312,0.002043159690596312,0.0008115765439429053,0.0008115765439429053
28,0.9881603237716557,0.03091832938470705,0.037534804749447384,0.001,0.9895393281029974,0.02849233123865141,0.03372132947327079,0.0033370811006309454,0.0033370811006309454,0.0010768013058062226,0.0010768013058062226,0.0006801167256597413,0.0006801167256597413,0.0033125050174063557,0.0033125050174063557,0.0022646414475408923,0.0022646414475408923,0.0009061240873997039,0.0009061240873997039
29,0.9877165577960807,0.031948701615766885,0.038122838951773715,0.001,0.9912492456246228,0.023593701571919787,0.028709009312223654,0.002720562481714176,0.002720562481714176,0.0015546645616768353,0.0015546645616768353,0.0007030546879538932,0.0007030546879538932,0.003040257684112745,0.003040257684112745,0.0021708375495171836,0.0021708375495171836,0.0008266360264829182,0.0008266360264829182
30,0.9882135756887248,0.03012247102198247,0.03592413968486432,0.001,0.9885334942667471,0.02942549040869339,0.03361771740746244,0.002147147257897004,0.002147147257897004,0.0013190105187446605,0.0013190105187446605,0.0005878217516274612,0.0005878217516274612,0.0028855663593553306,0.0028855663593553306,0.0020153625670578405,0.0020153625670578405,0.0007632527690649755,0.0007632527690649755
31,0.9867047713717694,0.03270394457909115,0.03859245791377035,0.001,0.9897404948702474,0.028807816822724888,0.03422256283746072,0.0033417703763974687,0.0033417703763974687,0.0012012665224332027,0.0012012665224332027,0.0007315896349612757,0.0007315896349612757,0.002888872412515886,0.002888872412515886,0.002112692169681913,0.002112692169681913,0.0007479752956579388,0.0007479752956579388
32,0.9875923033229196,0.03243716201482431,0.03879145215076596,0.001,0.9806879903439951,0.042884269402580624,0.04844271606877911,0.002813708289593662,0.002813708289593662,0.0018790485688894192,0.0018790485688894192,0.0007225134292647136,0.0007225134292647136,0.0031359166820184494,0.0031359166820184494,0.002205246385520873,0.002205246385520873,0.0008723929912058098,0.0008723929912058098
33,0.9878053109911957,0.029840248154016518,0.03546869183779231,0.001,0.9771675719291097,0.04753290051748005,0.05126531916689049,0.002031674476693008,0.002031674476693008,0.0010212839433381075,0.0010212839433381075,0.0005356534057029087,0.0005356534057029087,0.0027829645776383085,0.0027829645776383085,0.001966507094393512,0.001966507094393512,0.0007356071050223801,0.0007356071050223801
34,0.9881603237716557,0.031700023523776,0.03724037601099666,0.001,0.9865218265942466,0.0319909480112899,0.036912573352336185,0.0026497973471631157,0.0026497973471631157,0.001593211519302424,0.001593211519302424,0.0005332190898080602,0.0005332190898080602,0.0027539251892822096,0.0027539251892822096,0.0018518484854670382,0.0018518484854670382,0.0007900498469110637,0.0007900498469110637
35,0.9902016472593014,0.027103033831393702,0.03265038355055192,0.00090000004,0.9930597465298733,0.021013624781919833,0.026182560590954824,0.0025926616424088575,0.0025926616424088575,0.0017676846534484,0.0017676846534484,0.0006640984481312518,0.0006640984481312518,0.002731166901995891,0.002731166901995891,0.001976178706976869,0.001976178706976869,0.0006950271840649821,0.0006950271840649821
36,0.9902726498153933,0.026198580664735814,0.031401460077709144,0.00090000004,0.9933614966807484,0.02210195780584913,0.02613660508562183,0.002340925174330728,0.002340925174330728,0.001143435989452445,0.001143435989452445,0.0004052152327173857,0.0004052152327173857,0.002489283225730395,0.002489283225730395,0.0019368819745903684,0.0019368819745903684,0.0006320662345492845,0.0006320662345492845
37,0.9897933825617722,0.028091456197540932,0.033700398222358936,0.00090000004,0.9911486622409977,0.021628279641776462,0.026136467546551335,0.002525892128725391,0.002525892128725391,0.0013542063032509993,0.0013542063032509993,0.00048059587701429593,0.00048059587701429593,0.0028396620438012215,0.0028396620438012215,0.0018498699556325404,0.0018498699556325404,0.0007737195832263226,0.0007737195832263226
38,0.9904146549275774,0.026101626147464106,0.03147115046703975,0.00090000004,0.9909474954737477,0.022109524758750297,0.026616296937396543,0.0025389581541484887,0.0025389581541484887,0.0012783231873633282,0.0012783231873633282,0.0005396466049690473,0.0005396466049690473,0.0024910557726086657,0.0024910557726086657,0.0020510345992299315,0.0020510345992299315,0.0006780398917367112,0.0006780398917367112
39,0.9891721101959671,0.027815100390247992,0.03328233367235904,0.00090000004,0.9903439951719976,0.02188945131905149,0.03260036787417987,0.003762397849107031,0.003762397849107031,0.006029665341506726,0.006029665341506726,0.0007688797664434646,0.0007688797664434646,0.002688712693355886,0.002688712693355886,0.0019488615662977742,0.0019488615662977742,0.000679656720546679,0.000679656720546679
40,0.9898466344788412,0.026851942253813522,0.032082675035711765,0.00090000004,0.9829008247837457,0.041409653181015575,0.04666909596286422,0.0032226110950376134,0.0032226110950376134,0.0011931231549205978,0.0011931231549205978,0.0006939580122265965,0.0006939580122265965,0.0024319839331669855,0.0024319839331669855,0.0020297294851879264,0.0020297294851879264,0.0006192378822290332,0.0006192378822290332
41,0.9909649247372906,0.02424671511749041,0.028586643705160328,0.00081000006,0.9873264936632469,0.036410249462349796,0.04162133269793603,0.0016823716790819814,0.0016823716790819814,0.002850801388088039,0.002850801388088039,0.0005307890894738047,0.0005307890894738047,0.0021653048589236807,0.0021653048589236807,0.0014563148920177383,0.0014563148920177383,0.0005701688746224499,0.0005701688746224499
42,0.9901306447032093,0.0268843849911973,0.0315161968844776,0.00081000006,0.9941661637497485,0.018660497910887388,0.022472350920633523,0.0020399292271437762,0.0020399292271437762,0.0011800446430569977,0.0011800446430569977,0.0004445626252579361,0.0004445626252579361,0.002218641317207116,0.002218641317207116,0.0016648065228139766,0.0016648065228139766,0.0006010280640310783,0.0006010280640310783
43,0.9908051689860835,0.02464742271998382,0.028955266768930364,0.00081000006,0.9782739891369946,0.04235866725248321,0.04577111964932922,0.001676936666548409,0.001676936666548409,0.0011450936215525664,0.0011450936215525664,0.00044360189524593165,0.00044360189524593165,0.002155742227703532,0.002155742227703532,0.0014316271916734512,0.0014316271916734512,0.0005739340676885003,0.0005739340676885003
44,0.9912134336836126,0.02486233546022003,0.02926178682917923,0.00081000006,0.991953329309998,0.02098937857185572,0.02604368654008729,0.0028261328928460734,0.0028261328928460734,0.0013939538437505354,0.0013939538437505354,0.000686261806986646,0.000686261806986646,0.002117072918689848,0.002117072918689848,0.0015937133589479838,0.0015937133589479838,0.000541083501060119,0.000541083501060119
45,0.9911601817665436,0.025018142086310747,0.030091942804477377,0.00081000006,0.9915509957754979,0.020794481918409144,0.024986289929916316,0.0018628097190211592,0.0018628097190211592,0.001702064297935663,0.001702064297935663,0.0004800582398670598,0.0004800582398670598,0.002295545424014141,0.002295545424014141,0.0020284937929586524,0.0020284937929586524,0.0006027862909801042,0.0006027862909801042
46,0.9920299630786709,0.02215396935294534,0.026579183125810247,0.00081000006,0.9813920740293703,0.04013114569921079,0.04364006362435393,0.0019205933835645386,0.0019205933835645386,0.0010272777492773995,0.0010272777492773995,0.0004149010761997659,0.0004149010761997659,0.0020777564238198725,0.0020777564238198725,0.0016828277304891343,0.0016828277304891343,0.0005182029293837318,0.0005182029293837318
47,0.9902371485373473,0.027260991886650335,0.032479391468808405,0.00081000006,0.9929591631462482,0.0179498377739476,0.022099190140830616,0.00215891965256404,0.00215891965256404,0.0014126037192128407,0.0014126037192128407,0.0004301814069928164,0.0004301814069928164,0.0023747373997160142,0.0023747373997160142,0.002049643305119334,0.002049643305119334,0.0006471050810786523,0.0006471050810786523
48,0.9903614030105083,0.024528235046579337,0.028896341386099856,0.00081000006,0.9937638302152484,0.01693413464193451,0.020385024582519767,0.0016402753708372464,0.0016402753708372464,0.0013410213148816962,0.0013410213148816962,0.00032281003082081154,0.00032281003082081154,0.0019931645395292056,0.0019931645395292056,0.0016808470824572325,0.0016808470824572325,0.0005474617802299841,0.0005474617802299841
49,0.9908051689860835,0.02442346249554367,0.029021496560464703,0.00081000006,0.9846107423053712,0.03639223479839385,0.042684581206151866,0.0036741317001079046,0.0036741317001079046,0.0012613227831284213,0.0012613227831284213,0.0012109173722962359,0.0012109173722962359,0.002180250365200787,0.002180250365200787,0.001690042811588708,0.001690042811588708,0.0005814762040623274,0.0005814762040623274
50,0.9910536779324056,0.023635964907862243,0.027989636927190295,0.00081000006,0.9845101589217461,0.03634200321759822,0.040644289644293036,0.0018896161009294035,0.0018896161009294035,0.0018991957135556414,0.0018991957135556414,0.0003678878834532347,0.0003678878834532347,0.0020458562912761013,0.0020458562912761013,0.0016459108225253326,0.0016459108225253326,0.0005161002132967389,0.0005161002132967389
51,0.9913376881567736,0.02416093551442924,0.028368752323168663,0.00081000006,0.9710319855159928,0.058158503235609976,0.0759529294433933,0.010627589264510452,0.010627589264510452,0.004057727679480043,0.004057727679480043,0.00296422286567243,0.00296422286567243,0.001967309723573215,0.001967309723573215,0.0015194678129163185,0.0015194678129163185,0.0005767213301509051,0.0005767213301509051
52,0.9903969042885544,0.02495068017697238,0.029241122960084753,0.00081000006,0.9943673305169985,0.01731065039065979,0.02203879615183664,0.0024267142127786323,0.0024267142127786323,0.0015804063334937985,0.0015804063334937985,0.0005766462037313156,0.0005766462037313156,0.0019322288914370399,0.0019322288914370399,0.0016764089133193554,0.0016764089133193554,0.0005372170516487071,0.0005372170516487071
53,0.9919234592445328,0.022708733063385462,0.027426438894502008,0.00081000006,0.9943673305169985,0.018489227469728812,0.021734881142854656,0.0018917602472669748,0.0018917602472669748,0.0007840671205961401,0.0007840671205961401,0.0004245653201347375,0.0004245653201347375,0.0021110298805637516,0.0021110298805637516,0.001903329131669808,0.001903329131669808,0.0005585458055846429,0.0005585458055846429
54,0.9916394490201648,0.022572181377379135,0.02670750525382008,0.0007290001,0.991953329309998,0.0193938937029205,0.022600146171827415,0.0014313178634795328,0.0014313178634795328,0.0012294902171089224,0.0012294902171089224,0.00040008645496914566,0.00040008645496914566,0.0018438567578555774,0.0018438567578555774,0.0016583373355586555,0.0016583373355586555,0.00048821195266328485,0.00048821195266328485
55,0.9915151945470037,0.022868314505853877,0.02769724887456717,0.0007290001,0.9885334942667471,0.03135598133625803,0.03525693372065837,0.0019106850479273273,0.0019106850479273273,0.0014862807339384816,0.0014862807339384816,0.0003589015480095689,0.0003589015480095689,0.002043365755127059,0.002043365755127059,0.0020973652649743627,0.0020973652649743627,0.0005436175228969019,0.0005436175228969019
56,0.9915151945470037,0.022049169367232658,0.026095846615654283,0.0007290001,0.991953329309998,0.02266480941653525,0.026518966001332005,0.0015830634162602771,0.0015830634162602771,0.0017387586048260625,0.0017387586048260625,0.00038762532486971875,0.00038762532486971875,0.001871783794802874,0.001871783794802874,0.001550689042813402,0.001550689042813402,0.0004800136994932791,0.0004800136994932791
57,0.9913021868787276,0.022900024556037842,0.027243139135051987,0.0007290001,0.9871253268959967,0.035234098705832884,0.04079055448282481,0.0022062265321281123,0.0022062265321281123,0.0027763725288995054,0.0027763725288995054,0.00042927269137324323,0.00042927269137324323,0.0018776123763286526,0.0018776123763286526,0.0018211168760029481,0.0018211168760029481,0.0005005339376141511,0.0005005339376141511
58,0.9921542175518319,0.02142313810738378,0.025339871828391532,0.0007290001,0.995775497887749,0.017065837583713047,0.020040515872264467,0.0016075090080885808,0.0016075090080885808,0.0008131068308325868,0.0008131068308325868,0.0004098477568305205,0.0004098477568305205,0.0017517222305304674,0.0017517222305304674,0.0015504553654242398,0.0015504553654242398,0.000469942460153157,0.000469942460153157
59,0.9922784720249929,0.02221884934503266,0.026052221705613936,0.0007290001,0.9910480788573728,0.02126434733064127,0.024940890605516283,0.0017756093069309605,0.0017756093069309605,0.0014265896827885532,0.0014265896827885532,0.0003301925391127261,0.0003301925391127261,0.0017828778784823396,0.0017828778784823396,0.0014360552996301582,0.0014360552996301582,0.0004698376067505673,0.0004698376067505673
60,0.9919589605225788,0.02221228417179027,0.025959245419431662,0.0007290001,0.9796821565077449,0.04543494882677971,0.04868263303789529,0.0014066401149700444,0.0014066401149700444,0.0013311362648029627,0.0013311362648029627,0.00036538477060400504,0.00036538477060400504,0.001742768047813289,0.001742768047813289,0.0013811700063048658,0.0013811700063048658,0.00047897747587441155,0.00047897747587441155
61,0.9918347060494178,0.02180797679659434,0.02584101173831027,0.0007290001,0.9935626634479984,0.01838971164336188,0.02179266433106944,0.0015440103018394572,0.0015440103018394572,0.0012784375028358837,0.0012784375028358837,0.00043492272280277826,0.00043492272280277826,0.0018161761303166143,0.0018161761303166143,0.001565739172933639,0.001565739172933639,0.0005054767669949503,0.0005054767669949503
62,0.9919234592445328,0.022689089226755572,0.026813870521604295,0.0007290001,0.9943673305169985,0.014558603497508198,0.017880589397445402,0.0014909285536374814,0.0014909285536374814,0.0013642867808703987,0.0013642867808703987,0.00032060051679701977,0.00032060051679701977,0.0018885221641108975,0.0018885221641108975,0.0015689850549109364,0.0015689850549109364,0.0005211811881840559,0.0005211811881840559
63,0.9917992047713717,0.02251493197380414,0.026655061779341346,0.0007290001,0.9935626634479984,0.01711032426805625,0.02068466545558313,0.001838627665336106,0.001838627665336106,0.0011704465966626085,0.0011704465966626085,0.0004185906828089696,0.0004185906828089696,0.001857033214261283,0.001857033214261283,0.0016334712912271392,0.0016334712912271392,0.0005032983307080346,0.0005032983307080346
64,0.9923672252201079,0.020910734451101167,0.025015582464471973,0.0007290001,0.9938644135988735,0.01705172506702075,0.026142352217652116,0.0019638736657621243,0.0019638736657621243,0.006393843234050738,0.006393843234050738,0.0005873845410798644,0.0005873845410798644,0.001952133026627677,0.001952133026627677,0.001462126193306399,0.001462126193306399,0.0005444677231026999,0.0005444677231026999
65,0.9917637034933258,0.022979601332195405,0.027200771259422406,0.0007290001,0.9935626634479984,0.02129494396082065,0.02443438683563607,0.001800296762835454,0.001800296762835454,0.0008002922423234034,0.0008002922423234034,0.00039232488595685724,0.00039232488595685724,0.001897302239946512,0.001897302239946512,0.0016707408533830736,0.0016707408533830736,0.0005070776969804725,0.0005070776969804725
66,0.992846492473729,0.0202466902476864,0.024184804859037387,0.0007290001,0.9716354858297334,0.10923696654357766,0.11816042889579546,0.004942302812810079,0.004942302812810079,0.0025880083184032805,0.0025880083184032805,0.0012465906107236961,0.0012465906107236961,0.0019087148796291234,0.0019087148796291234,0.0013799050852116989,0.0013799050852116989,0.0005027626697931775,0.0005027626697931775
67,0.992739988639591,0.021322985777216415,0.02515151143749582,0.0007290001,0.9831019915509958,0.03778275178504151,0.04461785064145752,0.0024490471263934137,0.0024490471263934137,0.0034377060355564263,0.0034377060355564263,0.0008028650611606564,0.0008028650611606564,0.001762691174852212,0.001762691174852212,0.0014469398737498665,0.0014469398737498665,0.00047275968687992577,0.00047275968687992577
68,0.9929352456688441,0.02006795181390517,0.0236045269473486,0.00065610005,0.9951719975859988,0.012627150710101644,0.015916541261567368,0.0019211352335512443,0.0019211352335512443,0.0008307301504308894,0.0008307301504308894,0.00039215908938985077,0.00039215908938985077,0.0017053363210373946,0.0017053363210373946,0.0012271626642125712,0.0012271626642125712,0.0004583575742413014,0.0004583575742413014
69,0.992846492473729,0.02067741358557419,0.02442905662415976,0.00065610005,0.9929591631462482,0.017450340909495703,0.021011466261586224,0.0013591240529974972,0.0013591240529974972,0.0017195908112501645,0.0017195908112501645,0.0003368753731459355,0.0003368753731459355,0.0017570689532872001,0.0017570689532872001,0.0013733600494117966,0.0013733600494117966,0.0004758862379096471,0.0004758862379096471
70,0.9932370065322351,0.020373394158406086,0.02442032222809824,0.00065610005,0.9774693220679944,0.05248253656866882,0.058618260332720634,0.003207342764696178,0.003207342764696178,0.0012293694811885128,0.0012293694811885128,0.0015521293988871169,0.0015521293988871169,0.001835087703074764,0.001835087703074764,0.0015636362764182407,0.0015636362764182407,0.0005021131925756682,0.0005021131925756682
71,0.992828741834706,0.02103853532549306,0.02449036640903076,0.00065610005,0.9925568296117482,0.019288983437050312,0.02303420848070187,0.002134177685466128,0.002134177685466128,0.0010074246001131593,0.0010074246001131593,0.00045667287304643255,0.00045667287304643255,0.0016015414987577323,0.0016015414987577323,0.001258214493147407,0.001258214493147407,0.00044513902983069233,0.00044513902983069233
72,0.992526980971315,0.02109570068376175,0.02468899580602024,0.00065610005,0.9901428284047475,0.02634650556717842,0.02911978795720904,0.0013175212366072176,0.0013175212366072176,0.0008562020355633639,0.0008562020355633639,0.00045208550378020003,0.00045208550378020003,0.0016025614425384507,0.0016025614425384507,0.0013644769026705866,0.0013644769026705866,0.00047928758618394395,0.00047928758618394395
73,0.9930417495029821,0.019811518825518945,0.023542563781111882,0.00065610005,0.9931603299134983,0.017891210866929075,0.020475760783808684,0.0013616808773478555,0.0013616808773478555,0.0006988366601981975,0.0006988366601981975,0.0003769725319435563,0.0003769725319435563,0.0016645567779731802,0.0016645567779731802,0.0014668522065094279,0.0014668522065094279,0.00045227622820508226,0.00045227622820508226
74,0.9932015052541892,0.01820945110112598,0.02157261093708412,0.00059049006,0.9944679139006236,0.016284572310729193,0.019775323881245917,0.0016176720224860928,0.0016176720224860928,0.0013138272333304728,0.0013138272333304728,0.00041286869272361116,0.00041286869272361116,0.0015374158878316542,0.0015374158878316542,0.001273692599407184,0.001273692599407184,0.00040562718857576485,0.00040562718857576485
75,0.9936807725078103,0.01828955780314347,0.021690708838867895,0.00059049006,0.9955743311204989,0.017658680256058275,0.021101644801025006,0.0017114523580314502,0.0017114523580314502,0.0011873758733299366,0.0011873758733299366,0.00039680491869509846,0.00039680491869509846,0.0015890896577966886,0.0015890896577966886,0.0012403523426786698,0.0012403523426786698,0.0004250336902635309,0.0004250336902635309
76,0.992757739278614,0.02070897923086242,0.02406533504795759,0.00059049006,0.9953731643532489,0.01383488181426346,0.01672662068075017,0.0016324193185168676,0.0016324193185168676,0.000778494725159504,0.000778494725159504,0.00033356560909175725,0.00033356560909175725,0.0015452629498344315,0.0015452629498344315,0.001240179591768207,0.001240179591768207,0.0004236775155334901,0.0004236775155334901
77,0.9936097699517182,0.017799195004497132,0.021201237129365978,0.00059049006,0.995976664654999,0.013079950049012941,0.01771232429856228,0.0020617577906563473,0.0020617577906563473,0.00194444696553506,0.00194444696553506,0.0004777923227896299,0.0004777923227896299,0.001555944535780827,0.001555944535780827,0.0012988005558122295,0.0012988005558122295,0.00039942571359715946,0.00039942571359715946
78,0.9929707469468901,0.019185354328499136,0.022650494277337736,0.00059049006,0.9935626634479984,0.01626948939409573,0.020296984113205026,0.0019427247125216262,0.0019427247125216262,0.0014334651062983905,0.0014334651062983905,0.0005018638393830584,0.0005018638393830584,0.0015931707039535186,0.0015931707039535186,0.0012826463961741765,0.0012826463961741765,0.00044059019914676324,0.00044059019914676324
79,0.9941777904004544,0.016573720230143207,0.01971355502870467,0.00053144107,0.9851136592234963,0.047951486402249444,0.05113018575637597,0.001742669333502835,0.001742669333502835,0.0008710043045115432,0.0008710043045115432,0.00041522702981821723,0.00041522702981821723,0.0014689818030481291,0.0014689818030481291,0.0011513913300153118,0.0011513913300153118,0.00036976138700491404,0.00036976138700491404
80,0.9936807725078103,0.01729819337384321,0.02061345324449789,0.00053144107,0.9943673305169985,0.013325497897291521,0.01585289082586206,0.0012824909692965812,0.0012824909692965812,0.0007939481677126045,0.0007939481677126045,0.00030103704700040556,0.00030103704700040556,0.0015148197566913157,0.0015148197566913157,0.00123135715208319,0.00123135715208319,0.0004190288054257087,0.0004190288054257087
81,0.9938760295370633,0.017136772412053122,0.020356642845282092,0.00053144107,0.9947696640514987,0.01262052717138475,0.01609281755705051,0.001771039018720241,0.001771039018720241,0.0011482424967068135,0.0011482424967068135,0.0004039229682283793,0.0004039229682283793,0.0014849876916591702,0.0014849876916591702,0.0011893618738394334,0.0011893618738394334,0.00039563424381443393,0.00039563424381443393
82,0.9939292814541324,0.01645359971718836,0.019652923287699346,0.00053144107,0.9943673305169985,0.015860565203155985,0.019436018187267916,0.0016100487877855356,0.0016100487877855356,0.0013512588261644085,0.0013512588261644085,0.0004634808338597071,0.0004634808338597071,0.001388008199735019,0.001388008199735019,0.0012745505616907355,0.0012745505616907355,0.0003865102331847184,0.0003865102331847184
83,0.9936275205907412,0.01709208164200768,0.020431471076553336,0.00053144107,0.992355662844498,0.018741584866170495,0.021157770908115988,0.0012452392273094844,0.0012452392273094844,0.000658310303233083,0.000658310303233083,0.00036185121180025404,0.00036185121180025404,0.0015003533095942804,0.0015003533095942804,0.0012919802325281515,0.0012919802325281515,0.00039650103091939416,0.00039650103091939416
84,0.9944085487077535,0.016243067907544404,0.019102503597855123,0.00047829695,0.9956749145041239,0.015489303391119006,0.02078894223484657,0.0016964916582809459,0.0016964916582809459,0.0030088385748237617,0.0030088385748237617,0.000443295093336954,0.000443295093336954,0.0013218362099939628,0.0013218362099939628,0.0010348361392619832,0.0010348361392619832,0.00035201074228562065,0.00035201074228562065
85,0.9949233172394206,0.014323827410221333,0.01732666715146881,0.00047829695,0.9849124924562462,0.053719984279726775,0.05658363775872676,0.0013525652917155562,0.0013525652917155562,0.0010360221167231677,0.0010360221167231677,0.0003238164153357256,0.0003238164153357256,0.0014124612643999278,0.0014124612643999278,0.0010608332377531927,0.0010608332377531927,0.0003787009394406315,0.0003787009394406315
86,0.9945683044589605,0.015591961494547597,0.018690481027417313,0.00047829695,0.9927579963789982,0.02120850442182903,0.024465601134005865,0.0013332970392168223,0.0013332970392168223,0.001422521184694149,0.001422521184694149,0.00035023105393961135,0.00035023105393961135,0.0014227597191840795,0.0014227597191840795,0.0011349061282326287,0.0011349061282326287,0.00038995636215342753,0.00038995636215342753
87,0.9946925589321216,0.014647653571672092,0.017439143567320778,0.00047829695,0.9944679139006236,0.014724794871229544,0.0174331779204297,0.0014186197388512528,0.0014186197388512528,0.0008120172480739982,0.0008120172480739982,0.0003257422438265364,0.0003257422438265364,0.0012713020353962092,0.0012713020353962092,0.0010211402250813466,0.0010211402250813466,0.000347541781522623,0.000347541781522623
88,0.9949943197955127,0.014378987736231896,0.017124317023927003,0.00047829695,0.9642928988251065,0.08143005347677974,0.08481203663685409,0.0017165491560534366,0.0017165491560534366,0.001104405099273639,0.001104405099273639,0.0004088880585459393,0.0004088880585459393,0.0013237353469502217,0.0013237353469502217,0.0009341207182270334,0.0009341207182270334,0.00033538768482611165,0.00033538768482611165
89,0.9952605793808577,0.014375338641853653,0.017125472936091086,0.00043046725,0.9951719975859988,0.012327455064747611,0.014416134604118919,0.0009963007539511102,0.0009963007539511102,0.0006607930123021654,0.0006607930123021654,0.000279274458887035,0.000279274458887035,0.001263963413830582,0.001263963413830582,0.000986274152995904,0.000986274152995904,0.00034746346047297686,0.00034746346047297686
90,0.9952073274637887,0.014133854254835307,0.01669625637101297,0.00043046725,0.9941661637497485,0.013928679909405195,0.016760151159581082,0.0011587376715892204,0.0011587376715892204,0.0012363113563880882,0.0012363113563880882,0.0002841490908959532,0.0002841490908959532,0.0011939350698680835,0.0011939350698680835,0.0009076697297488803,0.0009076697297488803,0.00030805128756163916,0.00030805128756163916
91,0.9955623402442488,0.012935987231840996,0.015541270117970933,0.00043046725,0.9949708308187487,0.01303580759690214,0.015091553064617002,0.0009829005369418392,0.0009829005369418392,0.0006651260799470632,0.0006651260799470632,0.00025492780589372773,0.00025492780589372773,0.00122254332630076,0.00122254332630076,0.0009144683091038162,0.0009144683091038162,0.0003156375968227833,0.0003156375968227833
92,0.9943020448736154,0.015827049568013077,0.018447493198388558,0.00043046725,0.9965801649567492,0.01138810460666269,0.013581763283518003,0.0010399587181760957,0.0010399587181760957,0.000747531619008381,0.000747531619008381,0.00025394270629045467,0.00025394270629045467,0.0011789462123061988,0.0011789462123061988,0.0009666818898499487,0.0009666818898499487,0.0003222041511903545,0.0003222041511903545
93,0.9950120704345357,0.01424281387843811,0.016824846054305388,0.00043046725,0.9955743311204989,0.011489098526454203,0.013487193036601142,0.0008823527740926773,0.0008823527740926773,0.0007724827956923946,0.0007724827956923946,0.00019095596441964606,0.00019095596441964606,0.0012028907320508133,0.0012028907320508133,0.0008943210361109797,0.0008943210361109797,0.0003324837610462941,0.0003324837610462941
94,0.9957753479125249,0.012934601115671589,0.015643734648441265,0.00043046725,0.9935626634479984,0.01530089617003579,0.018788031479064618,0.001464441107041818,0.001464441107041818,0.0014718439022521352,0.0014718439022521352,0.000398288460953846,0.000398288460953846,0.0012308783830053233,0.0012308783830053233,0.0009898669346665612,0.0009898669346665612,0.0003358015557572312,0.0003358015557572312
95,0.9957220959954558,0.013744155254344328,0.016447092734991876,0.00043046725,0.9967813317239992,0.010881208397739005,0.013547050136772291,0.001199449787402645,0.001199449787402645,0.000988941836128745,0.000988941836128745,0.00032457165891641655,0.00032457165891641655,0.0012628992050909959,0.0012628992050909959,0.0009367578367759689,0.0009367578367759689,0.0003503712667588481,0.0003503712667588481
96,0.9952428287418347,0.01337716442902577,0.015933882465720105,0.00043046725,0.9955743311204989,0.012117907933788788,0.014031073376916692,0.0008437970739978438,0.0008437970739978438,0.0007093029789020237,0.0007093029789020237,0.00020639472751236712,0.00020639472751236712,0.0011871305902720459,0.0011871305902720459,0.0008952757830287648,0.0008952757830287648,0.0003210377869240805,0.0003210377869240805
97,0.9948878159613747,0.014543240856052422,0.017423949642827338,0.00043046725,0.9925568296117482,0.024458925235368325,0.029075302071779444,0.0025744316278853976,0.0025744316278853976,0.0009801805306986098,0.0009801805306986098,0.0009079543400243067,0.0009079543400243067,0.0013190802046130646,0.0013190802046130646,0.0010404933579568434,0.0010404933579568434,0.0003672523576519401,0.0003672523576519401
98,0.9957398466344788,0.013403904079419916,0.016026348890195455,0.00038742053,0.9953731643532489,0.011659264042194518,0.014415463198199674,0.001406818822032248,0.001406818822032248,0.0007536699681263332,0.0007536699681263332,0.0004422678710312406,0.0004422678710312406,0.0012188064170853042,0.0012188064170853042,0.0009242449511112134,0.0009242449511112134,0.000325768771341458,0.000325768771341458
99,0.9959173530247089,0.01316561392057439,0.01563517607627365,0.00038742053,0.9951719975859988,0.014853148620056943,0.023909985039850052,0.004441643677593054,0.004441643677593054,0.003262898090444297,0.003262898090444297,0.001198730108093881,0.001198730108093881,0.0011495919391408043,0.0011495919391408043,0.0008492824506727121,0.0008492824506727121,0.00031707666340260684,0.00031707666340260684
100,0.9954025844930418,0.012738252888819076,0.015159322482475429,0.00038742053,0.9965801649567492,0.011536686066953532,0.014439837884705336,0.0015935636876033684,0.0015935636876033684,0.0007499581878687089,0.0007499581878687089,0.00040600654965431126,0.00040600654965431126,0.0011416835079175135,0.0011416835079175135,0.0008064847954982923,0.0008064847954982923,0.00031948618037108857,0.00031948618037108857
101,0.9958818517466629,0.012417851666343595,0.014663976380714667,0.00038742053,0.995775497887749,0.012719079162341648,0.014409134663883886,0.000796747355867978,0.000796747355867978,0.0005187904119482771,0.0005187904119482771,0.00022062963703670205,0.00022062963703670205,0.0010683036885398758,0.0010683036885398758,0.0007225554546292358,0.0007225554546292358,0.00030147883306687936,0.00030147883306687936
102,0.9958996023856859,0.012367335314685628,0.014688899104012077,0.00038742053,0.996378998189499,0.009849277205619778,0.012210537812981122,0.0013522467047004754,0.0013522467047004754,0.0005815924851993278,0.0005815924851993278,0.00027269358455013406,0.00027269358455013406,0.0010571568702901037,0.0010571568702901037,0.0008158890467035396,0.0008158890467035396,0.0002944384431396759,0.0002944384431396759
103,0.9956688440783868,0.013160167785828814,0.015619654312901235,0.00038742053,0.9945684972842487,0.014005012353132232,0.016031066192663625,0.0010471011072666456,0.0010471011072666456,0.0005862484305636709,0.0005862484305636709,0.00023773231582909174,0.00023773231582909174,0.001134431959434241,0.001134431959434241,0.0008579900336928442,0.0008579900336928442,0.00031230339742791983,0.00031230339742791983
104,0.9951363249076967,0.013838726934468696,0.016211339685368545,0.00038742053,0.996177831422249,0.011033817324391716,0.013067299200907975,0.0009302900645738006,0.0009302900645738006,0.0007134659336245432,0.0007134659336245432,0.00023547162727734404,0.00023547162727734404,0.0010817320365472366,0.0010817320365472366,0.0008261654959877696,0.0008261654959877696,0.0003099294314392716,0.0003099294314392716
105,0.9955623402442488,0.013744769756055155,0.016048044237568147,0.00038742053,0.992154496077248,0.018068735851629446,0.020385864129399772,0.0010999952256717006,0.0010999952256717006,0.0008082435756052552,0.0008082435756052552,0.00025399142506196215,0.00025399142506196215,0.001034710221672798,0.001034710221672798,0.0008368985523858594,0.0008368985523858594,0.000276821231086926,0.000276821231086926
106,0.996059358136893,0.011699210130014783,0.013967393772635655,0.00038742053,0.9962784148058741,0.011305145182229746,0.013026285816615009,0.0007650822074493696,0.0007650822074493696,0.0006118824534195739,0.0006118824534195739,0.00018820094426313453,0.00018820094426313453,0.0010405972007442121,0.0010405972007442121,0.0007771856221845475,0.0007771856221845475,0.00029475503852200856,0.00029475503852200856
107,0.9954380857710877,0.013549825952354036,0.015912107394359377,0.00038742053,0.9971836652584993,0.010790822815556433,0.01286641452711595,0.0009461209859156255,0.0009461209859156255,0.0007343153775689025,0.0007343153775689025,0.0002394672691172892,0.0002394672691172892,0.0010410617744680362,0.0010410617744680362,0.0008862130212193575,0.0008862130212193575,0.00027926300379761394,0.00027926300379761394
108,0.9959528543027549,0.011935562132244129,0.014182961170733673,0.00034867847,0.9947696640514987,0.014436619535159826,0.016782026359572738,0.0011666075206152628,0.0011666075206152628,0.0007211755014307013,0.0007211755014307013,0.0003013792671279143,0.0003013792671279143,0.0009963973626424959,0.0009963973626424959,0.0008206235699640267,0.0008206235699640267,0.0002744635344802084,0.0002744635344802084
109,0.9962013632490769,0.012296108136683243,0.014575459741360014,0.00034867847,0.9969824984912492,0.009372546570182355,0.011219062638777982,0.0008340699790485707,0.0008340699790485707,0.0006459347688514705,0.0006459347688514705,0.0002100295911535542,0.0002100295911535542,0.000977242243510573,0.000977242243510573,0.0008714871165724368,0.0008714871165724368,0.0002743185944107697,0.0002743185944107697
110,0.996449872195399,0.010347022086589467,0.012492175021622972,0.00034867847,0.9925568296117482,0.023385608427575304,0.025518308233003596,0.0009715862856170653,0.0009715862856170653,0.0007622993779710381,0.0007622993779710381,0.00024166075716236044,0.00024166075716236044,0.0009704738760848881,0.0009704738760848881,0.0007466694907610755,0.0007466694907610755,0.00027119209540822653,0.00027119209540822653
111,0.9959173530247089,0.011897380538852581,0.014177540068757858,0.00034867847,0.9951719975859988,0.014738258191809421,0.01640181841154129,0.0007049990362406985,0.0007049990362406985,0.0006020163709470702,0.0006020163709470702,0.00019967879245479805,0.00019967879245479805,0.0010374627356148657,0.0010374627356148657,0.0007964912572181805,0.0007964912572181805,0.0002894016981919352,0.0002894016981919352
112,0.9953138312979267,0.013474599792964172,0.01570603709170949,0.00034867847,0.9971836652584993,0.0095407654129224,0.011504428986526668,0.0007278951108717481,0.0007278951108717481,0.0008645786803179302,0.0008645786803179302,0.00021409564058048224,0.00021409564058048224,0.0009722562306450889,0.0009722562306450889,0.0008309020806457662,0.0008309020806457662,0.0002711318286258651,0.0002711318286258651
113,0.996236864527123,0.010214841487886855,0.012399984914270206,0.00034867847,0.9973848320257493,0.010096300124495533,0.011925700249712824,0.0006602082251726808,0.0006602082251726808,0.0008020101471039596,0.0008020101471039596,0.00020952255588999643,0.00020952255588999643,0.0009240898533177806,0.0009240898533177806,0.0008532327515324417,0.0008532327515324417,0.00025029989005569196,0.00025029989005569196
114,0.9957753479125249,0.012087921498434656,0.014334326850875455,0.00034867847,0.9953731643532489,0.014406151885728486,0.01642377245714099,0.0010244578836760025,0.0010244578836760025,0.0005755311489970365,0.0005755311489970365,0.0002605455623433036,0.0002605455623433036,0.000954039155554812,0.000954039155554812,0.0008564339553556238,0.0008564339553556238,0.00027865929150767553,0.00027865929150767553
115,0.9959883555808009,0.01154338469158346,0.013718962405090601,0.00031381063,0.9983906658619996,0.0072358434534517575,0.009232665518730776,0.0008154810800571561,0.0008154810800571561,0.0007941907627191866,0.0007941907627191866,0.00022968858407690988,0.00022968858407690988,0.0009594991514833858,0.0009594991514833858,0.0007849200866755075,0.0007849200866755075,0.0002738888214909585,0.0002738888214909585
116,0.9965208747514911,0.010872945415225009,0.012892522500772758,0.00031381063,0.9971836652584993,0.011164887453920068,0.012683883226695624,0.0006874690821871695,0.0006874690821871695,0.00047968697282286133,0.00047968697282286133,0.00019424301974539177,0.00019424301974539177,0.0008687890604242209,0.0008687890604242209,0.0007467147371559085,0.0007467147371559085,0.0002465810123525241,0.0002465810123525241
117,0.9960948594149389,0.01058403333875566,0.012684889846907963,0.00031381063,0.9969824984912492,0.009150469718919587,0.010594127392289541,0.0006259970422317068,0.0006259970422317068,0.0004831392782664605,0.0004831392782664605,0.00017655971544440222,0.00017655971544440222,0.000972037072564698,0.000972037072564698,0.0006900569038150139,0.0006900569038150139,0.0002810119115177379,0.0002810119115177379
118,0.9966096279466061,0.010059382820452883,0.012022391730199762,0.00031381063,0.9967813317239992,0.00832626591128409,0.009866447064542577,0.0006988850757726035,0.0006988850757726035,0.00050659081425568,0.00050659081425568,0.00017630420054432814,0.00017630420054432814,0.0008495145878567485,0.0008495145878567485,0.0007102789535456013,0.0007102789535456013,0.0002450596377979812,0.0002450596377979812
119,0.996485373473445,0.011173986432688765,0.013192422922701933,0.00031381063,0.9969824984912492,0.009200094545130428,0.011856052152129773,0.0009558215159118633,0.0009558215159118633,0.0012664038277961545,0.0012664038277961545,0.0002756403487092414,0.0002756403487092414,0.0008479909652742394,0.0008479909652742394,0.0007700090208092619,0.0007700090208092619,0.00024183380638215007,0.00024183380638215007
120,0.996591877307583,0.009973269622778455,0.011991491518585126,0.00031381063,0.995775497887749,0.010628481927315813,0.012936000543787214,0.0010164803688318283,0.0010164803688318283,0.0008331951296671808,0.0008331951296671808,0.00029949009164462805,0.00029949009164462805,0.0008706165396102868,0.0008706165396102868,0.0007439084071812513,0.0007439084071812513,0.0002452782214403819,0.0002452782214403819
121,0.9965208747514911,0.010346063704551158,0.01237673599482289,0.00028242957,0.9955743311204989,0.01324672182765008,0.01513222499450418,0.0006288585603207457,0.0006288585603207457,0.0009230050227121066,0.0009230050227121066,0.00017490904623007045,0.00017490904623007045,0.0008529577030113475,0.0008529577030113475,0.0007772786409083466,0.0007772786409083466,0.00024175430469601799,0.00024175430469601799
122,0.996254615166146,0.010732085968212707,0.012609050429101255,0.00028242957,0.9971836652584993,0.009109662629268114,0.010592605569423312,0.0006815216339777258,0.0006815216339777258,0.00045868555771774554,0.00045868555771774554,0.0001842202290853632,0.0001842202290853632,0.000793941091654387,0.000793941091654387,0.0006927156732601268,0.0006927156732601268,0.00023170690038480782,0.00023170690038480782
123,0.9970533939221812,0.00943869480882657,0.011285176978804155,0.00028242957,0.9899416616374975,0.033871032155016516,0.03628729865727023,0.0007697929135281281,0.0007697929135281281,0.0012821200482314124,0.0012821200482314124,0.0002054101952566826,0.0002054101952566826,0.0008166981220531242,0.0008166981220531242,0.0006382692550300926,0.0006382692550300926,0.0002326081978252988,0.0002326081978252988
124,0.9967161317807441,0.009672452013652123,0.01145797868689105,0.00028242957,0.996177831422249,0.011448074566504334,0.012922627232452468,0.0006610445389689908,0.0006610445389689908,0.00046957163670674224,0.00046957163670674224,0.00018493907300924723,0.00018493907300924723,0.0007850669895597909,0.0007850669895597909,0.0006219404387944165,0.0006219404387944165,0.00021933396377251595,0.00021933396377251595
125,0.9965208747514911,0.009850086410839717,0.011699978725003907,0.00028242957,0.9960772480386241,0.011085135232947095,0.013506826251730985,0.0009109615366604761,0.0009109615366604761,0.001118802502535428,0.001118802502535428,0.00023248512455287606,0.00023248512455287606,0.0007836034564956129,0.0007836034564956129,0.0006771134492335034,0.0006771134492335034,0.00023001084182045585,0.00023001084182045585
126,0.9971598977563192,0.008605326066322864,0.010301983865096058,0.0002541866,0.9979883323274995,0.008869289011288037,0.010310096341912007,0.0006393769937479358,0.0006393769937479358,0.00044388949437614635,0.00044388949437614635,0.0001977221769576114,0.0001977221769576114,0.0007475845680441336,0.0007475845680441336,0.0005723142662866693,0.0005723142662866693,0.00021698307126704822,0.00021698307126704822
127,0.9971066458392502,0.008973402342539382,0.010770594356405011,0.0002541866,0.9933614966807484,0.02352013066939334,0.025473640496583832,0.0009731576831729285,0.0009731576831729285,0.0005624661639026827,0.0005624661639026827,0.00025802535904831647,0.00025802535904831647,0.0007735714132056586,0.0007735714132056586,0.0006443607683605356,0.0006443607683605356,0.000219501631540209,0.000219501631540209
128,0.9966983811417212,0.009021259229594621,0.010761054977802723,0.0002541866,0.9973848320257493,0.006982425359311782,0.008775201443267273,0.00071738293797064,0.00071738293797064,0.0007168519410283039,0.0007168519410283039,0.0001984574555374796,0.0001984574555374796,0.0007711750509916039,0.0007711750509916039,0.0005936469132894912,0.0005936469132894912,0.0002151024573969558,0.0002151024573969558
129,0.9972309003124112,0.008632991762974706,0.010502116083345307,0.0002541866,0.9981894990947495,0.008745435335734325,0.01116581146072861,0.0007638814720159647,0.0007638814720159647,0.001233588743453639,0.001233588743453639,0.0002626358572371723,0.0002626358572371723,0.0008243915649350216,0.0008243915649350216,0.0006483716615504561,0.0006483716615504561,0.00023644271075336286,0.00023644271075336286
130,0.9970001420051122,0.008481151120793423,0.010297356659044066,0.0002541866,0.9965801649567492,0.010200555629622583,0.012472533370264952,0.0012517230756245658,0.0012517230756245658,0.0005572046066243239,0.0005572046066243239,0.0003030845564957281,0.0003030845564957281,0.0008158326258729583,0.0008158326258729583,0.0006032189477549559,0.0006032189477549559,0.00023722207240211353,0.00023722207240211353
131,0.9969646407270661,0.008760556484430141,0.010496986737284752,0.0002541866,0.9969824984912492,0.007437924923694332,0.009274804799698909,0.0008344980626948009,0.0008344980626948009,0.0006455812793062945,0.0006455812793062945,0.0001971323473955624,0.0001971323473955624,0.0007417474480710234,0.0007417474480710234,0.0006215821293812764,0.0006215821293812764,0.00021341564901184663,0.00021341564901184663
132,0.9973374041465493,0.008129375959257177,0.009864310460376483,0.0002541866,0.9975859987929994,0.008761504856938988,0.010048870781889577,0.0005566554421749513,0.0005566554421749513,0.00041384858723180536,0.00041384858723180536,0.00015690958981372805,0.00015690958981372805,0.0007608147919240391,0.0007608147919240391,0.0006027098160811678,0.0006027098160811678,0.0002116316434869327,0.0002116316434869327
133,0.9971243964782732,0.008818819091181688,0.010550056679384717,0.0002541866,0.995976664654999,0.012563787536110971,0.01583846798639694,0.0015492982551825703,0.0015492982551825703,0.0010322150774900209,0.0010322150774900209,0.000533316208649202,0.000533316208649202,0.0007074918549565254,0.0007074918549565254,0.0006585097482606359,0.0006585097482606359,0.00020535052551297537,0.00020535052551297537
134,0.9975149105367793,0.007602862787779059,0.009284402568704504,0.00022876794,0.9965801649567492,0.009610485662842845,0.01108643079423474,0.0006518554924349326,0.0006518554924349326,0.0004782149429301188,0.0004782149429301188,0.00018515182295048387,0.00018515182295048387,0.0007122957891132207,0.0007122957891132207,0.0006062296779413664,0.0006062296779413664,0.00020255802998737612,0.00020255802998737612
135,0.9968936381709742,0.008519384517262526,0.010192642069360013,0.00022876794,0.9985918326292497,0.008058501782036964,0.009514337659891589,0.0006128935826141118,0.0006128935826141118,0.0005126896404860393,0.0005126896404860393,0.00016976596606491163,0.00016976596606491163,0.0007178814756209987,0.0007178814756209987,0.0005809697442646715,0.0005809697442646715,0.0002138400888635668,0.0002138400888635668
136,0.9976569156489634,0.007775688042890848,0.009435121527868615,0.00022876794,0.995976664654999,0.009747969558646073,0.01145572897459539,0.0006972875709654958,0.0006972875709654958,0.0006798325973779334,0.0006798325973779334,0.00016980592371256152,0.00016980592371256152,0.0007146870459127342,0.0007146870459127342,0.0005819339471740737,0.0005819339471740737,0.00020197826279839154,0.00020197826279839154
137,0.9971421471172962,0.007725742064689308,0.009427680821901317,0.00022876794,0.9942667471333736,0.02068488945532981,0.022436221763392335,0.0008010516613318809,0.0008010516613318809,0.0005838403572520002,0.0005838403572520002,0.00020533521456970024,0.00020533521456970024,0.0007134928594859595,0.0007134928594859595,0.000625455606639063,0.000625455606639063,0.00020205223295369782,0.00020205223295369782
138,0.9974794092587334,0.007659065562578455,0.009335146720026659,0.00022876794,0.9949708308187487,0.016638888267564038,0.018102163986299727,0.0006574363301954868,0.0006574363301954868,0.0004787464586426707,0.0004787464586426707,0.00016550407516068317,0.00016550407516068317,0.0006992463325277191,0.0006992463325277191,0.0006141912217448111,0.0006141912217448111,0.00020125664592818534,0.00020125664592818534
139,0.9976924169270094,0.006794754010886958,0.008395099881946186,0.00020589115,0.9975859987929994,0.008167178312491237,0.009848644429740233,0.0007160725598395168,0.0007160725598395168,0.0005950303379987901,0.0005950303379987901,0.00020843876273207417,0.00020843876273207417,0.0006863426501213617,0.0006863426501213617,0.0005593922632262007,0.0005593922632262007,0.0001930022169577663,0.0001930022169577663
140,0.9973374041465493,0.007983174298525813,0.009643994584697854,0.00020589115,0.9983906658619996,0.008828951171573615,0.010634047217090811,0.0008794338325595173,0.0008794338325595173,0.0005459120447740477,0.0005459120447740477,0.00021788958995788035,0.00021788958995788035,0.0007332746051999818,0.0007332746051999818,0.0005611213535006715,0.0005611213535006715,0.00020450898263781365,0.00020450898263781365
141,0.9979054245952854,0.00709856161911722,0.008614947875122585,0.00020589115,0.995775497887749,0.016904541934008175,0.018241800525769205,0.0005656749155599358,0.0005656749155599358,0.000444378436101976,0.000444378436101976,0.00016468706189506316,0.00016468706189506316,0.0006767948089382204,0.0006767948089382204,0.0004923988469056242,0.0004923988469056242,0.0001850729884971672,0.0001850729884971672
142,0.9977279182050554,0.0070679277887036795,0.00867780259239652,0.00020589115,0.9971836652584993,0.009179565127921565,0.010485410945620399,0.0005409999270022277,0.0005409999270022277,0.00044085879035480843,0.00044085879035480843,0.00016146425705500654,0.00016146425705500654,0.0007007757789049549,0.0007007757789049549,0.0005463092947523782,0.0005463092947523782,0.00020023876936705985,0.00020023876936705985
143,0.9975149105367793,0.007648860560559741,0.009225238118174498,0.00020589115,0.9981894990947495,0.00884200988920212,0.011142852076156366,0.0008567519515030881,0.0008567519515030881,0.001022463664510565,0.001022463664510565,0.0002591936257667664,0.0002591936257667664,0.000680331913666954,0.000680331913666954,0.0005379874938013574,0.0005379874938013574,0.00019563918197968238,0.00019563918197968238
